<!DOCTYPE html PUBLIC "-//W3C//DTD XHTML 1.0 Transitional//EN" "http://www.w3.org/TR/xhtml1/DTD/xhtml1-transitional.dtd">
<html xmlns="http://www.w3.org/1999/xhtml" xml:lang="en" lang="en" dir="ltr">
  <head>
    <meta http-equiv="Content-Type" content="text/html; charset=utf-8" />
<link href="http://fonts.googleapis.com/css?family=Roboto:300" rel="stylesheet" type="text/css" />
<link rel="shortcut icon" href="https://www.borosolutions.net/sites/default/files/RadarRingsAndAnchor_Simplified_273x273_0.jpg" type="image/jpeg" />
<link rel="canonical" href="/content/front-page" />
<meta name="Generator" content="Drupal 7 (http://drupal.org)" />
<link rel="shortlink" href="/node/47" />
    <title>BORO | Home</title>
    <!-- META FOR IOS & HANDHELD -->
    <meta name="viewport" content="width=device-width, initial-scale=1.0, maximum-scale=1.0, user-scalable=yes"/>
    <meta name="HandheldFriendly" content="true" />
    <meta name="apple-touch-fullscreen" content="YES" />
    <!-- //META FOR IOS & HANDHELD -->
    <link type="text/css" rel="stylesheet" href="https://www.borosolutions.net/sites/default/files/css/css_xE-rWrJf-fncB6ztZfd2huxqgxu4WO-qwma6Xer30m4.css" media="all" />
<link type="text/css" rel="stylesheet" href="https://www.borosolutions.net/sites/default/files/css/css_HPDIMc9gpeqs_5F-AGbQLFeN2hybD_pibCCgFGtaKXI.css" media="all" />
<link type="text/css" rel="stylesheet" href="https://www.borosolutions.net/sites/default/files/css/css_uhkfVzUcpWYVLzWe8vzXbDa_JXwX26uDV-lP5h98wXE.css" media="all" />
<link type="text/css" rel="stylesheet" href="https://www.borosolutions.net/sites/default/files/css/css_8wwFgbK-mElEYnCsIRdzaRpP6zHfrwuMvlzWQXuCP6E.css" media="only screen and (max-width:320px)" />
<link type="text/css" rel="stylesheet" href="https://www.borosolutions.net/sites/default/files/css/css_FaHbZqpYysQSV1oF4uOhRRJqtgGg5GnWEVjdePSFsyc.css" media="only screen and (max-width:767px)" />
<link type="text/css" rel="stylesheet" href="https://www.borosolutions.net/sites/default/files/css/css_JrMobCFia4YWyb1wM_FV3JL_o6g7cgX4XW12eDPwNfw.css" media="only screen and (min-width: 768px) and (max-width: 991px)" />
<link type="text/css" rel="stylesheet" href="https://www.borosolutions.net/sites/default/files/css/css_q5ORzCVUDSjL-gT5FwL6Ny1io7A9xlKPRZlbHy4Cyrk.css" media="all" />
<link type="text/css" rel="stylesheet" href="https://www.borosolutions.net/sites/default/files/css/css_cKySjpnDh7e0k5lxqaiDvTVZUW2IoCNy1wCLQYdXh5A.css" media="only screen and (min-width: 992px) and (max-width: 1024px)" />
<link type="text/css" rel="stylesheet" href="https://www.borosolutions.net/sites/default/files/css/css_3oyD9dkSMp7GaeUeM8OOjhra9ZTPC8RbJi7j8I5mPZA.css" media="all" />
<link type="text/css" rel="stylesheet" href="https://www.borosolutions.net/sites/default/files/css/css_fSdgceYAtZSWLaYxeZK6z-F2IacvjcBoEnsIlR4m9Hs.css" media="all" />
<link type="text/css" rel="stylesheet" href="https://www.borosolutions.net/sites/default/files/css/css_krs5d_cC0mMq8JTxDLtyLUtk4iudBQ5dHhC4BELXq3Q.css" media="all" />
<link type="text/css" rel="stylesheet" href="https://www.borosolutions.net/sites/default/files/css/css_tel_ttLCVjzwtuPoPwNwI8KNnoBjIIT_Fy3DUR3U-2Y.css" media="all" />
<link type="text/css" rel="stylesheet" href="https://www.borosolutions.net/sites/default/files/css/css_uO8jFMBKGI8cKwyuAkvOrsq-LqkM0I2KQQHSbo2SqIQ.css" media="print" />
    <script type="text/javascript" src="https://www.borosolutions.net/sites/default/files/js/js_X8MOcjBMs0Vcl7HCRxa1tg0Jl9tCAk5Et76eFweKNM0.js"></script>
<script type="text/javascript" src="https://www.borosolutions.net/sites/default/files/js/js_lNGxxog-Kr67LwACEzngdwSWc2vucx9xdF4Xb7FbzZg.js"></script>
<script type="text/javascript" src="https://www.borosolutions.net/sites/default/files/js/js_kRvZ8TSQ18RpqCmER2eU6GuScfOBtSd_LCFkkAsBwTY.js"></script>
<script type="text/javascript">
<!--//--><![CDATA[//><!--
(function(i,s,o,g,r,a,m){i["GoogleAnalyticsObject"]=r;i[r]=i[r]||function(){(i[r].q=i[r].q||[]).push(arguments)},i[r].l=1*new Date();a=s.createElement(o),m=s.getElementsByTagName(o)[0];a.async=1;a.src=g;m.parentNode.insertBefore(a,m)})(window,document,"script","https://www.borosolutions.net/sites/default/files/googleanalytics/analytics.js?q1vloa","ga");ga("create", "UA-96351694-1", {"cookieDomain":"auto"});ga("require", "linkid", "linkid.js");ga("require", "displayfeatures");ga("set", "anonymizeIp", true);ga("set", "page", location.pathname + location.search + location.hash);ga("send", "pageview");
//--><!]]>
</script>
<script type="text/javascript" src="https://www.borosolutions.net/sites/default/files/js/js_jd9U4uiidR1rqkZkQsSfQjFucKR3dVX9VpZRwmuDf4o.js"></script>
<script type="text/javascript" src="https://www.borosolutions.net/sites/default/files/js/js_UBlEt30HVn_uXY3r8IthApEF6gvR31pi5sjDVcfI89w.js"></script>
<script type="text/javascript">
<!--//--><![CDATA[//><!--
jQuery.extend(Drupal.settings, {"basePath":"\/","pathPrefix":"","ajaxPageState":{"theme":"boro_tb_uber","theme_token":"PX3UCXmpWOkVHWfG5cgFoGFdlb4jhe928s_DCMOnY1w","js":{"0":1,"modules\/statistics\/statistics.js":1,"public:\/\/google_tag\/google_tag.script.js":1,"sites\/all\/modules\/jquery_update\/replace\/jquery\/1.10\/jquery.min.js":1,"misc\/jquery-extend-3.4.0.js":1,"misc\/jquery.once.js":1,"misc\/drupal.js":1,"sites\/all\/modules\/tb_megamenu\/js\/tb-megamenu-frontend.js":1,"sites\/all\/modules\/tb_megamenu\/js\/tb-megamenu-touch.js":1,"sites\/all\/modules\/google_analytics\/googleanalytics.js":1,"1":1,"sites\/all\/themes\/tb_uber\/tpl\/anb\/hero\/style-4\/hero4.js":1,"sites\/all\/themes\/tb_uber\/tpl\/anb\/fi\/js\/jquery.matchHeights.min.js":1,"sites\/all\/themes\/tb_uber\/tpl\/anb\/fi\/js\/fi.js":1,"sites\/all\/themes\/tb_uber\/tpl\/anb\/fi\/style-5\/js\/jquery.cycle.all.js":1,"sites\/all\/themes\/tb_uber\/tpl\/anb\/fi\/style-5\/js\/jquery.inview.min.js":1,"sites\/all\/themes\/tb_uber\/tpl\/anb\/fi\/style-5\/js\/fi-5.js":1,"sites\/all\/themes\/tb_uber\/tpl\/anb\/cta\/js\/cta.js":1,"sites\/all\/themes\/tb_uber\/tpl\/anb\/cta\/js\/jquery.inview.min.js":1,"sites\/all\/themes\/tb_uber\/tpl\/anb\/cta\/js\/jquery.parallax-1.1.3.js":1,"sites\/all\/themes\/tb_uber\/bootstrap\/js\/bootstrap.js":1,"sites\/all\/themes\/tb_uber\/js\/jquery.smooth-scroll.js":1,"sites\/all\/themes\/tb_uber\/js\/jquery.matchHeights.min.js":1,"sites\/all\/themes\/tb_uber\/js\/jquery-migrate-1.2.1.js":1,"sites\/all\/themes\/tb_uber\/js\/tb_uber.js":1},"css":{"modules\/system\/system.base.css":1,"modules\/system\/system.menus.css":1,"modules\/system\/system.messages.css":1,"modules\/system\/system.theme.css":1,"modules\/book\/book.css":1,"modules\/comment\/comment.css":1,"modules\/field\/theme\/field.css":1,"modules\/node\/node.css":1,"modules\/search\/search.css":1,"modules\/user\/user.css":1,"sites\/all\/modules\/views\/css\/views.css":1,"sites\/all\/modules\/ctools\/css\/ctools.css":1,"sites\/all\/modules\/panels\/css\/panels.css":1,"sites\/all\/modules\/tb_megamenu\/css\/bootstrap.css":1,"sites\/all\/modules\/tb_megamenu\/css\/base.css":1,"sites\/all\/modules\/tb_megamenu\/css\/default.css":1,"sites\/all\/modules\/tb_megamenu\/css\/compatibility.css":1,"sites\/all\/modules\/tb_megamenu\/css\/styles\/blue.css":1,"sites\/all\/themes\/tb_uber\/tpl\/anb\/fi\/css\/fi-default.css":1,"sites\/all\/themes\/tb_uber\/tpl\/anb\/fi\/css\/fi.css":1,"sites\/all\/themes\/tb_uber\/tpl\/anb\/fi\/style-5\/css\/fi-5.css":1,"sites\/all\/themes\/tb_uber\/tpl\/anb\/cta\/css\/cta.css":1,"sites\/all\/themes\/tb_uber\/tpl\/anb\/cta\/css\/cta.mobile.vertical.css":1,"sites\/all\/themes\/tb_uber\/tpl\/anb\/cta\/css\/cta.mobile.css":1,"sites\/all\/themes\/tb_uber\/tpl\/anb\/cta\/css\/cta.tablet.vertical.css":1,"sites\/all\/themes\/tb_uber\/css\/html-elements.css":1,"sites\/all\/themes\/tb_uber\/tpl\/anb\/cta\/css\/cta.tablet.css":1,"sites\/all\/libraries\/fontawesome\/css\/font-awesome.css":1,"sites\/all\/themes\/tb_uber\/css\/forms.css":1,"sites\/all\/themes\/tb_uber\/css\/page.css":1,"sites\/all\/themes\/tb_uber\/css\/comments.css":1,"sites\/all\/themes\/tb_uber\/css\/views.css":1,"sites\/all\/themes\/tb_uber\/css\/forums.css":1,"sites\/all\/themes\/tb_uber\/css\/fields.css":1,"sites\/all\/themes\/tb_uber\/css\/blocks.css":1,"sites\/all\/themes\/tb_uber\/css\/navigation.css":1,"sites\/all\/themes\/tb_uber\/bootstrap\/css\/bootstrap-theme.min.css":1,"sites\/all\/themes\/tb_uber\/tpl\/anb\/css\/responsive.css":1,"sites\/all\/themes\/tb_uber\/tpl\/anb\/css\/uber.bootstrap.css":1,"sites\/all\/themes\/tb_uber\/tpl\/anb\/css\/uber.core.css":1,"sites\/all\/themes\/tb_uber\/tpl\/anb\/css\/uber.css":1,"sites\/all\/themes\/tb_uber\/tpl\/anb\/css\/uber.typography.css":1,"sites\/all\/themes\/tb_uber\/tpl\/anb\/css\/uber.forms.css":1,"sites\/all\/themes\/tb_uber\/tpl\/anb\/css\/off-canvas.css":1,"sites\/all\/themes\/tb_uber\/tpl\/anb\/css\/uber.common.css":1,"sites\/all\/themes\/tb_uber\/tpl\/anb\/hero\/hero.css":1,"sites\/all\/themes\/tb_uber\/css\/custom.css":1,"sites\/all\/themes\/tb_uber\/css\/css3.css":1,"sites\/all\/themes\/tb_uber\/css\/print.css":1}},"googleanalytics":{"trackOutbound":1,"trackMailto":1,"trackDownload":1,"trackDownloadExtensions":"7z|aac|arc|arj|asf|asx|avi|bin|csv|doc(x|m)?|dot(x|m)?|exe|flv|gif|gz|gzip|hqx|jar|jpe?g|js|mp(2|3|4|e?g)|mov(ie)?|msi|msp|pdf|phps|png|ppt(x|m)?|pot(x|m)?|pps(x|m)?|ppam|sld(x|m)?|thmx|qtm?|ra(m|r)?|sea|sit|tar|tgz|torrent|txt|wav|wma|wmv|wpd|xls(x|m|b)?|xlt(x|m)|xlam|xml|z|zip","trackUrlFragments":1},"urlIsAjaxTrusted":{"\/":true},"statistics":{"data":{"nid":"47"},"url":"\/modules\/statistics\/statistics.php"}});
//--><!]]>
</script>
  </head>

  <body class="html front not-logged-in no-sidebars page-node page-node- page-node-47 node-type-advanced-page">
    <div id="skip-link"><a href="#main-content" class="element-invisible element-focusable">Skip to main content</a></div>
    <noscript aria-hidden="true"><iframe src="https://www.googletagmanager.com/ns.html?id=GTM-ND5NN4C" height="0" width="0" style="display:none;visibility:hidden"></iframe></noscript>    
<div id="page" class="page-default">
  <a name="Top" id="Top"></a>
  
  <div id="right-sidebar-wrapper" class="uber-off-canvas off-canvas-effect-4 off-canvas-right">  
        <div class="uber-off-canvas-header">
      <div class="head-search ">
        <div class="region region-right-sidebar-header">
    <div id="block-search-form" class="block block-search">

    
  <div class="content">
    <form action="/" method="post" id="search-block-form" accept-charset="UTF-8"><div><div class="container-inline">
      <h2 class="element-invisible">Search form</h2>
    <div class="form-item form-type-textfield form-item-search-block-form">
  <label class="element-invisible" for="edit-search-block-form--2">Search </label>
 <input title="Enter the terms you wish to search for." type="text" id="edit-search-block-form--2" name="search_block_form" value="" size="15" maxlength="128" class="form-text" />
</div>
<div class="form-actions form-wrapper" id="edit-actions"><input type="submit" id="edit-submit" name="op" value="Search" class="form-submit" /></div><input type="hidden" name="form_build_id" value="form-IHYAesTW2Hft-D1vJP7WrbFzyJzoyl1dg-G8YhzmsmY" />
<input type="hidden" name="form_id" value="search_block_form" />
</div>
</div></form>  </div>
</div>
  </div>
      </div>

      <button type="button" class="close" data-dismiss="modal" aria-hidden="true">×</button>
    </div>
            <div class="uber-off-canvas-body">  <div class="region region-right-sidebar-body">
    <div id="block-menu-menu-right-sidebar-menu" class="block block-menu">

    <h2>BORO</h2>
  
  <div class="content">
    <ul class="menu"><li class="first expanded"><a href="/what-boro">what is boro</a><ul class="menu"><li class="first leaf"><a href="/boro-approach" title="">boro - the approach</a></li>
<li class="leaf"><a href="/who-works-boro" title="">who works on boro</a></li>
<li class="last leaf"><a href="/how-boro-has-been-used-0" title="">how boro has been used</a></li>
</ul></li>
<li class="expanded"><a href="/who-boro-solutions-1">who is boro solutions</a><ul class="menu"><li class="first leaf"><a href="/about-boro-solutions" title="">about - boro solutions</a></li>
<li class="leaf"><a href="/who-we-are" title="">who we are</a></li>
<li class="last leaf"><a href="/how-we-work" title="">how we work</a></li>
</ul></li>
<li class="last leaf"><a href="/boro-resources-0">boro resources</a></li>
</ul>  </div>
</div>
  </div>
</div>
      </div>
  <div id="page-content">
  <!-- HEADER -->
  <div id="header-wrapper" class="wrapper">
    <div class="grid-inner clearfix">
      <div id="header" class="clearfix row">

        <div id="logo-name-and-slogan">
                      <a href="/" title="Home" id="logo">
              <img src="https://www.borosolutions.net/sites/default/files/boro_logo_blue_on_white_40x55.png" alt="Home" />
            </a>
          
                  </div>

                  <!-- MAIN NAV -->
          <div id="menu-bar-wrapper">
              <div class="region region-menu-bar">
    <div id="block-tb-megamenu-main-menu" class="block block-tb-megamenu">

    
  <div class="content">
    <div  class="tb-megamenu tb-megamenu-main-menu style-blue">
      <button data-target=".nav-collapse" data-toggle="collapse" class="btn btn-navbar tb-megamenu-button" type="button">
      <i class="fa fa-reorder"></i>
    </button>
    <div class="nav-collapse  always-show">
    <ul  class="tb-megamenu-nav nav level-0 items-6">
  <li  data-id="3185" data-level="1" data-type="menu_item" data-class="" data-xicon="" data-caption="" data-alignsub="" data-group="0" data-hidewcol="0" data-hidesub="0" class="tb-megamenu-item level-1 mega dropdown">
  <a href="/what-boro"  class="dropdown-toggle">
        
    what is boro          <span class="caret"></span>
          </a>
  <div  data-class="" data-width="" class="tb-megamenu-submenu dropdown-menu mega-dropdown-menu nav-child">
  <div class="mega-dropdown-inner">
    <div  class="tb-megamenu-row row-fluid">
  <div  data-class="" data-width="12" data-hidewcol="0" id="tb-megamenu-column-1" class="tb-megamenu-column span12  mega-col-nav">
  <div class="tb-megamenu-column-inner mega-inner clearfix">
        <ul  class="tb-megamenu-subnav mega-nav level-1 items-3">
  <li  data-id="3188" data-level="2" data-type="menu_item" data-class="" data-xicon="" data-caption="" data-alignsub="" data-group="0" data-hidewcol="0" data-hidesub="0" class="tb-megamenu-item level-2 mega">
  <a href="/boro-approach" >
        
    boro - the approach          </a>
  </li>

<li  data-id="3189" data-level="2" data-type="menu_item" data-class="" data-xicon="" data-caption="" data-alignsub="" data-group="0" data-hidewcol="0" data-hidesub="0" class="tb-megamenu-item level-2 mega">
  <a href="/who-works-boro" >
        
    who works on boro          </a>
  </li>

<li  data-id="2590" data-level="2" data-type="menu_item" data-class="" data-xicon="" data-caption="" data-alignsub="" data-group="0" data-hidewcol="0" data-hidesub="0" class="tb-megamenu-item level-2 mega">
  <a href="/how-boro-has-been-used-0" >
        
    how boro has been used          </a>
  </li>
</ul>
  </div>
</div>
</div>
  </div>
</div>
</li>

<li  data-id="3192" data-level="1" data-type="menu_item" data-class="" data-xicon="" data-caption="" data-alignsub="" data-group="0" data-hidewcol="0" data-hidesub="0" class="tb-megamenu-item level-1 mega dropdown">
  <a href="/who-boro-solutions-1"  class="dropdown-toggle">
        
    who is boro solutions          <span class="caret"></span>
          </a>
  <div  data-class="" data-width="" class="tb-megamenu-submenu dropdown-menu mega-dropdown-menu nav-child">
  <div class="mega-dropdown-inner">
    <div  class="tb-megamenu-row row-fluid">
  <div  data-class="" data-width="12" data-hidewcol="0" id="tb-megamenu-column-2" class="tb-megamenu-column span12  mega-col-nav">
  <div class="tb-megamenu-column-inner mega-inner clearfix">
        <ul  class="tb-megamenu-subnav mega-nav level-1 items-3">
  <li  data-id="2592" data-level="2" data-type="menu_item" data-class="" data-xicon="" data-caption="" data-alignsub="" data-group="0" data-hidewcol="0" data-hidesub="0" class="tb-megamenu-item level-2 mega">
  <a href="/about-boro-solutions" >
        
    about - boro solutions          </a>
  </li>

<li  data-id="1920" data-level="2" data-type="menu_item" data-class="" data-xicon="" data-caption="" data-alignsub="" data-group="0" data-hidewcol="0" data-hidesub="0" class="tb-megamenu-item level-2 mega">
  <a href="/who-we-are"  title="Welcome to our hardworking team">
        
    who we are          </a>
  </li>

<li  data-id="3191" data-level="2" data-type="menu_item" data-class="" data-xicon="" data-caption="" data-alignsub="" data-group="0" data-hidewcol="0" data-hidesub="0" class="tb-megamenu-item level-2 mega">
  <a href="/how-we-work" >
        
    how we work          </a>
  </li>
</ul>
  </div>
</div>
</div>
  </div>
</div>
</li>

<li  data-id="3123" data-level="1" data-type="menu_item" data-class="" data-xicon="" data-caption="" data-alignsub="" data-group="0" data-hidewcol="0" data-hidesub="0" class="tb-megamenu-item level-1 mega dropdown">
  <a href="/boro-resources-0"  class="dropdown-toggle">
        
    boro resources          <span class="caret"></span>
          </a>
  <div  data-class="" data-width="" class="tb-megamenu-submenu dropdown-menu mega-dropdown-menu nav-child">
  <div class="mega-dropdown-inner">
    <div  class="tb-megamenu-row row-fluid">
  <div  data-class="" data-width="12" data-hidewcol="0" id="tb-megamenu-column-3" class="tb-megamenu-column span12  mega-col-nav">
  <div class="tb-megamenu-column-inner mega-inner clearfix">
        <ul  class="tb-megamenu-subnav mega-nav level-1 items-1">
  <li  data-id="3386" data-level="2" data-type="menu_item" data-class="" data-xicon="" data-caption="" data-alignsub="" data-group="0" data-hidewcol="0" data-hidesub="0" class="tb-megamenu-item level-2 mega">
  <a href="/boro-library" >
        
    boro library          </a>
  </li>
</ul>
  </div>
</div>
</div>
  </div>
</div>
</li>
</ul>
      </div>
  </div>
  </div>
</div>
  </div>
          </div>
          <!-- /#MAIN NAV -->
         

        <div id="top-right-navigation">
          
          <button class="btn btn-primary off-canvas-toggle " type="button" data-pos="right" data-nav="#t3-off-canvas" data-effect="off-canvas-effect-4">
            <span> </span> <i class="fa fa-bars"></i>
          </button>
        </div>



              </div>
    </div>
  </div>
  <!-- /#HEADER -->

      <!-- HELP & MESSAGES -->
    <div id="system-messages-wrapper" class="wrapper container">
      <div class="container">
        <div class="grid-inner clearfix">
		          </div>
      </div>
    </div>
     <!-- /#HELP & MESSAGES -->
    
  <div id="main-wrapper" class="wrapper">
    <div class=" clearfix">
      <div class="">
          <!-- MAIN CONTENT -->
                    <div id="main-content" class="section ">
            <div class="grid-inner clearfix">

              
              
              
                            
              
                              
                              <div class="sections-wrap">  <div class="region region-content">
    <div id="block-system-main" class="block block-system">

    
  <div class="content">
    <div id="node-47" class="node node-advanced-page clearfix" about="/content/front-page" typeof="sioc:Item foaf:Document">

  
      <span property="dc:title" content="Front Page" class="rdf-meta element-hidden"></span><span property="sioc:num_replies" content="0" datatype="xsd:integer" class="rdf-meta element-hidden"></span>
  
  <div class="content">
    <div class="field field-name-field-attached-nodes field-type-node-reference field-label-hidden">
    <div class="field-items">
          <div class="field-item even"><div id="node-82" class="acm-hero node node-hero section style-4 style-dark position-center text-center no-padding show-intro clearfix" about="/content/you-can-build-just-anything-minutes" typeof="sioc:Item foaf:Document">
    <span property="dc:title" content="radically improve information systems&#039; semantics" class="rdf-meta element-hidden"></span><span property="sioc:num_replies" content="0" datatype="xsd:integer" class="rdf-meta element-hidden"></span>  <div class="content">
    <div class="video-wrapper">
      <div class="field field-name-field-background-video field-type-video-embed-field field-label-hidden">
    <div class="field-items">
          <div class="field-item even">
<div class="embedded-video">
  <div class="player">
    <iframe class="player" id="vimeo-145502589" width="100%" height="640" src="//player.vimeo.com/video/145502589?width=100%&amp;height=640&amp;color=00adef&amp;portrait=0&amp;title=0&amp;byline=0&amp;autoplay=1&amp;loop=1&amp;player_id=vimeo-145502589&amp;api=1" frameborder="0" webkitAllowFullScreen mozallowfullscreen allowfullscreen></iframe>  </div>
</div>
</div>
      </div>
</div>
      <div class="container">
        <div class="hero-content">
                      <div class="hero-heading">
              radically improve information systems&#039; semantics            </div>
          
                      <div class="hero-intro">
              <!-- Page-hiding snippet (recommended)  -->
<style>.async-hide { opacity: 0 !important} </style>
<script>(function(a,s,y,n,c,h,i,d,e){s.className+=' '+y;h.start=1*new Date;
h.end=i=function(){s.className=s.className.replace(RegExp(' ?'+y),'')};
(a[n]=a[n]||[]).hide=h;setTimeout(function(){i();h.end=null},c);h.timeout=c;
})(window,document.documentElement,'async-hide','dataLayer',4000,
{'GTM-N5Q5XFT':true});</script>
<!-- Modified Analytics tracking code with Optimize plugin -->
    <script>
    (function(i,s,o,g,r,a,m){i['GoogleAnalyticsObject']=r;i[r]=i[r]||function(){
    (i[r].q=i[r].q||[]).push(arguments)},i[r].l=1*new Date();a=s.createElement(o),
    m=s.getElementsByTagName(o)[0];a.async=1;a.src=g;m.parentNode.insertBefore(a,m)
    })(window,document,'script','https://www.google-analytics.com/analytics.js','ga');

    ga('create', 'UA-96351694-1', 'auto');
    ga('require', 'GTM-N5Q5XFT');
    ga('send', 'pageview');
    </script>

what we do            </div>
          
                  </div>

      </div>
    </div>
    
      </div>

  
  
</div>
</div>
          <div class="field-item odd"><div id="node-256" class="acm-features node node-features-intro style-5 section clearfix" about="/make-it" typeof="sioc:Item foaf:Document" style="background-color: #ffffff; background-image: url(&#039;https://www.borosolutions.net/sites/default/files/field/fi/img/wordclouds%20text%20-%20including%20definitions%20%235.jpg&#039;)">

    <span property="dc:title" content="make it" class="rdf-meta element-hidden"></span><span property="sioc:num_replies" content="0" datatype="xsd:integer" class="rdf-meta element-hidden"></span>  <div class="container product-features">
	
	<header class="features-header">
	  <h2 class="features-title">
	  
	  		    <div class="small-head">HOW WE RADICALLY IMPROVE THE SEMANTICS </div>
	    	    
	    	    <div class="rw-words-text">make it</div>
	    	    
      <div class="rw-words">
	      <div id="carousel-home" class="carousel slide" data-ride="carousel">
				  <div class="carousel-inner">
						<div class="field field-name-field-carousel-text field-type-text field-label-hidden">
    <div class="field-items">
          <div class="field-item even">sophisticated</div>
          <div class="field-item odd">simple</div>
          <div class="field-item even">general</div>
          <div class="field-item odd">precise</div>
          <div class="field-item even">objective</div>
          <div class="field-item odd">fruitful</div>
          <div class="field-item even">explanatory</div>
      </div>
</div>
				  </div>
				</div>
	    </div>
			
	  </h2>
	</header>
	
  <div class="features-content">
    
              <div style="animation-delay: 1ms; -webkit-animation-delay: 1ms;" data-animation="fade" class="col animate">
                  <div class="icon-line">&nbsp;</div>
                <div class="icon-wrapper icon-wrapper-show">
                      <i class="fa fa-circle-o"></i>
                  </div>

        <div class="intro-content">

                      <h3>simple</h3>
          
                      <p><p>less complicated - more ‘deeply simple’</p>
</p>
          
        </div>
      </div>
          <div style="animation-delay: 2ms; -webkit-animation-delay: 2ms;" data-animation="fade" class="col animate">
                  <div class="icon-line">&nbsp;</div>
                <div class="icon-wrapper icon-wrapper-show">
                      <i class="fa fa-bullseye"></i>
                  </div>

        <div class="intro-content">

                      <h3>general (reusable)</h3>
          
                      <p><p>wider scope - so more reusable</p>
</p>
          
        </div>
      </div>
          <div style="animation-delay: 3ms; -webkit-animation-delay: 3ms;" data-animation="fade" class="col animate">
                  <div class="icon-line">&nbsp;</div>
                <div class="icon-wrapper icon-wrapper-show">
                      <i class="fa fa-rocket"></i>
                  </div>

        <div class="intro-content">

                      <h3>fruitful (extendable)</h3>
          
                      <p><p>meet currently unspecified requirements or to be easily extendable to do so</p>
</p>
          
        </div>
      </div>
          <div style="animation-delay: 4ms; -webkit-animation-delay: 4ms;" data-animation="fade" class="col animate">
                  <div class="icon-line">&nbsp;</div>
                <div class="icon-wrapper icon-wrapper-show">
                      <i class="fa fa-info"></i>
                  </div>

        <div class="intro-content">

                      <h3>objective</h3>
          
                      <p><p>provide a more objective (shared) picture of the business</p>
</p>
          
        </div>
      </div>
          <div style="animation-delay: 5ms; -webkit-animation-delay: 5ms;" data-animation="fade" class="col animate">
                <div class="icon-wrapper icon-wrapper-show">
                      <i class="fa fa-thumb-tack"></i>
                  </div>

        <div class="intro-content">

                      <h3>precise</h3>
          
                      <p><p>give a more precise picture of the business</p>
</p>
          
        </div>
      </div>
      </div>
	  
	</div>
  <div class="content">
    <div class="field field-name-fi-body field-type-text-with-summary field-label-hidden">
    <div class="field-items">
          <div class="field-item even"><script>
<!--//--><![CDATA[// ><!--

  (function(i,s,o,g,r,a,m){i['GoogleAnalyticsObject']=r;i[r]=i[r]||function(){
  (i[r].q=i[r].q||[]).push(arguments)},i[r].l=1*new Date();a=s.createElement(o),
  m=s.getElementsByTagName(o)[0];a.async=1;a.src=g;m.parentNode.insertBefore(a,m)
  })(window,document,'script','https://www.google-analytics.com/analytics.js','ga');
  ga('create', 'UA-96351694-1', 'auto');
 ga('require', 'GTM-N5Q5XFT');
  ga('send', 'pageview');


//--><!]]>
</script><style>
<!--/*--><![CDATA[/* ><!--*/
.async-hide { opacity: 0 !important} 
/*--><!]]>*/
</style><script>
<!--//--><![CDATA[// ><!--
(function(a,s,y,n,c,h,i,d,e){s.className+=' '+y;h.start=1*new Date;
h.end=i=function(){s.className=s.className.replace(RegExp(' ?'+y),'')};
(a[n]=a[n]||[]).hide=h;setTimeout(function(){i();h.end=null},c);h.timeout=c;
})(window,document.documentElement,'async-hide','dataLayer',4000,
{'GTM-N5Q5XFT':true});
//--><!]]>
</script></div>
      </div>
</div>
  </div>

  
  
</div>
</div>
          <div class="field-item even"><div id="node-257;" class="acm-cta anb-cta bg-image node node-cta style-3 section acm-cta anb-cta bg-image node node-cta style-3 section clearfix inview clearfix" about="/what-we-use" typeof="sioc:Item foaf:Document" style="background-image: url(&#039;https://www.borosolutions.net/sites/default/files/field/cta/background_img/what-we-use_cta_bg.jpg&#039;);background-color: #515151;">

    <span property="dc:title" content="what we use" class="rdf-meta element-hidden"></span><span property="sioc:num_replies" content="0" datatype="xsd:integer" class="rdf-meta element-hidden"></span>  <div class="content">
    <div class="cta-showcase-item col-md-6">
      <h1 class="cta-showcase-header">what we use</h1>

              <p class="cta-showcase-intro"><script>
  (function(i,s,o,g,r,a,m){i['GoogleAnalyticsObject']=r;i[r]=i[r]||function(){
  (i[r].q=i[r].q||[]).push(arguments)},i[r].l=1*new Date();a=s.createElement(o),
  m=s.getElementsByTagName(o)[0];a.async=1;a.src=g;m.parentNode.insertBefore(a,m)
  })(window,document,'script','https://www.google-analytics.com/analytics.js','ga');

  ga('create', 'UA-96351694-1', 'auto');
  ga('send', 'pageview');

</script></p>
            <div class="cta-showcase-actions">
                  <div class="field field-name-field-cta-button-link field-type-link-field field-label-hidden">
    <div class="field-items">
          <div class="field-item even"><a href="https://www.borosolutions.net/boro-approach" class="btn btn-border">boro - the approach</a></div>
      </div>
</div>
              </div>
    </div>

      </div>
</div>
</div>
          <div class="field-item odd"><div id="node-127;" class="acm-cta acm node node-cta style-2 section clearfix" about="/content/call-action-style-2" typeof="sioc:Item foaf:Document" style="background-color: #333333;">

    <span property="dc:title" content="who works on boro" class="rdf-meta element-hidden"></span><span property="sioc:num_replies" content="0" datatype="xsd:integer" class="rdf-meta element-hidden"></span>  <div class="content">
    <div class="row">
            <div class="main-img col-lg-9 col-md-9 col-sm-12" style="animation-duration: ms; -webkit-animation-duration: ms;" >
          <div class="field field-name-field-image field-type-image field-label-hidden">
    <div class="field-items">
          <div class="field-item even"><img typeof="foaf:Image" src="https://www.borosolutions.net/sites/default/files/field/cta/background_img/who-works-on-boro_cta_bg.jpg" width="934" height="325" alt="" /></div>
      </div>
</div>
      </div>
        
      <div class="cta-showcase-item col-lg-3 col-lg-offset-9 col-md-3 col-md-offset-9 col-sm-12">
        <h1 class="cta-showcase-header">who works on boro</h1>

                  <p class="cta-showcase-intro"><br></br></p>
                <div class="cta-showcase-actions">
                      <div class="field field-name-field-cta-button-link field-type-link-field field-label-hidden">
    <div class="field-items">
          <div class="field-item even"><a href="https://www.borosolutions.net/who-works-boro" class="field field-name-field-cta-button-link field-type-link-field field-label-hidden">our clients and collaborators →</a></div>
      </div>
</div>
                  </div>
      </div>

          </div>
  </div>
</div>
</div>
          <div class="field-item even"><div id="node-314;" class="acm-cta anb-cta bg-image node node-cta style-3 section acm-cta anb-cta bg-image node node-cta style-3 section clearfix inview clearfix" about="/how-boro-has-been-used" typeof="sioc:Item foaf:Document" style="background-image: url(&#039;https://www.borosolutions.net/sites/default/files/field/cta/background_img/how-boro-has-been-used_cta_bg.jpg&#039;);background-color: #515151;">

    <span property="dc:title" content="how boro has been used" class="rdf-meta element-hidden"></span><span property="sioc:num_replies" content="0" datatype="xsd:integer" class="rdf-meta element-hidden"></span>  <div class="content">
    <div class="cta-showcase-item col-md-6">
      <h1 class="cta-showcase-header">how boro has been used</h1>

            <div class="cta-showcase-actions">
                  <div class="field field-name-field-cta-button-link field-type-link-field field-label-hidden">
    <div class="field-items">
          <div class="field-item even"><a href="https://www.borosolutions.net/how-boro-has-been-used-0" class="btn btn-border">example projects</a></div>
      </div>
</div>
              </div>
    </div>

      </div>
</div>
</div>
          <div class="field-item odd"><div id="node-195;" class="acm-cta acm node node-cta style-2 section clearfix" about="/content/build-content-blocks-way-easier" typeof="sioc:Item foaf:Document" style="background-color: #333333;">

    <span property="dc:title" content="who we are" class="rdf-meta element-hidden"></span><span property="sioc:num_replies" content="0" datatype="xsd:integer" class="rdf-meta element-hidden"></span>  <div class="content">
    <div class="row">
            <div class="main-img col-lg-9 col-md-9 col-sm-12" style="animation-duration: ms; -webkit-animation-duration: ms;" >
          <div class="field field-name-field-image field-type-image field-label-hidden">
    <div class="field-items">
          <div class="field-item even"><img typeof="foaf:Image" src="https://www.borosolutions.net/sites/default/files/field/cta/background_img/who-we-are_cta_bg_0.jpg" width="937" height="324" alt="" /></div>
      </div>
</div>
      </div>
        
      <div class="cta-showcase-item col-lg-3 col-lg-offset-9 col-md-3 col-md-offset-9 col-sm-12">
        <h1 class="cta-showcase-header">who we are</h1>

                  <p class="cta-showcase-intro"><br></br></p>
                <div class="cta-showcase-actions">
                      <div class="field field-name-field-cta-button-link field-type-link-field field-label-hidden">
    <div class="field-items">
          <div class="field-item even"><a href="https://www.borosolutions.net/who-we-are" class="field field-name-field-cta-button-link field-type-link-field field-label-hidden">the team →</a></div>
      </div>
</div>
                  </div>
      </div>

          </div>
  </div>
</div>
</div>
      </div>
</div>
  </div>

  
  
</div>
  </div>
</div>
  </div>
</div>
                            
                          </div>
          </div>
                    <!-- /#MAIN CONTENT -->
      </div>
    </div>
  </div>

  <!-- FOOTER -->
  <footer id="footer-wrapper" class="wrap">
    <section class="copyright">
      <div class="container">
        <div class="row">

         <div class="grid-inner clearfix ">
                      <div class="region region-footer-centre">
    <div id="block-block-1" class="block block-block">

    
  <div class="content">
    <p><br /></p>
<style>
<!--/*--><![CDATA[/* ><!--*/

      .text:visited
      {
        color: #808080;
      }      

      .text:hover
      {
        font-size: 125%;
        color: #808080;
      }

      .text
      {
        color: #808080;
      }
    
/*--><!]]>*/
</style><center><font color="808080">
<a href="/about-boro-solutions" class="text">about</a> | 
<a href="/terms-use" class="text">terms</a> | 
<a href="/privacy-policy " class="text">privacy</a> | 
<a href=" /contact" class="text">contact</a> | 
<a href="/copyright " class="text">copyright</a></font></center>

                         



  </div>
</div>
  </div>
                  </div>

		<!--<div class="col-xs-12 col-md-7 copyright ">
                  </div>-->
        <!--<div class="col-xs-12 col-md-5">
                  </div>>-->
		  
        </div>
      </div>
    </section>
  </footer>
 
  <!-- /#FOOTER -->
  
  <div id="back-to-top" data-spy="affix" data-offset-top="300" class="back-to-top affix">
    <a title="Back to Top" class="btn-btt" href="#Top">
      <button class="btn btn-primary" title="Back to Top"><i class="fa fa-arrow-up"></i></button>
    </a>
  </div>
  
  <div class="page-content-overlay"></div>
  </div>
</div>
    <script type="text/javascript">
<!--//--><![CDATA[//><!--
jQuery.post(Drupal.settings.basePath + 'jstats.php', {"path":"node\/47","nid":"47"});
//--><!]]>
</script>
<script type="text/javascript" src="https://www.borosolutions.net/sites/default/files/js/js_e7aHGD_TGcZyM5TQpBKRPhJtvSMvEi1e4EV-5_qIFHY.js"></script>
  </body>
</html>