<!DOCTYPE html PUBLIC "-//W3C//DTD HTML+RDFa 1.1//EN">
<html lang="en" dir="ltr" version="HTML+RDFa 1.1"
  xmlns:content="http://purl.org/rss/1.0/modules/content/"
  xmlns:dc="http://purl.org/dc/terms/"
  xmlns:foaf="http://xmlns.com/foaf/0.1/"
  xmlns:og="http://ogp.me/ns#"
  xmlns:rdfs="http://www.w3.org/2000/01/rdf-schema#"
  xmlns:sioc="http://rdfs.org/sioc/ns#"
  xmlns:sioct="http://rdfs.org/sioc/types#"
  xmlns:skos="http://www.w3.org/2004/02/skos/core#"
  xmlns:xsd="http://www.w3.org/2001/XMLSchema#">
<head profile="http://www.w3.org/1999/xhtml/vocab">
  <meta http-equiv="Content-Type" content="text/html; charset=utf-8" />
<meta name="Generator" content="Drupal 7 (http://drupal.org)" />
<link rel="canonical" href="/home" />
<link rel="shortlink" href="/node/1" />
<link rel="shortcut icon" href="https://www.bsalex.net/sites/default/files/favicon.ico" type="image/vnd.microsoft.icon" />
  <title>Welcome to The British School, Alexandria  | British School of Alexandria, Egypt</title>  
  <style type="text/css" media="all">
@import url("https://www.bsalex.net/modules/system/system.base.css?px92e9");
@import url("https://www.bsalex.net/modules/system/system.menus.css?px92e9");
@import url("https://www.bsalex.net/modules/system/system.messages.css?px92e9");
@import url("https://www.bsalex.net/modules/system/system.theme.css?px92e9");
</style>
<style type="text/css" media="all">
@import url("https://www.bsalex.net/sites/all/modules/date/date_api/date.css?px92e9");
@import url("https://www.bsalex.net/sites/all/modules/date/date_popup/themes/datepicker.1.7.css?px92e9");
@import url("https://www.bsalex.net/modules/field/theme/field.css?px92e9");
@import url("https://www.bsalex.net/modules/node/node.css?px92e9");
@import url("https://www.bsalex.net/modules/search/search.css?px92e9");
@import url("https://www.bsalex.net/modules/user/user.css?px92e9");
@import url("https://www.bsalex.net/sites/all/modules/views/css/views.css?px92e9");
@import url("https://www.bsalex.net/sites/all/modules/ckeditor/css/ckeditor.css?px92e9");
</style>
<style type="text/css" media="all">
@import url("https://www.bsalex.net/sites/all/modules/colorbox/styles/default/colorbox_style.css?px92e9");
@import url("https://www.bsalex.net/sites/all/modules/ctools/css/ctools.css?px92e9");
@import url("https://www.bsalex.net/sites/all/modules/flickrgallery/flickrgallery.css?px92e9");
@import url("https://www.bsalex.net/sites/all/modules/megamenu/megamenu.css?px92e9");
@import url("https://www.bsalex.net/sites/all/modules/megamenu/megamenu-skins.css?px92e9");
@import url("https://www.bsalex.net/sites/all/modules/views_slideshow/views_slideshow.css?px92e9");
@import url("https://www.bsalex.net/sites/all/modules/views_slideshow/contrib/views_slideshow_cycle/views_slideshow_cycle.css?px92e9");
@import url("https://www.bsalex.net/sites/all/modules/custom_search/custom_search.css?px92e9");
</style>
<style type="text/css" media="all">
@import url("https://www.bsalex.net/sites/all/themes/omega/alpha/css/alpha-reset.css?px92e9");
@import url("https://www.bsalex.net/sites/all/themes/omega/alpha/css/alpha-mobile.css?px92e9");
@import url("https://www.bsalex.net/sites/all/themes/omega/alpha/css/alpha-alpha.css?px92e9");
@import url("https://www.bsalex.net/sites/all/themes/omega/omega/css/formalize.css?px92e9");
@import url("https://www.bsalex.net/sites/all/themes/omega/omega/css/omega-text.css?px92e9");
@import url("https://www.bsalex.net/sites/all/themes/omega/omega/css/omega-branding.css?px92e9");
@import url("https://www.bsalex.net/sites/all/themes/omega/omega/css/omega-menu.css?px92e9");
@import url("https://www.bsalex.net/sites/all/themes/omega/omega/css/omega-forms.css?px92e9");
</style>
<link type="text/css" rel="stylesheet" href="https://fonts.googleapis.com/css?family=Arimo:700,700italic,italic,regular|Cabin:600,600italic,700,700italic,italic,regular|Gudea:700,regular|Molengo:regular|Rambla:700,700italic,italic,regular&amp;subset=latin,latin-ext" media="all" />
<style type="text/css" media="all">
@import url("https://www.bsalex.net/sites/all/themes/bsalexandria/css/global.css?px92e9");
</style>
<style type="text/css" media="all">
@import url("https://www.bsalex.net/sites/all/themes/bsalexandria/css/bsalexandria-alpha-default.css?px92e9");
@import url("https://www.bsalex.net/sites/all/themes/bsalexandria/css/bsalexandria-alpha-default-normal.css?px92e9");
@import url("https://www.bsalex.net/sites/all/themes/omega/alpha/css/grid/alpha_default/normal/alpha-default-normal-12.css?px92e9");
</style>
  <script type="text/javascript" src="https://www.bsalex.net/misc/jquery.js?v=1.4.4"></script>
<script type="text/javascript" src="https://www.bsalex.net/misc/jquery-extend-3.4.0.js?v=1.4.4"></script>
<script type="text/javascript" src="https://www.bsalex.net/misc/jquery.once.js?v=1.2"></script>
<script type="text/javascript" src="https://www.bsalex.net/misc/drupal.js?px92e9"></script>
<script type="text/javascript" src="https://www.bsalex.net/sites/all/modules/admin_menu/admin_devel/admin_devel.js?px92e9"></script>
<script type="text/javascript" src="https://www.bsalex.net/sites/all/libraries/colorbox/jquery.colorbox-min.js?px92e9"></script>
<script type="text/javascript" src="https://www.bsalex.net/sites/all/modules/colorbox/js/colorbox.js?px92e9"></script>
<script type="text/javascript" src="https://www.bsalex.net/sites/all/modules/colorbox/styles/default/colorbox_style.js?px92e9"></script>
<script type="text/javascript" src="https://www.bsalex.net/sites/all/modules/megamenu/megamenu.js?px92e9"></script>
<script type="text/javascript" src="https://www.bsalex.net/sites/all/modules/views_slideshow/js/views_slideshow.js?px92e9"></script>
<script type="text/javascript" src="https://www.bsalex.net/sites/all/modules/custom_search/js/custom_search.js?px92e9"></script>
<script type="text/javascript" src="https://www.bsalex.net/sites/all/libraries/jquery.cycle/jquery.cycle.all.min.js?px92e9"></script>
<script type="text/javascript" src="https://www.bsalex.net/sites/all/modules/views_slideshow/contrib/views_slideshow_cycle/js/views_slideshow_cycle.js?px92e9"></script>
<script type="text/javascript" src="https://www.bsalex.net/sites/all/modules/google_analytics/googleanalytics.js?px92e9"></script>
<script type="text/javascript">
<!--//--><![CDATA[//><!--
(function(i,s,o,g,r,a,m){i["GoogleAnalyticsObject"]=r;i[r]=i[r]||function(){(i[r].q=i[r].q||[]).push(arguments)},i[r].l=1*new Date();a=s.createElement(o),m=s.getElementsByTagName(o)[0];a.async=1;a.src=g;m.parentNode.insertBefore(a,m)})(window,document,"script","https://www.google-analytics.com/analytics.js","ga");ga("create", "UA-25522815-1", {"cookieDomain":"auto"});ga("send", "pageview");
//--><!]]>
</script>
<script type="text/javascript" src="https://www.bsalex.net/sites/all/themes/omega/omega/js/jquery.formalize.js?px92e9"></script>
<script type="text/javascript" src="https://www.bsalex.net/sites/all/themes/omega/omega/js/omega-mediaqueries.js?px92e9"></script>
<script type="text/javascript">
<!--//--><![CDATA[//><!--
jQuery.extend(Drupal.settings, {"basePath":"\/","pathPrefix":"","ajaxPageState":{"theme":"bsalexandria","theme_token":"-ZnxqZpAC1h91h0TVFP7gjwoZZPHVqfc4ssL9KD8fvA","js":{"misc\/jquery.js":1,"misc\/jquery-extend-3.4.0.js":1,"misc\/jquery.once.js":1,"misc\/drupal.js":1,"sites\/all\/modules\/admin_menu\/admin_devel\/admin_devel.js":1,"sites\/all\/libraries\/colorbox\/jquery.colorbox-min.js":1,"sites\/all\/modules\/colorbox\/js\/colorbox.js":1,"sites\/all\/modules\/colorbox\/styles\/default\/colorbox_style.js":1,"sites\/all\/modules\/megamenu\/megamenu.js":1,"sites\/all\/modules\/views_slideshow\/js\/views_slideshow.js":1,"sites\/all\/modules\/custom_search\/js\/custom_search.js":1,"sites\/all\/libraries\/jquery.cycle\/jquery.cycle.all.min.js":1,"sites\/all\/modules\/views_slideshow\/contrib\/views_slideshow_cycle\/js\/views_slideshow_cycle.js":1,"sites\/all\/modules\/google_analytics\/googleanalytics.js":1,"0":1,"sites\/all\/themes\/omega\/omega\/js\/jquery.formalize.js":1,"sites\/all\/themes\/omega\/omega\/js\/omega-mediaqueries.js":1},"css":{"modules\/system\/system.base.css":1,"modules\/system\/system.menus.css":1,"modules\/system\/system.messages.css":1,"modules\/system\/system.theme.css":1,"sites\/all\/modules\/date\/date_api\/date.css":1,"sites\/all\/modules\/date\/date_popup\/themes\/datepicker.1.7.css":1,"modules\/field\/theme\/field.css":1,"modules\/node\/node.css":1,"modules\/search\/search.css":1,"modules\/user\/user.css":1,"sites\/all\/modules\/views\/css\/views.css":1,"sites\/all\/modules\/ckeditor\/css\/ckeditor.css":1,"sites\/all\/modules\/colorbox\/styles\/default\/colorbox_style.css":1,"sites\/all\/modules\/ctools\/css\/ctools.css":1,"sites\/all\/modules\/flickrgallery\/flickrgallery.css":1,"sites\/all\/modules\/megamenu\/megamenu.css":1,"sites\/all\/modules\/megamenu\/megamenu-skins.css":1,"sites\/all\/modules\/views_slideshow\/views_slideshow.css":1,"sites\/all\/modules\/views_slideshow\/contrib\/views_slideshow_cycle\/views_slideshow_cycle.css":1,"sites\/all\/modules\/custom_search\/custom_search.css":1,"sites\/all\/themes\/omega\/alpha\/css\/alpha-reset.css":1,"sites\/all\/themes\/omega\/alpha\/css\/alpha-mobile.css":1,"sites\/all\/themes\/omega\/alpha\/css\/alpha-alpha.css":1,"sites\/all\/themes\/omega\/omega\/css\/formalize.css":1,"sites\/all\/themes\/omega\/omega\/css\/omega-text.css":1,"sites\/all\/themes\/omega\/omega\/css\/omega-branding.css":1,"sites\/all\/themes\/omega\/omega\/css\/omega-menu.css":1,"sites\/all\/themes\/omega\/omega\/css\/omega-forms.css":1,"https:\/\/fonts.googleapis.com\/css?family=Arimo:700,700italic,italic,regular|Cabin:600,600italic,700,700italic,italic,regular|Gudea:700,regular|Molengo:regular|Rambla:700,700italic,italic,regular\u0026subset=latin,latin-ext":1,"sites\/all\/themes\/bsalexandria\/css\/global.css":1,"normal::sites\/all\/themes\/bsalexandria\/css\/bsalexandria-alpha-default.css":1,"normal::sites\/all\/themes\/bsalexandria\/css\/bsalexandria-alpha-default-normal.css":1,"sites\/all\/themes\/omega\/alpha\/css\/grid\/alpha_default\/normal\/alpha-default-normal-12.css":1}},"colorbox":{"opacity":"0.85","current":"{current} of {total}","previous":"\u00ab Prev","next":"Next \u00bb","close":"Close","maxWidth":"98%","maxHeight":"98%","fixed":true,"mobiledetect":true,"mobiledevicewidth":"480px"},"megamenu":{"timeout":"0","sizewait":"0","hoverwait":"0"},"custom_search":{"form_target":"_self","solr":0},"viewsSlideshow":{"news-block_2":{"methods":{"goToSlide":[null,null,null],"nextSlide":[null,null,null],"pause":[null,null],"play":[null,null],"previousSlide":[null,null,null],"transitionBegin":[null,null],"transitionEnd":[]},"paused":0},"slider-block_1":{"methods":{"goToSlide":[null,null,null],"nextSlide":[null,null,null],"pause":[null,null],"play":[null,null],"previousSlide":[null,null,null],"transitionBegin":[null,null],"transitionEnd":[]},"paused":0}},"viewsSlideshowCycle":{"#views_slideshow_cycle_main_news-block_2":{"num_divs":2,"id_prefix":"#views_slideshow_cycle_main_","div_prefix":"#views_slideshow_cycle_div_","vss_id":"news-block_2","effect":"scrollLeft","transition_advanced":0,"timeout":5000,"speed":700,"delay":0,"sync":1,"random":0,"pause":1,"pause_on_click":0,"action_advanced":0,"start_paused":0,"remember_slide":0,"remember_slide_days":1,"pause_when_hidden":0,"pause_when_hidden_type":"full","amount_allowed_visible":"","nowrap":0,"fixed_height":1,"items_per_slide":1,"wait_for_image_load":1,"wait_for_image_load_timeout":3000,"cleartype":0,"cleartypenobg":0,"advanced_options":"{}"},"#views_slideshow_cycle_main_slider-block_1":{"num_divs":10,"id_prefix":"#views_slideshow_cycle_main_","div_prefix":"#views_slideshow_cycle_div_","vss_id":"slider-block_1","effect":"fade","transition_advanced":1,"timeout":3500,"speed":700,"delay":0,"sync":1,"random":0,"pause":0,"pause_on_click":0,"action_advanced":0,"start_paused":0,"remember_slide":0,"remember_slide_days":1,"pause_when_hidden":0,"pause_when_hidden_type":"full","amount_allowed_visible":"","nowrap":0,"fixed_height":1,"items_per_slide":1,"wait_for_image_load":1,"wait_for_image_load_timeout":3000,"cleartype":0,"cleartypenobg":0,"advanced_options":"{}"}},"googleanalytics":{"trackOutbound":1,"trackMailto":1,"trackDownload":1,"trackDownloadExtensions":"7z|aac|arc|arj|asf|asx|avi|bin|csv|doc(x|m)?|dot(x|m)?|exe|flv|gif|gz|gzip|hqx|jar|jpe?g|js|mp(2|3|4|e?g)|mov(ie)?|msi|msp|pdf|phps|png|ppt(x|m)?|pot(x|m)?|pps(x|m)?|ppam|sld(x|m)?|thmx|qtm?|ra(m|r)?|sea|sit|tar|tgz|torrent|txt|wav|wma|wmv|wpd|xls(x|m|b)?|xlt(x|m)|xlam|xml|z|zip","trackColorbox":1},"urlIsAjaxTrusted":{"\/":true},"omega":{"layouts":{"primary":"normal","order":["narrow","normal","wide"],"queries":{"narrow":"all and (min-width: 740px) and (min-device-width: 740px), (max-device-width: 800px) and (min-width: 740px) and (orientation:landscape)","normal":"all and (min-width: 980px) and (min-device-width: 980px), all and (max-device-width: 1024px) and (min-width: 1024px) and (orientation:landscape)","wide":"all and (min-width: 1220px)"}}}});
//--><!]]>
</script>
  <!--[if lt IE 9]><script src="http://html5shiv.googlecode.com/svn/trunk/html5.js"></script><![endif]-->
</head>
<body class="html front not-logged-in page-node page-node- page-node-1 node-type-page">
  <div id="skip-link">
    <a href="#main-content" class="element-invisible element-focusable">Skip to main content</a>
  </div>
    <div class="page clearfix" id="page">
      <header id="section-header" class="section section-header">
  <div id="zone-user-wrapper" class="zone-wrapper zone-user-wrapper clearfix">  
  <div id="zone-user" class="zone zone-user clearfix container-12">
    <div class="grid-6 region region-branding" id="region-branding">
  <div class="region-inner region-branding-inner">
        <div class="branding-data clearfix">
            <div class="logo-img">
        <a href="/" rel="home" title="" class="active"><img src="https://www.bsalex.net/sites/all/themes/bsalexandria/logo-35th-anniversary.png" alt="" id="logo" /></a>      </div>
                </div>
          </div>
</div><div class="grid-6 region region-user" id="region-user">
  <div class="region-inner region-user-inner">
    <div class="block block-block block-10 block-block-10 odd block-without-title" id="block-block-10">
  <div class="block-inner clearfix">
                
    <div class="content clearfix">
      <p><a href="/user">Login</a></p>
    </div>
  </div>
</div><div class="block block-custom-search-blocks block-1 block-custom-search-blocks-1 even block-without-title" id="block-custom-search-blocks-1">
  <div class="block-inner clearfix">
                
    <div class="content clearfix">
      <form class="search-form" role="search" action="/" method="post" id="custom-search-blocks-form-1" accept-charset="UTF-8"><div><div class="form-item form-type-textfield form-item-custom-search-blocks-form-1">
  <label class="element-invisible" for="edit-custom-search-blocks-form-1--2">Search this site </label>
 <input title="" class="custom-search-box form-text" placeholder="Search" type="text" id="edit-custom-search-blocks-form-1--2" name="custom_search_blocks_form_1" value="" size="25" maxlength="128" />
</div>
<input type="hidden" name="delta" value="1" />
<input type="hidden" name="form_build_id" value="form-Tr2221qmvUeBo1yvPv6aD7mfcqnmy7iwNb-go9YRC-g" />
<input type="hidden" name="form_id" value="custom_search_blocks_form_1" />
<div class="form-actions form-wrapper" id="edit-actions"><input style="display:none;" type="submit" id="edit-submit" name="op" value="" class="form-submit" /></div></div></form>    </div>
  </div>
</div>  </div>
</div>  </div>
</div><div id="zone-menu-wrapper" class="zone-wrapper zone-menu-wrapper clearfix">  
  <div id="zone-menu" class="zone zone-menu clearfix container-12">
    <div class="grid-12 region region-menu" id="region-menu">
  <div class="region-inner region-menu-inner">
        <div class="block block-megamenu block-main-menu block-megamenu-main-menu odd block-without-title" id="block-megamenu-main-menu">
  <div class="block-inner clearfix">
                
    <div class="content clearfix">
      <ul id="megamenu-main-menu" class="megamenu-menu columnar megamenu-skin-bsalex"><li id="megamenu-mlid-317" class="megamenu-parent megamenu-parent-0 odd half-1 leaf-0 first menu-317  first"><h2 class="megamenu-parent-title"><a href="/" class="active">Home</a></h2></li><li id="megamenu-mlid-318" class="megamenu-parent megamenu-parent-1 even half-1 leaf-1 menu-318 "><h2 class="megamenu-parent-title"><a href="/about">About Us</a></h2><ul class="megamenu-bin megamenu-slots-columnar"><li id="megamenu-mlid-1454" class="megamenu-slot megamenu-slot-0 odd half-1 leaf-0 first  first"><h3 class="megamenu-slot-title"><a href="/principal-welcome">Principal&#039;s Welcome</a></h3></li><li id="megamenu-mlid-876" class="megamenu-slot megamenu-slot-1 even half-1 leaf-1 "><h3 class="megamenu-slot-title"><a href="/about">About Us</a></h3></li><li id="megamenu-mlid-1176" class="megamenu-slot megamenu-slot-2 odd half-1 leaf-2 "><h3 class="megamenu-slot-title"><a href="/mission-and-aims">Mission and Aims</a></h3></li><li id="megamenu-mlid-1450" class="megamenu-slot megamenu-slot-3 even half-1 leaf-3 "><h3 class="megamenu-slot-title"><a href="/accreditation">Accreditation</a></h3></li><li id="megamenu-mlid-1256" class="megamenu-slot megamenu-slot-4 odd half-1 leaf-4 "><h3 class="megamenu-slot-title"><a href="/school-policies">School Policies</a></h3></li><li id="megamenu-mlid-727" class="megamenu-slot megamenu-slot-5 even half-1 leaf-5 "><h3 class="megamenu-slot-title"><a href="/announcements">Announcements</a></h3></li><li id="megamenu-mlid-1054" class="megamenu-slot megamenu-slot-6 odd half-1 leaf-6 "><h3 class="megamenu-slot-title"><a href="/school-news">News</a></h3></li><li id="megamenu-mlid-1691" class="megamenu-slot megamenu-slot-7 even half-2 leaf-7 "><h3 class="megamenu-slot-title"><a href="/isi-inspection-2016">ISI Inspection 2016</a></h3></li><li id="megamenu-mlid-1854" class="megamenu-slot megamenu-slot-8 odd half-2 leaf-8 "><h3 class="megamenu-slot-title"><a href="/duke-edinburghs-international-award">The International Award</a></h3></li><li id="megamenu-mlid-1858" class="megamenu-slot megamenu-slot-9 even half-2 leaf-9 "><h3 class="megamenu-slot-title"><a href="/recent-excellent-examination-results-summer-2019">Recent Examination Results</a></h3></li><li id="megamenu-mlid-1678" class="megamenu-slot megamenu-slot-10 odd half-2 leaf-10 "><h3 class="megamenu-slot-title"><a href="/our-location">Our Location</a></h3></li><li id="megamenu-mlid-1862" class="megamenu-slot megamenu-slot-11 even half-2 leaf-11 "><h3 class="megamenu-slot-title"><a href="/bso-inspection-outcome-jan-2019-0">BSO Inspection Outcome Jan 2019</a></h3></li><li id="megamenu-mlid-1859" class="megamenu-slot megamenu-slot-12 odd half-2 leaf-12 last  last"><h3 class="megamenu-slot-title"><a href="/high-performance-learning">High Performance Learning</a></h3></li></ul></li><li id="megamenu-mlid-871" class="megamenu-parent megamenu-parent-2 odd half-1 leaf-2 menu-871 "><h2 class="megamenu-parent-title"><a href="/admissions-parents">Admissions &amp; Parents</a></h2><ul class="megamenu-bin megamenu-slots-columnar"><li id="megamenu-mlid-1459" class="megamenu-slot megamenu-slot-0 odd half-1 leaf-0 first  first"><h3 class="megamenu-slot-title"><a href="https://issuu.com/bsalex/docs/website_version">Prospectus</a></h3></li><li id="megamenu-mlid-321" class="megamenu-slot megamenu-slot-1 even half-1 leaf-1 "><h3 class="megamenu-slot-title"><a href="/calendar">Calendar</a></h3></li><li id="megamenu-mlid-1855" class="megamenu-slot megamenu-slot-2 odd half-1 leaf-2 "><h3 class="megamenu-slot-title"><a href="/events-calendar-2019-2020">Events Calendar 19-20</a></h3></li><li id="megamenu-mlid-1261" class="megamenu-slot megamenu-slot-3 even half-1 leaf-3 "><h3 class="megamenu-slot-title"><a href="/procedures-policy">Procedures &amp; Policy</a></h3></li><li id="megamenu-mlid-1262" class="megamenu-slot megamenu-slot-4 odd half-1 leaf-4 "><h3 class="megamenu-slot-title"><a href="/assessments">Assessments</a></h3></li><li id="megamenu-mlid-1263" class="megamenu-slot megamenu-slot-5 even half-1 leaf-5 "><h3 class="megamenu-slot-title"><a href="/year-group-placement">Year Group Placement</a></h3></li><li id="megamenu-mlid-975" class="megamenu-slot megamenu-slot-6 odd half-2 leaf-6 "><h3 class="megamenu-slot-title"><a href="/parent-handbooks-2019-2020">Parent Handbooks</a></h3></li><li id="megamenu-mlid-1574" class="megamenu-slot megamenu-slot-7 even half-2 leaf-7 "><h3 class="megamenu-slot-title"><a href="/attendance">Attendance</a></h3></li><li id="megamenu-mlid-1743" class="megamenu-slot megamenu-slot-8 odd half-2 leaf-8 "><h3 class="megamenu-slot-title"><a href="/communication">Communication</a></h3></li><li id="megamenu-mlid-1561" class="megamenu-slot megamenu-slot-9 even half-2 leaf-9 "><h3 class="megamenu-slot-title"><a href="/school-uniform">School Uniform</a></h3></li><li id="megamenu-mlid-1856" class="megamenu-slot megamenu-slot-10 odd half-2 leaf-10 "><h3 class="megamenu-slot-title"><a href="/bsa-home-school-agreement">BSA Home School Agreement</a></h3></li><li id="megamenu-mlid-1857" class="megamenu-slot megamenu-slot-11 even half-2 leaf-11 last  last"><h3 class="megamenu-slot-title"><a href="/terms-conditions">Terms &amp; Conditions</a></h3></li></ul></li><li id="megamenu-mlid-1460" class="megamenu-parent megamenu-parent-3 even half-1 leaf-3 menu-1460 "><h2 class="megamenu-parent-title"><a href="/our-schools">Our Schools</a></h2><ul class="megamenu-bin megamenu-slots-columnar"><li id="megamenu-mlid-1461" class="megamenu-slot megamenu-slot-0 odd half-1 leaf-0 first  first"><h3 class="megamenu-slot-title"><a href="/foundation-stage">Foundation Stage</a></h3></li><li id="megamenu-mlid-1462" class="megamenu-slot megamenu-slot-1 even half-1 leaf-1 "><h3 class="megamenu-slot-title"><a href="/key-stage-1">Key Stage 1</a></h3></li><li id="megamenu-mlid-1463" class="megamenu-slot megamenu-slot-2 odd half-1 leaf-2 "><h3 class="megamenu-slot-title"><a href="/prep-school-years-3-6">Prep School (Years 3 to 6)</a></h3></li><li id="megamenu-mlid-1464" class="megamenu-slot megamenu-slot-3 even half-1 leaf-3 "><h3 class="megamenu-slot-title"><a href="/senior-school">Senior School</a></h3></li><li id="megamenu-mlid-1465" class="megamenu-slot megamenu-slot-4 odd half-2 leaf-4 "><h3 class="megamenu-slot-title"><a href="/sixth-form-0">Sixth Form</a></h3></li><li id="megamenu-mlid-1589" class="megamenu-slot megamenu-slot-5 even half-2 leaf-5 "><h3 class="megamenu-slot-title"><a href="/assessment">Assessment</a></h3></li><li id="megamenu-mlid-1585" class="megamenu-slot megamenu-slot-6 odd half-2 leaf-6 "><h3 class="megamenu-slot-title"><a href="/trips">Trips</a></h3></li><li id="megamenu-mlid-1913" class="megamenu-slot megamenu-slot-7 even half-2 leaf-7 last  last"><h3 class="megamenu-slot-title"><a href="/scholarship">Scholarship</a></h3></li></ul></li><li id="megamenu-mlid-1466" class="megamenu-parent megamenu-parent-4 odd half-1 leaf-4 menu-1466 "><h2 class="megamenu-parent-title"><a href="/our-people">Our People</a></h2><ul class="megamenu-bin megamenu-slots-columnar"><li id="megamenu-mlid-786" class="megamenu-slot megamenu-slot-0 odd half-1 leaf-0 first  first"><h3 class="megamenu-slot-title"><a href="/governance">Board of Governors/Trustees</a></h3></li><li id="megamenu-mlid-322" class="megamenu-slot megamenu-slot-1 even half-1 leaf-1 "><h3 class="megamenu-slot-title"><a href="/senior-management">Senior Management</a></h3></li><li id="megamenu-mlid-1015" class="megamenu-slot megamenu-slot-2 odd half-1 leaf-2 "><h3 class="megamenu-slot-title"><a href="/administration-staff">Administration Staff</a></h3></li><li id="megamenu-mlid-1451" class="megamenu-slot megamenu-slot-3 even half-2 leaf-3 "><h3 class="megamenu-slot-title"><a href="/teachers/primary">Primary Teaching Staff</a></h3></li><li id="megamenu-mlid-1452" class="megamenu-slot megamenu-slot-4 odd half-2 leaf-4 last  last"><h3 class="megamenu-slot-title"><a href="/teachers/secondary">Senior School Teaching Staff</a></h3></li></ul></li><li id="megamenu-mlid-1683" class="megamenu-parent megamenu-parent-5 even half-2 leaf-5 menu-1683 "><h2 class="megamenu-parent-title"><a href="/performing-arts">Subjects</a></h2><ul class="megamenu-bin megamenu-slots-columnar"><li id="megamenu-mlid-1562" class="megamenu-slot megamenu-slot-0 odd half-1 leaf-0 first  first"><h3 class="megamenu-slot-title"><a href="/english">English</a></h3></li><li id="megamenu-mlid-1563" class="megamenu-slot megamenu-slot-1 even half-1 leaf-1 "><h3 class="megamenu-slot-title"><a href="/mathematics">Mathematics</a></h3></li><li id="megamenu-mlid-1566" class="megamenu-slot megamenu-slot-2 odd half-1 leaf-2 "><h3 class="megamenu-slot-title"><a href="/maths-prep">Maths for Prep</a></h3></li><li id="megamenu-mlid-1679" class="megamenu-slot megamenu-slot-3 even half-1 leaf-3 "><h3 class="megamenu-slot-title"><a href="/science-0">Science</a></h3></li><li id="megamenu-mlid-1570" class="megamenu-slot megamenu-slot-4 odd half-1 leaf-4 "><h3 class="megamenu-slot-title"><a href="/drama-0">Drama</a></h3></li><li id="megamenu-mlid-1564" class="megamenu-slot megamenu-slot-5 even half-1 leaf-5 "><h3 class="megamenu-slot-title"><a href="/modern-foreign-languages-mfl">Modern Foreign Languages</a></h3></li><li id="megamenu-mlid-1565" class="megamenu-slot megamenu-slot-6 odd half-1 leaf-6 "><h3 class="megamenu-slot-title"><a href="/computer-science">Computing</a></h3></li><li id="megamenu-mlid-1568" class="megamenu-slot megamenu-slot-7 even half-2 leaf-7 "><h3 class="megamenu-slot-title"><a href="/humanities-0">Humanities</a></h3></li><li id="megamenu-mlid-1684" class="megamenu-slot megamenu-slot-8 odd half-2 leaf-8 "><h3 class="megamenu-slot-title"><a href="https://www.bsalex.net/music-2">Performing Arts</a></h3></li><li id="megamenu-mlid-1860" class="megamenu-slot megamenu-slot-9 even half-2 leaf-9 "><h3 class="megamenu-slot-title"><a href="https://www.bsalex.net/music">Music</a></h3></li><li id="megamenu-mlid-1587" class="megamenu-slot megamenu-slot-10 odd half-2 leaf-10 "><h3 class="megamenu-slot-title"><a href="/physical-education">Physical Education</a></h3></li><li id="megamenu-mlid-1861" class="megamenu-slot megamenu-slot-11 even half-2 leaf-11 "><h3 class="megamenu-slot-title"><a href="/arabic-0">Arabic</a></h3></li><li id="megamenu-mlid-1950" class="megamenu-slot megamenu-slot-12 odd half-2 leaf-12 last  last"><h3 class="megamenu-slot-title"><a href="/art">Art</a></h3></li></ul></li><li id="megamenu-mlid-1252" class="megamenu-parent megamenu-parent-6 odd half-2 leaf-6 menu-1252 "><h2 class="megamenu-parent-title"><a href="http://www.bsalex.net/current-vacancies">Vacancies</a></h2><ul class="megamenu-bin megamenu-slots-columnar"><li id="megamenu-mlid-1685" class="megamenu-slot megamenu-slot-0 odd half-1 leaf-0 first  first"><h3 class="megamenu-slot-title"><a href="/current-vacancies">Current Vacancies</a></h3></li><li id="megamenu-mlid-1265" class="megamenu-slot megamenu-slot-1 even half-1 leaf-1 "><h3 class="megamenu-slot-title"><a href="/information-teachers-applying-vacancies">Information for Candidates</a></h3></li><li id="megamenu-mlid-1433" class="megamenu-slot megamenu-slot-2 odd half-1 leaf-2 "><h3 class="megamenu-slot-title"><a href="/locality-and-accommodation">The Locality and Accommodation</a></h3></li><li id="megamenu-mlid-1449" class="megamenu-slot megamenu-slot-3 even half-2 leaf-3 "><h3 class="megamenu-slot-title"><a href="http://www.bsalex.net/alexandria-pearl-mediterranean">Alexandria</a></h3></li><li id="megamenu-mlid-1689" class="megamenu-slot megamenu-slot-4 odd half-2 leaf-4 last  last"><h3 class="megamenu-slot-title"><a href="/staff-views">Staff Views</a></h3></li></ul></li><li id="megamenu-mlid-1690" class="megamenu-parent megamenu-parent-7 even half-2 leaf-7 menu-1690 "><h2 class="megamenu-parent-title"><a href="/publications">Publications</a></h2><ul class="megamenu-bin megamenu-slots-columnar"><li id="megamenu-mlid-1744" class="megamenu-slot megamenu-slot-0 odd half-1 leaf-0 first  first"><h3 class="megamenu-slot-title"><a href="/our-fortnightly-newsletters">Our Fortnightly Newsletters</a></h3></li><li id="megamenu-mlid-1741" class="megamenu-slot megamenu-slot-1 even half-1 leaf-1 "><h3 class="megamenu-slot-title"><a href="/lighthouse-magazine">The Lighthouse Magazine</a></h3></li><li id="megamenu-mlid-1742" class="megamenu-slot megamenu-slot-2 odd half-2 leaf-2 last  last"><h3 class="megamenu-slot-title"><a href="/yearbook">The Yearbook</a></h3></li></ul></li><li id="megamenu-mlid-877" class="megamenu-parent megamenu-parent-8 odd half-2 leaf-8 menu-877 "><h2 class="megamenu-parent-title"><a href="https://www.flickr.com/photos/79358979@N03/albums">Photo Gallery</a></h2></li><li id="megamenu-mlid-323" class="megamenu-parent megamenu-parent-9 even half-2 leaf-9 last menu-323  last"><h2 class="megamenu-parent-title"><a href="/contact">Contact</a></h2></li></ul>    </div>
  </div>
</div>  </div>
</div>
  </div>
</div><div id="zone-header-wrapper" class="zone-wrapper zone-header-wrapper clearfix">  
  <div id="zone-header" class="zone zone-header clearfix container-12">
    <div class="grid-12 region region-featured" id="region-featured">
  <div class="region-inner region-featured-inner">
    <div class="block block-views block-slider-block-1 block-views-slider-block-1 odd block-without-title" id="block-views-slider-block-1">
  <div class="block-inner clearfix">
                
    <div class="content clearfix">
      <div class="view view-slider view-id-slider view-display-id-block_1 view-dom-id-41d643fec4aaa4ad2d92189438157165">
        
  
  
      <div class="view-content">
      
<div class="skin-default">
  
  <div id="views_slideshow_cycle_main_slider-block_1" class="views_slideshow_cycle_main views_slideshow_main"><div id="views_slideshow_cycle_teaser_section_slider-block_1" class="views-slideshow-cycle-main-frame views_slideshow_cycle_teaser_section">
  <div id="views_slideshow_cycle_div_slider-block_1_0" class="views-slideshow-cycle-main-frame-row views_slideshow_cycle_slide views_slideshow_slide views-row-1 views-row-odd">
  <div class="views-slideshow-cycle-main-frame-row-item views-row views-row-0 views-row-first views-row-odd">
    
  <div class="views-field views-field-field-image">        <div class="field-content"><img typeof="foaf:Image" src="https://www.bsalex.net/sites/default/files/styles/slider-new/public/images/slideshow/f5907668-7cde-4494-8984-ed1c9a6747aa.jpg?itok=RxCUQ97S" width="1920" height="600" alt="" /></div>  </div></div>
</div>
<div id="views_slideshow_cycle_div_slider-block_1_1" class="views-slideshow-cycle-main-frame-row views_slideshow_cycle_slide views_slideshow_slide views-row-2 views_slideshow_cycle_hidden views-row-even">
  <div class="views-slideshow-cycle-main-frame-row-item views-row views-row-0 views-row-first views-row-odd">
    
  <div class="views-field views-field-field-image">        <div class="field-content"><img typeof="foaf:Image" src="https://www.bsalex.net/sites/default/files/styles/slider-new/public/images/slideshow/IMG-20170620-WA0001.jpg?itok=9qDw8D9q" width="1920" height="600" alt="" /></div>  </div></div>
</div>
<div id="views_slideshow_cycle_div_slider-block_1_2" class="views-slideshow-cycle-main-frame-row views_slideshow_cycle_slide views_slideshow_slide views-row-3 views_slideshow_cycle_hidden views-row-odd">
  <div class="views-slideshow-cycle-main-frame-row-item views-row views-row-0 views-row-first views-row-odd">
    
  <div class="views-field views-field-field-image">        <div class="field-content"><img typeof="foaf:Image" src="https://www.bsalex.net/sites/default/files/styles/slider-new/public/images/slideshow/ckgalloway-7118.jpg?itok=e9ghe7Dp" width="1920" height="600" alt="" /></div>  </div></div>
</div>
<div id="views_slideshow_cycle_div_slider-block_1_3" class="views-slideshow-cycle-main-frame-row views_slideshow_cycle_slide views_slideshow_slide views-row-4 views_slideshow_cycle_hidden views-row-even">
  <div class="views-slideshow-cycle-main-frame-row-item views-row views-row-0 views-row-first views-row-odd">
    
  <div class="views-field views-field-field-image">        <div class="field-content"><img typeof="foaf:Image" src="https://www.bsalex.net/sites/default/files/styles/slider-new/public/images/slideshow/051A9186_0.jpg?itok=B5ex1MXE" width="1920" height="600" alt="" /></div>  </div></div>
</div>
<div id="views_slideshow_cycle_div_slider-block_1_4" class="views-slideshow-cycle-main-frame-row views_slideshow_cycle_slide views_slideshow_slide views-row-5 views_slideshow_cycle_hidden views-row-odd">
  <div class="views-slideshow-cycle-main-frame-row-item views-row views-row-0 views-row-first views-row-odd">
    
  <div class="views-field views-field-field-image">        <div class="field-content"><img typeof="foaf:Image" src="https://www.bsalex.net/sites/default/files/styles/slider-new/public/images/slideshow/31171478642_a82cbaa015_o.jpg?itok=ojWae65T" width="1920" height="600" alt="" /></div>  </div></div>
</div>
<div id="views_slideshow_cycle_div_slider-block_1_5" class="views-slideshow-cycle-main-frame-row views_slideshow_cycle_slide views_slideshow_slide views-row-6 views_slideshow_cycle_hidden views-row-even">
  <div class="views-slideshow-cycle-main-frame-row-item views-row views-row-0 views-row-first views-row-odd">
    
  <div class="views-field views-field-field-image">        <div class="field-content"><img typeof="foaf:Image" src="https://www.bsalex.net/sites/default/files/styles/slider-new/public/images/slideshow/IMG_7036.jpg?itok=igFpMM_D" width="1920" height="600" alt="" /></div>  </div></div>
</div>
<div id="views_slideshow_cycle_div_slider-block_1_6" class="views-slideshow-cycle-main-frame-row views_slideshow_cycle_slide views_slideshow_slide views-row-7 views_slideshow_cycle_hidden views-row-odd">
  <div class="views-slideshow-cycle-main-frame-row-item views-row views-row-0 views-row-first views-row-odd">
    
  <div class="views-field views-field-field-image">        <div class="field-content"><img typeof="foaf:Image" src="https://www.bsalex.net/sites/default/files/styles/slider-new/public/images/slideshow/051A2425%20WEB.jpg?itok=oX7zFt_G" width="1920" height="600" alt="" /></div>  </div></div>
</div>
<div id="views_slideshow_cycle_div_slider-block_1_7" class="views-slideshow-cycle-main-frame-row views_slideshow_cycle_slide views_slideshow_slide views-row-8 views_slideshow_cycle_hidden views-row-even">
  <div class="views-slideshow-cycle-main-frame-row-item views-row views-row-0 views-row-first views-row-odd">
    
  <div class="views-field views-field-field-image">        <div class="field-content"><img typeof="foaf:Image" src="https://www.bsalex.net/sites/default/files/styles/slider-new/public/images/slideshow/DSC_0312%20webb.jpg?itok=p5LgnSnO" width="1920" height="600" alt="" /></div>  </div></div>
</div>
<div id="views_slideshow_cycle_div_slider-block_1_8" class="views-slideshow-cycle-main-frame-row views_slideshow_cycle_slide views_slideshow_slide views-row-9 views_slideshow_cycle_hidden views-row-odd">
  <div class="views-slideshow-cycle-main-frame-row-item views-row views-row-0 views-row-first views-row-odd">
    
  <div class="views-field views-field-field-image">        <div class="field-content"><img typeof="foaf:Image" src="https://www.bsalex.net/sites/default/files/styles/slider-new/public/images/slideshow/DSC_0216WEB.jpg?itok=cAMxd2UQ" width="1920" height="600" alt="" /></div>  </div></div>
</div>
<div id="views_slideshow_cycle_div_slider-block_1_9" class="views-slideshow-cycle-main-frame-row views_slideshow_cycle_slide views_slideshow_slide views-row-10 views_slideshow_cycle_hidden views-row-even">
  <div class="views-slideshow-cycle-main-frame-row-item views-row views-row-0 views-row-first views-row-odd">
    
  <div class="views-field views-field-field-image">        <div class="field-content"><img typeof="foaf:Image" src="https://www.bsalex.net/sites/default/files/styles/slider-new/public/images/slideshow/051A3914%20%20WEB.jpg?itok=0HNE94VN" width="1920" height="600" alt="" /></div>  </div></div>
</div>
</div>
</div>
  </div>
    </div>
  
  
  
  
  
  
</div>    </div>
  </div>
</div><div class="block block-block block-11 block-block-11 even block-without-title" id="block-block-11">
  <div class="block-inner clearfix">
                
    <div class="content clearfix">
      <p><a href="/contact">Get in Touch</a> <a href="https://classroom.google.com/h">Google Classroom</a></p>
    </div>
  </div>
</div>  </div>
</div>  </div>
</div></header>    
      <section id="section-content" class="section section-content">
  <div id="zone-content-wrapper" class="zone-wrapper zone-content-wrapper clearfix">  
  <div id="zone-content" class="zone zone-content clearfix container-12">    
        
        <div class="grid-12 region region-content" id="region-content">
  <div class="region-inner region-content-inner">
    <a id="main-content"></a>
                <h1 class="title" id="page-title">Welcome to The British School, Alexandria </h1>
                        <section class="block block-views block-news-block-2 block-views-news-block-2 odd" id="block-views-news-block-2">
  <div class="block-inner clearfix">
              <h2 class="block-title">Our latest news:</h2>
            
    <div class="content clearfix">
      <div class="view view-news view-id-news view-display-id-block_2 view-dom-id-6690bc6ae7bd83a22edf44206589a8b0">
        
  
  
      <div class="view-content">
      
<div class="skin-default">
  
  <div id="views_slideshow_cycle_main_news-block_2" class="views_slideshow_cycle_main views_slideshow_main"><div id="views_slideshow_cycle_teaser_section_news-block_2" class="views-slideshow-cycle-main-frame views_slideshow_cycle_teaser_section">
  <div id="views_slideshow_cycle_div_news-block_2_0" class="views-slideshow-cycle-main-frame-row views_slideshow_cycle_slide views_slideshow_slide views-row-1 views-row-odd">
  <div class="views-slideshow-cycle-main-frame-row-item views-row views-row-0 views-row-first views-row-odd">
    
  <div class="views-field views-field-title">        <span class="field-content"><a href="http://www.bsalex.net/current-vacancies">Join our Staff !</a></span>  </div></div>
</div>
<div id="views_slideshow_cycle_div_news-block_2_1" class="views-slideshow-cycle-main-frame-row views_slideshow_cycle_slide views_slideshow_slide views-row-2 views_slideshow_cycle_hidden views-row-even">
  <div class="views-slideshow-cycle-main-frame-row-item views-row views-row-0 views-row-first views-row-odd">
    
  <div class="views-field views-field-title">        <span class="field-content"><a href="https://www.bsalex.net/bso-inspection-outcome-jan-2019">Delight at our recent inspection outcome</a></span>  </div></div>
</div>
</div>
</div>
  </div>
    </div>
  
  
  
  
  
  
</div>    </div>
  </div>
</section><div class="block block-block block-8 block-block-8 even block-without-title" id="block-block-8">
  <div class="block-inner clearfix">
                
    <div class="content clearfix">
      <p><img src="/sites/all/themes/bsalexandria/images/icon-facebook.png"><a href="https://www.facebook.com/pages/British-School-of-Alexandria-BSA/511331442234913" target="_blank">Find us on Facebook</a></p>
<p><img src="/sites/all/themes/bsalexandria/images/icon-twitter.png"><a href="https://twitter.com/bsalexandria" target="_blank">Follow us on Twitter</a></p>
<p><img src="/sites/all/themes/bsalexandria/images/icon-calendar.png"><a href="/calendar">Calendar</a></p>
<!-- <p><img src="/sites/all/themes/bsalexandria/images/icon-news.png"><a href="/school-news">Class News</a></p><br/> -->    </div>
  </div>
</div><section class="block block-views block-class-news-block-1 block-views-class-news-block-1 odd" id="block-views-class-news-block-1">
  <div class="block-inner clearfix">
              <h2 class="block-title">News</h2>
            
    <div class="content clearfix">
      <div class="view view-class-news view-id-class_news view-display-id-block_1 view-dom-id-3f72057e7c3dec0df3a9b03f2f036c5b">
        
  
  
      <div class="view-content">
        <div class="views-row views-row-1 views-row-odd views-row-first">
      
  <div class="views-field views-field-title">        <span class="field-content"><a href="/school-news/student-council">Student Council</a></span>  </div>  
  <div class="views-field views-field-body">        <span class="field-content">The children have all voted for their student council members and we would like...</span>  </div>  </div>
  <div class="views-row views-row-2 views-row-even">
      
  <div class="views-field views-field-title">        <span class="field-content"><a href="/school-news/launch-shalalat-campus-project-19-sep-2019">The Launch of the Shalalat Campus Project - 19 Sep 2019</a></span>  </div>  
  <div class="views-field views-field-body">        <span class="field-content">On Thursday 19th September 2019, we had our Lanuch Evening at the new School...</span>  </div>  </div>
  <div class="views-row views-row-3 views-row-odd">
      
  <div class="views-field views-field-title">        <span class="field-content"><a href="/school-news/excellent-exam-results-summer-2019">Excellent Exam Results - Summer 2019</a></span>  </div>  
  <div class="views-field views-field-body">        <span class="field-content">Once again, we were very pleased with our examination results with individual...</span>  </div>  </div>
  <div class="views-row views-row-4 views-row-even views-row-last">
      
  <div class="views-field views-field-title">        <span class="field-content"><a href="/school-news/maths-problem-solving-day">Maths Problem Solving Day</a></span>  </div>  
  <div class="views-field views-field-body">        <span class="field-content">On Sunday 9th June we welcomed MBIS (Maadi British International School) and...</span>  </div>  </div>
    </div>
  
  
  
  
  
  
</div>    </div>
  </div>
</section><section class="block block-views block-news-block-1 block-views-news-block-1 even" id="block-views-news-block-1">
  <div class="block-inner clearfix">
              <h2 class="block-title">Announcements</h2>
            
    <div class="content clearfix">
      <div class="view view-news view-id-news view-display-id-block_1 view-dom-id-16de78086f3af6780ba12f359cc8ce7d">
        
  
  
      <div class="view-content">
        <div class="views-row views-row-1 views-row-odd views-row-first">
      
  <div class="views-field views-field-title">        <span class="field-content"><a href="/senior-school-art-exhibition">Senior School Art Exhibition </a></span>  </div>  
  <span class="views-field views-field-body">        <span class="field-content">From 20th to 23rd October 2019 from 12.30 - 16.00 at Nefertiti Hall 

</span>  </span>  </div>
  <div class="views-row views-row-2 views-row-even">
      
  <div class="views-field views-field-title">        <span class="field-content"><a href="/revising-history-ks3-ks4-ks5">Revising History for KS3, KS4 &amp; KS5</a></span>  </div>  
  <span class="views-field views-field-body">        <span class="field-content">Thanks to Mr Rudd for creating a website for History revising for KS3-5...</span>  </span>  </div>
  <div class="views-row views-row-3 views-row-odd">
      
  <div class="views-field views-field-title">        <span class="field-content"><a href="/delight-our-recent-inspection-outcome">Delight at our recent inspection outcome</a></span>  </div>  
  <span class="views-field views-field-body">        <span class="field-content">As a school, we are delighted to announce that we have had another very...</span>  </span>  </div>
  <div class="views-row views-row-4 views-row-even views-row-last">
      
  <div class="views-field views-field-title">        <span class="field-content"><a href="/check-our-latest-news-here">Check our latest news here!</a></span>  </div>  
  <span class="views-field views-field-body">        <span class="field-content">Check our facebook page for the latest classroom news:
https://www.facebook.com...</span>  </span>  </div>
    </div>
  
  
  
  
  
  
</div>    </div>
  </div>
</section><div class="block block-system block-main block-system-main odd block-without-title" id="block-system-main">
  <div class="block-inner clearfix">
                
    <div class="content clearfix">
      <article about="/home" typeof="foaf:Document" class="node node-page node-published node-not-promoted node-not-sticky author-admin odd clearfix" id="node-page-1">
        <span property="dc:title" content="Welcome to The British School, Alexandria " class="rdf-meta element-hidden"></span>    
  
  <div class="content clearfix">
    <span class="print-link"></span>  </div>
  
  <div class="clearfix">
          <nav class="links node-links clearfix"></nav>
    
      </div>
</article>    </div>
  </div>
</div><div class="block block-block block-13 block-block-13 even block-without-title" id="block-block-13">
  <div class="block-inner clearfix">
                
    <div class="content clearfix">
      <h1><strong>Excellence in learning and preparation for life and leadership!</strong></h1>
<h2>​Her Britannic Majesty's Ambassador to Egypt is the Patron of the School</h2>
<h1><img alt="" src="https://www.bsalex.net/sites/default/files/logos_0.jpg" style="font-size:12px; height:96px; width:800px" /></h1>
<p> </p>
<p> </p>
<iframe width="560" height="315" src="https://www.youtube.com/embed/VoNNVAQqkoQ" frameborder="0" allow="accelerometer; autoplay; encrypted-media; gyroscope; picture-in-picture" allowfullscreen=""></iframe>    </div>
  </div>
</div>      </div>
</div>  </div>
</div></section>    
  
      <footer id="section-footer" class="section section-footer">
  <div id="zone-footer-wrapper" class="zone-wrapper zone-footer-wrapper clearfix">  
  <div id="zone-footer" class="zone zone-footer clearfix container-12">
    <div class="grid-12 region region-footer" id="region-footer">
  <div class="region-inner region-footer-inner">
    <div class="block block-block block-9 block-block-9 odd block-without-title" id="block-block-9">
  <div class="block-inner clearfix">
                
    <div class="content clearfix">
      <p><a href="mailto:info@bsalex.net">info@bsalex.net</a></p>
    </div>
  </div>
</div><div class="block block-custom-search-blocks block-2 block-custom-search-blocks-2 even block-without-title" id="block-custom-search-blocks-2">
  <div class="block-inner clearfix">
                
    <div class="content clearfix">
      <form class="search-form" role="search" action="/" method="post" id="custom-search-blocks-form-2" accept-charset="UTF-8"><div><div class="form-item form-type-textfield form-item-custom-search-blocks-form-2">
  <label class="element-invisible" for="edit-custom-search-blocks-form-2--2">Search this site </label>
 <input title="" class="custom-search-box form-text" placeholder="Search" type="text" id="edit-custom-search-blocks-form-2--2" name="custom_search_blocks_form_2" value="" size="25" maxlength="128" />
</div>
<input type="hidden" name="delta" value="2" />
<input type="hidden" name="form_build_id" value="form-9C8ZCFZMoOvcWQU7Iv8RLIU9Wa8P_wxCfgWAuDUw6BQ" />
<input type="hidden" name="form_id" value="custom_search_blocks_form_2" />
<div class="form-actions form-wrapper" id="edit-actions--2"><input style="display:none;" type="submit" id="edit-submit--2" name="op" value="" class="form-submit" /></div></div></form>    </div>
  </div>
</div><div class="block block-block block-2 block-block-2 odd block-without-title" id="block-block-2">
  <div class="block-inner clearfix">
                
    <div class="content clearfix">
      &copy; Copyright 2013 - The British School, Alexandria - <a href="/sitemap">Site Map</a>    </div>
  </div>
</div>  </div>
</div>  </div>
</div></footer>  </div>  <div class="region region-page-bottom" id="region-page-bottom">
  <div class="region-inner region-page-bottom-inner">
      </div>
</div></body>
</html>