<!DOCTYPE html PUBLIC "-//W3C//DTD XHTML+RDFa 1.0//EN" "http://www.w3.org/MarkUp/DTD/xhtml-rdfa-1.dtd">

<!--[if lt IE 7]> <html class="no-js ie6 ie" xmlns="http://www.w3.org/1999/xhtml" xml:lang="de" version="XHTML+RDFa 1.0" dir="ltr" 
  xmlns:content="http://purl.org/rss/1.0/modules/content/"
  xmlns:dc="http://purl.org/dc/terms/"
  xmlns:foaf="http://xmlns.com/foaf/0.1/"
  xmlns:og="http://ogp.me/ns#"
  xmlns:rdfs="http://www.w3.org/2000/01/rdf-schema#"
  xmlns:sioc="http://rdfs.org/sioc/ns#"
  xmlns:sioct="http://rdfs.org/sioc/types#"
  xmlns:skos="http://www.w3.org/2004/02/skos/core#"
  xmlns:xsd="http://www.w3.org/2001/XMLSchema#"> <![endif]-->
<!--[if IE 7]>    <html class="no-js ie7 ie" xmlns="http://www.w3.org/1999/xhtml" xml:lang="de" version="XHTML+RDFa 1.0" dir="ltr" 
  xmlns:content="http://purl.org/rss/1.0/modules/content/"
  xmlns:dc="http://purl.org/dc/terms/"
  xmlns:foaf="http://xmlns.com/foaf/0.1/"
  xmlns:og="http://ogp.me/ns#"
  xmlns:rdfs="http://www.w3.org/2000/01/rdf-schema#"
  xmlns:sioc="http://rdfs.org/sioc/ns#"
  xmlns:sioct="http://rdfs.org/sioc/types#"
  xmlns:skos="http://www.w3.org/2004/02/skos/core#"
  xmlns:xsd="http://www.w3.org/2001/XMLSchema#"> <![endif]-->
<!--[if IE 8]>    <html class="no-js ie8 ie" xmlns="http://www.w3.org/1999/xhtml" xml:lang="de" version="XHTML+RDFa 1.0" dir="ltr" 
  xmlns:content="http://purl.org/rss/1.0/modules/content/"
  xmlns:dc="http://purl.org/dc/terms/"
  xmlns:foaf="http://xmlns.com/foaf/0.1/"
  xmlns:og="http://ogp.me/ns#"
  xmlns:rdfs="http://www.w3.org/2000/01/rdf-schema#"
  xmlns:sioc="http://rdfs.org/sioc/ns#"
  xmlns:sioct="http://rdfs.org/sioc/types#"
  xmlns:skos="http://www.w3.org/2004/02/skos/core#"
  xmlns:xsd="http://www.w3.org/2001/XMLSchema#"> <![endif]-->
<!--[if IE 9]>    <html class="no-js ie9 ie" xmlns="http://www.w3.org/1999/xhtml" xml:lang="de" version="XHTML+RDFa 1.0" dir="ltr" 
  xmlns:content="http://purl.org/rss/1.0/modules/content/"
  xmlns:dc="http://purl.org/dc/terms/"
  xmlns:foaf="http://xmlns.com/foaf/0.1/"
  xmlns:og="http://ogp.me/ns#"
  xmlns:rdfs="http://www.w3.org/2000/01/rdf-schema#"
  xmlns:sioc="http://rdfs.org/sioc/ns#"
  xmlns:sioct="http://rdfs.org/sioc/types#"
  xmlns:skos="http://www.w3.org/2004/02/skos/core#"
  xmlns:xsd="http://www.w3.org/2001/XMLSchema#"> <![endif]-->
<!--[if gt IE 9]><!--> <html class="no-js" xmlns="http://www.w3.org/1999/xhtml" xml:lang="de" version="XHTML+RDFa 1.0" dir="ltr" 
  xmlns:content="http://purl.org/rss/1.0/modules/content/"
  xmlns:dc="http://purl.org/dc/terms/"
  xmlns:foaf="http://xmlns.com/foaf/0.1/"
  xmlns:og="http://ogp.me/ns#"
  xmlns:rdfs="http://www.w3.org/2000/01/rdf-schema#"
  xmlns:sioc="http://rdfs.org/sioc/ns#"
  xmlns:sioct="http://rdfs.org/sioc/types#"
  xmlns:skos="http://www.w3.org/2004/02/skos/core#"
  xmlns:xsd="http://www.w3.org/2001/XMLSchema#"> <!--<![endif]-->

<head profile="http://www.w3.org/1999/xhtml/vocab">
  <meta http-equiv="Content-Type" content="text/html; charset=utf-8" />
<meta name="keywords" content="Hotelreinigung , Reinigungsservice, Zimmerreinigung, Teppichreinigung , VorhangreinigungMatratzenreinigung , Polsterreinigung" /><meta name="description" content="Clean & Fresh gilt in Deutchland als Technologieführer auf dem Gebiet der Sprüh-Extraktionstechnik. Bei diesem Verfahren wird das mit einem Spezialmittel angereicherte Wasser mit variablem Druck tief in die Faser hineingepresst und sofort wieder abgesaugt." /><link rel="shortcut icon" href="https://www.cleanandfresh.net/sites/default/files/favicon.png" type="image/png" />
<meta name="Generator" content="Drupal 7 (http://drupal.org)" />
  <title>Clean &amp; Fresh | Solutions for a better Cleaning</title>
  <style type="text/css" media="all">
@import url("https://www.cleanandfresh.net/modules/system/system.base.css?pvbdzo");
@import url("https://www.cleanandfresh.net/modules/system/system.menus.css?pvbdzo");
@import url("https://www.cleanandfresh.net/modules/system/system.messages.css?pvbdzo");
@import url("https://www.cleanandfresh.net/modules/system/system.theme.css?pvbdzo");
</style>
<style type="text/css" media="all">
@import url("https://www.cleanandfresh.net/sites/all/modules/views_slideshow/views_slideshow.css?pvbdzo");
</style>
<style type="text/css" media="all">
@import url("https://www.cleanandfresh.net/modules/comment/comment.css?pvbdzo");
@import url("https://www.cleanandfresh.net/modules/field/theme/field.css?pvbdzo");
@import url("https://www.cleanandfresh.net/modules/node/node.css?pvbdzo");
@import url("https://www.cleanandfresh.net/modules/search/search.css?pvbdzo");
@import url("https://www.cleanandfresh.net/modules/user/user.css?pvbdzo");
@import url("https://www.cleanandfresh.net/sites/all/modules/views/css/views.css?pvbdzo");
</style>
<style type="text/css" media="all">
@import url("https://www.cleanandfresh.net/sites/all/modules/ctools/css/ctools.css?pvbdzo");
@import url("https://www.cleanandfresh.net/sites/all/modules/views_slideshow/views_slideshow_controls_text.css?pvbdzo");
@import url("https://www.cleanandfresh.net/sites/all/modules/views_slideshow/contrib/views_slideshow_cycle/views_slideshow_cycle.css?pvbdzo");
</style>
<style type="text/css" media="all">
@import url("https://www.cleanandfresh.net/sites/all/themes/cleantheme/css/style.css?pvbdzo");
</style>
   
  <meta name="viewport" content="width=device-width, initial-scale=1.0, maximum-scale=1.0, user-scalable=no" />
  <meta name="MobileOptimized" content="width" />
  <meta name="apple-mobile-web-app-capable" content="yes" />
  <link href='http://fonts.googleapis.com/css?family=Raleway:500,600,700,100,800,900,400,200,300' rel='stylesheet' type='text/css'>
  <link href='https://fonts.googleapis.com/css?family=Pacifico' rel='stylesheet' type='text/css'>
  <link href='http://fonts.googleapis.com/css?family=Herr+Von+Muellerhoff' rel='stylesheet' type='text/css'>
  <link href='http://fonts.googleapis.com/css?family=Leckerli+One' rel='stylesheet' type='text/css'>
  <link rel="apple-touch-icon" href="/sites/default/files/apple-touch-icon.png" />
  <script type="text/javascript" src="https://www.cleanandfresh.net/misc/jquery.js?v=1.4.4"></script>
<script type="text/javascript" src="https://www.cleanandfresh.net/misc/jquery.once.js?v=1.2"></script>
<script type="text/javascript" src="https://www.cleanandfresh.net/misc/drupal.js?pvbdzo"></script>
<script type="text/javascript" src="https://www.cleanandfresh.net/sites/all/modules/views_slideshow/js/views_slideshow.js?v=1.0"></script>
<script type="text/javascript" src="https://www.cleanandfresh.net/sites/default/files/languages/de_8jGQMEXgB9ek526ivbu5yHYdDYO3xAwbeaoWOrjPXRM.js?pvbdzo"></script>
<script type="text/javascript" src="https://www.cleanandfresh.net/sites/all/modules/parallax_bg/parallax_bg.js?pvbdzo"></script>
<script type="text/javascript" src="https://www.cleanandfresh.net/sites/all/modules/parallax_bg/js/jquery.scrollTo.js?pvbdzo"></script>
<script type="text/javascript" src="https://www.cleanandfresh.net/sites/all/modules/parallax_bg/js/jquery.parallax.js?pvbdzo"></script>
<script type="text/javascript" src="https://www.cleanandfresh.net/sites/all/modules/google_analytics/googleanalytics.js?pvbdzo"></script>
<script type="text/javascript" src="https://www.cleanandfresh.net/sites/all/modules/views_slideshow/contrib/views_slideshow_cycle/js/views_slideshow_cycle.js?pvbdzo"></script>
<script type="text/javascript" src="https://www.cleanandfresh.net/sites/all/libraries/jquery.cycle/jquery.cycle.all.js?pvbdzo"></script>
<script type="text/javascript">
<!--//--><![CDATA[//><!--
(function(i,s,o,g,r,a,m){i["GoogleAnalyticsObject"]=r;i[r]=i[r]||function(){(i[r].q=i[r].q||[]).push(arguments)},i[r].l=1*new Date();a=s.createElement(o),m=s.getElementsByTagName(o)[0];a.async=1;a.src=g;m.parentNode.insertBefore(a,m)})(window,document,"script","https://www.google-analytics.com/analytics.js","ga");ga("create", "UA-61342049-1", {"cookieDomain":"auto","allowLinker":true});ga("require", "linker");ga("linker:autoLink", ["http:\/\/clean-and-fresh.net\/","http:\/\/clean-and-fresh.eu\/"]);ga("set", "anonymizeIp", true);ga("send", "pageview");
//--><!]]>
</script>
<script type="text/javascript" src="https://www.cleanandfresh.net/sites/all/themes/cleantheme/js/script.js?pvbdzo"></script>
<script type="text/javascript">
<!--//--><![CDATA[//><!--
jQuery.extend(Drupal.settings, {"basePath":"\/","pathPrefix":"","ajaxPageState":{"theme":"cleantheme","theme_token":"o9iFmjIvRSswWZvogcso-qcsja6AXEdnUKHVZ7sLEtg","js":{"misc\/jquery.js":1,"misc\/jquery.once.js":1,"misc\/drupal.js":1,"sites\/all\/modules\/views_slideshow\/js\/views_slideshow.js":1,"public:\/\/languages\/de_8jGQMEXgB9ek526ivbu5yHYdDYO3xAwbeaoWOrjPXRM.js":1,"sites\/all\/modules\/parallax_bg\/parallax_bg.js":1,"sites\/all\/modules\/parallax_bg\/js\/jquery.scrollTo.js":1,"sites\/all\/modules\/parallax_bg\/js\/jquery.parallax.js":1,"sites\/all\/modules\/google_analytics\/googleanalytics.js":1,"sites\/all\/modules\/views_slideshow\/contrib\/views_slideshow_cycle\/js\/views_slideshow_cycle.js":1,"sites\/all\/libraries\/jquery.cycle\/jquery.cycle.all.js":1,"0":1,"sites\/all\/themes\/cleantheme\/js\/script.js":1},"css":{"modules\/system\/system.base.css":1,"modules\/system\/system.menus.css":1,"modules\/system\/system.messages.css":1,"modules\/system\/system.theme.css":1,"sites\/all\/modules\/views_slideshow\/views_slideshow.css":1,"modules\/comment\/comment.css":1,"modules\/field\/theme\/field.css":1,"modules\/node\/node.css":1,"modules\/search\/search.css":1,"modules\/user\/user.css":1,"sites\/all\/modules\/views\/css\/views.css":1,"sites\/all\/modules\/ctools\/css\/ctools.css":1,"sites\/all\/modules\/views_slideshow\/views_slideshow_controls_text.css":1,"sites\/all\/modules\/views_slideshow\/contrib\/views_slideshow_cycle\/views_slideshow_cycle.css":1,"sites\/all\/themes\/cleantheme\/css\/style.css":1}},"parallax_bg":{"triggers_fieldset":{"trigger1":{"element":".field-name-field-parallax-image","position":"50%","speed":"0.2"},"trigger2":{"element":".field-name-field-parallax-image2","position":"50%","speed":"0.2"},"trigger3":{"element":".parra-carpet","position":"50%","speed":"0.2"},"trigger4":{"element":".parra-mattress","position":"50%","speed":"0.2"},"trigger5":{"element":".parra-upholstery","position":"50%","speed":"0.2"}}},"viewsSlideshow":{"slideshow-block_1":{"methods":{"goToSlide":["viewsSlideshowPager","viewsSlideshowSlideCounter","viewsSlideshowCycle"],"nextSlide":["viewsSlideshowPager","viewsSlideshowSlideCounter","viewsSlideshowCycle"],"pause":["viewsSlideshowControls","viewsSlideshowCycle"],"play":["viewsSlideshowControls","viewsSlideshowCycle"],"previousSlide":["viewsSlideshowPager","viewsSlideshowSlideCounter","viewsSlideshowCycle"],"transitionBegin":["viewsSlideshowPager","viewsSlideshowSlideCounter"],"transitionEnd":[]},"paused":0},"testimonials-block_1":{"methods":{"goToSlide":["viewsSlideshowPager","viewsSlideshowSlideCounter","viewsSlideshowCycle"],"nextSlide":["viewsSlideshowPager","viewsSlideshowSlideCounter","viewsSlideshowCycle"],"pause":["viewsSlideshowControls","viewsSlideshowCycle"],"play":["viewsSlideshowControls","viewsSlideshowCycle"],"previousSlide":["viewsSlideshowPager","viewsSlideshowSlideCounter","viewsSlideshowCycle"],"transitionBegin":["viewsSlideshowPager","viewsSlideshowSlideCounter"],"transitionEnd":[]},"paused":0},"client_slider-block_1":{"methods":{"goToSlide":["viewsSlideshowPager","viewsSlideshowSlideCounter","viewsSlideshowCycle"],"nextSlide":["viewsSlideshowPager","viewsSlideshowSlideCounter","viewsSlideshowCycle"],"pause":["viewsSlideshowControls","viewsSlideshowCycle"],"play":["viewsSlideshowControls","viewsSlideshowCycle"],"previousSlide":["viewsSlideshowPager","viewsSlideshowSlideCounter","viewsSlideshowCycle"],"transitionBegin":["viewsSlideshowPager","viewsSlideshowSlideCounter"],"transitionEnd":[]},"paused":0}},"viewsSlideshowCycle":{"#views_slideshow_cycle_main_slideshow-block_1":{"num_divs":2,"id_prefix":"#views_slideshow_cycle_main_","div_prefix":"#views_slideshow_cycle_div_","vss_id":"slideshow-block_1","effect":"fade","transition_advanced":1,"timeout":7000,"speed":400,"delay":0,"sync":1,"random":0,"pause":1,"pause_on_click":0,"play_on_hover":0,"action_advanced":0,"start_paused":0,"remember_slide":0,"remember_slide_days":1,"pause_in_middle":0,"pause_when_hidden":0,"pause_when_hidden_type":"full","amount_allowed_visible":"","nowrap":0,"pause_after_slideshow":0,"fixed_height":1,"items_per_slide":1,"wait_for_image_load":1,"wait_for_image_load_timeout":3000,"cleartype":0,"cleartypenobg":0,"advanced_options":"{}"},"#views_slideshow_cycle_main_testimonials-block_1":{"num_divs":7,"id_prefix":"#views_slideshow_cycle_main_","div_prefix":"#views_slideshow_cycle_div_","vss_id":"testimonials-block_1","effect":"fade","transition_advanced":0,"timeout":5000,"speed":700,"delay":0,"sync":1,"random":0,"pause":1,"pause_on_click":0,"play_on_hover":0,"action_advanced":0,"start_paused":0,"remember_slide":0,"remember_slide_days":1,"pause_in_middle":0,"pause_when_hidden":0,"pause_when_hidden_type":"full","amount_allowed_visible":"","nowrap":0,"pause_after_slideshow":0,"fixed_height":1,"items_per_slide":1,"wait_for_image_load":1,"wait_for_image_load_timeout":3000,"cleartype":0,"cleartypenobg":0,"advanced_options":"{}"},"#views_slideshow_cycle_main_client_slider-block_1":{"num_divs":48,"id_prefix":"#views_slideshow_cycle_main_","div_prefix":"#views_slideshow_cycle_div_","vss_id":"client_slider-block_1","effect":"scrollLeft","transition_advanced":0,"timeout":5000,"speed":700,"delay":0,"sync":1,"random":0,"pause":1,"pause_on_click":0,"play_on_hover":0,"action_advanced":1,"start_paused":0,"remember_slide":0,"remember_slide_days":1,"pause_in_middle":0,"pause_when_hidden":0,"pause_when_hidden_type":"full","amount_allowed_visible":"","nowrap":0,"pause_after_slideshow":0,"fixed_height":0,"items_per_slide":7,"wait_for_image_load":0,"wait_for_image_load_timeout":3000,"cleartype":0,"cleartypenobg":0,"advanced_options":"{}"}},"viewsSlideshowControls":{"testimonials-block_1":{"bottom":{"type":"viewsSlideshowControlsText"}}},"googleanalytics":{"trackOutbound":1,"trackMailto":1,"trackDownload":1,"trackDownloadExtensions":"7z|aac|arc|arj|asf|asx|avi|bin|csv|doc(x|m)?|dot(x|m)?|exe|flv|gif|gz|gzip|hqx|jar|jpe?g|js|mp(2|3|4|e?g)|mov(ie)?|msi|msp|pdf|phps|png|ppt(x|m)?|pot(x|m)?|pps(x|m)?|ppam|sld(x|m)?|thmx|qtm?|ra(m|r)?|sea|sit|tar|tgz|torrent|txt|wav|wma|wmv|wpd|xls(x|m|b)?|xlt(x|m)|xlam|xml|z|zip","trackDomainMode":2,"trackCrossDomains":["http:\/\/clean-and-fresh.net\/","http:\/\/clean-and-fresh.eu\/"]}});
//--><!]]>
</script>
</head>
<body id="body" class="html front not-logged-in no-sidebars page-node" >
  <div id="skip-link">
    <a href="#main-content-area"></a>
  </div>
    
<div id="page-wrapper"><div id="page">
	<div id="header"><div class="section clearfix">
        <div class="region region-header">
    <div id="block-block-1" class="block block-block">

    
  <div class="content">
    <p><a href="/"><img alt="Clean &amp; Fresh" src="/sites/default/files/logo.png" style="width: 240px; height: 28px;" /></a></p>
  </div>
</div>
  </div>

		<div id="navigation"><div class="section">
    		    			<a id="menu-icon"></a>
        	<h2>Hauptmenü</h2><ul id="main-menu" class="links inline clearfix"><li class="menu-388 first"><a href="http://en.cleanandfresh.net" title="">Language Englisch</a></li>
<li class="menu-396"><a href="/uber-uns">Über uns</a></li>
<li class="menu-514"><a href="/leistungen">Leistungen</a></li>
<li class="menu-456"><a href="/technik">Technik</a></li>
<li class="menu-457"><a href="/vorher-und-nachher">Vorher und Nachher</a></li>
<li class="menu-401"><a href="/bezahlung">Bezahlung</a></li>
<li class="menu-458"><a href="/referenzen">Referenzen</a></li>
<li class="menu-459"><a href="/blog">Blog</a></li>
<li class="menu-403 last"><a href="/kontakt">Kontakt</a></li>
</ul>    		    	</div></div> <!-- end nav menu -->
    </div></div> <!-- end header -->

	<div id="main-wrapper"><div id="main" class="clearfix">
                 	<h1 class="title" id="page-title">Solutions for a better cleaning</h1>
                        	<div id="page_top" ><div class="section">
          				</div></div> <!-- end page_top  -->
				        	<div id="content-top" ><div class="section">
			  <div class="region region-content-top">
    <div id="block-views-slideshow-block" class="block block-views">

    
  <div class="content">
    <div class="view view-slideshow view-id-slideshow view-display-id-block view-dom-id-56f683cd810e64c715aac82916deb744">
        
  
  
      <div class="view-content">
      
  <div class="skin-default">
    
    <div id="views_slideshow_cycle_main_slideshow-block_1" class="views_slideshow_cycle_main views_slideshow_main"><div id="views_slideshow_cycle_teaser_section_slideshow-block_1" class="views-slideshow-cycle-main-frame views_slideshow_cycle_teaser_section">
  <div id="views_slideshow_cycle_div_slideshow-block_1_0" class="views-slideshow-cycle-main-frame-row views_slideshow_cycle_slide views_slideshow_slide views-row-1 views-row-first views-row-odd" >
  <div class="views-slideshow-cycle-main-frame-row-item views-row views-row-0 views-row-odd views-row-first">
    
  <div class="views-field views-field-field-slideshow-text">        <div class="field-content">Wir bieten einen an jedes Hotel und Büro speziell angepassten Reinigungsservice an</div>  </div>  
  <div class="views-field views-field-field-slideshow-image">        <div class="field-content slideimage"><img typeof="foaf:Image" src="https://www.cleanandfresh.net/sites/default/files/im5.jpg" width="1800" height="1221" alt="" /></div>  </div>  
  <div class="views-field views-field-field-slideshow-button">        <div class="field-content"><a href="https://www.cleanandfresh.net/leistungen">Leistungen</a></div>  </div></div>
</div>
<div id="views_slideshow_cycle_div_slideshow-block_1_1" class="views-slideshow-cycle-main-frame-row views_slideshow_cycle_slide views_slideshow_slide views-row-2 views_slideshow_cycle_hidden views-row-last views-row-even" >
  <div class="views-slideshow-cycle-main-frame-row-item views-row views-row-0 views-row-odd">
    
  <div class="views-field views-field-field-slideshow-text">        <div class="field-content">Wir bieten einen an jedes Hotel und Büro speziell angepassten Reinigungsservice an</div>  </div>  
  <div class="views-field views-field-field-slideshow-image">        <div class="field-content slideimage"><img typeof="foaf:Image" src="https://www.cleanandfresh.net/sites/default/files/img6.jpg" width="1800" height="1221" alt="" /></div>  </div>  
  <div class="views-field views-field-field-slideshow-button">        <div class="field-content"><a href="https://www.cleanandfresh.net/leistungen">Leistungen</a></div>  </div></div>
</div>
</div>
</div>
      </div>
    </div>
  
  
  
  
  
  
</div>  </div>
</div>
  </div>
        	</div></div> <!-- end content top -->
      	
      	<div id="content" ><div class="section">
        	<a id="main-content"></a>
			<div class="tabs"></div>        	        	        	  <div class="region region-content">
    <div id="block-block-8" class="block block-block">

    
  <div class="content">
    <p>Clean &amp; Fresh gilt in Deutschland als Technologieführer auf dem Gebiet der Sprüh-Extraktionstechnik. Bei diesem Verfahren wird das mit einem Spezialmittel angereicherte Wasser mit variablem Druck tief in die Faser hineingepresst und sofort wieder abgesaugt.</p>
  </div>
</div>
<div id="block-system-main" class="block block-system">

    
  <div class="content">
    <div id="first-time"><p>Es wurde noch kein Inhalt für die Startseite erstellt.</p></div>  </div>
</div>
  </div>
      	</div></div> <!-- end content -->
 		
        <div id="services"><div class="valign bottom">
<div><a href="/leistungen"><img alt="Gardinen , Vorhänge &amp; Stores" src="/sites/default/files/curtaincleaning.png" style="width: 171px; height: 170px;" /><br />Gardinen , Vorhänge &amp; Stores</a></div>
<div><a href="/leistungen"><img alt="Teppichböden " src="/sites/default/files/carpetcleaning.png" style="width: 158px; height: 180px;" /><br />Teppichböden </a></div>
<div><a href="/leistungen"><img alt="Matratzen " src="/sites/default/files/mattresscleaning.png" style="width: 230px; height: 184px;" /><br />Matratzen </a></div>
<div><a href="/leistungen"><img alt="Polstermöbel " src="/sites/default/files/upholsterycleaning.png" style="width: 215px; height: 142px;" /><br />Polstermöbel </a></div>
</div>
<p> </p>
		</div>
        
        <div id="content" ><div id="block-block-10"><p>Clean & Fresh wendet bei der Teppichreinigung innovative Technologien an, die 99 % aller Flecken entfernen (außer von Bleichmitteln und Brandspuren) und eine Trockenzeit von nur 4 bis 5 Stunden gewährleisten.</p><a href="/leistungen"><input id="button" name="op" type="button" value="finde mehr heraus" /></a>            </div>
        
        	<div id="divider" ><p style="text-align: center;"><img alt="divider" src="/sites/default/files/divider.png" style="width: 86px; height: 19px;" /></p>
			</div>
            
        	<h2 style="text-align: center;">Was unsere Kunden sagen</h2>
<h3 style="text-align: center;">Eine Auswahl von Referenzen unserer Kunden</h3>
            
			        		<div id="content-lower" ><div class="section">
          		  <div class="region region-content-lower">
    <div id="block-views-testimonials-block" class="block block-views">

    
  <div class="content">
    <div class="view view-testimonials view-id-testimonials view-display-id-block view-dom-id-79f5f81a245a77f920c918c5fa8737d0">
        
  
  
      <div class="view-content">
      
  <div class="skin-default">
    
    <div id="views_slideshow_cycle_main_testimonials-block_1" class="views_slideshow_cycle_main views_slideshow_main"><div id="views_slideshow_cycle_teaser_section_testimonials-block_1" class="views-slideshow-cycle-main-frame views_slideshow_cycle_teaser_section">
  <div id="views_slideshow_cycle_div_testimonials-block_1_0" class="views-slideshow-cycle-main-frame-row views_slideshow_cycle_slide views_slideshow_slide views-row-1 views-row-first views-row-odd" >
  <div class="views-slideshow-cycle-main-frame-row-item views-row views-row-0 views-row-odd views-row-first">
    
  <div class="views-field views-field-field-client-image">        <div class="field-content"><a href="/referenzen"><img typeof="foaf:Image" src="https://www.cleanandfresh.net/sites/default/files/styles/testimonials_homepage/public/testimonials/BERWA_Peacock%20Alley_Detail.jpg?itok=vpaNeOzC" width="1000" height="667" alt="Waldorf Astoria Berlin" /></a></div>  </div>  
  <div class="views-field views-field-field-testimonia">        <div class="field-content"><p>&quot;Wir arbeiten seit vielen Jahren in anspruchsvollen Bereichen der Reinigung erfolgreich zusammen. Die positive Erfahrung und die professionelle Kooperation wird durch die überdurchschnittliche Zuverlässigkeit noch ergänzt. Wir...</div>  </div>  
  <div class="views-field views-field-field-client-name">        <div class="field-content"><p>Robert Berger, Executive Housekeeper</p>
</div>  </div>  
  <div class="views-field views-field-field-testimonial">        <div class="field-content">Referenzen</div>  </div>  
  <div class="views-field views-field-title">        <span class="field-content"><a href="/testimonial/waldorf-astoria">Waldorf Astoria</a></span>  </div></div>
</div>
<div id="views_slideshow_cycle_div_testimonials-block_1_1" class="views-slideshow-cycle-main-frame-row views_slideshow_cycle_slide views_slideshow_slide views-row-2 views_slideshow_cycle_hidden views-row-even" >
  <div class="views-slideshow-cycle-main-frame-row-item views-row views-row-0 views-row-odd">
    
  <div class="views-field views-field-field-client-image">        <div class="field-content"><a href="/referenzen"><img typeof="foaf:Image" src="https://www.cleanandfresh.net/sites/default/files/styles/testimonials_homepage/public/testimonials/hanbury.jpg?itok=wRyI1ftX" width="1000" height="667" alt="Hanbury Manor" /></a></div>  </div>  
  <div class="views-field views-field-field-testimonia">        <div class="field-content"><p>&quot;Seit vielen Jahren geniessen wir den einwandfreien Service der Firma Clean und Fresh. Die Erfahrung der Mitarbeiter hat uns immer beeindruckt und erleichtert uns auch bei ploetzlich auftretenden Herausforderungen im Bereich...</div>  </div>  
  <div class="views-field views-field-field-client-name">        <div class="field-content"><p>Housekeeping-Abteilung</p>
</div>  </div>  
  <div class="views-field views-field-field-testimonial">        <div class="field-content">Referenzen</div>  </div>  
  <div class="views-field views-field-title">        <span class="field-content"><a href="/testimonial/hanbury-manor">Hanbury Manor</a></span>  </div></div>
</div>
<div id="views_slideshow_cycle_div_testimonials-block_1_2" class="views-slideshow-cycle-main-frame-row views_slideshow_cycle_slide views_slideshow_slide views-row-3 views_slideshow_cycle_hidden views-row-odd" >
  <div class="views-slideshow-cycle-main-frame-row-item views-row views-row-0 views-row-odd">
    
  <div class="views-field views-field-field-client-image">        <div class="field-content"><a href="/referenzen"><img typeof="foaf:Image" src="https://www.cleanandfresh.net/sites/default/files/styles/testimonials_homepage/public/testimonials/curanam.jpg?itok=uW5ptuoZ" width="1000" height="667" alt="" /></a></div>  </div>  
  <div class="views-field views-field-field-testimonia">        <div class="field-content"><p>&quot;Eine ehrliche, vertrauens&shy;volle und partner&shy;schaft&shy;liche Zusammen&shy;arbeit, sowie spontane <div class="leck">L</div>ösungen machen Clean &amp; Fresh zu einem tollen Partner.&quot;</p></div>  </div>  
  <div class="views-field views-field-field-client-name">        <div class="field-content"><div class="leck">L</div>ydia Berg, Stiftsdirektorin</div>  </div>  
  <div class="views-field views-field-field-testimonial">        <div class="field-content">Referenzen</div>  </div>  
  <div class="views-field views-field-title">        <span class="field-content"><a href="/testimonial/curanum">Curanum</a></span>  </div></div>
</div>
<div id="views_slideshow_cycle_div_testimonials-block_1_3" class="views-slideshow-cycle-main-frame-row views_slideshow_cycle_slide views_slideshow_slide views-row-4 views_slideshow_cycle_hidden views-row-even" >
  <div class="views-slideshow-cycle-main-frame-row-item views-row views-row-0 views-row-odd">
    
  <div class="views-field views-field-field-client-image">        <div class="field-content"><a href="/referenzen"><img typeof="foaf:Image" src="https://www.cleanandfresh.net/sites/default/files/styles/testimonials_homepage/public/testimonials/brei.jpg?itok=n7PCVm9_" width="1000" height="667" alt="Breidenbacher Hof" /></a></div>  </div>  
  <div class="views-field views-field-field-testimonia">        <div class="field-content"><p>&quot;Sehr zuverlässige, saubere Arbeitsweise. Eine flexible und auch kurzfristige Terminvereinbarung wird immer ermöglicht. Wir empfinden Clean &amp; Fresh als sehr angenehmen, freundlichen und persönlichen Partner, dessen...</div>  </div>  
  <div class="views-field views-field-field-client-name">        <div class="field-content"><p>Sina Hoekstra, Marketing Manager</p>
</div>  </div>  
  <div class="views-field views-field-field-testimonial">        <div class="field-content">Referenzen</div>  </div>  
  <div class="views-field views-field-title">        <span class="field-content"><a href="/testimonial/breidenbacher-hof">Breidenbacher Hof</a></span>  </div></div>
</div>
<div id="views_slideshow_cycle_div_testimonials-block_1_4" class="views-slideshow-cycle-main-frame-row views_slideshow_cycle_slide views_slideshow_slide views-row-5 views_slideshow_cycle_hidden views-row-odd" >
  <div class="views-slideshow-cycle-main-frame-row-item views-row views-row-0 views-row-odd">
    
  <div class="views-field views-field-field-client-image">        <div class="field-content"><a href="/referenzen"><img typeof="foaf:Image" src="https://www.cleanandfresh.net/sites/default/files/styles/testimonials_homepage/public/testimonials/new_0.jpg?itok=f99h4onf" width="1000" height="667" alt="Althoff Grandhotel Schloss Bensberg" /></a></div>  </div>  
  <div class="views-field views-field-field-testimonia">        <div class="field-content"><p>"Die tolle Zusammenarbeit und vor allem die Reinigungsleistungen sind immer excellent! Der sehr flexible Service – auch kurzfristig wird uns weitergeholfen – wird durch die überdurchschnittliche Zuverlässigkeit noch ergänzt. Wir...</div>  </div>  
  <div class="views-field views-field-field-client-name">        <div class="field-content"><p>Karin Bergner – Executive Housekeeper</p>
</div>  </div>  
  <div class="views-field views-field-field-testimonial">        <div class="field-content">Referenzen</div>  </div>  
  <div class="views-field views-field-title">        <span class="field-content"><a href="/testimonial/althoff-grandhotel-schloss-bensberg">Althoff Grandhotel Schloss Bensberg</a></span>  </div></div>
</div>
<div id="views_slideshow_cycle_div_testimonials-block_1_5" class="views-slideshow-cycle-main-frame-row views_slideshow_cycle_slide views_slideshow_slide views-row-6 views_slideshow_cycle_hidden views-row-even" >
  <div class="views-slideshow-cycle-main-frame-row-item views-row views-row-0 views-row-odd">
    
  <div class="views-field views-field-field-client-image">        <div class="field-content"><a href="/referenzen"><img typeof="foaf:Image" src="https://www.cleanandfresh.net/sites/default/files/styles/testimonials_homepage/public/testimonials/zrhdt_main01.jpg?itok=LP3x0obu" width="1000" height="667" alt="Zürich Marriott Hotel" /></a></div>  </div>  
  <div class="views-field views-field-field-testimonia">        <div class="field-content"><p>&quot;Wir haben mit Clean und Fresh über 8 Jahre zusammengearbeitet und wertschätzen ihre Flexibilität, Effizienz, <div class="leck">L</div>oyalität und ihr Qualitätsbewusstsein in allen Bereichen für die sie in unserem Hotel...</div>  </div>  
  <div class="views-field views-field-field-client-name">        <div class="field-content"><p>Housekeeping</p>
</div>  </div>  
  <div class="views-field views-field-field-testimonial">        <div class="field-content">Referenzen</div>  </div>  
  <div class="views-field views-field-title">        <span class="field-content"><a href="/testimonial/z%C3%BCrich-marriott-hotel">Zürich Marriott Hotel</a></span>  </div></div>
</div>
<div id="views_slideshow_cycle_div_testimonials-block_1_6" class="views-slideshow-cycle-main-frame-row views_slideshow_cycle_slide views_slideshow_slide views-row-7 views_slideshow_cycle_hidden views-row-last views-row-odd" >
  <div class="views-slideshow-cycle-main-frame-row-item views-row views-row-0 views-row-odd">
    
  <div class="views-field views-field-field-client-image">        <div class="field-content"><a href="/referenzen"><img typeof="foaf:Image" src="https://www.cleanandfresh.net/sites/default/files/styles/testimonials_homepage/public/testimonials/schloss.jpg?itok=st7EdKo7" width="1000" height="667" alt="Schloss Fuschl, Salzburg" /></a></div>  </div>  
  <div class="views-field views-field-field-testimonia">        <div class="field-content"><p>"Wir arbeiten seit drei Jahren mit der Firma Clean &amp; Fresh zusammen - ich persönlich bereits seit acht Jahren. Bei der Übernahme meiner Abteilung hier in den Schloss Fuschl Betrieben war es eine klare Entscheidung, die Teppich...</div>  </div>  
  <div class="views-field views-field-field-client-name">        <div class="field-content"><p>Brigitte Fries, Executive Housekeeper</p>
</div>  </div>  
  <div class="views-field views-field-field-testimonial">        <div class="field-content">Referenzen</div>  </div>  
  <div class="views-field views-field-title">        <span class="field-content"><a href="/testimonial/schloss-fuschl-salzburg">Schloss Fuschl, Salzburg</a></span>  </div></div>
</div>
</div>
</div>
          <div class="views-slideshow-controls-bottom clearfix">
        <div id="views_slideshow_controls_text_testimonials-block_1" class="views-slideshow-controls-text views_slideshow_controls_text">
  <span id="views_slideshow_controls_text_previous_testimonials-block_1" class="views-slideshow-controls-text-previous views_slideshow_controls_text_previous">
  <a href="#" rel="prev">Previous</a>
</span>
  <span id="views_slideshow_controls_text_pause_testimonials-block_1" class="views-slideshow-controls-text-pause views_slideshow_controls_text_pause  views-slideshow-controls-text-status-play"><a href="#">Pause</a></span>
  <span id="views_slideshow_controls_text_next_testimonials-block_1" class="views-slideshow-controls-text-next views_slideshow_controls_text_next">
  <a href="#" rel="next">Weiter</a>
</span>
</div>
      </div>
      </div>
    </div>
  
  
  
  
  
  
</div>  </div>
</div>
  </div>
        		</div></div> <!-- end content lower  -->
      		        	
            
            <div id="block-block-13" class="block block-block contextual-links-region">
  				<div class="content">
					<h2 style="text-align: center;">Mehr über Clean &amp; Fresh</h2>
<h3 style="text-align: center;">Erfahren Sie mehr über unsere Technologie und die Menschen, die unser Team ausmachen!</h3>
            	</div>
            </div>
            
            <div id="homepageboxes">
        		<div class="views-field views-field-field-client-image">
<div class="field-content">
<div class="hpbtitle1"><a href="/technik">Technologie</a></div>
<div class="hpbtitle2"><a href="/technik">Spezialist für Sprüh-Extraktionstechnik</a></div>
<p><a href="/technik"><img alt="Technology" height="667" src="/sites/default/files/homepagetech.jpg" width="1000" /></a></p></div>
</div>
<p> </p>
            
        		<div class="views-field views-field-field-client-image floatit">
<div class="field-content">
<div class="hpbtitle1"><a href="/uber-uns">Meet the Team</a></div>
<div class="hpbtitle2"><a href="/uber-uns">Die Menschen, die hinter Clean &amp; Fresh stehen</a></div>
<p><a href="/uber-uns"><img alt="team" height="667" src="/sites/default/files/homepageteam.jpg" width="1000" /></a></p></div>
</div>
<p> </p>
            </div>
 		</div>
        <div id="signature"><p>“Unser umfassender Service ermöglicht es uns, maßgeschneiderte Reinigungsangebote für die Erfordernisse unserer Kunden anzubieten. Das ist das Geheimnis des Erfolges unserer Firma.”</p>
<div class="sig">S Daglish &amp; H Gabriel</div>
		</div>
        
        <div id="content" >
			        		<div id="scroller" ><div class="section">
          		  <div class="region region-scroller">
    <div id="block-views-client-slider-block" class="block block-views">

    
  <div class="content">
    <div class="view view-client-slider view-id-client_slider view-display-id-block slidercss view-dom-id-d2169033d6a8912dabf6ae8950764e8c">
        
  
  
      <div class="view-content">
      
  <div class="skin-default">
    
    <div id="views_slideshow_cycle_main_client_slider-block_1" class="views_slideshow_cycle_main views_slideshow_main"><div id="views_slideshow_cycle_teaser_section_client_slider-block_1" class="views-slideshow-cycle-main-frame views_slideshow_cycle_teaser_section">
  <div id="views_slideshow_cycle_div_client_slider-block_1_0" class="views-slideshow-cycle-main-frame-row views_slideshow_cycle_slide views_slideshow_slide views-row-1 views-row-first views-row-odd" >
  <div class="views-slideshow-cycle-main-frame-row-item views-row views-row-0 views-row-odd views-row-first sam-inline">
    
  <div class="sliderimageclient">        <div><a href="http://www.schlossbensberg.com" title="" target="_self" rel="" class=""><img typeof="foaf:Image" src="https://www.cleanandfresh.net/sites/default/files/clients/schlossbens.jpg" width="172" height="172" alt="Althoff Grandhotel Schloss Bensberg" /></a></div>  </div></div>
<div class="views-slideshow-cycle-main-frame-row-item views-row views-row-1 views-row-even views-row-first sam-inline">
    
  <div class="sliderimageclient">        <div><a href="http://www.schlossfuschlsalzburg.com/" title="" target="_self" rel="" class=""><img typeof="foaf:Image" src="https://www.cleanandfresh.net/sites/default/files/clients/fush.jpg" width="172" height="172" alt="Schloss Fuschl, Salzburg" /></a></div>  </div></div>
<div class="views-slideshow-cycle-main-frame-row-item views-row views-row-2 views-row-odd views-row-first sam-inline">
    
  <div class="sliderimageclient">        <div><a href="http://www.fairmont.com/vier-jahreszeiten-hamburg/" title="" target="_self" rel="" class=""><img typeof="foaf:Image" src="https://www.cleanandfresh.net/sites/default/files/clients/fairmont.jpg" width="172" height="172" alt="Fairmont Hotel, Hamburg" /></a></div>  </div></div>
<div class="views-slideshow-cycle-main-frame-row-item views-row views-row-3 views-row-even views-row-first sam-inline">
    
  <div class="sliderimageclient">        <div><a href="http://www.capellahotels.com/dusseldorf/" title="" target="_self" rel="" class=""><img typeof="foaf:Image" src="https://www.cleanandfresh.net/sites/default/files/clients/brie.jpg" width="172" height="172" alt="Breidenbacher Hof" /></a></div>  </div></div>
<div class="views-slideshow-cycle-main-frame-row-item views-row views-row-4 views-row-odd views-row-first sam-inline">
    
  <div class="sliderimageclient">        <div><a href="http://waldorfastoria3.hilton.com/en/hotels/berlin/waldorf-astoria-berlin-BERWAWA/index.html" title="" target="_self" rel="" class=""><img typeof="foaf:Image" src="https://www.cleanandfresh.net/sites/default/files/waldforf.jpg" width="172" height="172" alt="Waldorf Astoria" /></a></div>  </div></div>
<div class="views-slideshow-cycle-main-frame-row-item views-row views-row-5 views-row-even views-row-first sam-inline">
    
  <div class="sliderimageclient">        <div><a href="http://www.marriott.co.uk/hotels/travel/stngs-hanbury-manor-marriott-hotel-and-country-club/" title="" target="_self" rel="" class=""><img typeof="foaf:Image" src="https://www.cleanandfresh.net/sites/default/files/hanbury.jpg" width="172" height="172" alt="Hanbury Manor" /></a></div>  </div></div>
<div class="views-slideshow-cycle-main-frame-row-item views-row views-row-6 views-row-odd views-row-first sam-inline">
    
  <div class="sliderimageclient">        <div><a href="http://www.scandichotels.com/" title="" target="_self" rel="" class=""><img typeof="foaf:Image" src="https://www.cleanandfresh.net/sites/default/files/scandic.jpg" width="172" height="172" alt=" Scandic Hotels" /></a></div>  </div></div>
</div>
<div id="views_slideshow_cycle_div_client_slider-block_1_1" class="views-slideshow-cycle-main-frame-row views_slideshow_cycle_slide views_slideshow_slide views-row-2 views_slideshow_cycle_hidden views-row-even" >
  <div class="views-slideshow-cycle-main-frame-row-item views-row views-row-0 views-row-odd sam-inline">
    
  <div class="sliderimageclient">        <div><a href="http://www.salus-kliniken.de/huerth/" title="" target="_self" rel="" class=""><img typeof="foaf:Image" src="https://www.cleanandfresh.net/sites/default/files/salus.jpg" width="172" height="172" alt="Salus Klinik Hürth " /></a></div>  </div></div>
<div class="views-slideshow-cycle-main-frame-row-item views-row views-row-1 views-row-even sam-inline">
    
  <div class="sliderimageclient">        <div><a href="http://www.ihg.com/crowneplaza/hotels/gb/en/salzburg/szgcp/hoteldetail" title="" target="_self" rel="" class=""><img typeof="foaf:Image" src="https://www.cleanandfresh.net/sites/default/files/plazasalz.jpg" width="172" height="172" alt="Crowne Plaza Salzburg" /></a></div>  </div></div>
<div class="views-slideshow-cycle-main-frame-row-item views-row views-row-2 views-row-odd sam-inline">
    
  <div class="sliderimageclient">        <div><a href="http://www.ihg.com/crowneplaza/hotels/us/en/heidelberg/hdbge/hoteldetail?cm_mmc=GoogleMaps-_-cp-_-DEEN-_-hdbge" title="" target="_self" rel="" class=""><img typeof="foaf:Image" src="https://www.cleanandfresh.net/sites/default/files/plazaheid.jpg" width="172" height="172" alt="Crowne Plaza Heidelberg" /></a></div>  </div></div>
<div class="views-slideshow-cycle-main-frame-row-item views-row views-row-3 views-row-even sam-inline">
    
  <div class="sliderimageclient">        <div><a href="http://www.novotel.com/gb/hotel-5376-novotel-erlangen/index.shtml" title="" target="_self" rel="" class=""><img typeof="foaf:Image" src="https://www.cleanandfresh.net/sites/default/files/novotel.jpg" width="172" height="172" alt="Novotel Erlangen" /></a></div>  </div></div>
<div class="views-slideshow-cycle-main-frame-row-item views-row views-row-4 views-row-odd sam-inline">
    
  <div class="sliderimageclient">        <div><a href="http://www.melia.com/de/hotels/deutschland/dusseldorf/melia-dusseldorf/index.html" title="" target="_self" rel="" class=""><img typeof="foaf:Image" src="https://www.cleanandfresh.net/sites/default/files/melia.jpg" width="172" height="172" alt=" Meliá Düsseldorf" /></a></div>  </div></div>
<div class="views-slideshow-cycle-main-frame-row-item views-row views-row-5 views-row-even sam-inline">
    
  <div class="sliderimageclient">        <div><a href="http://tagen.erzbistum-koeln.de/maternushaus/" title="" target="_self" rel="" class=""><img typeof="foaf:Image" src="https://www.cleanandfresh.net/sites/default/files/maternaus.jpg" width="172" height="172" alt="Maternushaus" /></a></div>  </div></div>
<div class="views-slideshow-cycle-main-frame-row-item views-row views-row-6 views-row-odd sam-inline">
    
  <div class="sliderimageclient">        <div><a href="http://www.marriott.com/hotels/travel/zrhdt-zurich-marriott-hotel/" title="" target="_self" rel="" class=""><img typeof="foaf:Image" src="https://www.cleanandfresh.net/sites/default/files/marriotzurick.jpg" width="172" height="172" alt=" Marriott Zürich" /></a></div>  </div></div>
</div>
<div id="views_slideshow_cycle_div_client_slider-block_1_2" class="views-slideshow-cycle-main-frame-row views_slideshow_cycle_slide views_slideshow_slide views-row-3 views_slideshow_cycle_hidden views-row-odd" >
  <div class="views-slideshow-cycle-main-frame-row-item views-row views-row-0 views-row-odd sam-inline">
    
  <div class="sliderimageclient">        <div><a href="http://www.marriott.co.uk/hotels/travel/hamdt-hamburg-marriott-hotel/" title="" target="_self" rel="" class=""><img typeof="foaf:Image" src="https://www.cleanandfresh.net/sites/default/files/marriothamberg.jpg" width="172" height="172" alt="Marriott Hamburg" /></a></div>  </div></div>
<div class="views-slideshow-cycle-main-frame-row-item views-row views-row-1 views-row-even sam-inline">
    
  <div class="sliderimageclient">        <div><a href="http://www.maritim.de/de/hotels/deutschland/hotel-gelsenkirchen/uebersicht" title="" target="_self" rel="" class=""><img typeof="foaf:Image" src="https://www.cleanandfresh.net/sites/default/files/maritimgels.jpg" width="172" height="172" alt="Maritim Gelsenkirchen" /></a></div>  </div></div>
<div class="views-slideshow-cycle-main-frame-row-item views-row views-row-2 views-row-odd sam-inline">
    
  <div class="sliderimageclient">        <div><a href="http://www.lindner.de/de/hotel_koeln_zentrum" title="" target="_self" rel="" class=""><img typeof="foaf:Image" src="https://www.cleanandfresh.net/sites/default/files/linder.jpg" width="172" height="172" alt="Lindner Köln" /></a></div>  </div></div>
<div class="views-slideshow-cycle-main-frame-row-item views-row views-row-3 views-row-even sam-inline">
    
  <div class="sliderimageclient">        <div><a href="http://www.leonardo-hotels.com/" title="" target="_self" rel="" class=""><img typeof="foaf:Image" src="https://www.cleanandfresh.net/sites/default/files/leonardo.jpg" width="172" height="172" alt=" Leonardo Hotels" /></a></div>  </div></div>
<div class="views-slideshow-cycle-main-frame-row-item views-row views-row-4 views-row-odd sam-inline">
    
  <div class="sliderimageclient">        <div><a href="http://www.golfhotel-stromberg.de/" title="" target="_self" rel="" class=""><img typeof="foaf:Image" src="https://www.cleanandfresh.net/sites/default/files/landgolf.jpg" width="172" height="172" alt="Land and Golf hotel Stromberg " /></a></div>  </div></div>
<div class="views-slideshow-cycle-main-frame-row-item views-row views-row-5 views-row-even sam-inline">
    
  <div class="sliderimageclient">        <div><a href="http://www.kamehagrand.com/" title="" target="_self" rel="" class=""><img typeof="foaf:Image" src="https://www.cleanandfresh.net/sites/default/files/kameha.jpg" width="172" height="172" alt="Kameha Bonn" /></a></div>  </div></div>
<div class="views-slideshow-cycle-main-frame-row-item views-row views-row-6 views-row-odd sam-inline">
    
  <div class="sliderimageclient">        <div><a href="https://www.grand-elysee.com/en/" title="" target="_self" rel="" class=""><img typeof="foaf:Image" src="https://www.cleanandfresh.net/sites/default/files/grandel.jpg" width="172" height="172" alt="Grand Elysee Hamburg" /></a></div>  </div></div>
</div>
<div id="views_slideshow_cycle_div_client_slider-block_1_3" class="views-slideshow-cycle-main-frame-row views_slideshow_cycle_slide views_slideshow_slide views-row-4 views_slideshow_cycle_hidden views-row-even" >
  <div class="views-slideshow-cycle-main-frame-row-item views-row views-row-0 views-row-odd sam-inline">
    
  <div class="sliderimageclient">        <div><a href="http://www.marriott.co.uk/hotels/travel/duscy-courtyard-duesseldorf-seestern/" title="" target="_self" rel="" class=""><img typeof="foaf:Image" src="https://www.cleanandfresh.net/sites/default/files/courtyardzur.jpg" width="172" height="172" alt="Courtyard Marriot " /></a></div>  </div></div>
<div class="views-slideshow-cycle-main-frame-row-item views-row views-row-1 views-row-even sam-inline">
    
  <div class="sliderimageclient">        <div><a href="http://www.maritim.de/de/hotels/deutschland/hotel-mannheim/uebersicht" title="" target="_self" rel="" class=""><img typeof="foaf:Image" src="https://www.cleanandfresh.net/sites/default/files/maritim.jpg" width="172" height="172" alt="Maritim Parkhotel" /></a></div>  </div></div>
<div class="views-slideshow-cycle-main-frame-row-item views-row views-row-2 views-row-odd sam-inline">
    
  <div class="sliderimageclient">        <div><a href="/%23" title="" target="_self" rel="" class=""><img typeof="foaf:Image" src="https://www.cleanandfresh.net/sites/default/files/korian.jpg" width="172" height="172" alt="" /></a></div>  </div></div>
<div class="views-slideshow-cycle-main-frame-row-item views-row views-row-3 views-row-even sam-inline">
    
  <div class="sliderimageclient">        <div><a href="http://www.gastwerk.com/hotels-hamburg/" title="" target="_self" rel="" class=""><img typeof="foaf:Image" src="https://www.cleanandfresh.net/sites/default/files/gaswerk.jpg" width="172" height="172" alt="Gastwerk" /></a></div>  </div></div>
<div class="views-slideshow-cycle-main-frame-row-item views-row views-row-4 views-row-odd sam-inline">
    
  <div class="sliderimageclient">        <div><a href="http://www.serenite-rivercruising.de/" title="" target="_self" rel="" class=""><img typeof="foaf:Image" src="https://www.cleanandfresh.net/sites/default/files/serenite.jpg" width="172" height="172" alt="Serenité River Cruising GmbH" /></a></div>  </div></div>
<div class="views-slideshow-cycle-main-frame-row-item views-row views-row-5 views-row-even sam-inline">
    
  <div class="sliderimageclient">        <div><a href="http://www.kamp-hotels.de/home.html" title="" target="_self" rel="" class=""><img typeof="foaf:Image" src="https://www.cleanandfresh.net/sites/default/files/strand.jpg" width="172" height="172" alt="Strand Hotel Duhnen" /></a></div>  </div></div>
<div class="views-slideshow-cycle-main-frame-row-item views-row views-row-6 views-row-odd sam-inline">
    
  <div class="sliderimageclient">        <div><a href="http://www.sofitel.com/gb/united-kingdom/index.shtml" title="" target="_self" rel="" class=""><img typeof="foaf:Image" src="https://www.cleanandfresh.net/sites/default/files/sofitel.jpg" width="172" height="172" alt="Sofitel" /></a></div>  </div></div>
</div>
<div id="views_slideshow_cycle_div_client_slider-block_1_4" class="views-slideshow-cycle-main-frame-row views_slideshow_cycle_slide views_slideshow_slide views-row-5 views_slideshow_cycle_hidden views-row-odd" >
  <div class="views-slideshow-cycle-main-frame-row-item views-row views-row-0 views-row-odd sam-inline">
    
  <div class="sliderimageclient">        <div><a href="http://www.savoy.de/en/" title="" target="_self" rel="" class=""><img typeof="foaf:Image" src="https://www.cleanandfresh.net/sites/default/files/savoy.jpg" width="172" height="172" alt="Savoy Hotel Cologne" /></a></div>  </div></div>
<div class="views-slideshow-cycle-main-frame-row-item views-row views-row-1 views-row-even sam-inline">
    
  <div class="sliderimageclient">        <div><a href="http://www.marriott.com/renaissance-hotels/upscale-hotels.mi" title="" target="_self" rel="" class=""><img typeof="foaf:Image" src="https://www.cleanandfresh.net/sites/default/files/renaissance.jpg" width="172" height="172" alt="Renaissance" /></a></div>  </div></div>
<div class="views-slideshow-cycle-main-frame-row-item views-row views-row-2 views-row-odd sam-inline">
    
  <div class="sliderimageclient">        <div><a href="http://www.marriott.com/renaissance-hotels/upscale-hotels.mi" title="" target="_self" rel="" class=""><img typeof="foaf:Image" src="https://www.cleanandfresh.net/sites/default/files/renaisance2.jpg" width="172" height="172" alt="Renaissance" /></a></div>  </div></div>
<div class="views-slideshow-cycle-main-frame-row-item views-row views-row-3 views-row-even sam-inline">
    
  <div class="sliderimageclient">        <div><a href="http://www.raffles.com/" title="" target="_self" rel="" class=""><img typeof="foaf:Image" src="https://www.cleanandfresh.net/sites/default/files/raffles.jpg" width="172" height="172" alt="Raffles" /></a></div>  </div></div>
<div class="views-slideshow-cycle-main-frame-row-item views-row views-row-4 views-row-odd sam-inline">
    
  <div class="sliderimageclient">        <div><a href="http://www.radissonblu.com/hotel-frankfurt" title="" target="_self" rel="" class=""><img typeof="foaf:Image" src="https://www.cleanandfresh.net/sites/default/files/raddison.jpg" width="172" height="172" alt="Radisson Blue Frankfurt" /></a></div>  </div></div>
<div class="views-slideshow-cycle-main-frame-row-item views-row views-row-5 views-row-even sam-inline">
    
  <div class="sliderimageclient">        <div><a href="http://www.pullmanhotels.com/gb/united-kingdom/index.shtml" title="" target="_self" rel="" class=""><img typeof="foaf:Image" src="https://www.cleanandfresh.net/sites/default/files/pullman.jpg" width="172" height="172" alt="Pullman Hotels and Resorts" /></a></div>  </div></div>
<div class="views-slideshow-cycle-main-frame-row-item views-row views-row-6 views-row-odd sam-inline">
    
  <div class="sliderimageclient">        <div><a href="http://www.motel-one.com/" title="" target="_self" rel="" class=""><img typeof="foaf:Image" src="https://www.cleanandfresh.net/sites/default/files/motelone.jpg" width="172" height="172" alt="Motel One" /></a></div>  </div></div>
</div>
<div id="views_slideshow_cycle_div_client_slider-block_1_5" class="views-slideshow-cycle-main-frame-row views_slideshow_cycle_slide views_slideshow_slide views-row-6 views_slideshow_cycle_hidden views-row-even" >
  <div class="views-slideshow-cycle-main-frame-row-item views-row views-row-0 views-row-odd sam-inline">
    
  <div class="sliderimageclient">        <div><a href="http://www.lemeridienhamburg.com/en" title="" target="_self" rel="" class=""><img typeof="foaf:Image" src="https://www.cleanandfresh.net/sites/default/files/meridien.jpg" width="172" height="172" alt="Le Meridien" /></a></div>  </div></div>
<div class="views-slideshow-cycle-main-frame-row-item views-row views-row-1 views-row-even sam-inline">
    
  <div class="sliderimageclient">        <div><a href="http://www.hotelkamp.fi/" title="" target="_self" rel="" class=""><img typeof="foaf:Image" src="https://www.cleanandfresh.net/sites/default/files/kamp.jpg" width="172" height="172" alt="Kamp Hotels" /></a></div>  </div></div>
<div class="views-slideshow-cycle-main-frame-row-item views-row views-row-2 views-row-odd sam-inline">
    
  <div class="sliderimageclient">        <div><a href="http://www.ihg.com/intercontinental/hotels/gb/en/reservation" title="" target="_self" rel="" class=""><img typeof="foaf:Image" src="https://www.cleanandfresh.net/sites/default/files/intercontinental.jpg" width="172" height="172" alt="http://www.ihg.com/intercontinental/hotels/gb/en/reservation" /></a></div>  </div></div>
<div class="views-slideshow-cycle-main-frame-row-item views-row views-row-3 views-row-even sam-inline">
    
  <div class="sliderimageclient">        <div><a href="http://en.intercityhotel.com/Duesseldorf/InterCityHotel-Duesseldorf" title="" target="_self" rel="" class=""><img typeof="foaf:Image" src="https://www.cleanandfresh.net/sites/default/files/intercity.jpg" width="172" height="172" alt="Inter City Hotel Dusseldorf" /></a></div>  </div></div>
<div class="views-slideshow-cycle-main-frame-row-item views-row views-row-4 views-row-odd sam-inline">
    
  <div class="sliderimageclient">        <div><a href="http://www.imlauer.com/index.asp" title="" target="_self" rel="" class=""><img typeof="foaf:Image" src="https://www.cleanandfresh.net/sites/default/files/imlauer.jpg" width="172" height="172" alt="Imlauer" /></a></div>  </div></div>
<div class="views-slideshow-cycle-main-frame-row-item views-row views-row-5 views-row-even sam-inline">
    
  <div class="sliderimageclient">        <div><a href="https://www.gaesteresidenz-pelikanviertel.de/" title="" target="_self" rel="" class=""><img typeof="foaf:Image" src="https://www.cleanandfresh.net/sites/default/files/gasterhans.jpg" width="172" height="172" alt="Gastersidenz" /></a></div>  </div></div>
<div class="views-slideshow-cycle-main-frame-row-item views-row views-row-6 views-row-odd sam-inline">
    
  <div class="sliderimageclient">        <div><a href="http://www.excelsiorhotelernst.com/das-hotel.html" title="" target="_self" rel="" class=""><img typeof="foaf:Image" src="https://www.cleanandfresh.net/sites/default/files/excelsior.jpg" width="172" height="172" alt="Excelsior Hotel Ernst" /></a></div>  </div></div>
</div>
<div id="views_slideshow_cycle_div_client_slider-block_1_6" class="views-slideshow-cycle-main-frame-row views_slideshow_cycle_slide views_slideshow_slide views-row-7 views_slideshow_cycle_hidden views-row-last views-row-odd" >
  <div class="views-slideshow-cycle-main-frame-row-item views-row views-row-0 views-row-odd sam-inline">
    
  <div class="sliderimageclient">        <div><a href="http://www.curanum.de/" title="" target="_self" rel="" class=""><img typeof="foaf:Image" src="https://www.cleanandfresh.net/sites/default/files/curanum.jpg" width="172" height="172" alt="Curanum" /></a></div>  </div></div>
<div class="views-slideshow-cycle-main-frame-row-item views-row views-row-1 views-row-even sam-inline">
    
  <div class="sliderimageclient">        <div><a href="http://www.ihg.com/crowneplaza/hotels/us/en/brugge/ostbe/hoteldetail?cm_mmc=GoogleMaps-_-cp-_-BEEN-_-ostbe" title="" target="_self" rel="" class=""><img typeof="foaf:Image" src="https://www.cleanandfresh.net/sites/default/files/crownplaza.jpg" width="172" height="172" alt="Crowne Plaza Brugge" /></a></div>  </div></div>
<div class="views-slideshow-cycle-main-frame-row-item views-row views-row-2 views-row-odd sam-inline">
    
  <div class="sliderimageclient">        <div><a href="http://www.marriott.co.uk/hotels/travel/duscy-courtyard-duesseldorf-seestern/" title="" target="_self" rel="" class=""><img typeof="foaf:Image" src="https://www.cleanandfresh.net/sites/default/files/courtyard.jpg" width="172" height="172" alt="Courtyard Marriot Dusseldorf" /></a></div>  </div></div>
<div class="views-slideshow-cycle-main-frame-row-item views-row views-row-3 views-row-even sam-inline">
    
  <div class="sliderimageclient">        <div><a href="http://www.baglionihotels.com/" title="" target="_self" rel="" class=""><img typeof="foaf:Image" src="https://www.cleanandfresh.net/sites/default/files/baglioni.jpg" width="172" height="172" alt="Baglioni Hotels" /></a></div>  </div></div>
<div class="views-slideshow-cycle-main-frame-row-item views-row views-row-4 views-row-odd sam-inline">
    
  <div class="sliderimageclient">        <div><a href="http://www.artotels.com/cologne-hotel-de-50676/gercoart/" title="" target="_self" rel="" class=""><img typeof="foaf:Image" src="https://www.cleanandfresh.net/sites/default/files/arthotel.jpg" width="172" height="172" alt="Art&#039;otel" /></a></div>  </div></div>
<div class="views-slideshow-cycle-main-frame-row-item views-row views-row-5 views-row-even sam-inline">
    
  <div class="sliderimageclient">        <div><a href="http://www.ahrtal-residenz.de/" title="" target="_self" rel="" class=""><img typeof="foaf:Image" src="https://www.cleanandfresh.net/sites/default/files/ahrtal.jpg" width="172" height="172" alt="Ahrtal Residenz" /></a></div>  </div></div>
</div>
</div>
</div>
      </div>
    </div>
  
  
  
  
  
  
</div>  </div>
</div>
  </div>
        		</div></div> <!-- end scroller  -->
      		        
        	<div id="divider" ><p style="text-align: center;"><img alt="divider" src="/sites/default/files/divider.png" style="width: 86px; height: 19px;" /></p>
			</div>

        	<h2 style="text-align: center;">Kontakt</h2>
<h3 style="text-align: center;">Rufen Sie uns jetzt an. Wir beraten Sie gerne und zeigen Ihnen Lösungsmöglichkeiten auf.</h3>
       
        
        </div>    
		
		        	<div id="content-bottom" ><div class="section">
          	  <div class="region region-content-bottom">
    <div id="block-block-5" class="block block-block">

    
  <div class="content">
    <div>Kontaktieren Sie uns, wenn Sie eine individuelle Beratung oder einen kostenlosen Besuch Ihres Unternehmens vereinbaren möchten. Clean &amp; Fresh freut sich darauf, mit Ihnen zusammenzuarbeiten.</div>
<div style="color:#fff; font-family: 'Raleway', sans-serif; margin-top:20px;">Oder sich mit uns auf:</div>
<div> </div>
<div><a href="https://www.facebook.com/cleanandfreshonline" target="_blank"><img alt="facebook" src="/sites/default/files/fb.png" style="width: 86px; height: 86px;" /></a>  <a href="https://twitter.com/clean_online" target="_blank"><img alt="twitter" src="/sites/default/files/twitter.png" style="width: 86px; height: 86px;" /></a>  <a href="https://www.google.com/local/business/b/111040957157600846680" target="_blank"><img alt="google plus" src="/sites/default/files/gplus.png" style="width: 86px; height: 86px;" /></a></div>
  </div>
</div>
<div id="block-block-7" class="block block-block">

    
  <div class="content">
    <p class="georgiatitle">International <a href="http://en.cleanandfresh.net/"><img alt="English Lanuage version" src="/sites/default/files/englishlang.png" style="width: 31px; height: 30px;" /></a></p>
<div> </div>
<div> </div>
<div>
<div>Tel 00 44 (0) 1276 65068</div>
<div>Fax 00 44 (0) 1276 67014</div>
</div>
<div><a href="/kontakt"><input id="button" name="op" type="buttonfoot" value="E-Mail" /></a></div>
  </div>
</div>
<div id="block-block-6" class="block block-block">

    
  <div class="content">
    <p class="georgiatitle">Deutschland <a href="http://cleanandfresh.net/"><img alt="German Language" src="/sites/default/files/germanlang.png" style="width: 30px; height: 30px;" /></a></p>
<div>Guilleaumestr. 2-6, </div>
<div>51065 Köln-Buchheim</div>
<div>Mob 0049 172 7870932</div>
<div>Tel 00 49 (0) 221 80033263</div>
<div>Fax 00 49 (0) 221 96482577
<p><a href="mailto:info@cleanandfresh.net"><input id="button" name="op" type="buttonfoot" value="E-Mail " /></a></p></div>
  </div>
</div>
  </div>
        	</div></div> <!-- end content bottom  -->
      	      
	</div></div> <!-- end main wrapper -->

	<div id="footer"><div class="section clearfix">
        <div class="region region-footer">
    <div id="block-block-2" class="block block-block">

    
  <div class="content">
    <p><a href="/"><img alt="Clean and Fresh" src="/sites/default/files/logofooter.png" style="width: 177px; height: 44px;" /></a></p>
  </div>
</div>
<div id="block-block-3" class="block block-block">

    
  <div class="content">
    <p>© Copyright 2015 Clean &amp; Fresh GMBH  |  Guilleaumestr. 2-6, 51065 Köln-Buchheim  |   Alle Rechte Vorbehalten </p>
<div>Deutschland   |   Europa  |  <a href="/sitemap.xml">SiteMap</a>  |  <a href="/site-datenschutz">Datenschutz </a>  |  <a href="/site-agb">Site AGB</a>  |  Erstellt von <a href="http://orqadesign.com">Orqa Design</a></div>
  </div>
</div>
  </div>
	</div></div> <!-- end header -->
</div></div> <!-- end page and page wrapper -->  </body>
</html>
