<!DOCTYPE HTML PUBLIC "-//W3C//DTD HTML 4.01//EN" "http://www.w3.org/TR/html4/strict.dtd">
<!--[if IE]><![endif]-->
<!--[if lt IE 7 ]> <html lang="en" class="ie6">   <![endif]-->
<!--[if IE 7 ]>    <html lang="en" class="ie7">   <![endif]-->
<!--[if IE 8 ]>    <html lang="en" class="ie8">   <![endif]-->
<!--[if IE 9 ]>    <html lang="en" class="ie9">   <![endif]-->
<!--[if (gt IE 9)|!(IE)]><!--><html lang="en"><!--<![endif]-->
<head>
	<title>Creativewiz | Home</title>
    <meta name="description" content="" />
    <meta name="keywords" content="" />
	<meta name="author" content="Arlan Viray, arlan.viray@creativewiz.net" />
    <!-- no cache headers -->
	<meta http-equiv="Cache-Control" content="no-cache, no-store, must-revalidate" />
	<meta http-equiv="Pragma" content="no-cache" />
	<meta http-equiv="Expires" content="0" />
	<!-- end no cache headers -->
	<meta http-equiv="Content-Type" content="text/html; charset=utf-8" />
    <meta http-equiv="X-UA-Compatible" content="IE=edge, chrome=1">
	<meta http-equiv="cleartype" content="on">
	<link rel="icon" type="image/png" href="https://www.creativewiz.net/images/favicon3.png" sizes="32x32" />
    	<link type="text/css" href="https://www.creativewiz.net/css/styles.css" rel="stylesheet" />
	<link type="text/css" href="https://www.creativewiz.net/css/stylesreplacement.css" rel="stylesheet" />
	<!-- HTML5 shim and Respond.js for IE8 support of HTML5 elements and media queries -->
	<!--[if lt IE 9]>
		<script src="https://cdnjs.cloudflare.com/ajax/libs/html5shiv/3.7.2/html5shiv.min.js"></script>
		<script src="https://cdnjs.cloudflare.com/ajax/libs/respond.js/1.4.2/respond.js"></script>
	<![endif]-->
	<script type="text/javascript">
		var _isRewrite = 1;
		var _isMobile = false;
		var _isTablet = false;
		var _domainName = 'https://www.creativewiz.net';
		var _thisSection = 'home';
		var _thisSubsection = '';
	</script>
</head>
	
<body class="style3">	
	<header>
		<div class="abs logo">
			<img src="https://www.creativewiz.net/images/logo.png" width="156" height="30" class="cwizlogo" />			<div class="abs logocircle"></div>
		</div>
		<div class="abs nav">
			<ul>
				<li>Projects</li>
				<li>Contact</li>
			</ul>
		</div>
		<div class="abs outline"></div>
	</header>
	<div class="content_wrapper home">

<section class="intro">
	<div class="content">
		<div class="abs logo">
			<img src="https://www.creativewiz.net/images/home_intro_logo_creative.png" width="322" height="81" class="abs creative" />			<img src="https://www.creativewiz.net/images/home_intro_logo_wiz.png" width="183" height="62" class="abs wiz" />			<div class="abs logocircle"></div>
			<div class="abs recs">
				<div class="rec"></div>
				<div class="rec"></div>
				<div class="rec"></div>
			</div>
			<img src="https://www.creativewiz.net/images/home_intro_logo_strapline.png" width="314" height="25" class="abs strapline" />		</div>
		<div class="abs sprite arrowdown"></div>
	</div>
</section><section class="projects">
	<div class="content">
		<div class="items">
			<div class="grid-sizer"></div>
			<div class="item  wordpress" data-category="wordpress"><div class="itemcontent"><a href="https://www.nateberkus.com/" target="_blank"><img src="https://www.creativewiz.net/projects/wordpress/nateberkus/thumb.jpg" width="300" height="216" class="thumb cursor resp" /><div class="info"><p>WORDPRESS</p><p>Nate Berkus</p></div></a></div></div><div class="item  wordpress" data-category="wordpress"><div class="itemcontent"><a href="http://www.jbmartin.com/" target="_blank"><img src="https://www.creativewiz.net/projects/wordpress/jbmartin/thumb.jpg" width="300" height="216" class="thumb cursor resp" /><div class="info"><p>WORDPRESS</p><p>JB Martin</p></div></a></div></div><div class="item  wordpress" data-category="wordpress"><div class="itemcontent"><a href="http://www.ladbiblegroup.com/" target="_blank"><img src="https://www.creativewiz.net/projects/wordpress/ladbiblegroup/thumb.jpg" width="300" height="216" class="thumb cursor resp" /><div class="info"><p>WORDPRESS</p><p>LAD Bible Group</p></div></a></div></div><div class="item  wordpress" data-category="wordpress"><div class="itemcontent"><a href="https://www.alexanderdb.com/" target="_blank"><img src="https://www.creativewiz.net/projects/wordpress/alexanderdb/thumb.jpg" width="300" height="216" class="thumb cursor resp" /><div class="info"><p>WORDPRESS</p><p>Alexander Design</p></div></a></div></div><div class="item  wordpress" data-category="wordpress"><div class="itemcontent"><a href="https://www.oliverburns.com/" target="_blank"><img src="https://www.creativewiz.net/projects/wordpress/oliverburns/thumb.jpg" width="300" height="216" class="thumb cursor resp" /><div class="info"><p>WORDPRESS</p><p>Oliver Burns</p></div></a></div></div><div class="item  wordpress" data-category="wordpress"><div class="itemcontent"><a href="https://www.story.co/" target="_blank"><img src="https://www.creativewiz.net/projects/wordpress/story/thumb.jpg" width="300" height="216" class="thumb cursor resp" /><div class="info"><p>WORDPRESS</p><p>Story</p></div></a></div></div><div class="item  wordpress" data-category="wordpress"><div class="itemcontent"><a href="https://www.thesupperclubinc.com/" target="_blank"><img src="https://www.creativewiz.net/projects/wordpress/thesupperclubinc/thumb.jpg" width="300" height="216" class="thumb cursor resp" /><div class="info"><p>WORDPRESS</p><p>The Supper Club Inc</p></div></a></div></div><div class="item  wordpress" data-category="wordpress"><div class="itemcontent"><a href="https://www.thebeauxartsdigital.com/" target="_blank"><img src="https://www.creativewiz.net/projects/wordpress/thebeauxartsdigital/thumb.jpg" width="300" height="216" class="thumb cursor resp" /><div class="info"><p>WORDPRESS</p><p>The Beaux Arts Digital</p></div></a></div></div><div class="item  wordpress" data-category="wordpress"><div class="itemcontent"><a href="https://www.ochre.net/" target="_blank"><img src="https://www.creativewiz.net/projects/wordpress/ochre/thumb.jpg" width="300" height="216" class="thumb cursor resp" /><div class="info"><p>WORDPRESS</p><p>Ochre</p></div></a></div></div><div class="item  wordpress" data-category="wordpress"><div class="itemcontent"><a href="https://www.belperron.com/" target="_blank"><img src="https://www.creativewiz.net/projects/wordpress/belperron/thumb.jpg" width="300" height="216" class="thumb cursor resp" /><div class="info"><p>WORDPRESS</p><p>Belperron</p></div></a></div></div><div class="item  wp-shopify" data-category="wp-shopify"><div class="itemcontent"><a href="https://www.leron.com/" target="_blank"><img src="https://www.creativewiz.net/projects/wp_shopify/leron/thumb.jpg" width="300" height="216" class="thumb cursor resp" /><div class="info"><p>WP-SHOPIFY</p><p>Leron</p></div></a></div></div><div class="item  wp-shopify" data-category="wp-shopify"><div class="itemcontent"><a href="https://www.lowercasenyc.com/" target="_blank"><img src="https://www.creativewiz.net/projects/wp_shopify/lowercasenyc/thumb.jpg" width="300" height="216" class="thumb cursor resp" /><div class="info"><p>WP-SHOPIFY</p><p>Lowercase NYC</p></div></a></div></div><div class="item  wp-shopify" data-category="wp-shopify"><div class="itemcontent"><a href="https://www.verdura.com/" target="_blank"><img src="https://www.creativewiz.net/projects/wp_shopify/verdura/thumb.jpg" width="300" height="216" class="thumb cursor resp" /><div class="info"><p>WP-SHOPIFY</p><p>Verdura</p></div></a></div></div><div class="item  website" data-category="website"><div class="itemcontent"><a href="http://doveadvancedhairseries.creativewiz.net/" target="_blank"><img src="https://www.creativewiz.net/projects/website/dove/thumb.jpg" width="300" height="400" class="thumb cursor resp" /><div class="info"><p>WEBSITE</p><p>Dove Hair Series</p></div></a></div></div><div class="item  website" data-category="website"><div class="itemcontent"><a href="http://veryontrend.creativewiz.net/" target="_blank"><img src="https://www.creativewiz.net/projects/website/very/thumb.jpg" width="300" height="340" class="thumb cursor resp" /><div class="info"><p>WEBSITE</p><p>Very on trend</p></div></a></div></div><div class="item  website" data-category="website"><div class="itemcontent"><a href="https://www.net-aware.org.uk/" target="_blank"><img src="https://www.creativewiz.net/projects/website/net-aware/thumb.jpg" width="300" height="340" class="thumb cursor resp" /><div class="info"><p>WEBSITE</p><p>NSPCC NetAware</p></div></a></div></div><div class="item  website" data-category="website"><div class="itemcontent"><a href="https://www.asdagoodliving.co.uk/" target="_blank"><img src="https://www.creativewiz.net/projects/website/asdagoodliving/thumb.jpg" width="300" height="340" class="thumb cursor resp" /><div class="info"><p>WEBSITE</p><p>Asda Good Living</p></div></a></div></div><div class="item  website" data-category="website"><div class="itemcontent"><a href="http://www.bfi.org.uk/2022/" target="_blank"><img src="https://www.creativewiz.net/projects/website/bfi2022/thumb.jpg" width="400" height="350" class="thumb cursor resp" /><div class="info"><p>WEBSITE</p><p>BFI 2022</p></div></a></div></div><div class="item  website" data-category="website"><div class="itemcontent"><a href="https://whatson.bfi.org.uk/lff/Online/default.asp" target="_blank"><img src="https://www.creativewiz.net/projects/website/bfilff/thumb.jpg" width="400" height="356" class="thumb cursor resp" /><div class="info"><p>WEBSITE</p><p>BFI London Film Festival</p></div></a></div></div><div class="item  website" data-category="website"><div class="itemcontent"><a href="https://www.bnpparibas-pf.co.uk/" target="_blank"><img src="https://www.creativewiz.net/projects/website/bnpparibas/thumb.jpg" width="400" height="242" class="thumb cursor resp" /><div class="info"><p>WEBSITE</p><p>BNP Paribas</p></div></a></div></div><div class="item  website" data-category="website"><div class="itemcontent"><a href="https://www.runnersworld.co.uk/" target="_blank"><img src="https://www.creativewiz.net/projects/website/runnersworld/thumb.jpg" width="400" height="242" class="thumb cursor resp" /><div class="info"><p>WEBSITE</p><p>Runners World</p></div></a></div></div><div class="item  advertorial" data-category="advertorial"><div class="itemcontent"><a href="http://advertorials.creativewiz.net/davidoff/web/uk/" target="_blank"><img src="https://www.creativewiz.net/projects/advertorial/davidoff/thumb.jpg" width="400" height="342" class="thumb cursor resp" /><div class="info"><p>ADVERTORIAL</p><p>Davidoff Cool Water</p></div></a></div></div><div class="item  advertorial" data-category="advertorial"><div class="itemcontent"><a href="http://advertorials.creativewiz.net/goodenergy/web/" target="_blank"><img src="https://www.creativewiz.net/projects/advertorial/goodenergy/thumb.jpg" width="400" height="436" class="thumb cursor resp" /><div class="info"><p>ADVERTORIAL</p><p>BT Good Energy</p></div></a></div></div><div class="item  advertorial" data-category="advertorial"><div class="itemcontent"><a href="http://advertorials.creativewiz.net/ufc/web/" target="_blank"><img src="https://www.creativewiz.net/projects/advertorial/ufc/thumb.jpg" width="400" height="328" class="thumb cursor resp" /><div class="info"><p>ADVERTORIAL</p><p>BT UFC 2</p></div></a></div></div><div class="item  microsite" data-category="microsite"><div class="itemcontent"><a href="https://www.creativewiz.net/standalone/microsite/folli-follie/cfcd208495d565ef66e7dff9f98764da" target="_blank"><img src="https://www.creativewiz.net/projects/microsite/standalone/follifollie/thumb.jpg" width="400" height="300" class="thumb cursor resp" /><div class="info"><p>MICROSITE</p><p>Folli Follie</p></div></a></div></div><div class="item  microsite" data-category="microsite"><div class="itemcontent"><a href="https://www.creativewiz.net/standalone/microsite/levis-revel/c4ca4238a0b923820dcc509a6f75849b" target="_blank"><img src="https://www.creativewiz.net/projects/microsite/standalone/levis-revel/thumb.jpg" width="400" height="470" class="thumb cursor resp" /><div class="info"><p>MICROSITE</p><p>Levi's Revel</p></div></a></div></div><div class="item  microsite" data-category="microsite"><div class="itemcontent"><a href="https://www.creativewiz.net/standalone/microsite/rollasole-quiz/c81e728d9d4c2f636f067f89cc14862c" target="_blank"><img src="https://www.creativewiz.net/projects/microsite/standalone/rollasole/thumb.jpg" width="433" height="452" class="thumb cursor resp" /><div class="info"><p>MICROSITE</p><p>Rollasole Quiz</p></div></a></div></div><div class="item  microsite" data-category="microsite"><div class="itemcontent"><a href="https://www.creativewiz.net/standalone/microsite/asda-quiz/eccbc87e4b5ce2fe28308fd9f2a7baf3" target="_blank"><img src="https://www.creativewiz.net/projects/microsite/standalone/asda/thumb.jpg" width="400" height="376" class="thumb cursor resp" /><div class="info"><p>MICROSITE</p><p>Asda Quiz</p></div></a></div></div><div class="item  microsite" data-category="microsite"><div class="itemcontent"><a href="http://www.mylifemycar.co.uk/" target="_blank"><img src="https://www.creativewiz.net/projects/microsite/mylifemycar/thumb.jpg" width="306" height="426" class="thumb cursor resp" /><div class="info"><p>MICROSITE</p><p>My Life My Car</p></div></a></div></div><div class="item ads billboard" data-category="billboard"><div class="itemcontent"><a href="https://www.creativewiz.net/view/billboard/gucci/cfcd208495d565ef66e7dff9f98764da" target="_blank"><img src="https://www.creativewiz.net/projects/ads/billboard/gucci/thumb.jpg" width="300" height="250" class="thumb cursor resp" /><div class="info"><p>BILLBOARD</p><p>Gucci</p></div></a></div></div><div class="item ads billboard" data-category="billboard"><div class="itemcontent"><a href="https://www.creativewiz.net/view/billboard/glade/c4ca4238a0b923820dcc509a6f75849b" target="_blank"><img src="https://www.creativewiz.net/projects/ads/billboard/glade/thumb.jpg" width="300" height="250" class="thumb cursor resp" /><div class="info"><p>BILLBOARD</p><p>Glade</p></div></a></div></div><div class="item ads billboard" data-category="billboard"><div class="itemcontent"><a href="https://www.creativewiz.net/view/billboard/max-factor/c81e728d9d4c2f636f067f89cc14862c" target="_blank"><img src="https://www.creativewiz.net/projects/ads/billboard/max-factor/thumb.jpg" width="300" height="260" class="thumb cursor resp" /><div class="info"><p>BILLBOARD</p><p>Max Factor</p></div></a></div></div><div class="item ads billboard" data-category="billboard"><div class="itemcontent"><a href="https://www.creativewiz.net/view/billboard/mattel/eccbc87e4b5ce2fe28308fd9f2a7baf3" target="_blank"><img src="https://www.creativewiz.net/projects/ads/billboard/mattel/thumb.jpg" width="300" height="250" class="thumb cursor resp" /><div class="info"><p>BILLBOARD</p><p>Mattel</p></div></a></div></div><div class="item ads gatefold" data-category="gatefold"><div class="itemcontent"><a href="https://www.creativewiz.net/view/gatefold/cartier-[flash]/cfcd208495d565ef66e7dff9f98764da" target="_blank"><img src="https://www.creativewiz.net/projects/ads/gatefold/cartier/thumb.jpg" width="400" height="346" class="thumb cursor resp" /><div class="info"><p>GATEFOLD</p><p>Cartier [Flash]</p></div></a></div></div><div class="item ads gatefold" data-category="gatefold"><div class="itemcontent"><a href="https://www.creativewiz.net/view/gatefold/cartier-march-[flash]/c4ca4238a0b923820dcc509a6f75849b" target="_blank"><img src="https://www.creativewiz.net/projects/ads/gatefold/cartier-march/thumb.jpg" width="400" height="498" class="thumb cursor resp" /><div class="info"><p>GATEFOLD</p><p>Cartier March [Flash]</p></div></a></div></div><div class="item ads gatefold" data-category="gatefold"><div class="itemcontent"><a href="https://www.creativewiz.net/view/gatefold/cartier-may-[flash]/c81e728d9d4c2f636f067f89cc14862c" target="_blank"><img src="https://www.creativewiz.net/projects/ads/gatefold/cartier-may/thumb.jpg" width="400" height="522" class="thumb cursor resp" /><div class="info"><p>GATEFOLD</p><p>Cartier May [Flash]</p></div></a></div></div><div class="item ads hpu" data-category="hpu"><div class="itemcontent"><a href="https://www.creativewiz.net/view/hpu/walk-the-line/cfcd208495d565ef66e7dff9f98764da" target="_blank"><img src="https://www.creativewiz.net/projects/ads/hpu/clarks-walk-the-line/thumb.jpg" width="400" height="338" class="thumb cursor resp" /><div class="info"><p>HPU</p><p>Walk the line</p></div></a></div></div><div class="item ads hpu" data-category="hpu"><div class="itemcontent"><a href="https://www.creativewiz.net/view/hpu/portrait-of-a-lady/c4ca4238a0b923820dcc509a6f75849b" target="_blank"><img src="https://www.creativewiz.net/projects/ads/hpu/clarks-portrait-of-a-lady/thumb.jpg" width="400" height="338" class="thumb cursor resp" /><div class="info"><p>HPU</p><p>Portrait of a lady</p></div></a></div></div><div class="item ads leaderboard" data-category="leaderboard"><div class="itemcontent"><a href="https://www.creativewiz.net/view/leaderboard/cartier/cfcd208495d565ef66e7dff9f98764da" target="_blank"><img src="https://www.creativewiz.net/projects/ads/leaderboard/cartier/thumb.jpg" width="400" height="296" class="thumb cursor resp" /><div class="info"><p>LEADERBOARD</p><p>Cartier</p></div></a></div></div><div class="item ads leaderboard" data-category="leaderboard"><div class="itemcontent"><a href="https://www.creativewiz.net/view/leaderboard/addidas/c4ca4238a0b923820dcc509a6f75849b" target="_blank"><img src="https://www.creativewiz.net/projects/ads/leaderboard/addidas/thumb.jpg" width="400" height="354" class="thumb cursor resp" /><div class="info"><p>LEADERBOARD</p><p>Addidas</p></div></a></div></div><div class="item ads leaderboard" data-category="leaderboard"><div class="itemcontent"><a href="https://www.creativewiz.net/view/leaderboard/timberland/c81e728d9d4c2f636f067f89cc14862c" target="_blank"><img src="https://www.creativewiz.net/projects/ads/leaderboard/timberland/thumb.jpg" width="400" height="275" class="thumb cursor resp" /><div class="info"><p>LEADERBOARD</p><p>Timberland</p></div></a></div></div><div class="item ads leaderboard" data-category="leaderboard"><div class="itemcontent"><a href="https://www.creativewiz.net/view/leaderboard/bottega-veneta/eccbc87e4b5ce2fe28308fd9f2a7baf3" target="_blank"><img src="https://www.creativewiz.net/projects/ads/leaderboard/bottega/thumb.jpg" width="400" height="442" class="thumb cursor resp" /><div class="info"><p>LEADERBOARD</p><p>Bottega Veneta</p></div></a></div></div><div class="item ads leaderboard" data-category="leaderboard"><div class="itemcontent"><a href="https://www.creativewiz.net/view/leaderboard/the-outnet/a87ff679a2f3e71d9181a67b7542122c" target="_blank"><img src="https://www.creativewiz.net/projects/ads/leaderboard/the-outnet/thumb.jpg" width="400" height="390" class="thumb cursor resp" /><div class="info"><p>LEADERBOARD</p><p>The Outnet</p></div></a></div></div><div class="item ads rollfold" data-category="rollfold"><div class="itemcontent"><a href="https://www.creativewiz.net/view/rollfold/selfridges/cfcd208495d565ef66e7dff9f98764da" target="_blank"><img src="https://www.creativewiz.net/projects/ads/rollfold/selfridges/thumb.jpg" width="300" height="360" class="thumb cursor resp" /><div class="info"><p>ROLLFOLD</p><p>Selfridges</p></div></a></div></div><div class="item ads rollfold" data-category="rollfold"><div class="itemcontent"><a href="https://www.creativewiz.net/view/rollfold/venus-march/c4ca4238a0b923820dcc509a6f75849b" target="_blank"><img src="https://www.creativewiz.net/projects/ads/rollfold/venus-march/thumb.jpg" width="300" height="500" class="thumb cursor resp" /><div class="info"><p>ROLLFOLD</p><p>Venus March</p></div></a></div></div><div class="item ads rollfold" data-category="rollfold"><div class="itemcontent"><a href="https://www.creativewiz.net/view/rollfold/venus-may/c81e728d9d4c2f636f067f89cc14862c" target="_blank"><img src="https://www.creativewiz.net/projects/ads/rollfold/venus-may/thumb.jpg" width="300" height="398" class="thumb cursor resp" /><div class="info"><p>ROLLFOLD</p><p>Venus May</p></div></a></div></div><div class="item ads rollfold" data-category="rollfold"><div class="itemcontent"><a href="https://www.creativewiz.net/view/rollfold/venus-june/eccbc87e4b5ce2fe28308fd9f2a7baf3" target="_blank"><img src="https://www.creativewiz.net/projects/ads/rollfold/venus-june/thumb.jpg" width="300" height="280" class="thumb cursor resp" /><div class="info"><p>ROLLFOLD</p><p>Venus June</p></div></a></div></div><div class="item ads rollfold" data-category="rollfold"><div class="itemcontent"><a href="https://www.creativewiz.net/view/rollfold/burberry/a87ff679a2f3e71d9181a67b7542122c" target="_blank"><img src="https://www.creativewiz.net/projects/ads/rollfold/burberry/thumb.jpg" width="298" height="498" class="thumb cursor resp" /><div class="info"><p>ROLLFOLD</p><p>Burberry</p></div></a></div></div><div class="item ads rollfold" data-category="rollfold"><div class="itemcontent"><a href="https://www.creativewiz.net/view/rollfold/walk-the-line/e4da3b7fbbce2345d7772b0674a318d5" target="_blank"><img src="https://www.creativewiz.net/projects/ads/rollfold/clarks-walk-the-line/thumb.jpg" width="400" height="534" class="thumb cursor resp" /><div class="info"><p>ROLLFOLD</p><p>Walk the line</p></div></a></div></div><div class="item ads rollfold" data-category="rollfold"><div class="itemcontent"><a href="https://www.creativewiz.net/view/rollfold/portrait-of-a-lady/1679091c5a880faf6fb5e6087eb1b2dc" target="_blank"><img src="https://www.creativewiz.net/projects/ads/rollfold/clarks-portrait-of-a-lady/thumb.jpg" width="400" height="533" class="thumb cursor resp" /><div class="info"><p>ROLLFOLD</p><p>Portrait of a lady</p></div></a></div></div><div class="item ads takeover" data-category="takeover"><div class="itemcontent"><a href="https://www.creativewiz.net/view/takeover/tag-heuer/cfcd208495d565ef66e7dff9f98764da" target="_blank"><img src="https://www.creativewiz.net/projects/ads/takeover/tag/thumb.jpg" width="270" height="320" class="thumb cursor resp" /><div class="info"><p>TAKEOVER</p><p>Tag Heuer</p></div></a></div></div><div class="item ads takeover" data-category="takeover"><div class="itemcontent"><a href="https://www.creativewiz.net/view/takeover/clarins/c4ca4238a0b923820dcc509a6f75849b" target="_blank"><img src="https://www.creativewiz.net/projects/ads/takeover/clarins/thumb.jpg" width="298" height="400" class="thumb cursor resp" /><div class="info"><p>TAKEOVER</p><p>Clarins</p></div></a></div></div><div class="item ads takeover" data-category="takeover"><div class="itemcontent"><a href="https://www.creativewiz.net/view/takeover/revlon-2/c81e728d9d4c2f636f067f89cc14862c" target="_blank"><img src="https://www.creativewiz.net/projects/ads/takeover/revlon2/thumb.jpg" width="300" height="406" class="thumb cursor resp" /><div class="info"><p>TAKEOVER</p><p>Revlon 2</p></div></a></div></div><div class="item ads takeover" data-category="takeover"><div class="itemcontent"><a href="https://www.creativewiz.net/view/takeover/revlon-3/eccbc87e4b5ce2fe28308fd9f2a7baf3" target="_blank"><img src="https://www.creativewiz.net/projects/ads/takeover/revlon3/thumb.jpg" width="300" height="406" class="thumb cursor resp" /><div class="info"><p>TAKEOVER</p><p>Revlon 3</p></div></a></div></div><div class="item ads takeover" data-category="takeover"><div class="itemcontent"><a href="https://www.creativewiz.net/view/takeover/mac-viva-glam/a87ff679a2f3e71d9181a67b7542122c" target="_blank"><img src="https://www.creativewiz.net/projects/ads/takeover/mac-viva-glam/thumb.jpg" width="400" height="520" class="thumb cursor resp" /><div class="info"><p>TAKEOVER</p><p>Mac Viva Glam</p></div></a></div></div><div class="item ads takeover" data-category="takeover"><div class="itemcontent"><a href="https://www.creativewiz.net/view/takeover/plenty/e4da3b7fbbce2345d7772b0674a318d5" target="_blank"><img src="https://www.creativewiz.net/projects/ads/takeover/plenty/thumb.jpg" width="300" height="326" class="thumb cursor resp" /><div class="info"><p>TAKEOVER</p><p>Plenty</p></div></a></div></div><div class="item ads takeover" data-category="takeover"><div class="itemcontent"><a href="https://www.creativewiz.net/view/takeover/nike/1679091c5a880faf6fb5e6087eb1b2dc" target="_blank"><img src="https://www.creativewiz.net/projects/ads/takeover/nike/thumb.jpg" width="400" height="420" class="thumb cursor resp" /><div class="info"><p>TAKEOVER</p><p>Nike</p></div></a></div></div><div class="item ads takeover" data-category="takeover"><div class="itemcontent"><a href="https://www.creativewiz.net/view/takeover/warehouse/8f14e45fceea167a5a36dedd4bea2543" target="_blank"><img src="https://www.creativewiz.net/projects/ads/takeover/warehouse/thumb.jpg" width="300" height="500" class="thumb cursor resp" /><div class="info"><p>TAKEOVER</p><p>Warehouse</p></div></a></div></div><div class="item ads takeover" data-category="takeover"><div class="itemcontent"><a href="https://www.creativewiz.net/view/takeover/levis-revel/c9f0f895fb98ab9159f51fd0297e236d" target="_blank"><img src="https://www.creativewiz.net/projects/ads/takeover/levis-revel/thumb.jpg" width="300" height="408" class="thumb cursor resp" /><div class="info"><p>TAKEOVER</p><p>Levi's Revel</p></div></a></div></div><div class="item ads takeover" data-category="takeover"><div class="itemcontent"><a href="https://www.creativewiz.net/view/takeover/dove-hair-series/45c48cce2e2d7fbdea1afc51c7c6ad26" target="_blank"><img src="https://www.creativewiz.net/projects/ads/takeover/dove/thumb.jpg" width="298" height="370" class="thumb cursor resp" /><div class="info"><p>TAKEOVER</p><p>Dove Hair Series</p></div></a></div></div><div class="item ads takeover" data-category="takeover"><div class="itemcontent"><a href="https://www.creativewiz.net/view/takeover/optimum/d3d9446802a44259755d38e6d163e820" target="_blank"><img src="https://www.creativewiz.net/projects/ads/takeover/optimum/thumb.jpg" width="300" height="460" class="thumb cursor resp" /><div class="info"><p>TAKEOVER</p><p>Optimum</p></div></a></div></div>		</div>
	</div>
	<div class="abs projnav">
		<ul>
		<li class="parent"><span class="bullet"></span><a href="#" class="active" data-filter="*">SHOW ALL</a></li><li class="parent ads"><span class="bullet"></span><a href="#" data-filter=".ads">ADS</a></li><li class="child billboard"><span class="bullet"></span><a href="#" data-filter=".billboard">Billboard</a></li><li class="child gatefold"><span class="bullet"></span><a href="#" data-filter=".gatefold">Gatefold</a></li><li class="child hpu"><span class="bullet"></span><a href="#" data-filter=".hpu">Hpu</a></li><li class="child leaderboard"><span class="bullet"></span><a href="#" data-filter=".leaderboard">Leaderboard</a></li><li class="child rollfold"><span class="bullet"></span><a href="#" data-filter=".rollfold">Rollfold</a></li><li class="child takeover"><span class="bullet"></span><a href="#" data-filter=".takeover">Takeover</a></li><li class="parent wordpress"><span class="bullet"></span><a href="#" data-filter=".wordpress">WORDPRESS</a></li><li class="parent wp-shopify"><span class="bullet"></span><a href="#" data-filter=".wp-shopify">WP-SHOPIFY</a></li><li class="parent website"><span class="bullet"></span><a href="#" data-filter=".website">WEBSITE</a></li><li class="parent advertorial"><span class="bullet"></span><a href="#" data-filter=".advertorial">ADVERTORIAL</a></li><li class="parent microsite"><span class="bullet"></span><a href="#" data-filter=".microsite">MICROSITE</a></li>		</ul>
	</div>
</section><section class="contact">
	<div class="content">
		<div class="columns">
			<div class="col col1">
				<h5>
					<div class="sprite arrowright"></div>
					<p>DIRECT CONTACTS</p>
				</h5>
				<div class="person"><p>Arlan Viray</p><p><a href="mailto:arlan.viray@creativewiz.net">arlan.viray@creativewiz.net</a></p><p>+44 (0) 7854 626192</p></div><div class="person"><p>Hang Dam</p><p><a href="mailto:hang.dam@creativewiz.net">hang.dam@creativewiz.net</a></p><p>+44 (0) 7762 333318</p></div><div class="person"><p>Khoi Kieu</p><p><a href="mailto:khoi.kieu@creativewiz.net">khoi.kieu@creativewiz.net</a></p><p>+44 (0) 7890 437701</p></div>			</div>
			<div class="col col2">
				<h5>
					<div class="sprite arrowright"></div>
					<p>CONTACT FORM</p>
				</h5>
				<div class="formcontainer">
					<form id="theform">
						<ul>
							<li class="name">
								<input name="name" type="text" class="" placeholder="Name" />
								<div class="sprite"></div>
							</li>
							<li class="email">
								<input name="email" type="text" class="" placeholder="Email" />
								<div class="sprite"></div>
							</li>
							<li class="comment">
								<textarea name="comment" class="" placeholder="Comment"></textarea>
								<div class="sprite"></div>
							</li>
							<li><div class="cursor submit">SEND MESSAGE</div></li>
						</ul>
					</form>
				</div>
			</div>
		</div>
	</div>
</section>	</div>
	
	
			<script data-main="https://www.creativewiz.net/js/page-home" src="https://www.creativewiz.net/js/lib/require.js"></script>

<!-- GOOGLE ANALYTIC CODE -->
<script type="text/javascript">
	(function(i,s,o,g,r,a,m){i['GoogleAnalyticsObject']=r;i[r]=i[r]||function(){
	(i[r].q=i[r].q||[]).push(arguments)},i[r].l=1*new Date();a=s.createElement(o),
	m=s.getElementsByTagName(o)[0];a.async=1;a.src=g;m.parentNode.insertBefore(a,m)
	})(window,document,'script','//www.google-analytics.com/analytics.js','ga');
	
	ga('create', 'UA-17036577-1', 'creativewiz.net');
	ga('require', 'displayfeatures');
	ga('send', 'pageview');
</script>
<!-- GOOGLE ANALYTIC END -->
</body>
</html>