<!DOCTYPE html PUBLIC "-//W3C//DTD HTML+RDFa 1.1//EN">
<html lang="en" dir="ltr" version="HTML+RDFa 1.1"
  xmlns:og="http://ogp.me/ns#"
  xmlns:article="http://ogp.me/ns/article#"
  xmlns:book="http://ogp.me/ns/book#"
  xmlns:profile="http://ogp.me/ns/profile#"
  xmlns:video="http://ogp.me/ns/video#"
  xmlns:product="http://ogp.me/ns/product#"
  xmlns:content="http://purl.org/rss/1.0/modules/content/"
  xmlns:dc="http://purl.org/dc/terms/"
  xmlns:foaf="http://xmlns.com/foaf/0.1/"
  xmlns:rdfs="http://www.w3.org/2000/01/rdf-schema#"
  xmlns:sioc="http://rdfs.org/sioc/ns#"
  xmlns:sioct="http://rdfs.org/sioc/types#"
  xmlns:skos="http://www.w3.org/2004/02/skos/core#"
  xmlns:xsd="http://www.w3.org/2001/XMLSchema#">
<head profile="http://www.w3.org/1999/xhtml/vocab">
  <meta http-equiv="Content-Type" content="text/html; charset=utf-8" />
<link rel="shortcut icon" href="https://www.housingadviceni.net/sites/default/files/favicon.ico" type="image/vnd.microsoft.icon" />
<meta name="viewport" content="width=device-width, initial-scale=1, maximum-scale=1, minimum-scale=1, user-scalable=no" />
<meta name="generator" content="Drupal 7 (https://www.drupal.org)" />
<link rel="canonical" href="https://www.housingadviceni.net/" />
<link rel="shortlink" href="https://www.housingadviceni.net/" />
<meta property="og:site_name" content="Housing Advice NI" />
<meta property="og:type" content="website" />
<meta property="og:url" content="https://www.housingadviceni.net/" />
<meta property="og:title" content="Housing Advice NI" />
<meta name="twitter:card" content="summary" />
<meta name="twitter:url" content="https://www.housingadviceni.net/" />
<meta name="twitter:title" content="Housing Advice NI" />
  <title>Housing Advice NI |</title>  
  <link type="text/css" rel="stylesheet" href="https://www.housingadviceni.net/sites/default/files/css/css_xE-rWrJf-fncB6ztZfd2huxqgxu4WO-qwma6Xer30m4.css" media="all" />
<link type="text/css" rel="stylesheet" href="https://www.housingadviceni.net/sites/default/files/css/css_vZ_wrMQ9Og-YPPxa1q4us3N7DsZMJa-14jShHgRoRNo.css" media="all" />
<link type="text/css" rel="stylesheet" href="https://www.housingadviceni.net/sites/default/files/css/css_IzhZzdJXFVafSfTzHvwkKsVztXAdX8mHPoGhPrwlsJw.css" media="all" />
<link type="text/css" rel="stylesheet" href="https://www.housingadviceni.net/sites/default/files/css/css_HHTgFErgHvlKLEHHy6kYExNbZZDli50TGTaeoihytCc.css" media="all" />
<link type="text/css" rel="stylesheet" href="https://www.housingadviceni.net/sites/default/files/css/css_2pGj9-YgexGrM-Dp3459tOLrWk8gkCCRlcmzaeLr2BY.css" media="all" />
<link type="text/css" rel="stylesheet" href="https://www.housingadviceni.net/styleswitcher/css/hani?q19xms" media="all" id="styleswitcher-css" />

<!--[if (lt IE 9)&(!IEMobile)]>
<link type="text/css" rel="stylesheet" href="https://www.housingadviceni.net/sites/default/files/css/css_Q_DjrYyWyg0nzOaLyw5rlLKRBptJpkHFsg666ILKttA.css" media="all" />
<![endif]-->

<!--[if gte IE 9]><!-->
<link type="text/css" rel="stylesheet" href="https://www.housingadviceni.net/sites/default/files/css/css_VcOwyzAC4jmz_Prxyn2ELVn774BctLzGSs4xWRUsDGU.css" media="all" />
<!--<![endif]-->
  <script type="text/javascript">
<!--//--><![CDATA[//><!--
(function(h,o,t,j,a,r){
  h.hj=h.hj||function(){(h.hj.q=h.hj.q||[]).push(arguments)};
  h._hjSettings={hjid:"1474761",hjsv:"6"};
  a=o.getElementsByTagName('head')[0];
  r=o.createElement('script');r.async=1;
  r.src=t+h._hjSettings.hjid+j+h._hjSettings.hjsv;
  a.appendChild(r);
})(window,document,'//static.hotjar.com/c/hotjar-','.js?sv=');
//--><!]]>
</script>
<script type="text/javascript" src="https://www.housingadviceni.net/sites/default/files/js/js_WfSMrGGEZYzO1vIpJlNdg43tuv7gsoQnozZ2SqrLjJg.js"></script>
<script type="text/javascript" src="https://www.housingadviceni.net/sites/default/files/js/js_myuvWVCV-qJJ-9JNwjVl-xRcF33PJjyaFhwQJHFVoA0.js"></script>
<script type="text/javascript" src="https://www.housingadviceni.net/sites/default/files/js/js__JHheI-K1udnnU4VboLI9yClVh-N4F2PjxjI4hY2mdE.js"></script>
<script type="text/javascript" src="https://www.housingadviceni.net/sites/default/files/js/js_qndKyzoRyfiCnxO2tQ1TgapIs5K1zo9qk7bwhtOQtwQ.js"></script>
<script type="text/javascript">
<!--//--><![CDATA[//><!--
(function(i,s,o,g,r,a,m){i["GoogleAnalyticsObject"]=r;i[r]=i[r]||function(){(i[r].q=i[r].q||[]).push(arguments)},i[r].l=1*new Date();a=s.createElement(o),m=s.getElementsByTagName(o)[0];a.async=1;a.src=g;m.parentNode.insertBefore(a,m)})(window,document,"script","https://www.google-analytics.com/analytics.js","ga");ga("create", "UA-1779486-6", {"cookieDomain":"auto"});ga("require", "displayfeatures");ga("send", "pageview");
//--><!]]>
</script>
<script type="text/javascript" src="https://www.housingadviceni.net/sites/default/files/js/js_aYRhVy1qxjn9HXrfsE6ugH5xEHcY9ffR7w9Pk2V2zfI.js"></script>
<script type="text/javascript" src="https://www.housingadviceni.net/sites/default/files/js/js_43n5FBy8pZxQHxPXkf-sQF7ZiacVZke14b0VlvSA554.js"></script>
<script type="text/javascript">
<!--//--><![CDATA[//><!--
jQuery.extend(Drupal.settings, {"basePath":"\/","pathPrefix":"","ajaxPageState":{"theme":"hani","theme_token":"xPHL3H6N4gIzLWIyJRd6sO3XbeapY16M9b6I-FjBZ4M","js":{"0":1,"1":1,"2":1,"3":1,"4":1,"misc\/jquery.js":1,"misc\/jquery-extend-3.4.0.js":1,"misc\/jquery.once.js":1,"misc\/drupal.js":1,"sites\/all\/libraries\/fitvids\/jquery.fitvids.js":1,"misc\/ui\/jquery.effects.core.min.js":1,"sites\/all\/modules\/views_slideshow\/js\/views_slideshow.js":1,"misc\/jquery.cookie.js":1,"misc\/form.js":1,"sites\/all\/modules\/cookiecontrol\/js\/cookieControl-5.1.min.js":1,"sites\/all\/modules\/fitvids\/fitvids.js":1,"sites\/all\/modules\/google_cse\/google_cse.js":1,"sites\/all\/modules\/back_to_top\/js\/back_to_top.js":1,"sites\/all\/modules\/extlink\/extlink.js":1,"sites\/all\/libraries\/colorbox\/jquery.colorbox-min.js":1,"sites\/all\/modules\/colorbox\/js\/colorbox.js":1,"sites\/all\/modules\/colorbox\/styles\/default\/colorbox_style.js":1,"sites\/all\/modules\/popup_onload\/popup_onload.js":1,"sites\/all\/modules\/custom_search\/js\/custom_search.js":1,"sites\/all\/libraries\/flexslider\/jquery.flexslider-min.js":1,"sites\/all\/modules\/flexslider_views_slideshow\/js\/flexslider_views_slideshow.js":1,"sites\/all\/modules\/responsive_menus\/styles\/responsive_menus_simple\/js\/responsive_menus_simple.js":1,"sites\/all\/modules\/google_analytics\/googleanalytics.js":1,"5":1,"misc\/collapse.js":1,"sites\/all\/modules\/styleswitcher\/styleswitcher.js":1,"sites\/all\/themes\/omega\/omega\/js\/jquery.formalize.js":1,"sites\/all\/themes\/omega\/omega\/js\/omega-mediaqueries.js":1},"css":{"modules\/system\/system.base.css":1,"modules\/system\/system.menus.css":1,"modules\/system\/system.messages.css":1,"modules\/system\/system.theme.css":1,"sites\/all\/modules\/views_slideshow\/views_slideshow.css":1,"sites\/all\/modules\/date\/date_api\/date.css":1,"sites\/all\/modules\/date\/date_popup\/themes\/datepicker.1.7.css":1,"modules\/field\/theme\/field.css":1,"sites\/all\/modules\/fitvids\/fitvids.css":1,"sites\/all\/modules\/google_cse\/google_cse.css":1,"modules\/node\/node.css":1,"modules\/poll\/poll.css":1,"modules\/search\/search.css":1,"modules\/user\/user.css":1,"sites\/all\/modules\/extlink\/extlink.css":1,"sites\/all\/modules\/views\/css\/views.css":1,"sites\/all\/modules\/back_to_top\/css\/back_to_top.css":1,"sites\/all\/modules\/colorbox\/styles\/default\/colorbox_style.css":1,"sites\/all\/modules\/ctools\/css\/ctools.css":1,"sites\/all\/modules\/popup_onload\/popup_onload-colorbox.css":1,"sites\/all\/modules\/print\/print_ui\/css\/print_ui.theme.css":1,"sites\/all\/modules\/flexslider\/assets\/css\/flexslider_img.css":1,"sites\/all\/libraries\/flexslider\/flexslider.css":1,"sites\/all\/modules\/custom_search\/custom_search.css":1,"sites\/all\/modules\/responsive_menus\/styles\/responsive_menus_simple\/css\/responsive_menus_simple.css":1,"sites\/all\/modules\/styleswitcher\/styleswitcher.overlay.css":1,"sites\/all\/themes\/omega\/alpha\/css\/alpha-reset.css":1,"sites\/all\/themes\/omega\/alpha\/css\/alpha-mobile.css":1,"sites\/all\/themes\/omega\/alpha\/css\/alpha-alpha.css":1,"sites\/all\/themes\/omega\/omega\/css\/formalize.css":1,"sites\/all\/themes\/omega\/omega\/css\/omega-text.css":1,"sites\/all\/themes\/omega\/omega\/css\/omega-branding.css":1,"sites\/all\/themes\/omega\/omega\/css\/omega-menu.css":1,"sites\/all\/themes\/omega\/omega\/css\/omega-forms.css":1,"sites\/all\/themes\/omega\/omega\/css\/omega-visuals.css":1,"sites\/all\/themes\/hani\/css\/global.css":1,"https:\/\/www.housingadviceni.net\/styleswitcher\/css\/hani":1,"ie::normal::sites\/all\/themes\/hani\/css\/hani-alpha-default.css":1,"ie::normal::sites\/all\/themes\/hani\/css\/hani-alpha-default-normal.css":1,"ie::normal::sites\/all\/themes\/omega\/alpha\/css\/grid\/alpha_default\/normal\/alpha-default-normal-12.css":1,"narrow::sites\/all\/themes\/hani\/css\/hani-alpha-default.css":1,"narrow::sites\/all\/themes\/hani\/css\/hani-alpha-default-narrow.css":1,"sites\/all\/themes\/omega\/alpha\/css\/grid\/alpha_default\/narrow\/alpha-default-narrow-12.css":1,"normal::sites\/all\/themes\/hani\/css\/hani-alpha-default.css":1,"normal::sites\/all\/themes\/hani\/css\/hani-alpha-default-normal.css":1,"sites\/all\/themes\/omega\/alpha\/css\/grid\/alpha_default\/normal\/alpha-default-normal-12.css":1,"wide::sites\/all\/themes\/hani\/css\/hani-alpha-default.css":1,"wide::sites\/all\/themes\/hani\/css\/hani-alpha-default-wide.css":1,"sites\/all\/themes\/omega\/alpha\/css\/grid\/alpha_default\/wide\/alpha-default-wide-12.css":1}},"colorbox":{"opacity":"0.85","current":"{current} of {total}","previous":"\u00ab Prev","next":"Next \u00bb","close":"Close","maxWidth":"98%","maxHeight":"98%","fixed":true,"mobiledetect":true,"mobiledevicewidth":"480px"},"googleCSE":{"cx":"008953790129862454002:qxbyt8hyq0e","language":"","resultsWidth":600,"domain":"www.google.com","showWaterMark":0},"popup_onload":{"html":"\u003Cdiv class=\u0022entity entity-popup-onload popup-onload-popup-onload-basic clearfix\u0022 about=\u0022\u0022 typeof=\u0022\u0022 class=\u0022entity entity-popup-onload popup-onload-popup-onload-basic\u0022\u003E\n\n  \n  \u003Cdiv class=\u0022content\u0022\u003E\n    \u003Cdiv class=\u0022field field-name-field-fake-body field-type-text field-label-hidden\u0022\u003E\u003Cdiv class=\u0022field-items\u0022\u003E\u003Cdiv class=\u0022field-item even\u0022\u003E\u003Cscript\u003E(function(t,e,s,o){var n,c,l;t.SMCX=t.SMCX||[],e.getElementById(o)||(n=e.getElementsByTagName(s),c=n[n.length-1],l=e.createElement(s),l.type=\u0022text\/javascript\u0022,l.async=!0,l.id=o,l.src=[\u0022https:\u0022===location.protocol?\u0022https:\/\/\u0022:\u0022http:\/\/\u0022,\u0022widget.surveymonkey.com\/collect\/website\/js\/tRaiETqnLgj758hTBazgdzDiJndf0ALQHsnMpeesxex8inZW8v28Y6vP5rnr_2Bxxs.js\u0022].join(\u0022\u0022),c.parentNode.insertBefore(l,c))})(window,document,\u0022script\u0022,\u0022smcx-sdk\u0022);\u003C\/script\u003E\u003C\/div\u003E\u003C\/div\u003E\u003C\/div\u003E  \u003C\/div\u003E\n\u003C\/div\u003E\n","delay":"240000","fixed":false,"popup_id":"4","className":"popup_onload","overlayClose":true,"close":""},"custom_search":{"form_target":"_self","solr":0},"viewsSlideshow":{"front_page_slideshow-block_1":{"methods":{"goToSlide":["viewsSlideshowPager","viewsSlideshowSlideCounter"],"nextSlide":["viewsSlideshowPager","viewsSlideshowSlideCounter","flexsliderViewsSlideshow"],"pause":["viewsSlideshowControls","flexsliderViewsSlideshow"],"play":["viewsSlideshowControls","flexsliderViewsSlideshow"],"previousSlide":["viewsSlideshowPager","viewsSlideshowSlideCounter","flexsliderViewsSlideshow"],"transitionBegin":["viewsSlideshowPager","viewsSlideshowSlideCounter"],"transitionEnd":[]},"paused":0}},"flexslider_views_slideshow":{"#flexslider_views_slideshow_main_front_page_slideshow-block_1":{"num_divs":9,"id_prefix":"#flexslider_views_slideshow_main_","vss_id":"front_page_slideshow-block_1","animation":"fade","slideDirection":"horizontal","slideshow":true,"slideshowSpeed":7000,"animationLoop":true,"randomize":false,"slideToStart":0,"directionNav":false,"controlNav":true,"keyboardNav":1,"mousewheel":0,"prevText":"Previous","nextText":"Next","pausePlay":false,"pauseText":"Pause","playText":"Play","pauseOnAction":true,"manualControls":"","animationSpeed":600,"direction":"","keyboard":false,"startAt":0,"start":null,"before":null,"after":null,"end":null,"namespace":"flex-","selector":".slides \u003E li","easing":"swing","reverse":false,"smoothHeight":false,"initDelay":0,"useCSS":true,"touch":true,"video":false,"multipleKeyboard":false,"controlsContainer":".flex-control-nav-container","sync":"","asNavFor":"","itemWidth":0,"itemMargin":0,"minItems":0,"maxItems":0,"move":0,"thumbCaptions":false,"thumbCaptionsBoth":false,"pauseOnHover":false}},"better_exposed_filters":{"views":{"front_page_slideshow":{"displays":{"block":{"filters":[]}}},"front_page_blocks":{"displays":{"block":{"filters":[]}}}}},"back_to_top":{"back_to_top_button_trigger":"100","back_to_top_button_text":"Back to top","#attached":{"library":[["system","ui"]]}},"fitvids":{"custom_domains":[],"selectors":["body"],"simplifymarkup":true},"responsive_menus":[{"toggler_text":"\u2630 Menu","selectors":["#block-system-main-menu"],"media_size":"724","media_unit":"px","remove_attributes":"1","responsive_menus_style":"responsive_menus_simple"}],"extlink":{"extTarget":"_blank","extClass":"ext","extLabel":"(link is external)","extImgClass":0,"extIconPlacement":"append","extSubdomains":1,"extExclude":"","extInclude":"pdf|doc","extCssExclude":"","extCssExplicit":"","extAlert":0,"extAlertText":"This link will take you to an external web site.","mailtoClass":"mailto","mailtoLabel":"(link sends e-mail)"},"googleanalytics":{"trackOutbound":1,"trackMailto":1,"trackDownload":1,"trackDownloadExtensions":"7z|aac|arc|arj|asf|asx|avi|bin|csv|doc(x|m)?|dot(x|m)?|exe|flv|gif|gz|gzip|hqx|jar|jpe?g|js|mp(2|3|4|e?g)|mov(ie)?|msi|msp|pdf|phps|png|ppt(x|m)?|pot(x|m)?|pps(x|m)?|ppam|sld(x|m)?|thmx|qtm?|ra(m|r)?|sea|sit|tar|tgz|torrent|txt|wav|wma|wmv|wpd|xls(x|m|b)?|xlt(x|m)|xlam|xml|z|zip","trackColorbox":1},"urlIsAjaxTrusted":{"\/":true},"styleSwitcher":{"styles":{"custom\/default":{"label":"Normal","name":"custom\/default","path":"https:\/\/www.housingadviceni.net\/styleswitcher\/css\/hani","weight":"0","status":true,"is_default":true,"_i":0,"theme":"hani"},"theme\/high_contrast":{"name":"theme\/high_contrast","label":"High Contrast","path":"https:\/\/www.housingadviceni.net\/sites\/all\/themes\/hani\/css\/highcontrast.css","weight":"0","status":true,"is_default":false,"_i":1,"theme":"hani"}},"default":"custom\/default","enableOverlay":1,"cookieExpire":31536000,"theme":"hani"},"omega":{"layouts":{"primary":"normal","order":["narrow","normal","wide"],"queries":{"narrow":"all and (min-width: 740px) and (min-device-width: 740px), (max-device-width: 800px) and (min-width: 740px) and (orientation:landscape)","normal":"all and (min-width: 980px) and (min-device-width: 980px), all and (max-device-width: 1024px) and (min-width: 1024px) and (orientation:landscape)","wide":"all and (min-width: 1220px)"}}}});
//--><!]]>
</script>
  <!--[if lt IE 9]><script src="http://html5shiv.googlecode.com/svn/trunk/html5.js"></script><![endif]-->
  <link type="text/css" rel="stylesheet" href="//fonts.googleapis.com/css?family=Cabin:400,700,400italic,700italic">
  <!--[if IE 8]><link rel="stylesheet" href="/sites/all/themes/hani/css/ie8.css"><![endif]-->
</head>
<body class="html front not-logged-in page-node page-node- page-node-1438 node-type-other-page">
  <div id="skip-link">
    <a href="#main-content" class="element-invisible element-focusable">Skip to main content</a>
  </div>
  <div class="region region-page-top" id="region-page-top">
  <div class="region-inner region-page-top-inner">
      </div>
</div>  <div class="page clearfix" id="page">
      <header id="section-header" class="section section-header">
  <div id="zone-branding-wrapper" class="zone-wrapper zone-branding-wrapper clearfix">  
  <div id="zone-branding" class="zone zone-branding clearfix container-12">
    <div class="grid-6 region region-branding" id="region-branding">
  <div class="region-inner region-branding-inner">
        <div class="branding-data clearfix">
            <div class="logo-img">
        <a href="/" rel="home" title="" class="active"><img src="https://www.housingadviceni.net/sites/default/files/hrslogo.png" alt="" id="logo" /></a>      </div>
                </div>
          </div>
</div><div class="grid-6 region region-header-first" id="region-header-first">
  <div class="region-inner region-header-first-inner">
    <div class="block block-block block-25 block-block-25 odd block-without-title" id="block-block-25">
  <div class="block-inner clearfix">
                
    <div class="content clearfix">
      <div><a href="https://twitter.com/HousingRightsNI"><img alt="Twitter" src="/sites/default/files/twitter.png" style="width: 38px; height: 31px;"></a><a href="/videos"><img alt="Facebook" src="/sites/default/files/facebook.png" style="width: 31px; height: 31px; margin-left: 10px;"><img alt="" src="/sites/default/files/haNIvideo.png" style="width: 42px; height: 31px; margin-left: 10px;"></a><div class="reciteme"><img alt="ear" src="/sites/default/files/white_ear.png" style="margin-left: 10px;"></div></div>
<script type="text/javascript">
    jQuery(".reciteme").click(function(i,e){
        loadService();
        return false;	
    });
</script>
    </div>
  </div>
</div><div class="block block-search block-form block-search-form even block-without-title" id="block-search-form">
  <div class="block-inner clearfix">
                
    <div class="content clearfix">
      <form class="search-form" role="search" action="/" method="post" id="search-block-form" accept-charset="UTF-8"><div><div class="container-inline">
      <h2 class="element-invisible">Search form</h2>
    <div class="form-item form-type-textfield form-item-search-block-form">
  <input title="" class="custom-search-box form-text" placeholder="SEARCH" type="text" id="edit-search-block-form--2" name="search_block_form" value="" size="30" maxlength="128" />
</div>
<div class="form-actions form-wrapper" id="edit-actions"><input style="display:none;" type="submit" id="edit-submit" name="op" value="" class="form-submit" /></div><input type="hidden" name="form_build_id" value="form-0oPb098JZAo8UUrHQwPzFrsIIFndYpcBO2o4ab4dvJY" />
<input type="hidden" name="form_id" value="search_block_form" />
</div>
</div></form>    </div>
  </div>
</div><div class="block block-block block-33 block-block-33 odd block-without-title" id="block-block-33">
  <div class="block-inner clearfix">
                
    <div class="content clearfix">
      <div> </div>
<div><img alt="When everyone has a home" src="/sites/default/files/strapline420.png" /></div>
    </div>
  </div>
</div>  </div>
</div>  </div>
</div><div id="zone-header-wrapper" class="zone-wrapper zone-header-wrapper clearfix">  
  <div id="zone-header" class="zone zone-header clearfix container-12">
    <div class="grid-12 region region-header-second" id="region-header-second">
  <div class="region-inner region-header-second-inner">
    <div class="block block-block block-1 block-block-1 odd block-without-title" id="block-block-1">
  <div class="block-inner clearfix">
                
    <div class="content clearfix">
      <h2 style="text-align: right;">Housing advice for Northern Ireland</h2>
    </div>
  </div>
</div>  </div>
</div>  </div>
</div></header>    
      <section id="section-content" class="section section-content">
  <div id="zone-content-wrapper" class="zone-wrapper zone-content-wrapper clearfix">  
  <div id="zone-content" class="zone zone-content clearfix container-12">    
        
        <aside class="grid-3 region region-sidebar-first" id="region-sidebar-first">
  <div class="region-inner region-sidebar-first-inner">
    <div class="block block-system block-menu block-main-menu block-system-main-menu odd block-without-title" id="block-system-main-menu">
  <div class="block-inner clearfix">
                
    <div class="content clearfix">
      <ul class="menu"><li class="first leaf"><a href="/" class="active">Home</a></li>
<li class="leaf"><a href="/homelessness">Homelessness</a></li>
<li class="leaf"><a href="/housing-options-ni">Housing options in Northern Ireland</a></li>
<li class="leaf"><a href="/waiting-list-housing">Applying and waiting for social housing</a></li>
<li class="leaf"><a href="/advice-housing-executive-tenants">Advice for Housing Executive tenants</a></li>
<li class="leaf"><a href="/advice-housing-association-tenants">Advice for housing association tenants</a></li>
<li class="leaf"><a href="/advice-private-tenants">Advice for private tenants</a></li>
<li class="leaf"><a href="/advice-other-tenants-and-homeowners">Advice for other tenants and homeowners</a></li>
<li class="leaf"><a href="/advice-young-people">Advice for young people</a></li>
<li class="leaf"><a href="/advice-prisoners">Advice for prisoners</a></li>
<li class="leaf"><a href="/advice-landlords">Help and advice for landlords</a></li>
<li class="leaf"><a href="/living-others">Living with other people</a></li>
<li class="leaf"><a href="/grants-financial-assistance">Repairs, grants and financial assistance</a></li>
<li class="leaf"><a href="/support-your-home">Support in your home</a></li>
<li class="leaf"><a href="/paying-your-home">Paying for your home</a></li>
<li class="leaf"><a href="/housing-benefit">Housing benefit</a></li>
<li class="leaf"><a href="/universal-credit">Universal Credit</a></li>
<li class="leaf"><a href="/welfare-reform-and-housing">Welfare reform and housing</a></li>
<li class="leaf"><a href="/help-debt">Help with debt</a></li>
<li class="leaf"><a href="/mortgage-debt-advice">Mortgage arrears and repossession</a></li>
<li class="leaf"><a href="/court-action" title="Court action" id="court-action">Court action</a></li>
<li class="leaf"><a href="/making-complaint">Making a complaint</a></li>
<li class="leaf"><a href="/neighbourhood-issues">Neighbourhood issues</a></li>
<li class="leaf"><a href="/leaving-accommodation">Leaving accommodation</a></li>
<li class="leaf"><a href="/equality-discrimination">Equality &amp; discrimination</a></li>
<li class="leaf"><a href="/do-it-yourself">Do it yourself</a></li>
<li class="leaf"><a href="/videos">Videos</a></li>
<li class="leaf line-above"><a href="/advice-other-languages">Advice in other languages</a></li>
<li class="leaf"><a href="/speak-adviser">Get advice</a></li>
<li class="leaf"><a href="/need-site-help">Need some help on this website?</a></li>
<li class="last leaf"><a href="/brexit">BREXIT</a></li>
</ul>    </div>
  </div>
</div>  </div>
</aside><div class="grid-9 region region-content" id="region-content">
  <div class="region-inner region-content-inner">
    <a id="main-content"></a>
                <h1 class="title" id="page-title">Welcome to Housing Advice NI</h1>
                        <div class="block block-views block-front-page-slideshow-block block-views-front-page-slideshow-block odd block-without-title" id="block-views-front-page-slideshow-block">
  <div class="block-inner clearfix">
                
    <div class="content clearfix">
      <div class="view view-front-page-slideshow view-id-front_page_slideshow view-display-id-block view-dom-id-97fab726e247748f1a29ab3477082ae9">
        
  
  
      <div class="view-content">
      
  <div class="skin-default">
    
    <div id="flexslider_views_slideshow_main_front_page_slideshow-block_1" class="flexslider_views_slideshow_main views_slideshow_main"><div class="flex-nav-container">
  <div class="flexslider">
    <ul id="flexslider_views_slideshow_front_page_slideshow-block_1" class="flexslider-views-slideshow-main-frame slides">
        <li class="flexslider-views-slideshow-main-frame-row flexslider_views_slideshow_slide views-row-1 views-row-odd">
      
  <div class="views-field views-field-nothing">        <span class="field-content"><a href="https://www.housingadviceni.net/homelessness">
<img typeof="foaf:Image" src="https://www.housingadviceni.net/sites/default/files/styles/flexslider_full/public/maincategoryheadings/homelessness_1_0.jpg?itok=g0a-mIC-" width="880" height="500" alt="" />
<div class="slidetitle">Worried about homelessness?</div>
</a></span>  </div>  </li>
  <li class="flexslider-views-slideshow-main-frame-row flexslider_views_slideshow_slide views-row-2 views_slideshow_cycle_hidden views-row-even">
      
  <div class="views-field views-field-nothing">        <span class="field-content"><a href="https://www.housingadviceni.net/advice-private-tenants">
<img typeof="foaf:Image" src="https://www.housingadviceni.net/sites/default/files/styles/flexslider_full/public/maincategoryheadings/tenants_0.jpg?itok=hVsx_GeT" width="880" height="500" alt="" />
<div class="slidetitle">Advice for private tenants</div>
</a></span>  </div>  </li>
  <li class="flexslider-views-slideshow-main-frame-row flexslider_views_slideshow_slide views-row-3 views_slideshow_cycle_hidden views-row-odd">
      
  <div class="views-field views-field-nothing">        <span class="field-content"><a href="https://www.housingadviceni.net/help-debt">
<img typeof="foaf:Image" src="https://www.housingadviceni.net/sites/default/files/styles/flexslider_full/public/slides/courts.jpg?itok=-svhfHxS" width="880" height="500" alt="" />
<div class="slidetitle">Sorting out problems with debt and repossession</div>
</a></span>  </div>  </li>
  <li class="flexslider-views-slideshow-main-frame-row flexslider_views_slideshow_slide views-row-4 views_slideshow_cycle_hidden views-row-even">
      
  <div class="views-field views-field-nothing">        <span class="field-content"><a href="https://www.housingadviceni.net/paying-your-home">
<img typeof="foaf:Image" src="https://www.housingadviceni.net/sites/default/files/styles/flexslider_full/public/maincategoryheadings/paying_0.JPG?itok=D0zmZD00" width="880" height="500" alt="" />
<div class="slidetitle">Paying for your home: rent, mortgages, housing benefit</div>
</a></span>  </div>  </li>
  <li class="flexslider-views-slideshow-main-frame-row flexslider_views_slideshow_slide views-row-5 views_slideshow_cycle_hidden views-row-odd">
      
  <div class="views-field views-field-nothing">        <span class="field-content"><a href="https://www.housingadviceni.net/mortgage-debt-advice">
<img typeof="foaf:Image" src="https://www.housingadviceni.net/sites/default/files/styles/flexslider_full/public/slides/couple-mdas2015.jpg?itok=E__Ry1NX" width="880" height="500" alt="" />
<div class="slidetitle">Worried about your mortgage? Let us help</div>
</a></span>  </div>  </li>
  <li class="flexslider-views-slideshow-main-frame-row flexslider_views_slideshow_slide views-row-6 views_slideshow_cycle_hidden views-row-even">
      
  <div class="views-field views-field-nothing">        <span class="field-content"><a href="https://www.housingadviceni.net/advice-housing-executive-tenants">
<img typeof="foaf:Image" src="https://www.housingadviceni.net/sites/default/files/styles/flexslider_full/public/maincategoryheadings/housingexec_0.jpg?itok=aFgqnm--" width="880" height="500" alt="" />
<div class="slidetitle">Advice for Housing Executive tenants</div>
</a></span>  </div>  </li>
  <li class="flexslider-views-slideshow-main-frame-row flexslider_views_slideshow_slide views-row-7 views_slideshow_cycle_hidden views-row-odd">
      
  <div class="views-field views-field-nothing">        <span class="field-content"><a href="https://www.housingadviceni.net/do-it-yourself">
<img typeof="foaf:Image" src="https://www.housingadviceni.net/sites/default/files/styles/flexslider_full/public/hani-diy.png?itok=ooMNqec3" width="880" height="500" alt="" />
<div class="slidetitle">Do it yourself</div>
</a></span>  </div>  </li>
  <li class="flexslider-views-slideshow-main-frame-row flexslider_views_slideshow_slide views-row-8 views_slideshow_cycle_hidden views-row-even">
      
  <div class="views-field views-field-nothing">        <span class="field-content"><a href="https://www.housingadviceni.net/advice-housing-association-tenants">
<img typeof="foaf:Image" src="https://www.housingadviceni.net/sites/default/files/styles/flexslider_full/public/maincategoryheadings/housingassoc_0.jpg?itok=ll4Jehi6" width="880" height="500" alt="" />
<div class="slidetitle">Advice for housing association tenants</div>
</a></span>  </div>  </li>
  <li class="flexslider-views-slideshow-main-frame-row flexslider_views_slideshow_slide views-row-9 views_slideshow_cycle_hidden views-row-odd">
      
  <div class="views-field views-field-nothing">        <span class="field-content"><a href="https://www.housingadviceni.net/neighbourhood-issues">
<img typeof="foaf:Image" src="https://www.housingadviceni.net/sites/default/files/styles/flexslider_full/public/maincategoryheadings/neighbourhood.jpg?itok=9n3_oFpZ" width="880" height="500" alt="" />
<div class="slidetitle">Problems in your neighbourhood</div>
</a></span>  </div>  </li>
    </ul>
  </div>
</div></div>
      </div>
    </div>
  
  
  
  
  
  
</div>    </div>
  </div>
</div><div class="block block-system block-main block-system-main even block-without-title" id="block-system-main">
  <div class="block-inner clearfix">
                
    <div class="content clearfix">
      <article about="/welcome-housing-advice-ni" typeof="sioc:Item foaf:Document" class="node node-other-page node-published node-not-promoted node-not-sticky author-administrator odd clearfix" id="node-other-page-1438">
        <span property="dc:title" content="Welcome to Housing Advice NI" class="rdf-meta element-hidden"></span>    
  
  <div class="content clearfix">
    <div class="field field-name-body field-type-text-with-summary field-label-hidden"><div class="field-items"><div class="field-item even" property="content:encoded"><h1>Welcome to Housing Advice NI</h1>
<p>Written and updated by Housing Rights and funded by the Housing Executive, Housing Advice NI is the home of independent housing advice in Northern Ireland. </p>
<p><a class="hanireadmore" href="/housingadviceni">Read more</a></p>
<h3>LATEST: Private tenancy tips</h3>
<p>Our adviser Victoria talks through the top tips for tenants she wishes she'd known when she started renting</p>
<p><a class="hanireadmore" href="/top-tips-renting">Read more</a></p>
<h3>LATEST: New rules for HMOs</h3>
<p>A new system of rules and management requirements for shared housing came into effect on 01 April 2019. Find out what this will mean for <a href="/advice-private-tenants/shared-housing-HMO">tenants </a>and <a href="/advice-landlords/HMO/HMO-advice">landlords</a>.</p>
<p><a class="hanireadmore" href="/advice-private-tenants/shared-housing-HMO">Read more</a></p>
<h3>LATEST: Reclaim your letting fees</h3>
<p>A recent court judgment ordered an estate agent to repay fees to a tenant. The court held that the tenant had a right to reclaim these fees under the terms of the Commission on Disposals of Land Order (NI) 1986. We've drafted a letter to help you reclaim any fees that you have paid to agents. </p>
<p><a class="hanireadmore" href="/advice-private-tenants/letting-fees">Read more</a></p>
<h3> </h3>
</div></div></div>  </div>
  
  <div class="clearfix">
          <nav class="links node-links clearfix"></nav>
    
      </div>
</article>    </div>
  </div>
</div><div class="block block-views block-front-page-blocks-block block-views-front-page-blocks-block odd block-without-title" id="block-views-front-page-blocks-block">
  <div class="block-inner clearfix">
                
    <div class="content clearfix">
      <div class="view view-front-page-blocks view-id-front_page_blocks view-display-id-block view-dom-id-96812a71f0751bd15ad29fd0e2c35119">
        
  
  
      <div class="view-content">
        <div class="views-row views-row-1 views-row-odd views-row-first">
      
  <div class="views-field views-field-nothing">        <span class="field-content"><a href="https://www.housingadviceni.net/advice-private-tenants">
<img typeof="foaf:Image" src="https://www.housingadviceni.net/sites/default/files/styles/front_block/public/maincategoryheadings/tenants_0.jpg?itok=gES9gTiu" width="432" height="324" alt="" />
<div class="frontblocktext">
<span class="frontblocktitle">Renting privately?</span><br>
Knowing your rights and your responsibilities makes life much easier.
</div>
</a> </span>  </div>  </div>
  <div class="views-row views-row-2 views-row-even">
      
  <div class="views-field views-field-nothing">        <span class="field-content"><a href="https://www.housingadviceni.net/do-it-yourself">
<img typeof="foaf:Image" src="https://www.housingadviceni.net/sites/default/files/styles/front_block/public/hani-diy.png?itok=c__3w02Y" width="432" height="324" alt="" />
<div class="frontblocktext">
<span class="frontblocktitle">Do it yourself</span><br>
Calculators, letter templates and tools to help you solve your housing problems
</div>
</a> </span>  </div>  </div>
  <div class="views-row views-row-3 views-row-odd">
      
  <div class="views-field views-field-nothing">        <span class="field-content"><a href="http://www.housingadviceni.org/waiting-list-housing/points">
<img typeof="foaf:Image" src="https://www.housingadviceni.net/sites/default/files/styles/front_block/public/frontblocks/points_thumb_2015.jpg?itok=CMw13D12" width="432" height="324" alt="" />
<div class="frontblocktext">
<span class="frontblocktitle">Confused about points?</span><br>
Learn more about the points system and your other housing options if you don&#039;t have enough points for a social tenancy
</div>
</a> </span>  </div>  </div>
  <div class="views-row views-row-4 views-row-even">
      
  <div class="views-field views-field-nothing">        <span class="field-content"><a href="https://www.housingadviceni.net/grants-financial-assistance">
<img typeof="foaf:Image" src="https://www.housingadviceni.net/sites/default/files/styles/front_block/public/frontblocks/at%20work.jpg?itok=INJ0WIGb" width="432" height="324" alt="" />
<div class="frontblocktext">
<span class="frontblocktitle">Sorting out repairs in your home</span><br>
Understand your rights and your responsibilities when it comes to having repairs carried out in your home. 
</div>
</a> </span>  </div>  </div>
  <div class="views-row views-row-5 views-row-odd">
      
  <div class="views-field views-field-nothing">        <span class="field-content"><a href="https://www.housingadviceni.net/advice-landlords">
<img typeof="foaf:Image" src="https://www.housingadviceni.net/sites/default/files/styles/front_block/public/maincategoryheadings/landlords_0.jpg?itok=CXwB8lHf" width="432" height="324" alt="" />
<div class="frontblocktext">
<span class="frontblocktitle">Advice for landlords</span><br>
Everything you need to know if you&#039;re renting a property to tenants in Northern Ireland
</div>
</a> </span>  </div>  </div>
  <div class="views-row views-row-6 views-row-even views-row-last">
      
  <div class="views-field views-field-nothing">        <span class="field-content"><a href="https://www.housingadviceni.net/help-debt">
<img typeof="foaf:Image" src="https://www.housingadviceni.net/sites/default/files/styles/front_block/public/maincategoryheadings/courts_0.jpg?itok=rz4m_iTk" width="432" height="324" alt="" />
<div class="frontblocktext">
<span class="frontblocktitle">Help with debt, repossession and eviction</span><br>
There are practical steps you can take if you&#039;ve fallen into debt and are at risk of losing your home.  The sooner you act, the more options you&#039;ll have. 
</div>
</a> </span>  </div>  </div>
    </div>
  
  
  
  
  
  
</div>    </div>
  </div>
</div><div class="block block-block block-62 block-block-62 even block-without-title" id="block-block-62">
  <div class="block-inner clearfix">
                
    <div class="content clearfix">
      <!--Start of Tawk.to Script--><script type="text/javascript">
<!--//--><![CDATA[// ><!--

var Tawk_API=Tawk_API||{}, Tawk_LoadStart=new Date();
(function(){
var s1=document.createElement("script"),s0=document.getElementsByTagName("script")[0];
s1.async=true;
s1.src='https://embed.tawk.to/57333dd0eec1bc57567da4ee/default';
s1.charset='UTF-8';
s1.setAttribute('crossorigin','*');
s0.parentNode.insertBefore(s1,s0);
})();

//--><!]]>
</script><!--End of Tawk.to Script-->    </div>
  </div>
</div>      </div>
</div>  </div>
</div></section>    
  
      <footer id="section-footer" class="section section-footer">
  <div id="zone-footer-wrapper" class="zone-wrapper zone-footer-wrapper clearfix">  
  <div id="zone-footer" class="zone zone-footer clearfix container-12">
    <div class="grid-3 region region-footer-first" id="region-footer-first">
  <div class="region-inner region-footer-first-inner">
    <section class="block block-menu block-menu-footer---ni-only block-menu-menu-footer-ni-only odd" id="block-menu-menu-footer-ni-only">
  <div class="block-inner clearfix">
              <h2 class="block-title">Northern Ireland Only</h2>
            
    <div class="content clearfix">
      <ul class="menu"><li class="first leaf"><a href="http://england.shelter.org.uk/" title="">England</a></li>
<li class="leaf"><a href="http://www.threshold.ie/" title="">Ireland</a></li>
<li class="leaf"><a href="http://scotland.shelter.org.uk/" title="">Scotland</a></li>
<li class="last leaf"><a href="http://www.sheltercymru.org.uk/" title="">Wales</a></li>
</ul>    </div>
  </div>
</section><section class="block block-styleswitcher block-styleswitcher block-styleswitcher-styleswitcher even" id="block-styleswitcher-styleswitcher">
  <div class="block-inner clearfix">
              <h2 class="block-title">CHOOSE STYLE</h2>
            
    <div class="content clearfix">
      <div class="item-list"><ul><li class="first"><a href="/styleswitcher/switch/hani/custom/default?destination=node/1438" class="style-switcher custom-style style-default" data-rel="custom/default" rel="nofollow">Normal</a></li><li class="last"><a href="/styleswitcher/switch/hani/theme/high-contrast?destination=node/1438" class="style-switcher theme-style style-high-contrast" data-rel="theme/high_contrast" rel="nofollow">High Contrast</a></li></ul></div>    </div>
  </div>
</section>  </div>
</div><div class="grid-3 region region-footer-second" id="region-footer-second">
  <div class="region-inner region-footer-second-inner">
    <section class="block block-menu block-menu-footer---get-advice block-menu-menu-footer-get-advice odd" id="block-menu-menu-footer-get-advice">
  <div class="block-inner clearfix">
              <h2 class="block-title">Get Advice Now</h2>
            
    <div class="content clearfix">
      <ul class="menu"><li class="first leaf"><a href="/advice-services-directory">Advice Agencies in NI</a></li>
<li class="leaf"><a href="/advice-email">Advice by Email</a></li>
<li class="leaf"><a href="/speak-adviser">Advice by Telephone</a></li>
<li class="leaf"><a href="/do-it-yourself">DIY tools to help</a></li>
<li class="leaf"><a href="/diy/jargon-buster">Jargon Buster</a></li>
<li class="leaf"><a href="/videos">Videos</a></li>
<li class="leaf"><a href="/document/list-points-social-housing">Housing points list</a></li>
<li class="leaf"><a href="/need-site-help">Need some help?</a></li>
<li class="last leaf"><a href="/links">Links</a></li>
</ul>    </div>
  </div>
</section>  </div>
</div><div class="grid-3 region region-footer-third" id="region-footer-third">
  <div class="region-inner region-footer-third-inner">
    <section class="block block-menu block-menu-footer---about block-menu-menu-footer-about odd" id="block-menu-menu-footer-about">
  <div class="block-inner clearfix">
              <h2 class="block-title">About</h2>
            
    <div class="content clearfix">
      <ul class="menu"><li class="first leaf"><a href="/housingadviceni">housingadviceNI</a></li>
<li class="leaf"><a href="/housing-rights">Housing Rights</a></li>
<li class="leaf"><a href="/northern-ireland-housing-executive">Northern Ireland Housing Executive</a></li>
<li class="leaf"><a href="/legal-disclaimer-copyright-and-data-usage-information">Disclaimer</a></li>
<li class="leaf"><a href="/site-map">Site map</a></li>
<li class="leaf"><a href="/data-protection">Data protection</a></li>
<li class="last leaf"><a href="/privacy-policy">Privacy policy</a></li>
</ul>    </div>
  </div>
</section>  </div>
</div><div class="grid-3 region region-footer-fourth" id="region-footer-fourth">
  <div class="region-inner region-footer-fourth-inner">
    <section class="block block-menu block-menu-footer---contact block-menu-menu-footer-contact odd" id="block-menu-menu-footer-contact">
  <div class="block-inner clearfix">
              <h2 class="block-title">Contact</h2>
            
    <div class="content clearfix">
      <ul class="menu"><li class="first leaf"><a href="/speak-adviser">Speak to an adviser</a></li>
<li class="leaf"><a href="/advice-email">Email your query</a></li>
<li class="last leaf"><a href="https://www.surveymonkey.co.uk/r/HANI1920">Review this site</a></li>
</ul>    </div>
  </div>
</section>  </div>
</div><div class="grid-12 region region-footer-fifth" id="region-footer-fifth">
  <div class="region-inner region-footer-fifth-inner">
    <div class="block block-block block-2 block-block-2 odd block-without-title" id="block-block-2">
  <div class="block-inner clearfix">
                
    <div class="content clearfix">
      <p style="text-align: right;">Funding for this site is provided by the <a href="http://www.nihe.gov.uk/">NI Housing Executive</a></p>
    </div>
  </div>
</div><div class="block block-block block-31 block-block-31 even block-without-title" id="block-block-31">
  <div class="block-inner clearfix">
                
    <div class="content clearfix">
      <p style="text-align: right;"><span style="line-height: 1.538em;">© Housing Rights 2019</span></p>
    </div>
  </div>
</div>  </div>
</div>  </div>
</div></footer>  </div>  <script type="text/javascript">
<!--//--><![CDATA[//><!--

    jQuery(document).ready(function($) {
    cookieControl({
        introText: '<p>This site uses cookies to store information on your computer.</p>',
        fullText: '<p>Some cookies on this site are essential, and the site won\'t work as expected without them. These cookies are set when you submit a form, login or interact with the site by doing something that goes beyond clicking on simple links.</p><p>We also use some non-essential cookies to anonymously track visitors or enhance your experience of the site. If you\'re not happy with this, we won\'t set these cookies but some nice features of the site may be unavailable.</p><p>By using our site you accept the terms of our <a href="/data-protection">Privacy Policy</a>.',
        theme: 'light',
        html: '<div id="cccwr"><div id="ccc-state" class="ccc-pause"><div id="ccc-icon"><button><span>Cookie Control</span></button></div><div class="ccc-widget"><div class="ccc-outer"><div class="ccc-inner"><h2>Cookie Control</h2><div class="ccc-content"><p class="ccc-intro"></p><div class="ccc-expanded"></div><div id="ccc-cookies-switch" style="background-position-x: 0;"><a id="cctoggle" href="#" style="background-position-x: 0;" name="cctoggle"><span id="cctoggle-text">Cookies test</span></a></div><div id="ccc-implicit-warning">(One cookie will be set to store your preference)</div><div id="ccc-explicit-checkbox"><label><input id="cchide-popup" type="checkbox" name="ccc-hide-popup" value="Y" /> Do not ask me again<br /></label> (Ticking this sets a cookie to hide this popup if you then hit close. This will not store any personal information)</div><p class="ccc-about"><small><a href="http://www.civicuk.com/cookie-law" target="_blank">About this tool</a></small></p><a class="ccc-icon" href="http://www.civicuk.com/cookie-law" target="_blank"title="About Cookie Control">About Cookie Control</a><button class="ccc-close">Close</button></div></div></div><button class="ccc-expand">read more</button></div></div></div>',
        position: 'left',
        shape: 'triangle',
        startOpen: true,
        autoHide: 15000,
        onAccept: function(cc){cookiecontrol_accepted(cc)},
        onReady: function(){},
        onCookiesAllowed: function(cc){cookiecontrol_cookiesallowed(cc)},
        onCookiesNotAllowed: function(cc){cookiecontrol_cookiesnotallowed(cc)},
        countries: '',
        subdomains: true,
        cookieName: 'housing-advice-ni_cookiecontrol',
        iconStatusCookieName: 'ccShowCookieIcon',
        consentModel: 'information_only'
        });
      });
    
//--><!]]>
</script>
<script type="text/javascript">
<!--//--><![CDATA[//><!--
function cookiecontrol_accepted(cc) {
cc.setCookie('ccShowCookieIcon', 'no');jQuery('#ccc-icon').hide();
}
//--><!]]>
</script>
<script type="text/javascript">
<!--//--><![CDATA[//><!--
function cookiecontrol_cookiesallowed(cc) {

}
//--><!]]>
</script>
<script type="text/javascript">
<!--//--><![CDATA[//><!--
function cookiecontrol_cookiesnotallowed(cc) {

}
//--><!]]>
</script>
  <script type="text/javascript">
    var serviceUrl = "//api.reciteme.com/asset/js?key=";
    var serviceKey = "499c368594bc03cdb33b37c94d3bb05d164ab0dc";
    var options = {};  // Options can be added as needed	
    var autoLoad = false;
    var enableFragment = "#reciteEnable";
    var loaded=[],frag=!1;window.location.hash===enableFragment&&(frag=!0);function loadScript(c,b){var a=document.createElement("script");a.type="text/javascript";a.readyState?a.onreadystatechange=function(){if("loaded"==a.readyState||"complete"==a.readyState)a.onreadystatechange=null,void 0!=b&&b()}:void 0!=b&&(a.onload=function(){b()});a.src=c;document.getElementsByTagName("head")[0].appendChild(a)}function _rc(c){c+="=";for(var b=document.cookie.split(";"),a=0;a<b.length;a++){for(var d=b[a];" "==d.charAt(0);)d=d.substring(1,d.length);if(0==d.indexOf(c))return d.substring(c.length,d.length)}return null}function loadService(c){for(var b=serviceUrl+serviceKey,a=0;a<loaded.length;a++)if(loaded[a]==b)return;loaded.push(b);loadScript(serviceUrl+serviceKey,function(){"function"===typeof _reciteLoaded&&_reciteLoaded();"function"==typeof c&&c();Recite.load(options);Recite.Event.subscribe("Recite:load",function(){Recite.enable()})})}"true"==_rc("Recite.Persist")&&loadService();(autoLoad&&"false"!=_rc("Recite.Persist")||frag)&&loadService();
  </script>
</body>
</html>