<!DOCTYPE html PUBLIC "-//W3C//DTD HTML+RDFa 1.1//EN">
<html lang="en" dir="ltr" version="HTML+RDFa 1.1"
  xmlns:content="http://purl.org/rss/1.0/modules/content/"
  xmlns:dc="http://purl.org/dc/terms/"
  xmlns:foaf="http://xmlns.com/foaf/0.1/"
  xmlns:og="http://ogp.me/ns#"
  xmlns:rdfs="http://www.w3.org/2000/01/rdf-schema#"
  xmlns:sioc="http://rdfs.org/sioc/ns#"
  xmlns:sioct="http://rdfs.org/sioc/types#"
  xmlns:skos="http://www.w3.org/2004/02/skos/core#"
  xmlns:xsd="http://www.w3.org/2001/XMLSchema#">
<head profile="http://www.w3.org/1999/xhtml/vocab">
  <meta http-equiv="Content-Type" content="text/html; charset=utf-8" />
<meta name="viewport" content="width=device-width, initial-scale=1, maximum-scale=1, minimum-scale=1, user-scalable=no" />
<link rel="shortcut icon" href="https://keyframe.net/sites/default/files/favicon_0.ico" type="image/vnd.microsoft.icon" />
<meta name="description" content="Keyframe have provided Mumbles, Gower, Swansea, Cardiff and Wales Drupal web design, Swansea web development and Swansea web hosting since 1996, and our wealth of experience and knowledge makes us a market leader in the Swansea and South Wales area. If you are trying to develop your web business in today’s competitive market,then Keyframe is here to help. Keyframe are a proud Swansea Drupal website developer. Based on the Gower" />
<meta name="abstract" content="Keyframe have provided Mumbles, Gower, Swansea, Cardiff, Swansea web design, Swansea web development and Swansea web hosting since 1996" />
<meta name="keywords" content="Website Design, Web Design, Swansea Web Design, Mumbles Website development, Wales Drupal Web Design, web design, Cardiff web design, Drupal, Drupal web design, Swnasea Drupal, Drupal Swansea, Cardiff Drupal Web Design, Mumbles web design" />
<meta name="generator" content="Drupal 7 (http://drupal.org)" />
<link rel="canonical" href="https://keyframe.net/" />
<link rel="shortlink" href="https://keyframe.net/" />
  <title>Swansea Web Design, Development &amp; e-Commerce with Keyframe</title>  
  <link type="text/css" rel="stylesheet" href="https://keyframe.net/sites/default/files/css/css_xE-rWrJf-fncB6ztZfd2huxqgxu4WO-qwma6Xer30m4.css" media="all" />
<link type="text/css" rel="stylesheet" href="https://keyframe.net/sites/default/files/css/css_vZ_wrMQ9Og-YPPxa1q4us3N7DsZMJa-14jShHgRoRNo.css" media="screen" />
<link type="text/css" rel="stylesheet" href="https://keyframe.net/sites/default/files/css/css__LeQxW73LSYscb1O__H6f-j_jdAzhZBaesGL19KEB6U.css" media="all" />
<link type="text/css" rel="stylesheet" href="https://keyframe.net/sites/default/files/css/css_hDrgCaswJYuhgSJpVnHOHNNk_poat61LBYs-9n-3XL4.css" media="all" />
<link type="text/css" rel="stylesheet" href="https://keyframe.net/sites/default/files/css/css_nNc0J7hIAooum842ylhz4ASmtV7kPaF7u7M3XypP6lk.css" media="all" />
<link type="text/css" rel="stylesheet" href="https://keyframe.net/sites/default/files/css/css_1_AGwS4fADsbLfFuNAVtfmqcEBIY7EHsPHdGb5SGOak.css" media="all" />

<!--[if (lt IE 9)&(!IEMobile)]>
<link type="text/css" rel="stylesheet" href="https://keyframe.net/sites/default/files/css/css_OZAG_D1vJDoAYux8bSmVxzcJvug7nGZVTx-TEiF8YHQ.css" media="all" />
<![endif]-->

<!--[if gte IE 9]><!-->
<link type="text/css" rel="stylesheet" href="https://keyframe.net/sites/default/files/css/css_FaF8nLYxF3d33G3JmhbBRCEVJXuruv8JRHQRuGy9SlI.css" media="all" />
<!--<![endif]-->
  <script type="text/javascript" src="//code.jquery.com/jquery-1.7.2.min.js"></script>
<script type="text/javascript">
<!--//--><![CDATA[//><!--
window.jQuery || document.write("<script src='/sites/all/modules/jquery_update/replace/jquery/1.7/jquery.min.js'>\x3C/script>")
//--><!]]>
</script>
<script type="text/javascript" src="https://keyframe.net/sites/default/files/js/js_dWhBODswdXXk1M5Z5nyqNfGljmqwxUwAK9i6D0YSDNs.js"></script>
<script type="text/javascript" src="//code.jquery.com/ui/1.10.2/jquery-ui.min.js"></script>
<script type="text/javascript">
<!--//--><![CDATA[//><!--
window.jQuery.ui || document.write("<script src='/sites/all/modules/jquery_update/replace/ui/ui/minified/jquery-ui.min.js'>\x3C/script>")
//--><!]]>
</script>
<script type="text/javascript" src="https://keyframe.net/sites/default/files/js/js_obFUyTbqtcoGQtszVI46l1_oD927PzlDtlr_ilpYBqE.js"></script>
<script type="text/javascript" src="https://keyframe.net/sites/default/files/js/js_ZztRGvr9RTzYiEi1YjG3qCB4_iKICnJY3R8qmxeSf1w.js"></script>
<script type="text/javascript" src="https://keyframe.net/sites/default/files/js/js_kfRvAzNKzRTvPWCsrOSSDMMCQrxwrVmzS7HciJda1Vw.js"></script>
<script type="text/javascript">
<!--//--><![CDATA[//><!--
(function(i,s,o,g,r,a,m){i["GoogleAnalyticsObject"]=r;i[r]=i[r]||function(){(i[r].q=i[r].q||[]).push(arguments)},i[r].l=1*new Date();a=s.createElement(o),m=s.getElementsByTagName(o)[0];a.async=1;a.src=g;m.parentNode.insertBefore(a,m)})(window,document,"script","//www.google-analytics.com/analytics.js","ga");ga("create", "UA-10858248-1", {"cookieDomain":"auto"});ga("send", "pageview");
//--><!]]>
</script>
<script type="text/javascript" src="https://keyframe.net/sites/default/files/js/js_43n5FBy8pZxQHxPXkf-sQF7ZiacVZke14b0VlvSA554.js"></script>
<script type="text/javascript">
<!--//--><![CDATA[//><!--
jQuery.extend(Drupal.settings, {"basePath":"\/","pathPrefix":"","ajaxPageState":{"theme":"keyframe_responsive","theme_token":"R9ZNJei9rwmFo6AL8Mp7LB4eav0uHZuSqQjrtWFKNew","js":{"\/\/code.jquery.com\/jquery-1.7.2.min.js":1,"0":1,"misc\/jquery-extend-3.4.0.js":1,"misc\/jquery.once.js":1,"misc\/drupal.js":1,"\/\/code.jquery.com\/ui\/1.10.2\/jquery-ui.min.js":1,"1":1,"sites\/all\/modules\/views_slideshow\/js\/views_slideshow.js":1,"sites\/all\/modules\/contentanalysis\/contentanalysis.js":1,"sites\/all\/modules\/contentoptimizer\/contentoptimizer.js":1,"sites\/all\/modules\/spamspan\/spamspan.js":1,"sites\/all\/modules\/back_to_top\/js\/back_to_top.js":1,"sites\/all\/libraries\/jquery.cycle\/jquery.cycle.all.js":1,"sites\/all\/libraries\/json2\/json2.js":1,"sites\/all\/modules\/views_slideshow\/contrib\/views_slideshow_cycle\/js\/views_slideshow_cycle.js":1,"sites\/all\/modules\/responsive_menus\/styles\/meanMenu\/jquery.meanmenu.min.js":1,"sites\/all\/modules\/responsive_menus\/styles\/meanMenu\/responsive_menus_mean_menu.js":1,"sites\/all\/modules\/google_analytics\/googleanalytics.js":1,"2":1,"sites\/all\/themes\/omega\/omega\/js\/jquery.formalize.js":1,"sites\/all\/themes\/omega\/omega\/js\/omega-mediaqueries.js":1},"css":{"modules\/system\/system.base.css":1,"modules\/system\/system.menus.css":1,"modules\/system\/system.messages.css":1,"modules\/system\/system.theme.css":1,"sites\/all\/modules\/views_slideshow\/views_slideshow.css":1,"misc\/ui\/jquery.ui.core.css":1,"misc\/ui\/jquery.ui.theme.css":1,"modules\/comment\/comment.css":1,"modules\/field\/theme\/field.css":1,"sites\/all\/modules\/freepager\/freepager.css":1,"modules\/node\/node.css":1,"modules\/search\/search.css":1,"modules\/user\/user.css":1,"sites\/all\/modules\/views\/css\/views.css":1,"sites\/all\/modules\/back_to_top\/css\/back_to_top.css":1,"sites\/all\/modules\/ckeditor\/css\/ckeditor.css":1,"sites\/all\/modules\/ctools\/css\/ctools.css":1,"sites\/all\/modules\/views_slideshow\/contrib\/views_slideshow_cycle\/views_slideshow_cycle.css":1,"sites\/all\/modules\/responsive_menus\/styles\/meanMenu\/meanmenu.min.css":1,"sites\/all\/themes\/omega\/alpha\/css\/alpha-reset.css":1,"sites\/all\/themes\/omega\/alpha\/css\/alpha-mobile.css":1,"sites\/all\/themes\/omega\/alpha\/css\/alpha-alpha.css":1,"sites\/all\/themes\/omega\/omega\/css\/formalize.css":1,"sites\/all\/themes\/omega\/omega\/css\/omega-text.css":1,"sites\/all\/themes\/omega\/omega\/css\/omega-branding.css":1,"sites\/all\/themes\/omega\/omega\/css\/omega-menu.css":1,"sites\/all\/themes\/omega\/omega\/css\/omega-forms.css":1,"sites\/all\/themes\/omega\/omega\/css\/omega-visuals.css":1,"sites\/all\/themes\/keyframe_responsive\/css\/global.css":1,"ie::normal::sites\/all\/themes\/keyframe_responsive\/css\/keyframe-responsive-alpha-default.css":1,"ie::normal::sites\/all\/themes\/keyframe_responsive\/css\/keyframe-responsive-alpha-default-normal.css":1,"ie::normal::sites\/all\/themes\/omega\/alpha\/css\/grid\/alpha_default\/normal\/alpha-default-normal-12.css":1,"narrow::sites\/all\/themes\/keyframe_responsive\/css\/keyframe-responsive-alpha-default.css":1,"narrow::sites\/all\/themes\/keyframe_responsive\/css\/keyframe-responsive-alpha-default-narrow.css":1,"sites\/all\/themes\/omega\/alpha\/css\/grid\/alpha_default\/narrow\/alpha-default-narrow-12.css":1,"normal::sites\/all\/themes\/keyframe_responsive\/css\/keyframe-responsive-alpha-default.css":1,"normal::sites\/all\/themes\/keyframe_responsive\/css\/keyframe-responsive-alpha-default-normal.css":1,"sites\/all\/themes\/omega\/alpha\/css\/grid\/alpha_default\/normal\/alpha-default-normal-12.css":1}},"viewsSlideshow":{"fp_slideshow-block":{"methods":{"goToSlide":["viewsSlideshowPager","viewsSlideshowSlideCounter","viewsSlideshowCycle"],"nextSlide":["viewsSlideshowPager","viewsSlideshowSlideCounter","viewsSlideshowCycle"],"pause":["viewsSlideshowControls","viewsSlideshowCycle"],"play":["viewsSlideshowControls","viewsSlideshowCycle"],"previousSlide":["viewsSlideshowPager","viewsSlideshowSlideCounter","viewsSlideshowCycle"],"transitionBegin":["viewsSlideshowPager","viewsSlideshowSlideCounter"],"transitionEnd":[]},"paused":0}},"viewsSlideshowCycle":{"#views_slideshow_cycle_main_fp_slideshow-block":{"num_divs":38,"id_prefix":"#views_slideshow_cycle_main_","div_prefix":"#views_slideshow_cycle_div_","vss_id":"fp_slideshow-block","effect":"fade","transition_advanced":0,"timeout":5000,"speed":700,"delay":0,"sync":1,"random":0,"pause":1,"pause_on_click":0,"action_advanced":0,"start_paused":0,"remember_slide":0,"remember_slide_days":1,"pause_in_middle":0,"pause_when_hidden":0,"pause_when_hidden_type":"full","amount_allowed_visible":"","nowrap":0,"fixed_height":1,"items_per_slide":1,"wait_for_image_load":1,"wait_for_image_load_timeout":3000,"cleartype":0,"cleartypenobg":0,"advanced_options":"{}","advanced_options_choices":0,"advanced_options_entry":""}},"back_to_top":{"back_to_top_button_trigger":100,"back_to_top_button_text":"Back to top","#attached":{"library":[["system","ui"]]}},"responsive_menus":[{"selectors":"#region-menu ","container":"body","trigger_txt":"\u003Cspan \/\u003E\u003Cspan \/\u003E\u003Cspan \/\u003E","close_txt":"X","close_size":"18px","position":"right","media_size":"480","show_children":"1","expand_children":"1","expand_txt":"+","contract_txt":"-","remove_attrs":"1","responsive_menus_style":"mean_menu"}],"googleanalytics":{"trackOutbound":1,"trackMailto":1,"trackDownload":1,"trackDownloadExtensions":"7z|aac|arc|arj|asf|asx|avi|bin|csv|doc(x|m)?|dot(x|m)?|exe|flv|gif|gz|gzip|hqx|jar|jpe?g|js|mp(2|3|4|e?g)|mov(ie)?|msi|msp|pdf|phps|png|ppt(x|m)?|pot(x|m)?|pps(x|m)?|ppam|sld(x|m)?|thmx|qtm?|ra(m|r)?|sea|sit|tar|tgz|torrent|txt|wav|wma|wmv|wpd|xls(x|m|b)?|xlt(x|m)|xlam|xml|z|zip"},"omega":{"layouts":{"primary":"normal","order":["narrow","normal"],"queries":{"narrow":"all and (min-width: 740px) and (min-device-width: 740px), (max-device-width: 800px) and (min-width: 740px) and (orientation:landscape)","normal":"all and (min-width: 980px) and (min-device-width: 980px), all and (max-device-width: 1024px) and (min-width: 1024px) and (orientation:landscape)"}}}});
//--><!]]>
</script>
  <!--[if lt IE 9]><script src="http://html5shiv.googlecode.com/svn/trunk/html5.js"></script><![endif]-->
</head>
<body class="html front not-logged-in page-node">
  <div id="skip-link">
    <a href="#main-content" class="element-invisible element-focusable">Skip to main content</a>
  </div>
    <div class="page clearfix" id="page">
      <header id="section-header" class="section section-header">
  <div id="zone-branding-wrapper" class="zone-wrapper zone-branding-wrapper clearfix">  
  <div id="zone-branding" class="zone zone-branding clearfix container-12">
    <div class="grid-6 region region-branding" id="region-branding">
  <div class="region-inner region-branding-inner">
        <div class="branding-data clearfix">
            <div class="logo-img">
        <a href="/" rel="home" title="" class="active"><img src="https://keyframe.net/sites/default/files/keyframe-logo_0.png" alt="" id="logo" /></a>      </div>
                </div>
          </div>
</div><div class="grid-6 region region-menu" id="region-menu">
  <div class="region-inner region-menu-inner">
        <div class="block block-system block-menu block-main-menu block-system-main-menu odd block-without-title" id="block-system-main-menu">
  <div class="block-inner clearfix">
                
    <div class="content clearfix">
      <ul class="menu"><li class="first leaf"><a href="/" title="Swansea Web Design - Home" class="active">home</a></li>
<li class="leaf"><a href="/swansea-web-design-services/website-design" title="Swansea Web Design Services - Web Design, Web Hosting, Web Development">services</a></li>
<li class="leaf"><a href="/swansea-web-designers-portfoilio" title="Swansea Web Design Portfolio">portfolio</a></li>
<li class="leaf"><a href="/about-swansea-web-design/what-keyframe-can-do-you" title="Swansea Website Developers - All about Keyframe">about</a></li>
<li class="last leaf"><a href="/contact-swansea-web-design/contact-keyframe-swansea-web-designers" title="Get a free no obligation quote">get a quote</a></li>
</ul>    </div>
  </div>
</div>  </div>
</div>
  </div>
</div><div id="zone-header-wrapper" class="zone-wrapper zone-header-wrapper clearfix">  
  <div id="zone-header" class="zone zone-header clearfix container-12">
    <div class="grid-12 region region-front-page-slide-show" id="region-front-page-slide-show">
  <div class="region-inner region-front-page-slide-show-inner">
    <div class="block block-views block-fp-about-mobile-block block-views-fp-about-mobile-block odd block-without-title" id="block-views-fp-about-mobile-block">
  <div class="block-inner clearfix">
                
    <div class="content clearfix">
      <div class="view view-fp-about-mobile view-id-fp_about_mobile view-display-id-block view-dom-id-76a24143036f6fcde4534c5f2628be50">
        
  
  
      <div class="view-content">
        <div class="views-row views-row-1 views-row-odd views-row-first views-row-last">
      
  <div>        <h1>Swansea Web Design, Development &amp; e-Commerce with Keyframe</h1>  </div>  
  <div class="views-field views-field-body">        <div class="field-content"><p>
	Keyframe have provided Swansea web design, Swansea web development and Swansea web hosting since 1996.</p>
<p>
	Our wealth of experience and knowledge makes us a market leader in Swansea and the South Wales area.</p>
<p>
	If you are trying to develop your web business in today’s competitive market, then Keyframe is here to help.</p>
</div>  </div>  </div>
    </div>
  
  
  
  
  
  
</div>    </div>
  </div>
</div><div class="block block-views block-fp-slideshow-block block-views-fp-slideshow-block even block-without-title" id="block-views-fp-slideshow-block">
  <div class="block-inner clearfix">
                
    <div class="content clearfix">
      <div class="view view-fp-slideshow view-id-fp_slideshow view-display-id-block FP-Slideshow view-dom-id-1bbcd32266ab84942e4444466aa93eef">
        
  
  
      <div class="view-content">
      
  <div class="skin-default">
    
    <div id="views_slideshow_cycle_main_fp_slideshow-block" class="views_slideshow_cycle_main views_slideshow_main"><div id="views_slideshow_cycle_teaser_section_fp_slideshow-block" class="views-slideshow-cycle-main-frame views_slideshow_cycle_teaser_section">
  <div id="views_slideshow_cycle_div_fp_slideshow-block_0" class="views-slideshow-cycle-main-frame-row views_slideshow_cycle_slide views_slideshow_slide views-row-1 views-row-odd">
  <div class="views-slideshow-cycle-main-frame-row-item views-row views-row-0 views-row-odd views-row-first">
    
  <div>        <h2>Sash Ironmongery</h2>  </div>  
  <div>        <div class="fp-slideshow-image"><img typeof="foaf:Image" src="https://keyframe.net/sites/default/files/styles/fp_slideshow/public/sash-thb_0.png?itok=cjTwYx6U" width="420" height="285" alt="Ecommerce Website Design &amp; Development" title="Ecommerce Website Design &amp; Development" /></div>  </div>  
  <div>        <div class="fp-slideshow-text"><p>
	Website Design<br />
	Website Development<br />
	Ecommerce Website<br />
	Alternative Payment Methods<br />
	Content Management System (CMS)<br />
	Integrated SEO<br />
	Web Hosting</p>
</div>  </div>  
  <div>        <div class="button-large rounded"><a href="/swansea-web-designers-portfoilio">View Portfolio</a></div>  </div></div>
</div>
<div id="views_slideshow_cycle_div_fp_slideshow-block_1" class="views-slideshow-cycle-main-frame-row views_slideshow_cycle_slide views_slideshow_slide views-row-2 views_slideshow_cycle_hidden views-row-even">
  <div class="views-slideshow-cycle-main-frame-row-item views-row views-row-1 views-row-even">
    
  <div>        <h2>C.A.R.E Nevis Animal Society</h2>  </div>  
  <div>        <div class="fp-slideshow-image"><img typeof="foaf:Image" src="https://keyframe.net/sites/default/files/styles/fp_slideshow/public/care-fp.jpg?itok=EOq1zO7b" width="420" height="285" alt="C.A.R.E Nevis Animal Society" title="C.A.R.E Nevis Animal Society" /></div>  </div>  
  <div>        <div class="fp-slideshow-text"><p>
	Drupal Based Website Development<br />
	Content Management System (CMS)<br />
	Website Design<br />
	Integrated SEO<br />
	Intergrated Blogging System<br />
	Web Hosting</p>
</div>  </div>  
  <div>        <div class="button-large rounded"><a href="/swansea-web-designers-portfoilio">View Portfolio</a></div>  </div></div>
</div>
<div id="views_slideshow_cycle_div_fp_slideshow-block_2" class="views-slideshow-cycle-main-frame-row views_slideshow_cycle_slide views_slideshow_slide views-row-3 views_slideshow_cycle_hidden views-row-odd">
  <div class="views-slideshow-cycle-main-frame-row-item views-row views-row-2 views-row-odd">
    
  <div>        <h2>Royal St Davids Golf Course</h2>  </div>  
  <div>        <div class="fp-slideshow-image"><img typeof="foaf:Image" src="https://keyframe.net/sites/default/files/styles/fp_slideshow/public/royalstdavids%20-%20fp.jpg?itok=BcvmNBAC" width="420" height="285" alt="Royal St Davids Golf Course Website Design" title="Royal St Davids Golf Course Website Design" /></div>  </div>  
  <div>        <div class="fp-slideshow-text"><p>
	Website Development<br />
	Flash Based Interactive Maps<br />
	Content Management System (CMS)<br />
	Web Hosting</p>
</div>  </div>  
  <div>        <div class="button-large rounded"><a href="/swansea-web-designers-portfoilio">View Portfolio</a></div>  </div></div>
</div>
<div id="views_slideshow_cycle_div_fp_slideshow-block_3" class="views-slideshow-cycle-main-frame-row views_slideshow_cycle_slide views_slideshow_slide views-row-4 views_slideshow_cycle_hidden views-row-even">
  <div class="views-slideshow-cycle-main-frame-row-item views-row views-row-3 views-row-even">
    
  <div>        <h2>KBH Yacht Consultants</h2>  </div>  
  <div>        <div class="fp-slideshow-image"><img typeof="foaf:Image" src="https://keyframe.net/sites/default/files/styles/fp_slideshow/public/kbh-fp.jpg?itok=jVOpzvZ5" width="420" height="285" alt="KBH Yacht Consultants" title="KBH Yacht Consultants" /></div>  </div>  
  <div>        <div class="fp-slideshow-text"><p>
	Drupal Based Website Development<br />
	Content Management System (CMS)<br />
	Website Design<br />
	Integrated SEO<br />
	Web Hosting</p>
</div>  </div>  
  <div>        <div class="button-large rounded"><a href="/swansea-web-designers-portfoilio">View Portfolio</a></div>  </div></div>
</div>
<div id="views_slideshow_cycle_div_fp_slideshow-block_4" class="views-slideshow-cycle-main-frame-row views_slideshow_cycle_slide views_slideshow_slide views-row-5 views_slideshow_cycle_hidden views-row-odd">
  <div class="views-slideshow-cycle-main-frame-row-item views-row views-row-4 views-row-odd">
    
  <div>        <h2>Bloomfield Care Home</h2>  </div>  
  <div>        <div class="fp-slideshow-image"><img typeof="foaf:Image" src="https://keyframe.net/sites/default/files/styles/fp_slideshow/public/bloom%20fp.jpg?itok=Nt1XKzrT" width="420" height="285" alt="Bloomfield Residential Care Home Web Site" title="Bloomfield Residential Care Home Web Site" /></div>  </div>  
  <div>        <div class="fp-slideshow-text"><p>
	Website Development<br />
	Content Management System (CMS)<br />
	Web Hosting</p>
</div>  </div>  
  <div>        <div class="button-large rounded"><a href="/swansea-web-designers-portfoilio">View Portfolio</a></div>  </div></div>
</div>
<div id="views_slideshow_cycle_div_fp_slideshow-block_5" class="views-slideshow-cycle-main-frame-row views_slideshow_cycle_slide views_slideshow_slide views-row-6 views_slideshow_cycle_hidden views-row-even">
  <div class="views-slideshow-cycle-main-frame-row-item views-row views-row-5 views-row-even">
    
  <div>        <h2>Pitton Cross Camping</h2>  </div>  
  <div>        <div class="fp-slideshow-image"><img typeof="foaf:Image" src="https://keyframe.net/sites/default/files/styles/fp_slideshow/public/pitton%20-%20fp.jpg?itok=GGaBDHYh" width="420" height="285" alt="Pitton Cross Caravan &amp; Camping Web Design" title="Pitton Cross Caravan &amp; Camping Web Design" /></div>  </div>  
  <div>        <div class="fp-slideshow-text"><p>
	Website Design<br />
	Website Development<br />
	Content Management System (CMS)<br />
	Web Hosting</p>
</div>  </div>  
  <div>        <div class="button-large rounded"><a href="/swansea-web-designers-portfoilio">View Portfolio</a></div>  </div></div>
</div>
<div id="views_slideshow_cycle_div_fp_slideshow-block_6" class="views-slideshow-cycle-main-frame-row views_slideshow_cycle_slide views_slideshow_slide views-row-7 views_slideshow_cycle_hidden views-row-odd">
  <div class="views-slideshow-cycle-main-frame-row-item views-row views-row-6 views-row-odd">
    
  <div>        <h2>Beryl Gibson Textiles</h2>  </div>  
  <div>        <div class="fp-slideshow-image"><img typeof="foaf:Image" src="https://keyframe.net/sites/default/files/styles/fp_slideshow/public/beryl-fp.jpg?itok=4sT8hbzX" width="420" height="285" alt="Beryl Gibson Textile Consultant" title="Beryl Gibson Textile Consultant" /></div>  </div>  
  <div>        <div class="fp-slideshow-text"><p>
	Drupal Based Website Development<br />
	Content Management System (CMS)<br />
	Integrated SEO<br />
	Intergrated Blogging System<br />
	Web Hosting</p>
</div>  </div>  
  <div>        <div class="button-large rounded"><a href="/swansea-web-designers-portfoilio">View Portfolio</a></div>  </div></div>
</div>
<div id="views_slideshow_cycle_div_fp_slideshow-block_7" class="views-slideshow-cycle-main-frame-row views_slideshow_cycle_slide views_slideshow_slide views-row-8 views_slideshow_cycle_hidden views-row-even">
  <div class="views-slideshow-cycle-main-frame-row-item views-row views-row-7 views-row-even">
    
  <div>        <h2>Pennard Council</h2>  </div>  
  <div>        <div class="fp-slideshow-image"><img typeof="foaf:Image" src="https://keyframe.net/sites/default/files/styles/fp_slideshow/public/pennard-fp.jpg?itok=xl0YvdXs" width="420" height="285" alt="Pennard Community Council" title="Pennard Community Council" /></div>  </div>  
  <div>        <div class="fp-slideshow-text"><p>
	Drupal Based Website Development<br />
	Content Management System (CMS)<br />
	Website Design<br />
	Integrated SEO<br />
	Intergrated News / Events System<br />
	Meetings Calendar System<br />
	Web Hosting</p>
</div>  </div>  
  <div>        <div class="button-large rounded"><a href="/swansea-web-designers-portfoilio">View Portfolio</a></div>  </div></div>
</div>
<div id="views_slideshow_cycle_div_fp_slideshow-block_8" class="views-slideshow-cycle-main-frame-row views_slideshow_cycle_slide views_slideshow_slide views-row-9 views_slideshow_cycle_hidden views-row-odd">
  <div class="views-slideshow-cycle-main-frame-row-item views-row views-row-8 views-row-odd">
    
  <div>        <h2>Joe Schmo</h2>  </div>  
  <div>        <div class="fp-slideshow-image"><img typeof="foaf:Image" src="https://keyframe.net/sites/default/files/styles/fp_slideshow/public/shmo%20fp.png?itok=lceLhEFV" width="420" height="285" alt="Schmo Website Development" title="Schmo Website Development" /></div>  </div>  
  <div>        <div class="fp-slideshow-text"><p>
	Drupal Based Website Development<br />
	Content Management System (CMS)<br />
	Newsletter System<br />
	Integrated SEO<br />
	Web Hosting</p>
</div>  </div>  
  <div>        <div class="button-large rounded"><a href="/swansea-web-designers-portfoilio">View Portfolio</a></div>  </div></div>
</div>
<div id="views_slideshow_cycle_div_fp_slideshow-block_9" class="views-slideshow-cycle-main-frame-row views_slideshow_cycle_slide views_slideshow_slide views-row-10 views_slideshow_cycle_hidden views-row-even">
  <div class="views-slideshow-cycle-main-frame-row-item views-row views-row-9 views-row-even">
    
  <div>        <h2>The Cross Holiday Home</h2>  </div>  
  <div>        <div class="fp-slideshow-image"><img typeof="foaf:Image" src="https://keyframe.net/sites/default/files/styles/fp_slideshow/public/the-cross-fp.jpg?itok=Eu_RtCCo" width="420" height="285" alt="The Cross Holiday Home" title="The Cross Holiday Home" /></div>  </div>  
  <div>        <div class="fp-slideshow-text"><p>
	Website Design<br />
	Drupal Based Website Development<br />
	Content Management System (CMS)<br />
	Availability Booking Section<br />
	Integrated SEO<br />
	Web Hosting</p>
</div>  </div>  
  <div>        <div class="button-large rounded"><a href="/swansea-web-designers-portfoilio">View Portfolio</a></div>  </div></div>
</div>
<div id="views_slideshow_cycle_div_fp_slideshow-block_10" class="views-slideshow-cycle-main-frame-row views_slideshow_cycle_slide views_slideshow_slide views-row-11 views_slideshow_cycle_hidden views-row-odd">
  <div class="views-slideshow-cycle-main-frame-row-item views-row views-row-10 views-row-odd">
    
  <div>        <h2>PJ&#039;s Surf Shop</h2>  </div>  
  <div>        <div class="fp-slideshow-image"><img typeof="foaf:Image" src="https://keyframe.net/sites/default/files/styles/fp_slideshow/public/pj-fp.jpg?itok=7hgZMkMN" width="420" height="285" alt="PJ&#039;s Surf Shop Website Development" title="PJ&#039;s Surf Shop Website Development" /></div>  </div>  
  <div>        <div class="fp-slideshow-text"><p>
	Website Design<br />
	Website Development<br />
	Ecommerce Website<br />
	Content Management System (CMS)<br />
	Web Hosting</p>
</div>  </div>  
  <div>        <div class="button-large rounded"><a href="/swansea-web-designers-portfoilio">View Portfolio</a></div>  </div></div>
</div>
<div id="views_slideshow_cycle_div_fp_slideshow-block_11" class="views-slideshow-cycle-main-frame-row views_slideshow_cycle_slide views_slideshow_slide views-row-12 views_slideshow_cycle_hidden views-row-even">
  <div class="views-slideshow-cycle-main-frame-row-item views-row views-row-11 views-row-even">
    
  <div>        <h2>Universal Hardware Supplies</h2>  </div>  
  <div>        <div class="fp-slideshow-image"><img typeof="foaf:Image" src="https://keyframe.net/sites/default/files/styles/fp_slideshow/public/uhs%20fp.jpg?itok=udO4I_ZA" width="420" height="285" alt="Universal Hardware Supplies Web Site" title="Universal Hardware Supplies Web Site" /></div>  </div>  
  <div>        <div class="fp-slideshow-text"><p>
	Website Design<br />
	Website Development<br />
	Content Management System (CMS)<br />
	Integrated SEO<br />
	Web Hosting</p>
</div>  </div>  
  <div>        <div class="button-large rounded"><a href="/swansea-web-designers-portfoilio">View Portfolio</a></div>  </div></div>
</div>
<div id="views_slideshow_cycle_div_fp_slideshow-block_12" class="views-slideshow-cycle-main-frame-row views_slideshow_cycle_slide views_slideshow_slide views-row-13 views_slideshow_cycle_hidden views-row-odd">
  <div class="views-slideshow-cycle-main-frame-row-item views-row views-row-12 views-row-odd">
    
  <div>        <h2>Whitchurch Builders Supplies</h2>  </div>  
  <div>        <div class="fp-slideshow-image"><img typeof="foaf:Image" src="https://keyframe.net/sites/default/files/styles/fp_slideshow/public/whitchurch-fp.jpg?itok=M-u_Qf1A" width="420" height="285" alt="Whitchurch Builders Supplies" title="Whitchurch Builders Supplies" /></div>  </div>  
  <div>        <div class="fp-slideshow-text"><p>
	Website Design<br />
	Drupal Based Website Development<br />
	Content Management System (CMS)<br />
	Integrated SEO<br />
	Web Hosting</p>
</div>  </div>  
  <div>        <div class="button-large rounded"><a href="/swansea-web-designers-portfoilio">View Portfolio</a></div>  </div></div>
</div>
<div id="views_slideshow_cycle_div_fp_slideshow-block_13" class="views-slideshow-cycle-main-frame-row views_slideshow_cycle_slide views_slideshow_slide views-row-14 views_slideshow_cycle_hidden views-row-even">
  <div class="views-slideshow-cycle-main-frame-row-item views-row views-row-13 views-row-even">
    
  <div>        <h2>Lesley Taylor Interior Designer</h2>  </div>  
  <div>        <div class="fp-slideshow-image"><img typeof="foaf:Image" src="https://keyframe.net/sites/default/files/styles/fp_slideshow/public/lesley-fp.jpg?itok=89gzir-o" width="420" height="285" alt="Lesley Taylor Interior Designer" title="Lesley Taylor Interior Designer" /></div>  </div>  
  <div>        <div class="fp-slideshow-text"><p>
	Drupal Based Website Development<br />
	Content Management System (CMS)<br />
	Website Design<br />
	Integrated SEO<br />
	Intergrated Blogging System<br />
	Web Hosting</p>
</div>  </div>  
  <div>        <div class="button-large rounded"><a href="/swansea-web-designers-portfoilio">View Portfolio</a></div>  </div></div>
</div>
<div id="views_slideshow_cycle_div_fp_slideshow-block_14" class="views-slideshow-cycle-main-frame-row views_slideshow_cycle_slide views_slideshow_slide views-row-15 views_slideshow_cycle_hidden views-row-odd">
  <div class="views-slideshow-cycle-main-frame-row-item views-row views-row-14 views-row-odd">
    
  <div>        <h2>Arwyn Harris</h2>  </div>  
  <div>        <div class="fp-slideshow-image"><img typeof="foaf:Image" src="https://keyframe.net/sites/default/files/styles/fp_slideshow/public/arwyn%20fp.png?itok=hFjb06Gd" width="420" height="285" alt="Arwyn Harris Website Development" title="Arwyn Harris Website Development" /></div>  </div>  
  <div>        <div class="fp-slideshow-text"><p>
	Drupal Based Website Development<br />
	Content Management System (CMS)<br />
	Integrated SEO<br />
	Web Hosting</p>
</div>  </div>  
  <div>        <div class="button-large rounded"><a href="/swansea-web-designers-portfoilio">View Portfolio</a></div>  </div></div>
</div>
<div id="views_slideshow_cycle_div_fp_slideshow-block_15" class="views-slideshow-cycle-main-frame-row views_slideshow_cycle_slide views_slideshow_slide views-row-16 views_slideshow_cycle_hidden views-row-even">
  <div class="views-slideshow-cycle-main-frame-row-item views-row views-row-15 views-row-even">
    
  <div>        <h2>Swansea Lifelong Learning Gallery</h2>  </div>  
  <div>        <div class="fp-slideshow-image"><img typeof="foaf:Image" src="https://keyframe.net/sites/default/files/styles/fp_slideshow/public/sllog%20-%20fp.jpg?itok=SeTwr6Cl" width="420" height="285" alt="Swansea Lifelong Learning Online Gallery Website Design" title="Swansea Lifelong Learning Online Gallery Website Design" /></div>  </div>  
  <div>        <div class="fp-slideshow-text"><p>
	Website Design<br />
	Website Development<br />
	Content Management System (CMS)<br />
	Integrated SEO<br />
	Web Hosting</p>
</div>  </div>  
  <div>        <div class="button-large rounded"><a href="/swansea-web-designers-portfoilio">View Portfolio</a></div>  </div></div>
</div>
<div id="views_slideshow_cycle_div_fp_slideshow-block_16" class="views-slideshow-cycle-main-frame-row views_slideshow_cycle_slide views_slideshow_slide views-row-17 views_slideshow_cycle_hidden views-row-odd">
  <div class="views-slideshow-cycle-main-frame-row-item views-row views-row-16 views-row-odd">
    
  <div>        <h2>Carreg Wen Holiday Home</h2>  </div>  
  <div>        <div class="fp-slideshow-image"><img typeof="foaf:Image" src="https://keyframe.net/sites/default/files/styles/fp_slideshow/public/carreg-fp.jpg?itok=MRF4hBF2" width="420" height="285" alt="Carreg Wen Holiday Home" title="Carreg Wen Holiday Home" /></div>  </div>  
  <div>        <div class="fp-slideshow-text"><p>
	Drupal Based Website Development<br />
	Content Management System (CMS)<br />
	Integrated SEO<br />
	Web Hosting</p>
</div>  </div>  
  <div>        <div class="button-large rounded"><a href="/swansea-web-designers-portfoilio">View Portfolio</a></div>  </div></div>
</div>
<div id="views_slideshow_cycle_div_fp_slideshow-block_17" class="views-slideshow-cycle-main-frame-row views_slideshow_cycle_slide views_slideshow_slide views-row-18 views_slideshow_cycle_hidden views-row-even">
  <div class="views-slideshow-cycle-main-frame-row-item views-row views-row-17 views-row-even">
    
  <div>        <h2>JPCDL Construction</h2>  </div>  
  <div>        <div class="fp-slideshow-image"><img typeof="foaf:Image" src="https://keyframe.net/sites/default/files/styles/fp_slideshow/public/jpcdl-fp.jpg?itok=EoywDK6E" width="420" height="285" alt="J P Construction &amp; Development Ltd Website Development" title="J P Construction &amp; Development Ltd Website Development" /></div>  </div>  
  <div>        <div class="fp-slideshow-text"><p>Website Design<br />
Website Development<br />
Content Management System (CMS)<br />
Integrated SEO<br />
Web Hosting</p>
</div>  </div>  
  <div>        <div class="button-large rounded"><a href="/swansea-web-designers-portfoilio">View Portfolio</a></div>  </div></div>
</div>
<div id="views_slideshow_cycle_div_fp_slideshow-block_18" class="views-slideshow-cycle-main-frame-row views_slideshow_cycle_slide views_slideshow_slide views-row-19 views_slideshow_cycle_hidden views-row-odd">
  <div class="views-slideshow-cycle-main-frame-row-item views-row views-row-18 views-row-odd">
    
  <div>        <h2>Copperstone Financial</h2>  </div>  
  <div>        <div class="fp-slideshow-image"><img typeof="foaf:Image" src="https://keyframe.net/sites/default/files/styles/fp_slideshow/public/copperstone-fp.jpg?itok=beeXAw3k" width="420" height="285" alt="Copperstone Financial Web Design" title="Copperstone Financial Web Design" /></div>  </div>  
  <div>        <div class="fp-slideshow-text"><p>
	Drupal Based Website Development<br />
	Content Management System (CMS)<br />
	Website Design<br />
	Integrated SEO<br />
	Web Hosting</p>
</div>  </div>  
  <div>        <div class="button-large rounded"><a href="/swansea-web-designers-portfoilio">View Portfolio</a></div>  </div></div>
</div>
<div id="views_slideshow_cycle_div_fp_slideshow-block_19" class="views-slideshow-cycle-main-frame-row views_slideshow_cycle_slide views_slideshow_slide views-row-20 views_slideshow_cycle_hidden views-row-even">
  <div class="views-slideshow-cycle-main-frame-row-item views-row views-row-19 views-row-even">
    
  <div>        <h2>Heistercamp Leather Belts</h2>  </div>  
  <div>        <div class="fp-slideshow-image"><img typeof="foaf:Image" src="https://keyframe.net/sites/default/files/styles/fp_slideshow/public/Heister%20fp.jpg?itok=YwqaAElc" width="420" height="285" alt="Heistercamp Website" title="Heistercamp Website" /></div>  </div>  
  <div>        <div class="fp-slideshow-text"><p>
	Website Development<br />
	Ecommerce Website<br />
	Alternative Payment Methods<br />
	Content Management System (CMS)<br />
	Web Hosting</p>
</div>  </div>  
  <div>        <div class="button-large rounded"><a href="/swansea-web-designers-portfoilio">View Portfolio</a></div>  </div></div>
</div>
<div id="views_slideshow_cycle_div_fp_slideshow-block_20" class="views-slideshow-cycle-main-frame-row views_slideshow_cycle_slide views_slideshow_slide views-row-21 views_slideshow_cycle_hidden views-row-odd">
  <div class="views-slideshow-cycle-main-frame-row-item views-row views-row-20 views-row-odd">
    
  <div>        <h2>The Iron Works</h2>  </div>  
  <div>        <div class="fp-slideshow-image"><img typeof="foaf:Image" src="https://keyframe.net/sites/default/files/styles/fp_slideshow/public/iron-fp.jpg?itok=oQ1--V9L" width="420" height="285" alt="The Iron Works" title="The Iron Works" /></div>  </div>  
  <div>        <div class="fp-slideshow-text"><p>
	Website Design<br />
	Drupal Based Website Development<br />
	Integrated e-commerce shop<br />
	Content Management System (CMS)<br />
	Integrated SEO<br />
	Web Hosting</p>
</div>  </div>  
  <div>        <div class="button-large rounded"><a href="/swansea-web-designers-portfoilio">View Portfolio</a></div>  </div></div>
</div>
<div id="views_slideshow_cycle_div_fp_slideshow-block_21" class="views-slideshow-cycle-main-frame-row views_slideshow_cycle_slide views_slideshow_slide views-row-22 views_slideshow_cycle_hidden views-row-even">
  <div class="views-slideshow-cycle-main-frame-row-item views-row views-row-21 views-row-even">
    
  <div>        <h2>Gower Craft Parties</h2>  </div>  
  <div>        <div class="fp-slideshow-image"><img typeof="foaf:Image" src="https://keyframe.net/sites/default/files/styles/fp_slideshow/public/hens-fp.jpg?itok=-b_vGSAe" width="420" height="285" alt="Gower Craft Parties" title="Gower Craft Parties" /></div>  </div>  
  <div>        <div class="fp-slideshow-text"><p>
	Website Design<br />
	Drupal Based Website Development<br />
	Content Management System (CMS)<br />
	Integrated SEO<br />
	Web Hosting</p>
</div>  </div>  
  <div>        <div class="button-large rounded"><a href="/swansea-web-designers-portfoilio">View Portfolio</a></div>  </div></div>
</div>
<div id="views_slideshow_cycle_div_fp_slideshow-block_22" class="views-slideshow-cycle-main-frame-row views_slideshow_cycle_slide views_slideshow_slide views-row-23 views_slideshow_cycle_hidden views-row-odd">
  <div class="views-slideshow-cycle-main-frame-row-item views-row views-row-22 views-row-odd">
    
  <div>        <h2>Swansea Aquatics</h2>  </div>  
  <div>        <div class="fp-slideshow-image"><img typeof="foaf:Image" src="https://keyframe.net/sites/default/files/styles/fp_slideshow/public/swansea-aquatics-fp.jpg?itok=sFHltIKd" width="420" height="285" alt="Swansea Aquatics" title="Swansea Aquatics" /></div>  </div>  
  <div>        <div class="fp-slideshow-text"><p>
	Drupal Based Website Development<br />
	Content Management System (CMS)<br />
	Website Design<br />
	Integrated SEO<br />
	Intergrated News / Events System<br />
	Meetings Calendar System<br />
	Web Hosting</p>
</div>  </div>  
  <div>        <div class="button-large rounded"><a href="/swansea-web-designers-portfoilio">View Portfolio</a></div>  </div></div>
</div>
<div id="views_slideshow_cycle_div_fp_slideshow-block_23" class="views-slideshow-cycle-main-frame-row views_slideshow_cycle_slide views_slideshow_slide views-row-24 views_slideshow_cycle_hidden views-row-even">
  <div class="views-slideshow-cycle-main-frame-row-item views-row views-row-23 views-row-even">
    
  <div>        <h2>Swim Swansea</h2>  </div>  
  <div>        <div class="fp-slideshow-image"><img typeof="foaf:Image" src="https://keyframe.net/sites/default/files/styles/fp_slideshow/public/swim-swansea-fp.jpg?itok=kbbwqjDP" width="420" height="285" alt="Swim Swansea" title="Swim Swansea" /></div>  </div>  
  <div>        <div class="fp-slideshow-text"><p>
	Drupal Based Website Development<br />
	Content Management System (CMS)<br />
	Website Design<br />
	Integrated SEO<br />
	Intergrated News / Events System<br />
	Meetings Calendar System<br />
	Web Hosting</p>
</div>  </div>  
  <div>        <div class="button-large rounded"><a href="/swansea-web-designers-portfoilio">View Portfolio</a></div>  </div></div>
</div>
<div id="views_slideshow_cycle_div_fp_slideshow-block_24" class="views-slideshow-cycle-main-frame-row views_slideshow_cycle_slide views_slideshow_slide views-row-25 views_slideshow_cycle_hidden views-row-odd">
  <div class="views-slideshow-cycle-main-frame-row-item views-row views-row-24 views-row-odd">
    
  <div>        <h2>Taylors ETC Commercial</h2>  </div>  
  <div>        <div class="fp-slideshow-image"><img typeof="foaf:Image" src="https://keyframe.net/sites/default/files/styles/fp_slideshow/public/taylors-comm%20fp.jpg?itok=MzGeEh9B" width="420" height="285" alt="Taylors ETC Commercial Website" title="Taylors ETC Commercial Website" /></div>  </div>  
  <div>        <div class="fp-slideshow-text"><p>
	Website Design<br />
	Drupal Based Website Development<br />
	Content Management System (CMS)<br />
	Integrated SEO<br />
	Web Hosting</p>
</div>  </div>  
  <div>        <div class="button-large rounded"><a href="/swansea-web-designers-portfoilio">View Portfolio</a></div>  </div></div>
</div>
<div id="views_slideshow_cycle_div_fp_slideshow-block_25" class="views-slideshow-cycle-main-frame-row views_slideshow_cycle_slide views_slideshow_slide views-row-26 views_slideshow_cycle_hidden views-row-even">
  <div class="views-slideshow-cycle-main-frame-row-item views-row views-row-25 views-row-even">
    
  <div>        <h2>Broughton Caravan Park</h2>  </div>  
  <div>        <div class="fp-slideshow-image"><img typeof="foaf:Image" src="https://keyframe.net/sites/default/files/styles/fp_slideshow/public/broughton-fp.jpg?itok=Ox9I_hJf" width="420" height="285" alt="Broughton Farm Caravan Park" title="Broughton Farm Caravan Park" /></div>  </div>  
  <div>        <div class="fp-slideshow-text"><p>
	Website Design<br />
	Drupal Based Website Development<br />
	Content Management System (CMS)<br />
	For Sale Section<br />
	Integrated SEO<br />
	Web Hosting</p>
</div>  </div>  
  <div>        <div class="button-large rounded"><a href="/swansea-web-designers-portfoilio">View Portfolio</a></div>  </div></div>
</div>
<div id="views_slideshow_cycle_div_fp_slideshow-block_26" class="views-slideshow-cycle-main-frame-row views_slideshow_cycle_slide views_slideshow_slide views-row-27 views_slideshow_cycle_hidden views-row-odd">
  <div class="views-slideshow-cycle-main-frame-row-item views-row views-row-26 views-row-odd">
    
  <div>        <h2>Abox Storage Solutions</h2>  </div>  
  <div>        <div class="fp-slideshow-image"><img typeof="foaf:Image" src="https://keyframe.net/sites/default/files/styles/fp_slideshow/public/abox%20-%20fp.jpg?itok=eOASz02q" width="420" height="285" alt="Abox Storage Solutions Website Development" title="Abox Storage Solutions Website Development" /></div>  </div>  
  <div>        <div class="fp-slideshow-text"><p>
	Website Design<br />
	Drupal Based Website Development<br />
	Content Management System (CMS)<br />
	Integrated SEO<br />
	Web Hosting</p>
</div>  </div>  
  <div>        <div class="button-large rounded"><a href="/swansea-web-designers-portfoilio">View Portfolio</a></div>  </div></div>
</div>
<div id="views_slideshow_cycle_div_fp_slideshow-block_27" class="views-slideshow-cycle-main-frame-row views_slideshow_cycle_slide views_slideshow_slide views-row-28 views_slideshow_cycle_hidden views-row-even">
  <div class="views-slideshow-cycle-main-frame-row-item views-row views-row-27 views-row-even">
    
  <div>        <h2>Peter Evans</h2>  </div>  
  <div>        <div class="fp-slideshow-image"><img typeof="foaf:Image" src="https://keyframe.net/sites/default/files/styles/fp_slideshow/public/peter-evans-fp.jpg?itok=34HifkO_" width="420" height="285" alt="Peter Evans Drupal Website Development" title="Peter Evans Drupal Website Development" /></div>  </div>  
  <div>        <div class="fp-slideshow-text"><p>
	Drupal Based Website Development<br />
	Content Management System (CMS)<br />
	Newsletter System<br />
	Integrated SEO</p>
</div>  </div>  
  <div>        <div class="button-large rounded"><a href="/swansea-web-designers-portfoilio">View Portfolio</a></div>  </div></div>
</div>
<div id="views_slideshow_cycle_div_fp_slideshow-block_28" class="views-slideshow-cycle-main-frame-row views_slideshow_cycle_slide views_slideshow_slide views-row-29 views_slideshow_cycle_hidden views-row-odd">
  <div class="views-slideshow-cycle-main-frame-row-item views-row views-row-28 views-row-odd">
    
  <div>        <h2>The Baked Tile Company</h2>  </div>  
  <div>        <div class="fp-slideshow-image"><img typeof="foaf:Image" src="https://keyframe.net/sites/default/files/styles/fp_slideshow/public/baked-fp.jpg?itok=NCFropnu" width="420" height="285" alt="The Baked Tile Company" title="The Baked Tile Company" /></div>  </div>  
  <div>        <div class="fp-slideshow-text"><p>
	Website Design<br />
	Drupal Based Website Development<br />
	Content Management System (CMS)<br />
	Integrated SEO<br />
	Web Hosting</p>
</div>  </div>  
  <div>        <div class="button-large rounded"><a href="/swansea-web-designers-portfoilio">View Portfolio</a></div>  </div></div>
</div>
<div id="views_slideshow_cycle_div_fp_slideshow-block_29" class="views-slideshow-cycle-main-frame-row views_slideshow_cycle_slide views_slideshow_slide views-row-30 views_slideshow_cycle_hidden views-row-even">
  <div class="views-slideshow-cycle-main-frame-row-item views-row views-row-29 views-row-even">
    
  <div>        <h2>Scamper Holidays</h2>  </div>  
  <div>        <div class="fp-slideshow-image"><img typeof="foaf:Image" src="https://keyframe.net/sites/default/files/styles/fp_slideshow/public/scam_0.jpg?itok=lPxg3XR8" width="420" height="285" alt="Scamper Holidays Website Design &amp; Development" title="Scamper Holidays Website Design &amp; Development" /></div>  </div>  
  <div>        <div class="fp-slideshow-text"><p>
	Responsive Website Design<br />
	Drupal Based Website<br />
	Content Management System (CMS)<br />
	Integrated SEO<br />
	Intergrated Blogging System<br />
	Video Production<br />
	Web Hosting</p>
</div>  </div>  
  <div>        <div class="button-large rounded"><a href="/swansea-web-designers-portfoilio">View Portfolio</a></div>  </div></div>
</div>
<div id="views_slideshow_cycle_div_fp_slideshow-block_30" class="views-slideshow-cycle-main-frame-row views_slideshow_cycle_slide views_slideshow_slide views-row-31 views_slideshow_cycle_hidden views-row-odd">
  <div class="views-slideshow-cycle-main-frame-row-item views-row views-row-30 views-row-odd">
    
  <div>        <h2>Excal</h2>  </div>  
  <div>        <div class="fp-slideshow-image"><img typeof="foaf:Image" src="https://keyframe.net/sites/default/files/styles/fp_slideshow/public/excal-fp.jpg?itok=yiihOYeM" width="420" height="285" alt="Excal Environmental Engineers " title="Excal Environmental Engineers " /></div>  </div>  
  <div>        <div class="fp-slideshow-text"><p>
	Website Design<br />
	Drupal Based Website Development<br />
	Content Management System (CMS)<br />
	Integrated SEO<br />
	Web Hosting</p>
</div>  </div>  
  <div>        <div class="button-large rounded"><a href="/swansea-web-designers-portfoilio">View Portfolio</a></div>  </div></div>
</div>
<div id="views_slideshow_cycle_div_fp_slideshow-block_31" class="views-slideshow-cycle-main-frame-row views_slideshow_cycle_slide views_slideshow_slide views-row-32 views_slideshow_cycle_hidden views-row-even">
  <div class="views-slideshow-cycle-main-frame-row-item views-row views-row-31 views-row-even">
    
  <div>        <h2>Taylors ETC</h2>  </div>  
  <div>        <div class="fp-slideshow-image"><img typeof="foaf:Image" src="https://keyframe.net/sites/default/files/styles/fp_slideshow/public/taylors%20fp.jpg?itok=WjhlL_bu" width="420" height="285" alt="Taylors ETC Website" title="Taylors ETC Website" /></div>  </div>  
  <div>        <div class="fp-slideshow-text"><p>
	Website Development<br />
	Content Management System (CMS)<br />
	Web Hosting</p>
</div>  </div>  
  <div>        <div class="button-large rounded"><a href="/swansea-web-designers-portfoilio">View Portfolio</a></div>  </div></div>
</div>
<div id="views_slideshow_cycle_div_fp_slideshow-block_32" class="views-slideshow-cycle-main-frame-row views_slideshow_cycle_slide views_slideshow_slide views-row-33 views_slideshow_cycle_hidden views-row-odd">
  <div class="views-slideshow-cycle-main-frame-row-item views-row views-row-32 views-row-odd">
    
  <div>        <h2>NB Design</h2>  </div>  
  <div>        <div class="fp-slideshow-image"><img typeof="foaf:Image" src="https://keyframe.net/sites/default/files/styles/fp_slideshow/public/nb-fp.jpg?itok=_nmJ9iZi" width="420" height="285" alt="Swansea Web Designers" title="Swansea Web Designers" /></div>  </div>  
  <div>        <div class="fp-slideshow-text"><p>
	Drupal Based Website Development<br />
	Content Management System (CMS)<br />
	Integrated SEO<br />
	Newsletter Template System<br />
	Intergrated Blogging System<br />
	Web Hosting</p>
</div>  </div>  
  <div>        <div class="button-large rounded"><a href="/swansea-web-designers-portfoilio">View Portfolio</a></div>  </div></div>
</div>
<div id="views_slideshow_cycle_div_fp_slideshow-block_33" class="views-slideshow-cycle-main-frame-row views_slideshow_cycle_slide views_slideshow_slide views-row-34 views_slideshow_cycle_hidden views-row-even">
  <div class="views-slideshow-cycle-main-frame-row-item views-row views-row-33 views-row-even">
    
  <div>        <h2>Seacote Caravan Park</h2>  </div>  
  <div>        <div class="fp-slideshow-image"><img typeof="foaf:Image" src="https://keyframe.net/sites/default/files/styles/fp_slideshow/public/seacote-fp_0.jpg?itok=EBkyX_oR" width="420" height="285" alt="Seacote Caravan Park" title="Seacote Caravan Park" /></div>  </div>  
  <div>        <div class="fp-slideshow-text"><p>
	Website Design<br />
	Drupal Based Website Development<br />
	Content Management System (CMS)<br />
	For Sale Section<br />
	Integrated SEO<br />
	Web Hosting</p>
</div>  </div>  
  <div>        <div class="button-large rounded"><a href="/swansea-web-designers-portfoilio">View Portfolio</a></div>  </div></div>
</div>
<div id="views_slideshow_cycle_div_fp_slideshow-block_34" class="views-slideshow-cycle-main-frame-row views_slideshow_cycle_slide views_slideshow_slide views-row-35 views_slideshow_cycle_hidden views-row-odd">
  <div class="views-slideshow-cycle-main-frame-row-item views-row views-row-34 views-row-odd">
    
  <div>        <h2>Caroline Rees Blasted Glass</h2>  </div>  
  <div>        <div class="fp-slideshow-image"><img typeof="foaf:Image" src="https://keyframe.net/sites/default/files/styles/fp_slideshow/public/blasted-fp.jpg?itok=rLcDmiln" width="420" height="285" alt="Caroline Rees Blasted Glass" title="Caroline Rees Blasted Glass" /></div>  </div>  
  <div>        <div class="fp-slideshow-text"><p>
	Drupal Based Website Development<br />
	Content Management System (CMS)<br />
	Website Design<br />
	Integrated SEO<br />
	Intergrated Blogging System<br />
	Web Hosting</p>
</div>  </div>  
  <div>        <div class="button-large rounded"><a href="/swansea-web-designers-portfoilio">View Portfolio</a></div>  </div></div>
</div>
<div id="views_slideshow_cycle_div_fp_slideshow-block_35" class="views-slideshow-cycle-main-frame-row views_slideshow_cycle_slide views_slideshow_slide views-row-36 views_slideshow_cycle_hidden views-row-even">
  <div class="views-slideshow-cycle-main-frame-row-item views-row views-row-35 views-row-even">
    
  <div>        <h2>She Who Finds Gold</h2>  </div>  
  <div>        <div class="fp-slideshow-image"><img typeof="foaf:Image" src="https://keyframe.net/sites/default/files/styles/fp_slideshow/public/she-who-finds-gold-fp.jpg?itok=YtWU7PMr" width="420" height="285" alt="She Who Finds Gold Website Development" title="She Who Finds Gold Website Development" /></div>  </div>  
  <div>        <div class="fp-slideshow-text"><p>
	Website Design<br />
	Website Development<br />
	Ecommerce Website<br />
	PayPal Based Checkout<br />
	Content Management System (CMS)<br />
	Web Hosting</p>
</div>  </div>  
  <div>        <div class="button-large rounded"><a href="/swansea-web-designers-portfoilio">View Portfolio</a></div>  </div></div>
</div>
<div id="views_slideshow_cycle_div_fp_slideshow-block_36" class="views-slideshow-cycle-main-frame-row views_slideshow_cycle_slide views_slideshow_slide views-row-37 views_slideshow_cycle_hidden views-row-odd">
  <div class="views-slideshow-cycle-main-frame-row-item views-row views-row-36 views-row-odd">
    
  <div>        <h2>Decus Research</h2>  </div>  
  <div>        <div class="fp-slideshow-image"><img typeof="foaf:Image" src="https://keyframe.net/sites/default/files/styles/fp_slideshow/public/decus-fp.jpg?itok=iX7eJfcY" width="420" height="285" alt="Decus Research" title="Decus Research" /></div>  </div>  
  <div>        <div class="fp-slideshow-text"><p>
	Website Design<br />
	Drupal Based Website Development<br />
	Content Management System (CMS)<br />
	Integrated SEO<br />
	Web Hosting</p>
</div>  </div>  
  <div>        <div class="button-large rounded"><a href="/swansea-web-designers-portfoilio">View Portfolio</a></div>  </div></div>
</div>
<div id="views_slideshow_cycle_div_fp_slideshow-block_37" class="views-slideshow-cycle-main-frame-row views_slideshow_cycle_slide views_slideshow_slide views-row-38 views_slideshow_cycle_hidden views-row-even">
  <div class="views-slideshow-cycle-main-frame-row-item views-row views-row-37 views-row-even views-row-last">
    
  <div>        <h2>ECITA</h2>  </div>  
  <div>        <div class="fp-slideshow-image"><img typeof="foaf:Image" src="https://keyframe.net/sites/default/files/styles/fp_slideshow/public/ecita-fp_0.jpg?itok=vEjl6T_5" width="420" height="285" alt="ECITA Website Design &amp; Development" title="ECITA Website Design &amp; Development" /></div>  </div>  
  <div>        <div class="fp-slideshow-text"><p>
	Website Design<br />
	Drupal Based Website Development<br />
	Content Management System (CMS)<br />
	Integrated SEO<br />
	Intergrated Blogging System<br />
	Members Only Section<br />
	Web Hosting</p>
</div>  </div>  
  <div>        <div class="button-large rounded"><a href="/swansea-web-designers-portfoilio">View Portfolio</a></div>  </div></div>
</div>
</div>
</div>
      </div>
    </div>
  
  
  
  
  
  
</div>    </div>
  </div>
</div>  </div>
</div>  </div>
</div></header>    
      <section id="section-content" class="section section-content">
  <div id="zone-content-wrapper" class="zone-wrapper zone-content-wrapper clearfix">  
  <div id="zone-content" class="zone zone-content clearfix container-12">    
        
        <div class="grid-6 region region-front-page-welcome" id="region-front-page-welcome">
  <div class="region-inner region-front-page-welcome-inner">
    <div class="block block-views block-fp-about-block block-views-fp-about-block odd block-without-title" id="block-views-fp-about-block">
  <div class="block-inner clearfix">
                
    <div class="content clearfix">
      <div class="view view-fp-about view-id-fp_about view-display-id-block view-dom-id-ab1c0d4a1fbf4f3a3aabda79e4bf3e75">
        
  
  
      <div class="view-content">
        <div class="views-row views-row-1 views-row-odd views-row-first views-row-last">
      
  <div>        <h1>Swansea Web Design, Web Development &amp; E-Commerce</h1>  </div>  
  <div class="views-field views-field-body">        <div class="field-content"><p>
	Keyframe have provided Swansea web design, Swansea web development and Swansea web hosting since 1996.</p>
<p>
	Our wealth of experience and knowledge makes us a market leader in Swansea and the South Wales area.</p>
<p>
	If you are trying to develop your web business in today’s competitive market, then Keyframe is here to help.</p>
</div>  </div>  </div>
    </div>
  
  
  
  
  
  
</div>    </div>
  </div>
</div>  </div>
</div><div class="grid-6 region region-front-page-reviews" id="region-front-page-reviews">
  <div class="region-inner region-front-page-reviews-inner">
    <div class="block block-block block-4 block-block-4 odd block-without-title" id="block-block-4">
  <div class="block-inner clearfix">
                
    <div class="content clearfix">
      <script type="text/JavaScript" src="https://www.freeindex.co.uk/widgets/fiwidget.asp?lid=608810%26tit%3DOur+latest+reviews+on+FreeIndex%2Eco%2Euk%26wid%3D100PC%26agt%3D0%26rak%3D0%26dis%3D0%26wri%3D1%26nrv%3D1%26rts%3DM%26theme%3Dlight"></script><div style="text-align:center;">
<div class="freeindex-link">
		<a href="https://www.freeindex.co.uk/profile(keyframe)_608810.htm" rel="nofollow" style="font-family:Calibri;font-size:14px;" target="_blank">Visit Keyframe - Web Design Company on FreeIndex</a></div>
</div>
    </div>
  </div>
</div>  </div>
</div><div class="grid-8 region region-content" id="region-content">
  <div class="region-inner region-content-inner">
    <a id="main-content"></a>
                              </div>
</div>  </div>
</div><div id="zone-preface-wrapper" class="zone-wrapper zone-preface-wrapper clearfix">  
  <div id="zone-preface" class="zone zone-preface clearfix container-12">
    <div class="grid-3 region region-preface-first" id="region-preface-first">
  <div class="region-inner region-preface-first-inner">
    <div class="block block-views block-cms-fp-block block-views-cms-fp-block odd block-without-title" id="block-views-cms-fp-block">
  <div class="block-inner clearfix">
                
    <div class="content clearfix">
      <div class="view view-cms-fp view-id-cms_fp view-display-id-block fp-h2-4-column view-dom-id-c9c969b1fdfdac4650403b03a1ea8c63">
        
  
  
      <div class="view-content">
        <div class="views-row views-row-1 views-row-odd views-row-first views-row-last">
      
  <div class="views-field views-field-field-fp-">        <div class="field-content"><a href="/swansea-web-design-services/content-managed-websites"><img typeof="foaf:Image" src="https://keyframe.net/sites/default/files/fp-cms.png" width="220" height="55" alt="content management systems (CMS)" title="content management systems (CMS)" /></a></div>  </div>  
  <div class="views-field views-field-body">        <div class="field-content"><p>
	If your web content is likely to changes, such as variable pricing, up to date company news or you simply feel that your content should be regularly updated then a content management systems swansea (CMS) might be for you......</p>
</div>  </div>  
  <div>        <div class="button-more rounded"><a href="/swansea-web-design-services/content-managed-websites">find out more &gt;&gt;</a></div>  </div>  </div>
    </div>
  
  
  
  
  
  
</div>    </div>
  </div>
</div>  </div>
</div><div class="grid-3 region region-preface-second" id="region-preface-second">
  <div class="region-inner region-preface-second-inner">
    <div class="block block-views block-web-design-fp-block block-views-web-design-fp-block odd block-without-title" id="block-views-web-design-fp-block">
  <div class="block-inner clearfix">
                
    <div class="content clearfix">
      <div class="view view-web-design-fp view-id-web_design_fp view-display-id-block fp-h2-4-column view-dom-id-21455718fdb679ccafbef01827ce646b">
        
  
  
      <div class="view-content">
        <div class="views-row views-row-1 views-row-odd views-row-first views-row-last">
      
  <div class="views-field views-field-field-fp-">        <div class="field-content"><a href="/swansea-web-design-services/website-design"><img typeof="foaf:Image" src="https://keyframe.net/sites/default/files/fp-webdesign_0.png" width="220" height="55" alt="Swansea Website Design" title="Swansea Website Design" /></a></div>  </div>  
  <div class="views-field views-field-body">        <div class="field-content"><p>
	Keyframe has been designing successful websites for over TWENTY ONE years. We pride ourselves in keeping up to date with the latest web developments and providing your company with a professional bespoke design......</p>
</div>  </div>  
  <div>        <div class="button-more rounded"><a href="/swansea-web-design-services/website-design">find out more &gt;&gt;</a></div>  </div>  </div>
    </div>
  
  
  
  
  
  
</div>    </div>
  </div>
</div>  </div>
</div><div class="grid-3 region region-preface-third" id="region-preface-third">
  <div class="region-inner region-preface-third-inner">
    <div class="block block-views block-web-hosting-fp-block block-views-web-hosting-fp-block odd block-without-title" id="block-views-web-hosting-fp-block">
  <div class="block-inner clearfix">
                
    <div class="content clearfix">
      <div class="view view-web-hosting-fp view-id-web_hosting_fp view-display-id-block fp-h2-4-column view-dom-id-62ea1fffa716c8ca2606d1136d9940dd">
        
  
  
      <div class="view-content">
        <div class="views-row views-row-1 views-row-odd views-row-first views-row-last">
      
  <div class="views-field views-field-field-fp-">        <div class="field-content"><a href="/swansea-web-design-services/web-hosting"><img typeof="foaf:Image" src="https://keyframe.net/sites/default/files/fp-webhosting.png" width="220" height="55" alt="Swansea Website Hosting" title="Swansea Website Hosting" /></a></div>  </div>  
  <div class="views-field views-field-body">        <div class="field-content"><p>
	Keyframe provide affordable, secure and reliable web hosting to suit your needs.</p>
<p>
	Web hosting is an often misunderstood but essential part of your internet solution.....</p>
</div>  </div>  
  <div>        <div class="button-more rounded"><a href="/swansea-web-design-services/web-hosting">find out more &gt;&gt;</a></div>  </div>  </div>
    </div>
  
  
  
  
  
  
</div>    </div>
  </div>
</div>  </div>
</div><div class="grid-3 region region-preface-forth" id="region-preface-forth">
  <div class="region-inner region-preface-forth-inner">
    <div class="block block-views block-seo-fp-block block-views-seo-fp-block odd block-without-title" id="block-views-seo-fp-block">
  <div class="block-inner clearfix">
                
    <div class="content clearfix">
      <div class="view view-seo-fp view-id-seo_fp view-display-id-block fp-h2-4-column view-dom-id-9cea23323b1defef906e0430c32f5be1">
        
  
  
      <div class="view-content">
        <div class="views-row views-row-1 views-row-odd views-row-first views-row-last">
      
  <div class="views-field views-field-field-fp-">        <div class="field-content"><a href="/swansea-web-design-services/search-engine-optimisation-seo"><img typeof="foaf:Image" src="https://keyframe.net/sites/default/files/fp-seo.png" width="220" height="55" alt="Swansea Search Engine Optimisation" title="Swansea Search Engine Optimisation" /></a></div>  </div>  
  <div class="views-field views-field-body">        <div class="field-content"><p>
	Keyframe designers understand the requirements of a website so it is well placed within search engine rankings. There are many companies that will charge you a great deal of your hard earned cash for ineffective SEO.....</p>
</div>  </div>  
  <div>        <div class="button-more rounded"><a href="/swansea-web-design-services/search-engine-optimisation-seo">find out more &gt;&gt;</a></div>  </div>  </div>
    </div>
  
  
  
  
  
  
</div>    </div>
  </div>
</div>  </div>
</div>  </div>
</div></section>    
  
      <footer id="section-footer" class="section section-footer">
  <div id="zone-footer-wrapper" class="zone-wrapper zone-footer-wrapper clearfix">  
  <div id="zone-footer" class="zone zone-footer clearfix copyright-wrapper container-12">
    <div class="grid-3 region region-footer-first" id="region-footer-first">
  <div class="region-inner region-footer-first-inner">
    <div class="block block-menu block-menu-footer-main-menu block-menu-menu-footer-main-menu odd block-without-title" id="block-menu-menu-footer-main-menu">
  <div class="block-inner clearfix">
                
    <div class="content clearfix">
      <ul class="menu"><li class="first leaf"><a href="/" title="Swansea Web Design - Home" class="active">home</a></li>
<li class="leaf"><a href="/swansea-web-design-services/website-design" title="Swansea Web Design Services - Web Design, Web Hosting, Web Development">services</a></li>
<li class="leaf"><a href="/swansea-web-designers-portfoilio" title="Swansea Web Design Portfolio">portfolio</a></li>
<li class="leaf"><a href="/about-swansea-web-design/what-keyframe-can-do-you" title="Swansea Website Developers - All about Keyframe">about</a></li>
<li class="leaf"><a href="/contact-swansea-web-design/contact-keyframe-swansea-web-designers" title="Swansea Web Design - free quote">get a free quote</a></li>
<li class="last leaf"><a href="/about-swansea-web-design/privacy-policy" title="Privacy Policy">Privacy Policy</a></li>
</ul>    </div>
  </div>
</div>  </div>
</div><div class="grid-3 region region-footer-second" id="region-footer-second">
  <div class="region-inner region-footer-second-inner">
    <div class="block block-menu block-menu-clone-footer-services block-menu-menu-clone-footer-services odd block-without-title" id="block-menu-menu-clone-footer-services">
  <div class="block-inner clearfix">
                
    <div class="content clearfix">
      <ul class="menu"><li class="first leaf"><a href="/swansea-web-design-services/website-design" title="Swansea Website Design">Website Design</a></li>
<li class="leaf"><a href="/swansea-web-design-services/web-hosting" title="Professional Swansea Web Hosting">Web Hosting</a></li>
<li class="leaf"><a href="/swansea-web-design-services/content-managed-websites" title="Swansea Content Managed Websites">Content Managed Websites</a></li>
<li class="leaf"><a href="/swansea-web-design-services/ecommerce-website-design" title="Swansea Ecommerce Website Design">Ecommerce Website Design</a></li>
<li class="leaf"><a href="/swansea-web-design-services/search-engine-optimisation-seo" title="Swansea Search Engine Optimisation (SEO)">Search Engine Optimisation</a></li>
<li class="last leaf"><a href="/swansea-web-design-services/small-business-websites" title="Swansea Small Business Websites">Small Business Websites</a></li>
</ul>    </div>
  </div>
</div>  </div>
</div><div class="grid-3 region region-footer-third" id="region-footer-third">
  <div class="region-inner region-footer-third-inner">
    <div class="block block-menu block-menu-clone-client-sub-menu block-menu-menu-clone-client-sub-menu odd block-without-title" id="block-menu-menu-clone-client-sub-menu">
  <div class="block-inner clearfix">
                
    <div class="content clearfix">
      <ul class="menu"><li class="first leaf"><a href="/swansea-web-designers-portfoilio" title="Swansea Web Design Portfoilio">Portfolio</a></li>
<li class="leaf"><a href="/swansea-website-designers-portfolio/abox-storage-solutions" title="Abox Storage Solutions Website Development">Abox</a></li>
<li class="leaf"><a href="/swansea-website-designers-portfolio/beryl-gibson-textiles" title="Beryl Gibson Textiles">Beryl Gibson</a></li>
<li class="leaf"><a href="/swansea-website-designers-portfolio/jpcdl-construction" title="J P Construction &amp; Development Ltd Website Development">JPCDL</a></li>
<li class="leaf"><a href="/swansea-website-designers-portfolio/nb-design" title="NB Design">NB Design</a></li>
<li class="leaf"><a href="/swansea-website-designers-portfolio/pennard-council" title="Pennard Community Council">Pennard Council</a></li>
<li class="leaf"><a href="/swansea-website-designers-portfolio/peter-evans" title="Peter Evans">Peter Evans</a></li>
<li class="leaf"><a href="/swansea-website-designers-portfolio/pjs-surf-shop" title="PJ&#039;s Surf Shop Website Development">PJ&#039;s Surf Shop</a></li>
<li class="leaf"><a href="/swansea-website-designers-portfolio/sash-ironmongery" title="Ecommerce Website Design &amp; Development">Sash Ironmongery</a></li>
<li class="leaf"><a href="/swansea-website-designers-portfolio/scamper-holidays" title="Scamper Holidays">Scamper Holidays</a></li>
<li class="leaf"><a href="/swansea-website-designers-portfolio/joe-schmo" title="Schmo Website Development">Schmo</a></li>
<li class="leaf"><a href="/swansea-website-designers-portfolio/taylors-etc-commercial" title="TaylorsETC Commercial">TaylorsETC Commercial</a></li>
<li class="last leaf"><a href="/swansea-web-designers-portfoilio" title="View Keyframe&#039;s Portfolio">View The Entire Portfolio</a></li>
</ul>    </div>
  </div>
</div>  </div>
</div><div class="grid-3 region region-footer-forth" id="region-footer-forth">
  <div class="region-inner region-footer-forth-inner">
    <div class="block block-block block-2 block-block-2 odd block-without-title" id="block-block-2">
  <div class="block-inner clearfix">
                
    <div class="content clearfix">
      <div class="footer-header">
	<a href="http://www.keyframe.net/contact-swansea-web-design/contact-keyframe-swansea-web-designers" title="Contact Keyframe Web Designers">Contact</a></div>
<p>
	Keyframe Web Designers<br />
	21 Heatherslade Road,<br />
	Southgate,<br />
	Swansea,<br />
	South Wales.<br />
	SA3 2DD.<br />
	Great Britain.</p>
<p>
	&nbsp;</p>
<p>
	T : 01792 230 137<br />
	M : 07977 912 807<br />
	E : <span class="spamspan"><span class="u">enquiries</span> [at] <span class="d">keyframe.net</span></span><br />
	<a href="http://www.keyframe.net/sitemap">Site Map</a></p>
    </div>
  </div>
</div>  </div>
</div>  </div>
</div><div id="zone-coppyright-wrapper" class="zone-wrapper zone-coppyright-wrapper clearfix">  
  <div id="zone-coppyright" class="zone zone-coppyright clearfix footer-wrapper container-12">
    <div class="grid-6 region region-copyright-1" id="region-copyright-1">
  <div class="region-inner region-copyright-1-inner">
    <div class="block block-block block-1 block-block-1 odd block-without-title" id="block-block-1">
  <div class="block-inner clearfix">
                
    <div class="content clearfix">
      <div id="site-name-bottom"><em>&copy; copyright keyframe  2019</em></div>    </div>
  </div>
</div>  </div>
</div><div class="grid-6 region region-copyright-2" id="region-copyright-2">
  <div class="region-inner region-copyright-2-inner">
    <div class="block block-block block-10 block-block-10 odd block-without-title" id="block-block-10">
  <div class="block-inner clearfix">
                
    <div class="content clearfix">
      <!-- Start of StatCounter Code for Drupal --><script type="text/javascript">
var sc_project=11272796; 
var sc_invisible=1; 
var sc_security="c4144bbf"; 
var scJsHost = (("https:" == document.location.protocol) ?
"https://secure." : "http://www.");
document.write("<sc"+"ript type='text/javascript' src='" +
scJsHost+
"statcounter.com/counter/counter.js'></"+"script>");
</script><p><noscript><br />
<div class="statcounter"><a title="website<br />
statistics" href="http://statcounter.com/"<br />
target="_blank"><img class="statcounter"<br />
src="//c.statcounter.com/11272796/0/c4144bbf/0/"<br />
alt="website statistics"></a></div>
<p></noscript></p>
<!-- End of StatCounter Code for Drupal -->    </div>
  </div>
</div>  </div>
</div>  </div>
</div></footer>  </div>  <div class="region region-page-bottom" id="region-page-bottom">
  <div class="region-inner region-page-bottom-inner">
      </div>
</div></body>
</html>