<!DOCTYPE html>
<html lang="it" dir="ltr"
  xmlns:content="http://purl.org/rss/1.0/modules/content/"
  xmlns:dc="http://purl.org/dc/terms/"
  xmlns:foaf="http://xmlns.com/foaf/0.1/"
  xmlns:og="http://ogp.me/ns#"
  xmlns:rdfs="http://www.w3.org/2000/01/rdf-schema#"
  xmlns:sioc="http://rdfs.org/sioc/ns#"
  xmlns:sioct="http://rdfs.org/sioc/types#"
  xmlns:skos="http://www.w3.org/2004/02/skos/core#"
  xmlns:xsd="http://www.w3.org/2001/XMLSchema#">

<head profile="http://www.w3.org/1999/xhtml/vocab">
  <meta http-equiv="Content-Type" content="text/html; charset=utf-8" />
<meta name="HandheldFriendly" content="true" />
<meta name="viewport" content="width=device-width, initial-scale=1" />
<meta name="MobileOptimized" content="width" />
<link rel="shortlink" href="/node/9112" />
<meta name="Generator" content="Drupal 7 (http://drupal.org)" />
<link rel="canonical" href="/home" />
  <title>Benvenuti su lezioniprivate.net | lezioniprivate.net</title>
  <link type="text/css" rel="stylesheet" href="https://www.lezioniprivate.net/sites/default/files/css/css_xE-rWrJf-fncB6ztZfd2huxqgxu4WO-qwma6Xer30m4.css" media="all" />
<link type="text/css" rel="stylesheet" href="https://www.lezioniprivate.net/sites/default/files/css/css_kMSrNYaR6XWPfKGMlg_MLM0DDYLgMUgYJD38xz0SvvQ.css" media="all" />
<link type="text/css" rel="stylesheet" href="https://www.lezioniprivate.net/sites/default/files/css/css_5_XmyFnZP3_KhJjHHnGwFvAs7BpyZNQoTY0q0n8JBAI.css" media="all" />
<link type="text/css" rel="stylesheet" href="//maxcdn.bootstrapcdn.com/font-awesome/4.2.0/css/font-awesome.min.css" media="all" />
<link type="text/css" rel="stylesheet" href="//maxcdn.bootstrapcdn.com/bootstrap/3.3.2/css/bootstrap.min.css" media="all" />
<link type="text/css" rel="stylesheet" href="https://www.lezioniprivate.net/sites/default/files/css/css_9vS7KTziVXM6cOtv0jZFlm30ZZXGCzz9d4oZYdJnbf4.css" media="all" />
<style type="text/css" media="all">
<!--/*--><![CDATA[/*><!--*/
#sliding-popup.sliding-popup-bottom,#sliding-popup.sliding-popup-bottom .eu-cookie-withdraw-banner,.eu-cookie-withdraw-tab{background:#454545;}#sliding-popup.sliding-popup-bottom.eu-cookie-withdraw-wrapper{background:transparent}#sliding-popup .popup-content #popup-text h1,#sliding-popup .popup-content #popup-text h2,#sliding-popup .popup-content #popup-text h3,#sliding-popup .popup-content #popup-text p,.eu-cookie-compliance-more-button,.eu-cookie-compliance-secondary-button,.eu-cookie-withdraw-tab{color:#ffffff !important;}.eu-cookie-withdraw-tab{border-color:#ffffff;}

/*]]>*/-->
</style>
<link type="text/css" rel="stylesheet" href="https://www.lezioniprivate.net/sites/default/files/css/css_pM0O6L04EbvC3JejhLfR28nKewkMbN1sgUPwdvDlztg.css" media="all" />
<link type="text/css" rel="stylesheet" href="https://www.lezioniprivate.net/sites/all/themes/startupgrowth_lite/style-gray-orange.css?pwjf7p" media="all" />
<link type="text/css" rel="stylesheet" href="https://www.lezioniprivate.net/sites/all/themes/startupgrowth_lite/fonts/lato-font.css?pwjf7p" media="all" />
<link type="text/css" rel="stylesheet" href="https://www.lezioniprivate.net/sites/all/themes/startupgrowth_lite/fonts/sourcecodepro-font.css?pwjf7p" media="all" />
<link type="text/css" rel="stylesheet" href="https://www.lezioniprivate.net/sites/all/themes/startupgrowth_lite/fonts/ptserif-blockquote-font.css?pwjf7p" media="all" />

<!--[if (IE 9)&(!IEMobile)]>
<link type="text/css" rel="stylesheet" href="https://www.lezioniprivate.net/sites/all/themes/startupgrowth_lite/ie9.css?pwjf7p" media="all" />
<![endif]-->
<link type="text/css" rel="stylesheet" href="https://www.lezioniprivate.net/sites/default/files/css/css_gTxwYyktrlJgjL4iwXD8jBJP5ni3pwxdGWMXyt-dpcg.css" media="all" />

  <!-- HTML5 element support for IE6-8 -->
  <!--[if lt IE 9]>
    <script src="//html5shiv.googlecode.com/svn/trunk/html5.js"></script>
  <![endif]-->
  <script type="text/javascript" src="//code.jquery.com/jquery-1.10.2.min.js"></script>
<script type="text/javascript">
<!--//--><![CDATA[//><!--
window.jQuery || document.write("<script src='/sites/all/modules/jquery_update/replace/jquery/1.10/jquery.min.js'>\x3C/script>")
//--><!]]>
</script>
<script type="text/javascript" src="https://www.lezioniprivate.net/misc/jquery.once.js?v=1.2"></script>
<script type="text/javascript" src="https://www.lezioniprivate.net/misc/drupal.js?pwjf7p"></script>
<script type="text/javascript" src="https://www.lezioniprivate.net/sites/all/modules/eu_cookie_compliance/js/jquery.cookie-1.4.1.min.js?v=1.4.1"></script>
<script type="text/javascript" src="https://www.lezioniprivate.net/sites/all/modules/simpleads/simpleads.js?pwjf7p"></script>
<script type="text/javascript" src="https://www.lezioniprivate.net/sites/default/files/languages/it_nrg9Hpx7w1ZIAILnIF2d2IfynLCbzt2Ii7lrLdfLZJo.js?pwjf7p"></script>
<script type="text/javascript" src="https://www.lezioniprivate.net/sites/all/modules/extlink/extlink.js?pwjf7p"></script>
<script type="text/javascript">
<!--//--><![CDATA[//><!--
function euCookieComplianceLoadScripts() {
          var scriptTag = document.createElement('script');
          scriptTag.src = 'https://www.google-analytics.com/analytics.js';
          document.body.appendChild(scriptTag);
        }
//--><!]]>
</script>
<script type="text/javascript">
<!--//--><![CDATA[//><!--
var eu_cookie_compliance_cookie_name = "cookie-agreed";
//--><!]]>
</script>
<script type="text/javascript" src="https://www.lezioniprivate.net/modules/openid/openid.js?pwjf7p"></script>
<script type="text/javascript" src="//maxcdn.bootstrapcdn.com/bootstrap/3.3.2/js/bootstrap.min.js"></script>
<script type="text/javascript" src="https://www.lezioniprivate.net/sites/all/themes/startupgrowth_lite/js/meanmenu/jquery.meanmenu.min.js?pwjf7p"></script>
<script type="text/javascript">
<!--//--><![CDATA[//><!--
jQuery(document).ready(function($) {

			$("#main-navigation .sf-menu, #main-navigation .content>ul.menu, #main-navigation ul.main-menu").wrap("<div class='meanmenu-wrapper'></div>");
			$("#main-navigation .meanmenu-wrapper").meanmenu({
				meanScreenWidth: "767",
				meanRemoveAttrs: true,
				meanMenuContainer: "#header-inside",
				meanMenuClose: ""
			});

		});
//--><!]]>
</script>
<script type="text/javascript" src="https://www.lezioniprivate.net/sites/all/themes/startupgrowth_lite/js/jquery.browser.min.js?pwjf7p"></script>
<script type="text/javascript" src="https://www.lezioniprivate.net/sites/all/modules/eu_cookie_compliance/js/eu_cookie_compliance.js?pwjf7p"></script>
<script type="text/javascript">
<!--//--><![CDATA[//><!--
jQuery.extend(Drupal.settings, {"basePath":"\/","pathPrefix":"","ajaxPageState":{"theme":"startupgrowth_lite","theme_token":"qXPrPFAsk9SnxUWpaLOsQrvC8tVXeWCoyQg6gc4xAbo","js":{"\/\/code.jquery.com\/jquery-1.10.2.min.js":1,"0":1,"misc\/jquery.once.js":1,"misc\/drupal.js":1,"sites\/all\/modules\/eu_cookie_compliance\/js\/jquery.cookie-1.4.1.min.js":1,"sites\/all\/modules\/simpleads\/simpleads.js":1,"public:\/\/languages\/it_nrg9Hpx7w1ZIAILnIF2d2IfynLCbzt2Ii7lrLdfLZJo.js":1,"sites\/all\/modules\/extlink\/extlink.js":1,"1":1,"2":1,"modules\/openid\/openid.js":1,"\/\/maxcdn.bootstrapcdn.com\/bootstrap\/3.3.2\/js\/bootstrap.min.js":1,"sites\/all\/themes\/startupgrowth_lite\/js\/meanmenu\/jquery.meanmenu.min.js":1,"3":1,"sites\/all\/themes\/startupgrowth_lite\/js\/jquery.browser.min.js":1,"sites\/all\/modules\/eu_cookie_compliance\/js\/eu_cookie_compliance.js":1},"css":{"modules\/system\/system.base.css":1,"modules\/system\/system.menus.css":1,"modules\/system\/system.messages.css":1,"modules\/system\/system.theme.css":1,"modules\/comment\/comment.css":1,"sites\/all\/modules\/date\/date_api\/date.css":1,"sites\/all\/modules\/date\/date_popup\/themes\/datepicker.1.7.css":1,"modules\/field\/theme\/field.css":1,"sites\/all\/modules\/logintoboggan\/logintoboggan.css":1,"modules\/node\/node.css":1,"modules\/search\/search.css":1,"sites\/all\/modules\/simpleads\/simpleads.css":1,"modules\/user\/user.css":1,"sites\/all\/modules\/views\/css\/views.css":1,"sites\/all\/modules\/ckeditor\/ckeditor.css":1,"sites\/all\/modules\/ctools\/css\/ctools.css":1,"sites\/all\/modules\/extlink\/extlink.css":1,"sites\/all\/modules\/eu_cookie_compliance\/css\/eu_cookie_compliance.css":1,"modules\/openid\/openid.css":1,"\/\/maxcdn.bootstrapcdn.com\/font-awesome\/4.2.0\/css\/font-awesome.min.css":1,"\/\/maxcdn.bootstrapcdn.com\/bootstrap\/3.3.2\/css\/bootstrap.min.css":1,"sites\/all\/themes\/startupgrowth_lite\/js\/meanmenu\/meanmenu.css":1,"0":1,"sites\/all\/themes\/startupgrowth_lite\/style.css":1,"sites\/all\/themes\/startupgrowth_lite\/style-gray-orange.css":1,"sites\/all\/themes\/startupgrowth_lite\/fonts\/lato-font.css":1,"sites\/all\/themes\/startupgrowth_lite\/fonts\/sourcecodepro-font.css":1,"sites\/all\/themes\/startupgrowth_lite\/fonts\/ptserif-blockquote-font.css":1,"sites\/all\/themes\/startupgrowth_lite\/ie9.css":1,"sites\/all\/themes\/startupgrowth_lite\/local.css":1}},"simpleads":{"url":{"ckeditor":"\/simpleads\/dashboard\/ckeditor"},"modulepath":"sites\/all\/modules\/simpleads"},"extlink":{"extTarget":0,"extClass":"ext","extSubdomains":1,"extExclude":"","extInclude":"","extAlert":0,"extAlertText":"This link will take you to an external web site. We are not responsible for their content.","mailtoClass":"mailto"},"urlIsAjaxTrusted":{"\/risultati-annunci":true,"\/home?destination=node\/9112":true},"eu_cookie_compliance":{"popup_enabled":1,"popup_agreed_enabled":0,"popup_hide_agreed":0,"popup_clicking_confirmation":false,"popup_scrolling_confirmation":false,"popup_html_info":"\u003Cdiv\u003E\n  \u003Cdiv class =\u0022popup-content info\u0022\u003E\n    \u003Cdiv id=\u0022popup-text\u0022\u003E\n      \u003Cp\u003E\u003Cspan style=\u0022font-size:16px;\u0022\u003E\u003Cstrong\u003EQuesto sito utilizza cookie per alcune funzionalit\u00e0.\u003C\/strong\u003E\u003C\/span\u003E\u003C\/p\u003E\n\u003Cp\u003E\u003Cspan style=\u0022font-size:16px;\u0022\u003EIl sito usa soprattutto cookie\u00a0\u003C\/span\u003E\u003Cspan style=\u0022font-size: 16px;\u0022\u003Eessenziali, funzionali e prestazionali\u003C\/span\u003E\u003Cspan style=\u0022font-size: 16px;\u0022\u003E. I cookie funzionali servono anche a gestire lo stesso consenso ai cookie e non possono quindi essere disabilitati.\u003Cbr \/\u003E\tIl sito usa anche un cookie potenzialmente sensibile per il form di contatto e plugin di siti terzi (Google, Youtube) che potrebbero installare cookie di \u003C\/span\u003E\u003Cspan style=\u0022font-size:16px;\u0022\u003Eprofilazione. Usando i pulsanti a lato, \u00e8 possibile accettare o rifiutare tali cookie.\u003C\/span\u003E\u003C\/p\u003E\n\u003Cp\u003E\u003Cspan style=\u0022font-size:16px;\u0022\u003EIl sito funziona anche per l\u0027utente che rifiuta i cookie ma alcuni blocchi e funzionalita non saranno attivi.\u00a0\u003C\/span\u003E\u003C\/p\u003E\n\u003Cp\u003E\u003Cspan style=\u0022font-size:16px;\u0022\u003E\u003Cspan style=\u0022font-size:16px;\u0022\u003EPer rmaggiori informazioni sui cookie, cliccate su \u0022Ulteriori informazioni\u0022.\u003Cbr \/\u003E\tPer maggiori informazioni sull\u0027uso dei dati,\u00a0leggete anche la nostra sintetica \u003Cstrong\u003E\u003Ca href=\u0022\/privacy-policy\u0022\u003EPrivacy policy\u003C\/a\u003E\u003C\/strong\u003E.\u003C\/span\u003E\u003C\/span\u003E\u003C\/p\u003E\n\u003Cp\u003E\u00a0\u003C\/p\u003E\n              \u003Cbutton type=\u0022button\u0022 class=\u0022find-more-button eu-cookie-compliance-more-button\u0022\u003EUlteriori informazioni\u003C\/button\u003E\n          \u003C\/div\u003E\n    \u003Cdiv id=\u0022popup-buttons\u0022\u003E\n      \u003Cbutton type=\u0022button\u0022 class=\u0022agree-button eu-cookie-compliance-secondary-button\u0022\u003EAcconsento\u003C\/button\u003E\n              \u003Cbutton type=\u0022button\u0022 class=\u0022decline-button eu-cookie-compliance-default-button\u0022 \u003ERifiuto\u003C\/button\u003E\n          \u003C\/div\u003E\n  \u003C\/div\u003E\n\u003C\/div\u003E","use_mobile_message":false,"mobile_popup_html_info":"\u003Cdiv\u003E\n  \u003Cdiv class =\u0022popup-content info\u0022\u003E\n    \u003Cdiv id=\u0022popup-text\u0022\u003E\n                    \u003Cbutton type=\u0022button\u0022 class=\u0022find-more-button eu-cookie-compliance-more-button\u0022\u003EUlteriori informazioni\u003C\/button\u003E\n          \u003C\/div\u003E\n    \u003Cdiv id=\u0022popup-buttons\u0022\u003E\n      \u003Cbutton type=\u0022button\u0022 class=\u0022agree-button eu-cookie-compliance-secondary-button\u0022\u003EAcconsento\u003C\/button\u003E\n              \u003Cbutton type=\u0022button\u0022 class=\u0022decline-button eu-cookie-compliance-default-button\u0022 \u003ERifiuto\u003C\/button\u003E\n          \u003C\/div\u003E\n  \u003C\/div\u003E\n\u003C\/div\u003E\n","mobile_breakpoint":"768","popup_html_agreed":"\u003Cdiv\u003E\n  \u003Cdiv class =\u0022popup-content agreed\u0022\u003E\n    \u003Cdiv id=\u0022popup-text\u0022\u003E\n      \u003Cp\u003EGrazie, cliccando su questo link avete acconsentito all\u0027utilizzo dei cookie.\u003C\/p\u003E\n    \u003C\/div\u003E\n    \u003Cdiv id=\u0022popup-buttons\u0022\u003E\n      \u003Cbutton type=\u0022button\u0022 class=\u0022hide-popup-button eu-cookie-compliance-hide-button\u0022\u003ENascondi\u003C\/button\u003E\n              \u003Cbutton type=\u0022button\u0022 class=\u0022find-more-button eu-cookie-compliance-more-button-thank-you\u0022 \u003EUlteriori informazioni\u003C\/button\u003E\n          \u003C\/div\u003E\n  \u003C\/div\u003E\n\u003C\/div\u003E","popup_use_bare_css":false,"popup_height":"auto","popup_width":"100%","popup_delay":1000,"popup_link":"http:\/\/lezioniprivate.net\/condizioni-generali-del-servizio#privacy","popup_link_new_window":1,"popup_position":null,"popup_language":"it","store_consent":true,"better_support_for_screen_readers":0,"reload_page":1,"domain":"","popup_eu_only_js":0,"cookie_lifetime":"365","cookie_session":false,"disagree_do_not_show_popup":0,"method":"opt_in","whitelisted_cookies":"","withdraw_markup":"\u003Cbutton type=\u0022button\u0022 class=\u0022eu-cookie-withdraw-tab\u0022\u003ECookie policy\u003C\/button\u003E\n\u003Cdiv class=\u0022eu-cookie-withdraw-banner\u0022\u003E\n  \u003Cdiv class=\u0022popup-content info\u0022\u003E\n    \u003Cdiv id=\u0022popup-text\u0022\u003E\n      \u003Cp\u003E\u003Cspan style=\u0022font-size:16px;\u0022\u003EQuesto sito utilizza cookie. Puoi cambiare dare \/ revocare il consenso ai cookie quando vuoi. Attualmente, la tua impostazione \u0026egrave; che i cookie \u003C\/span\u003E\u003Cb\u003E\u003Cspan style=\u0022font-size:16px;\u0022 id=\u0022cookie-consent\u0022\u003E\u003C\/span\u003E\u003C\/b\u003E\u003Cspan style=\u0022font-size:16px;\u0022\u003E sono consentiti. Puoi in qualsiasi momento cambiare impostazione cliccando sul pulsante a lato.\u003C\/span\u003E\u003C\/p\u003E\u003Cp\u003ERead our \u003Ca href=\u0022\/condizioni-generali-del-servizio#privacy\u0022\u003Ecookie policy\u003C\/a\u003E.\u003C\/p\u003E\u003Cscript language=\u0022javascript\u0022\u003Eif (Drupal.eu_cookie_compliance.hasAgreed())  document.getElementById(\u0022cookie-consent\u0022).innerText = \u0022\u0022;else  document.getElementById(\u0022cookie-consent\u0022).innerText = \u0022non\u0022;\u003C\/script\u003E    \u003C\/div\u003E\n    \u003Cdiv id=\u0022popup-buttons\u0022\u003E\n      \u003Cbutton type=\u0022button\u0022 class=\u0022eu-cookie-withdraw-button\u0022\u003ECambia impostazione\u003C\/button\u003E\n    \u003C\/div\u003E\n  \u003C\/div\u003E\n\u003C\/div\u003E\n","withdraw_enabled":1}});
//--><!]]>
</script>
</head>
<body class="html front not-logged-in two-sidebars page-node page-node- page-node-9112 node-type-page no-banner sff-7 slff-7 hff-7 pff-7 form-style-1 wide" >
  <div id="skip-link">
    <a href="#main-content" class="element-invisible element-focusable">Salta al contenuto principale</a>
  </div>
    <!-- #page-container -->
<div id="page-container">

    
    <!-- #header -->
    <header id="header"  role="banner" class="clearfix">
        <div class="container">

            <!-- #header-inside -->
            <div id="header-inside" class="clearfix">
                <div class="row">

                    <div class="col-md-4">
                        <!-- #header-inside-left -->
                        <div id="header-inside-left" class="clearfix">

                        
                                                <div id="site-name">
                        <a href="/" title="Home">lezioniprivate.net</a>
                        </div>
                        
                                                <div id="site-slogan">
                        Il portale gratuito per chi cerca e offre lezioni private                        </div>
                        
                          

                        </div>
                        <!-- EOF:#header-inside-left -->
                    </div>

                    <div class="col-md-8">
                        <!-- #header-inside-right -->
                        <div id="header-inside-right" class="clearfix">

                            
                            <!-- #main-navigation -->
                            <div id="main-navigation" class="clearfix ">
                                <nav role="navigation"> 
                                                                        <div id="main-menu">
                                    <h2 class="element-invisible">Menu principale</h2><ul class="main-menu menu"><li class="menu-264 first active"><a href="/" class="active">Home</a></li>
<li class="menu-474"><a href="/about" title="">Informazioni</a></li>
<li class="menu-443"><a href="/annunci" title="">Ricerca avanzata annunci</a></li>
<li class="menu-475 last"><a href="/contact" title="">Contattaci</a></li>
</ul>                                    </div>
                                                                    </nav>
                            </div>
                            <!-- EOF: #main-navigation -->

                        </div>
                        <!-- EOF:#header-inside-right -->                        
                    </div>

                </div>
            </div>
            <!-- EOF: #header-inside -->

        </div>
    </header>
    <!-- EOF: #header -->

    
        

    <!-- #page -->
    <div id="page" class="clearfix">

        <!-- #messages-console -->
                <!-- EOF: #messages-console -->

        
        
        <!-- #main-content -->
        <div id="main-content">
            <div class="container">

                <div class="row">

                                        <aside class="col-md-3 only-desktop">
                        <!--#sidebar-->
                        <section id="sidebar-first" class="sidebar clearfix">
                          <div class="region region-sidebar-first">
    <div id="block-views-amministrazione-utenti-block-2" class="block block-views clearfix">

    <h2 class="title">Numeri</h2>
  
  <div class="content">
    <div class="view view-amministrazione-utenti view-id-amministrazione_utenti view-display-id-block_2 view-dom-id-8b4462f38338337b07633c1a8df9bd1d">
        
  
  
      <div class="view-content">
        <div class="views-row views-row-1 views-row-odd views-row-first views-row-last">
      
  <div>    <span>Utenti attivi: </span>    <span>20666</span>  </div>  </div>
    </div>
  
  
  
  
  
  
</div>  </div>
</div>
<div id="block-views-users-administration-block-2" class="block block-views clearfix">

    
  <div class="content">
    <div class="view view-users-administration view-id-users_administration view-display-id-block_2 view-dom-id-fecd33b18c44a48a19c87b5406ebe600">
        
  
  
      <div class="view-content">
        <div class="views-row views-row-1 views-row-odd views-row-first views-row-last">
      
  <div class="views-field views-field-nid">    <span class="views-label views-label-nid">Annunci pubblicati: </span>    <span class="field-content">28301</span>  </div>  </div>
    </div>
  
  
  
  
  
  
</div>  </div>
</div>
<div id="block-views-3c9c28ae3910cfbd5351b244c37e6af9" class="block block-views clearfix">

    <h2 class="title">Cerca tra gli annunci</h2>
  
  <div class="content">
    <form action="/risultati-annunci" method="get" id="views-exposed-form-users-administration-page-3" accept-charset="UTF-8"><div><div class="views-exposed-form">
  <div class="views-exposed-widgets clearfix">
          <div id="edit-field-tipo-annuncio-value-wrapper" class="views-exposed-widget views-widget-filter-field_tipo_annuncio_value">
                  <label for="edit-field-tipo-annuncio-value">
            Tipo di annuncio          </label>
                        <div class="views-widget">
          <div class="form-item form-type-select form-item-field-tipo-annuncio-value">
 <select id="edit-field-tipo-annuncio-value" name="field_tipo_annuncio_value" class="form-select"><option value="All" selected="selected">- Qualsiasi -</option><option value="1">Offerta</option><option value="0">Richiesta</option></select>
</div>
        </div>
              </div>
          <div id="edit-tid-wrapper" class="views-exposed-widget views-widget-filter-tid">
                  <label for="edit-tid">
            Provincia          </label>
                        <div class="views-widget">
          <div class="form-item form-type-select form-item-tid">
 <select id="edit-tid" name="tid" class="form-select"><option value="All" selected="selected">- Qualsiasi -</option><option value="444">- N/A</option><option value="92">AG</option><option value="104">AL</option><option value="191">AN</option><option value="256">AO</option><option value="169">AP</option><option value="63">AQ</option><option value="338">AR</option><option value="202">AT</option><option value="344">AV</option><option value="166">BA</option><option value="38">BG</option><option value="195">BI</option><option value="358">BL</option><option value="115">BN</option><option value="28">BO</option><option value="290">BR</option><option value="44">BS</option><option value="357">BZ</option><option value="18">CA</option><option value="355">CB</option><option value="42">CE</option><option value="141">CH</option><option value="348">CL</option><option value="154">CN</option><option value="136">CO</option><option value="137">CR</option><option value="99">CS</option><option value="22">CT</option><option value="165">CZ</option><option value="113">EN</option><option value="121">FC</option><option value="212">FE</option><option value="193">FG</option><option value="40">FI</option><option value="268">FM</option><option value="132">FR</option><option value="46">GE</option><option value="140">GO</option><option value="278">GR</option><option value="220">IM</option><option value="432">IS</option><option value="447">KR</option><option value="180">LC</option><option value="131">LE</option><option value="199">LI</option><option value="64">LO</option><option value="164">LT</option><option value="217">LU</option><option value="275">MB</option><option value="157">MC</option><option value="43">ME</option><option value="41">MI</option><option value="247">MN</option><option value="192">MO</option><option value="134">MS</option><option value="222">MT</option><option value="65">NA</option><option value="105">NO</option><option value="250">NU</option><option value="359">OR</option><option value="59">PA</option><option value="214">PC</option><option value="122">PD</option><option value="228">PE</option><option value="83">PG</option><option value="97">PI</option><option value="135">PN</option><option value="55">PO</option><option value="94">PR</option><option value="36">PS</option><option value="168">PT</option><option value="204">PU</option><option value="93">PV</option><option value="248">PZ</option><option value="238">RA</option><option value="175">RC</option><option value="8">RE</option><option value="254">RG</option><option value="188">RI</option><option value="26">RM</option><option value="243">RN</option><option value="356">RO</option><option value="101">SA</option><option value="127">SI</option><option value="194">SO</option><option value="232">SP</option><option value="279">SR</option><option value="203">SS</option><option value="321">SV</option><option value="236">TA</option><option value="215">TE</option><option value="219">TN</option><option value="50">TO</option><option value="201">TP</option><option value="265">TR</option><option value="246">TS</option><option value="185">TV</option><option value="143">UD</option><option value="125">VA</option><option value="142">VB</option><option value="66">VC</option><option value="35">VE</option><option value="58">VI</option><option value="11">VR</option><option value="183">VT</option><option value="308">VV</option></select>
</div>
        </div>
              </div>
          <div id="edit-field-categoria-tid-wrapper" class="views-exposed-widget views-widget-filter-field_categoria_tid">
                  <label for="edit-field-categoria-tid">
            Categoria          </label>
                        <div class="views-widget">
          <div class="form-item form-type-select form-item-field-categoria-tid">
 <select id="edit-field-categoria-tid" name="field_categoria_tid" class="form-select"><option value="All" selected="selected">- Qualsiasi -</option><option value="394">--</option><option value="436">Arti e mestieri</option><option value="431">-Artigianato / falegnameria</option><option value="428">-Pittura e scultura</option><option value="426">-Varie / altri mestieri</option><option value="437">Danza</option><option value="379">-Balli latini</option><option value="380">-Danza classica</option><option value="421">-Danza moderna</option><option value="429">-Liscio</option><option value="422">-Varie / altri tipi di danza</option><option value="438">Hobbies</option><option value="374">-Cucina</option><option value="375">-Giochi di carte</option><option value="423">-Varie / altri hobby</option><option value="434">Informatica</option><option value="406">-Applicativi gestionali</option><option value="399">-Grafica</option><option value="370">-Linguaggi web</option><option value="411">-Programmazione</option><option value="405">-Utilizzo del pc</option><option value="418">-Varie / altre materie informatiche</option><option value="435">Lingue</option><option value="416">-Cinese</option><option value="387">-Francese</option><option value="377">-Inglese</option><option value="415">-Russo</option><option value="378">-Spagnolo</option><option value="425">-Tedesco</option><option value="396">-Varie / altre lingue</option><option value="439">Materie scolastiche</option><option value="381">-Italiano</option><option value="401">-Latino / greco</option><option value="384">-Matematica</option><option value="388">-Varie / altre materie scolastiche</option><option value="440">Materie universitarie</option><option value="408">-Chimica</option><option value="410">-Economia</option><option value="385">-Giurisprudenza e sc. politiche</option><option value="402">-Matematica e fisica</option><option value="404">-Varie / altre materie universitarie</option><option value="441">Musica</option><option value="372">-Canto</option><option value="373">-Chitarra</option><option value="398">-Pianoforte</option><option value="403">-Varie / altri strumenti</option><option value="442">Recitazione e simili</option><option value="376">-Recitazione, mimo, magia</option></select>
</div>
        </div>
              </div>
          <div id="edit-combine-wrapper" class="views-exposed-widget views-widget-filter-combine">
                  <label for="edit-combine">
            Testo          </label>
                        <div class="views-widget">
          <div class="form-item form-type-textfield form-item-combine">
 <input type="text" id="edit-combine" name="combine" value="" size="30" maxlength="128" class="form-text" />
</div>
        </div>
              </div>
                    <div class="views-exposed-widget views-submit-button">
      <input type="submit" id="edit-submit-users-administration" name="" value="Cerca" class="form-submit" />    </div>
          <div class="views-exposed-widget views-reset-button">
        <input type="submit" id="edit-reset" name="op" value="Annulla ricerca" class="form-submit" />      </div>
      </div>
</div>
</div></form>  </div>
</div>
<div id="block-block-1" class="block block-block clearfix">

    <h2 class="title">Mappa regioni</h2>
  
  <div class="content">
    <p class="rtecenter"><span style="color:#800000;"><strong><em>Mappa cliccabile regioni</em></strong></span><br />
	<a href="/node/18512"><img alt="Mappa regioni" src="/sites/default/files/images/italiaxx-min.gif" style="margin-left: 30px; margin-right: 30px; width: 107px; height: 123px; " /></a></p>

<script language="JavaScript" type="text/javascript">
<!--
sel = document.getElementById("edit-field-categoria-tid");
if (sel != null) {
  for (i=0;i<sel.options.length;i++) {
    if (sel.options[i].text.indexOf("-") != 0)
	  sel.options[i].setAttribute("disabled","true"); 
  }
}
//-->
</script>
  </div>
</div>
  </div>
                        </section>
                        <!--EOF:#sidebar-->
                    </aside>
                    
                    <section class="col-md-6">

                        <!-- #main -->
                        <div id="main" class="clearfix">

                                                        <h1 class="title" id="page-title">Benvenuti su lezioniprivate.net</h1>                            
                            <!-- #tabs -->
                                                            <div class="tabs">
                                                                </div>
                                                        <!-- EOF: #tabs -->

                            
                            <!-- #action links -->
                                                        <!-- EOF: #action links -->

                             
                              <div class="region region-content">
    <div id="block-system-main" class="block block-system clearfix">

    
  <div class="content">
    <article id="node-9112" class="node node-page clearfix" about="/home" typeof="foaf:Document">
            <div class="node-main-content full-width">
            <header>
                  <span property="dc:title" content="Benvenuti su lezioniprivate.net" class="rdf-meta element-hidden"></span>
              
       

    </header>
    
    <div class="content">
      <div class="field field-name-body field-type-text-with-summary field-label-hidden"><div class="field-items"><div class="field-item even" property="content:encoded"><div>
	<b>LEZIONIPRIVATE.NET E' UN PORTALE AD ISCRIZIONE GRATUITA</b> per chi offre e per chi cerca lezioni private in qualsiasi disciplina o materia e in qualsiasi regione d'Italia.</div>
<div class="rteright">
	<a href="about">più informazioni &gt;&gt;</a>    </div>
<div>
	 </div>
<div>
	<strong><span style="font-size:18px;">Per inserire annunci, dovete essere utenti registrati del sito ed effettuare il login. Se non siete registrati, <a href="/user/register"><span style="color:#b22222;">registratevi qui</span></a>. Se siete già registrati, effettuate il login nel riquadro a destra.</span></strong></div>
</div></div></div>    </div>

  			
    
      </div>

</article>  </div>
</div>
<div id="block-views-users-administration-block-1" class="block block-views clearfix">

    <h2 class="title">Ultimi annunci inseriti</h2>
  
  <div class="content">
    <div class="view view-users-administration view-id-users_administration view-display-id-block_1 view-dom-id-62b87c0d3483cc17e2537d3aa9f6f1c3">
        
  
  
      <div class="view-content">
        <div class="views-row views-row-1 views-row-odd views-row-first node-not-sticky">
      
  <div class="views-field views-field-title">        <span class="field-content"><a href="/annunci/ripetizioni-materie-umanistiche-domicilio-massima-serieta">RIPETIZIONI IN MATERIE UMANISTICHE A DOMICILIO  - MASSIMA SERIETA&#039; -</a></span>  </div>  
  <div class="views-field views-field-body">        <span class="field-content">TUTOR ottima esperienza nell'insegnamento con più di 20 anni di carriera e formazione impartisce lezioni di italiano, storia, filosofia, storia dell'arte per gli studenti delle scuole superiori. Preparazione ai corsi universitari per gli...</span>  </div>  
  <div class="views-field views-field-field-provincia">        <div class="field-content">01/12/2019 - RM</div>  </div>  </div>
  <div class="views-row views-row-2 views-row-even node-not-sticky">
      
  <div class="views-field views-field-title">        <span class="field-content"><a href="/annunci/lezioni-di-chimica-e-fisica">Lezioni di chimica e fisica</a></span>  </div>  
  <div class="views-field views-field-body">        <span class="field-content">Ingegnere con esperienza di insegnamento, offre lezioni private in chimica e fisica per ragazzi di I e II superiore. Zone: Pesaro, Cattolica ed entroterra per 20 Km.&#13;
&#13;
30€ per lezione di 2 ore, a domicilio dello studente. Appunti ed esercitazioni...</span>  </div>  
  <div class="views-field views-field-field-provincia">        <div class="field-content">30/11/2019 - PU</div>  </div>  </div>
  <div class="views-row views-row-3 views-row-odd node-not-sticky">
      
  <div class="views-field views-field-title">        <span class="field-content"><a href="/annunci/realizza-il-tuo-progetto-sicurezza-2">Realizza il tuo progetto in sicurezza</a></span>  </div>  
  <div class="views-field views-field-body">        <span class="field-content">Buongiorno Hai bisogno di aiuto fino a 5.000.000 di euro. Contatta questa email per ulteriori informazioni: Email: info@anlagekredite.com WhatsApp: 00393801988347 https://anlagekredite.com/ grazie</span>  </div>  
  <div class="views-field views-field-field-provincia">        <div class="field-content">30/11/2019 - LO</div>  </div>  </div>
  <div class="views-row views-row-4 views-row-even node-not-sticky">
      
  <div class="views-field views-field-title">        <span class="field-content"><a href="/annunci/realizza-il-tuo-progetto-sicurezza-1">Realizza il tuo progetto in sicurezza</a></span>  </div>  
  <div class="views-field views-field-body">        <span class="field-content">Buongiorno&#13;
&#13;
Hai bisogno di aiuto fino a 5.000.000 di euro. Contatta questa email per ulteriori informazioni:&#13;
Email: info@anlagekredite.com&#13;
&#13;
WhatsApp: 00393801988347&#13;
&#13;
https://anlagekredite.com/&#13;
&#13;
grazie</span>  </div>  
  <div class="views-field views-field-field-provincia">        <div class="field-content">30/11/2019 - BA</div>  </div>  </div>
  <div class="views-row views-row-5 views-row-odd views-row-last node-not-sticky">
      
  <div class="views-field views-field-title">        <span class="field-content"><a href="/annunci/lezioni-inglese-20">Lezioni inglese</a></span>  </div>  
  <div class="views-field views-field-body">        <span class="field-content">Laureata in lingue impartisce ripetizioni di lingua e -o letteratura inglese ad alunna scuola media e superiore .</span>  </div>  
  <div class="views-field views-field-field-provincia">        <div class="field-content">30/11/2019 - CR</div>  </div>  </div>
    </div>
  
  
  
      
<div class="more-link">
  <a href="/annunci">
    vedi tutti  </a>
</div>
  
  
  
</div>  </div>
</div>
<div id="block-views-cf112158566218b4ea4ad4ccdb2edc30" class="block block-views clearfix">

    <h2 class="title">Ultimi utenti attivi</h2>
  
  <div class="content">
    <div class="view view-amministrazione-utenti view-id-amministrazione_utenti view-display-id-block_usershome view-dom-id-810792c61776e2e36e6a4ba4c12d4835">
        
  
  
      <div class="view-content">
      <div class="item-list">    <ul>          <li class="views-row views-row-1 views-row-odd views-row-first">  
  <span class="views-field views-field-field-alias">        <span class="field-content"><i>"likamadova"</i></span>  </span>       -   
  <span class="views-field views-field-field-provincia">        <span class="field-content">PE</span>  </span>       -   
  <span class="views-field views-field-created">        <span class="field-content">01/12/2019</span>  </span></li>
          <li class="views-row views-row-2 views-row-even">  
  <span class="views-field views-field-field-alias">        <span class="field-content"><i>"Inhaway"</i></span>  </span>       -   
  <span class="views-field views-field-field-provincia">        <span class="field-content">PO</span>  </span>       -   
  <span class="views-field views-field-created">        <span class="field-content">01/12/2019</span>  </span></li>
          <li class="views-row views-row-3 views-row-odd">  
  <span class="views-field views-field-field-alias">        <span class="field-content"><i>"Matteo Terenzi"</i></span>  </span>       -   
  <span class="views-field views-field-field-provincia">        <span class="field-content">PU</span>  </span>       -   
  <span class="views-field views-field-created">        <span class="field-content">30/11/2019</span>  </span></li>
          <li class="views-row views-row-4 views-row-even views-row-last">  
  <span class="views-field views-field-field-alias">        <span class="field-content"><i>"Anlage Kredite"</i></span>  </span>       -   
  <span class="views-field views-field-field-provincia">        <span class="field-content">AR</span>  </span>       -   
  <span class="views-field views-field-created">        <span class="field-content">30/11/2019</span>  </span></li>
      </ul></div>    </div>
  
  
  
      
<div class="more-link">
  <a href="/utenti">
    vedi tutti  </a>
</div>
  
  
  
</div>  </div>
</div>
  </div>
                                                        
                        </div>
                        <!-- EOF:#main -->

                    </section>

                                        <aside class="col-md-3 only-mobile">
                        <!--#sidebar-->
                        <section id="sidebar-first-mobile" class="sidebar clearfix">
                          <div class="region region-sidebar-first">
      <div class="region region-sidebar-first">
    <div id="block-views-amministrazione-utenti-block-2" class="block block-views clearfix">

    <h2 class="title">Numeri</h2>
  
  <div class="content">
    <div class="view view-amministrazione-utenti view-id-amministrazione_utenti view-display-id-block_2 view-dom-id-8b4462f38338337b07633c1a8df9bd1d">
        
  
  
      <div class="view-content">
        <div class="views-row views-row-1 views-row-odd views-row-first views-row-last">
      
  <div>    <span>Utenti attivi: </span>    <span>20666</span>  </div>  </div>
    </div>
  
  
  
  
  
  
</div>  </div>
</div>
<div id="block-views-users-administration-block-2" class="block block-views clearfix">

    
  <div class="content">
    <div class="view view-users-administration view-id-users_administration view-display-id-block_2 view-dom-id-fecd33b18c44a48a19c87b5406ebe600">
        
  
  
      <div class="view-content">
        <div class="views-row views-row-1 views-row-odd views-row-first views-row-last">
      
  <div class="views-field views-field-nid">    <span class="views-label views-label-nid">Annunci pubblicati: </span>    <span class="field-content">28301</span>  </div>  </div>
    </div>
  
  
  
  
  
  
</div>  </div>
</div>
<div id="block-views-3c9c28ae3910cfbd5351b244c37e6af9" class="block block-views clearfix">

    <h2 class="title">Cerca tra gli annunci</h2>
  
  <div class="content">
    <form action="/risultati-annunci" method="get" id="views-exposed-form-users-administration-page-3" accept-charset="UTF-8"><div><div class="views-exposed-form">
  <div class="views-exposed-widgets clearfix">
          <div id="edit-field-tipo-annuncio-value-wrapper" class="views-exposed-widget views-widget-filter-field_tipo_annuncio_value">
                  <label for="edit-field-tipo-annuncio-value">
            Tipo di annuncio          </label>
                        <div class="views-widget">
          <div class="form-item form-type-select form-item-field-tipo-annuncio-value">
 <select id="edit-field-tipo-annuncio-value" name="field_tipo_annuncio_value" class="form-select"><option value="All" selected="selected">- Qualsiasi -</option><option value="1">Offerta</option><option value="0">Richiesta</option></select>
</div>
        </div>
              </div>
          <div id="edit-tid-wrapper" class="views-exposed-widget views-widget-filter-tid">
                  <label for="edit-tid">
            Provincia          </label>
                        <div class="views-widget">
          <div class="form-item form-type-select form-item-tid">
 <select id="edit-tid" name="tid" class="form-select"><option value="All" selected="selected">- Qualsiasi -</option><option value="444">- N/A</option><option value="92">AG</option><option value="104">AL</option><option value="191">AN</option><option value="256">AO</option><option value="169">AP</option><option value="63">AQ</option><option value="338">AR</option><option value="202">AT</option><option value="344">AV</option><option value="166">BA</option><option value="38">BG</option><option value="195">BI</option><option value="358">BL</option><option value="115">BN</option><option value="28">BO</option><option value="290">BR</option><option value="44">BS</option><option value="357">BZ</option><option value="18">CA</option><option value="355">CB</option><option value="42">CE</option><option value="141">CH</option><option value="348">CL</option><option value="154">CN</option><option value="136">CO</option><option value="137">CR</option><option value="99">CS</option><option value="22">CT</option><option value="165">CZ</option><option value="113">EN</option><option value="121">FC</option><option value="212">FE</option><option value="193">FG</option><option value="40">FI</option><option value="268">FM</option><option value="132">FR</option><option value="46">GE</option><option value="140">GO</option><option value="278">GR</option><option value="220">IM</option><option value="432">IS</option><option value="447">KR</option><option value="180">LC</option><option value="131">LE</option><option value="199">LI</option><option value="64">LO</option><option value="164">LT</option><option value="217">LU</option><option value="275">MB</option><option value="157">MC</option><option value="43">ME</option><option value="41">MI</option><option value="247">MN</option><option value="192">MO</option><option value="134">MS</option><option value="222">MT</option><option value="65">NA</option><option value="105">NO</option><option value="250">NU</option><option value="359">OR</option><option value="59">PA</option><option value="214">PC</option><option value="122">PD</option><option value="228">PE</option><option value="83">PG</option><option value="97">PI</option><option value="135">PN</option><option value="55">PO</option><option value="94">PR</option><option value="36">PS</option><option value="168">PT</option><option value="204">PU</option><option value="93">PV</option><option value="248">PZ</option><option value="238">RA</option><option value="175">RC</option><option value="8">RE</option><option value="254">RG</option><option value="188">RI</option><option value="26">RM</option><option value="243">RN</option><option value="356">RO</option><option value="101">SA</option><option value="127">SI</option><option value="194">SO</option><option value="232">SP</option><option value="279">SR</option><option value="203">SS</option><option value="321">SV</option><option value="236">TA</option><option value="215">TE</option><option value="219">TN</option><option value="50">TO</option><option value="201">TP</option><option value="265">TR</option><option value="246">TS</option><option value="185">TV</option><option value="143">UD</option><option value="125">VA</option><option value="142">VB</option><option value="66">VC</option><option value="35">VE</option><option value="58">VI</option><option value="11">VR</option><option value="183">VT</option><option value="308">VV</option></select>
</div>
        </div>
              </div>
          <div id="edit-field-categoria-tid-wrapper" class="views-exposed-widget views-widget-filter-field_categoria_tid">
                  <label for="edit-field-categoria-tid">
            Categoria          </label>
                        <div class="views-widget">
          <div class="form-item form-type-select form-item-field-categoria-tid">
 <select id="edit-field-categoria-tid" name="field_categoria_tid" class="form-select"><option value="All" selected="selected">- Qualsiasi -</option><option value="394">--</option><option value="436">Arti e mestieri</option><option value="431">-Artigianato / falegnameria</option><option value="428">-Pittura e scultura</option><option value="426">-Varie / altri mestieri</option><option value="437">Danza</option><option value="379">-Balli latini</option><option value="380">-Danza classica</option><option value="421">-Danza moderna</option><option value="429">-Liscio</option><option value="422">-Varie / altri tipi di danza</option><option value="438">Hobbies</option><option value="374">-Cucina</option><option value="375">-Giochi di carte</option><option value="423">-Varie / altri hobby</option><option value="434">Informatica</option><option value="406">-Applicativi gestionali</option><option value="399">-Grafica</option><option value="370">-Linguaggi web</option><option value="411">-Programmazione</option><option value="405">-Utilizzo del pc</option><option value="418">-Varie / altre materie informatiche</option><option value="435">Lingue</option><option value="416">-Cinese</option><option value="387">-Francese</option><option value="377">-Inglese</option><option value="415">-Russo</option><option value="378">-Spagnolo</option><option value="425">-Tedesco</option><option value="396">-Varie / altre lingue</option><option value="439">Materie scolastiche</option><option value="381">-Italiano</option><option value="401">-Latino / greco</option><option value="384">-Matematica</option><option value="388">-Varie / altre materie scolastiche</option><option value="440">Materie universitarie</option><option value="408">-Chimica</option><option value="410">-Economia</option><option value="385">-Giurisprudenza e sc. politiche</option><option value="402">-Matematica e fisica</option><option value="404">-Varie / altre materie universitarie</option><option value="441">Musica</option><option value="372">-Canto</option><option value="373">-Chitarra</option><option value="398">-Pianoforte</option><option value="403">-Varie / altri strumenti</option><option value="442">Recitazione e simili</option><option value="376">-Recitazione, mimo, magia</option></select>
</div>
        </div>
              </div>
          <div id="edit-combine-wrapper" class="views-exposed-widget views-widget-filter-combine">
                  <label for="edit-combine">
            Testo          </label>
                        <div class="views-widget">
          <div class="form-item form-type-textfield form-item-combine">
 <input type="text" id="edit-combine" name="combine" value="" size="30" maxlength="128" class="form-text" />
</div>
        </div>
              </div>
                    <div class="views-exposed-widget views-submit-button">
      <input type="submit" id="edit-submit-users-administration" name="" value="Cerca" class="form-submit" />    </div>
          <div class="views-exposed-widget views-reset-button">
        <input type="submit" id="edit-reset" name="op" value="Annulla ricerca" class="form-submit" />      </div>
      </div>
</div>
</div></form>  </div>
</div>
<div id="block-block-1" class="block block-block clearfix">

    <h2 class="title">Mappa regioni</h2>
  
  <div class="content">
    <p class="rtecenter"><span style="color:#800000;"><strong><em>Mappa cliccabile regioni</em></strong></span><br />
	<a href="/node/18512"><img alt="Mappa regioni" src="/sites/default/files/images/italiaxx-min.gif" style="margin-left: 30px; margin-right: 30px; width: 107px; height: 123px; " /></a></p>

<script language="JavaScript" type="text/javascript">
<!--
sel = document.getElementById("edit-field-categoria-tid");
if (sel != null) {
  for (i=0;i<sel.options.length;i++) {
    if (sel.options[i].text.indexOf("-") != 0)
	  sel.options[i].setAttribute("disabled","true"); 
  }
}
//-->
</script>
  </div>
</div>
  </div>
  </div>
                        </section>
                        <!--EOF:#sidebar-->
                    </aside>
                    
                                        <aside class="col-md-3">
                        <!--#sidebar-->
                        <section id="sidebar-second" class="sidebar clearfix">
                          <div class="region region-sidebar-second">
    <div id="block-user-login" class="block block-user clearfix">

    <h2 class="title">Accesso utente</h2>
  
  <div class="content">
    <form action="/home?destination=node/9112" method="post" id="user-login-form" accept-charset="UTF-8"><div><div class="form-item form-type-textfield form-item-openid-identifier">
  <label for="edit-openid-identifier">Accedi usando OpenID </label>
 <input type="text" id="edit-openid-identifier" name="openid_identifier" value="" size="15" maxlength="255" class="form-text" />
<div class="description"><a href="http://openid.net/">Cos&#039;è OpenID?</a></div>
</div>
<div class="form-item form-type-textfield form-item-name">
  <label for="edit-name">Username or e-mail <span class="form-required" title="Questo campo è obbligatorio.">*</span></label>
 <input type="text" id="edit-name" name="name" value="" size="15" maxlength="60" class="form-text required" />
</div>
<div class="form-item form-type-password form-item-pass">
  <label for="edit-pass">Password <span class="form-required" title="Questo campo è obbligatorio.">*</span></label>
 <input type="password" id="edit-pass" name="pass" size="15" maxlength="128" class="form-text required" />
</div>
<input type="hidden" name="form_build_id" value="form-Q_D2lgra-LU2PZFmQz9ey-MOp-SalUgU_N4PDoC7Q6I" />
<input type="hidden" name="form_id" value="user_login_block" />
<input type="hidden" name="openid.return_to" value="https://www.lezioniprivate.net/openid/authenticate?destination=node/9112" />
<div class="item-list"><ul class="openid-links"><li class="openid-link first"><a href="#openid-login">Accedi usando OpenID</a></li>
<li class="user-link last"><a href="#">Annulla il login OpenID</a></li>
</ul></div><div class="item-list"><ul><li class="first"><a href="/user/register" title="Crea un nuovo profilo utente.">Registrati</a></li>
<li class="last"><a href="/user/password" title="Richiedi una nuova password tramite e-mail.">Richiedi nuova password</a></li>
</ul></div><div class="form-actions form-wrapper" id="edit-actions"><input type="submit" id="edit-submit" name="op" value="Accedi" class="form-submit" /></div></div></form>  </div>
</div>
<div id="block-block-2" class="block block-block clearfix">

    <h2 class="title">Pubblicità</h2>
  
  <div class="content">
    <center>
	<div style="border:solid 1px #777777; padding:5px">
		Spazio pubblicitario: <a href="/contact">contattateci</a></div>
</center>
<script language="javascript">
if (Drupal.eu_cookie_compliance.hasAgreed()) {
  document.getElementById("youtube-frame").src = "https://www.youtube.com/embed/EcqRClsG-8A";
  document.getElementById("youtube-div").style.display = "block";
}
</script>
<br /><br />
<b>Insegnante di magia a Roma</b>
<br /><a href="https://www.mago-prestigiatore.com" target="_blank">www.mago-prestigiatore.com</a>  </div>
</div>
  </div>
                        </section>
                        <!--EOF:#sidebar-->
                    </aside>
                    
                </div>

            </div>
        </div>
        <!-- EOF:#main-content -->

    </div>
    <!-- EOF: #page -->

    
    
        

    
        <div id="subfooter" class="clearfix">
        <div class="container">

            <!-- #subfooter-inside -->
            <div id="subfooter-inside" class="clearfix">
                <div class="row">
                    <div class="col-md-4">
                        <!-- #subfooter-left -->
                                                <!-- EOF: #subfooter-left -->
                    </div>
                    <div class="col-md-8">
                        <!-- #subfooter-right -->
                                                <div class="subfooter-area right">
                          <div class="region region-footer">
    <div id="block-block-3" class="block block-block clearfix">

    
  <div class="content">
    <p>Gestito da Valeria Pesce (P. IVA IT12777181004) - <a href="/condizioni-generali-del-servizio">Condizioni generali del servizio</a> - <a href="/privacy-policy">Privacy policy</a></p>
  </div>
</div>
<div id="block-block-5" class="block block-block clearfix">

    
  <div class="content">
    <!-- Global site tag (gtag.js) - Google Analytics -->
<script async src="https://www.googletagmanager.com/gtag/js?id=UA-29299901-1"></script>
<script>
  window.dataLayer = window.dataLayer || [];
  function gtag(){dataLayer.push(arguments);}
  gtag('js', new Date());

  gtag('config', 'UA-29299901-1');
</script>
  </div>
</div>
  </div>
                        </div>
                                                <!-- EOF: #subfooter-right -->
                        
                                            
                    </div>
                </div>
            </div>
            <!-- EOF: #subfooter-inside -->

        </div>
    </div><!-- EOF:#subfooter -->
        
</div>
<!-- EOF:#page-container -->  </body>
</html>
