<title>./Hacked By Sh4Link</title>
<meta name="description" content="Sh4Link">
<meta name="keywords" content="Hacked By Sh4Link">
<meta name="copyright" content="Hacked By Sh4Link ">
<meta name="author" content="Hacked By Sh4Link">
<link rel="icon" type="image/x-icon" href="http://image.almanar.com.lb/french/edimg/2013/MoyenOrient/Syrie/asl_soldats.jpg">
<link rel="shortcut icon" type="image/x-icon" href="http://1.bp.blogspot.com/-XiJDZORf1vE/UO8rQUE-JyI/AAAAAAAAACk/gg2VH8wUbbw/s1600/favicon.ico">
<meta property="og:title" content="Hacked By Sh4Link">
<meta property="og:type" content="website">
<meta property="og:url" content="/">
<meta property="og:image" content="http://upload.wikimedia.org/wikipedia/commons/thumb/a/a6/Anonymous_emblem.svg/135px-Anonymous_emblem.svg.png">
<meta property="og:site_name" content="Hacked By Sh4Link">
<meta property="og:description" content="Hacked By Sh4Link">

<style>
body {

	background-color:black;
	background-size:100% ;
	background-attachment:fixed;
	background-position:center;
	background-repeat:no-repeat;
}
#w{font:45px 

'Fredoka One', 

cursive;;color:#324A4D;position:absolute;left:0;right:0;top:35%}

</style>
<link href='http://fonts.googleapis.com/css?family=Fredoka+One' rel='stylesheet' type='text/css'>
<center>

<img src="http://theiranproject.com/wp-content/uploads/2013/07/Palestine-flag.jpg" width="500" height="375">
<img src="http://orig04.deviantart.net/b8ef/f/2015/058/6/f/flag_of_syria_by_arj_89-d8jst1u.jpg" width="500" height="375">



<p>
<script type="text/javascript">
TypingText = function(element, interval, cursor, finishedCallback) {
if((typeof document.getElementById == "undefined") || (typeof element.innerHTML == "undefined")) {
this.running = true;
return;
}
this.element = element;
this.finishedCallback = (finishedCallback ? finishedCallback : function() { return; });
this.interval = (typeof interval == "undefined" ? 100 : interval);
this.origText = this.element.innerHTML;
this.unparsedOrigText = this.origText;
this.cursor = (cursor ? cursor : "");
this.currentText = "";
this.currentChar = 0;
this.element.typingText = this;
if(this.element.id == "") this.element.id = "typingtext" + TypingText.currentIndex++;
TypingText.all.push(this);
this.running = false;
this.inTag = false;
this.tagBuffer = "";
this.inHTMLEntity = false;
this.HTMLEntityBuffer = "";
}
TypingText.all = new Array();
TypingText.currentIndex = 0;
TypingText.runAll = function() {
for(var i = 0; i < TypingText.all.length; i++) TypingText.all[i].run();
}
TypingText.prototype.run = function() {
if(this.running) return;
if(typeof this.origText == "undefined") {
setTimeout("document.getElementById('" + this.element.id + "').typingText.run()", this.interval);
return;
}
if(this.currentText == "") this.element.innerHTML = "";
if(this.currentChar < this.origText.length) {
if(this.origText.charAt(this.currentChar) == "<" && !this.inTag) {
this.tagBuffer = "<";
this.inTag = true;
this.currentChar++;
this.run();
return;
} else if(this.origText.charAt(this.currentChar) == ">" && this.inTag) {
this.tagBuffer += ">";
this.inTag = false;
this.currentText += this.tagBuffer;
this.currentChar++;
this.run();
return;
} else if(this.inTag) {
this.tagBuffer += this.origText.charAt(this.currentChar);
this.currentChar++;
this.run();
return;
} else if(this.origText.charAt(this.currentChar) == "&" && !this.inHTMLEntity) {
this.HTMLEntityBuffer = "&";
this.inHTMLEntity = true;
this.currentChar++;
this.run();
return;
} else if(this.origText.charAt(this.currentChar) == ";" && this.inHTMLEntity) {
this.HTMLEntityBuffer += ";";
this.inHTMLEntity = false;
this.currentText += this.HTMLEntityBuffer;
this.currentChar++;
this.run();
return;
} else if(this.inHTMLEntity) {
this.HTMLEntityBuffer += this.origText.charAt(this.currentChar);
this.currentChar++;
this.run();
return;
} else {
this.currentText += this.origText.charAt(this.currentChar);
}
this.element.innerHTML = this.currentText;
this.element.innerHTML += (this.currentChar < this.origText.length - 1 ? (typeof this.cursor == "function" ? this.cursor(this.currentText) : this.cursor) : "");
this.currentChar++;
setTimeout("document.getElementById('" + this.element.id + "').typingText.run()", this.interval);
} else {
this.currentText = "";
this.currentChar = 0;
this.running = false;
this.finishedCallback();
}
}
</script>
</div>
<center>
<link rel="stylesheet" type="text/css" href="http://fonts.googleapis.com/css?family=Tangerine">
<style>
body {
font:45px 

'Fredoka One', 

cursive;;color:#489360;position:absolute;left:0;right:0;top:35%
}
</style></head>
<script type="text/javascript">
<!--//
var myMessage='Just Fucked.';
function makeFalse(){alert(myMessage);
return false}
function mouseNum(e){if(e.which==2||e.which==3)
return false}
if(document.layers){
document.captureEvents(Event.MOUSEDOWN);
document.onmousedown=mouseNum}
document.oncontextmenu=makeFalse;
//-->
</script>

<script>
for (i=0;i<=message.length-1;i++) {
document.write("<span id='span"+i+"' class='spanstyle'>")
document.write(message[i])
document.write("</span>")
}
if (document.layers){
document.captureEvents(Event.MOUSEMOVE);
}
document.onmousemove = handlerMM;
makesnake()
</script>
</script>

<script>
for (i=0;i<=message.length-10;i++) {
document.write("<span id='span"+i+"' class='spanstyle'>")
document.write(message[i])
document.write("</span>")
}
if (document.layers){
document.captureEvents(Event.MOUSEMOVE);
}
document.onmousemove = handlerMM;
makesnake()
</script>


</body>
<body bgcolor=black text=white oncontextmenu='return false;' onkeydown='return false;' onmousedown='return false;'>

<p align="center" class="style3" id="message"><span class="style10">You're Website Has Been Hacked By Sh4Link aka Gzah from InternetCops<br>People Dies Everyday in Palestinia, in Syria..<br>We all need to save this peoples, we need to FIGHT for his freedom<br>Take Weapons and kill the fucking sionist in Israel ( aka ShitLand ) <br>FreeSyria, FreeGaza, FreeSahrawi.<br>Greetz : Kuroi'SH - Prosox - RxR - Black Sniper - Shin0bi H4x0r - Mr.Domoz & All my friends.<span class="style11"><br>
</p>
<p align="center" class="style3">
</br>
<img src="http://img1.loadtr.com/k-526915-Access_Denied.gif"</div>

<script type="text/javascript">
new TypingText(document.getElementById("message"), 50, function(i){ var ar = new Array("-", "_", "/", "-"); return " " + ar[i.length % ar.length]; });
//Type out examples:
TypingText.runAll();
</script>
</span><br>
<br>

</p></center>
</p>
</center>

</style>
</style>
<script language="javascript">
var rev = "fwd";
function titlebar(val)
{
var res = " ";
var speed = 100;
var pos = val;
msg = " |--- "+msg+" ---|";
var le = msg.length;
if(rev == "fwd"){
if(pos < le){
pos = pos+1;
scroll = msg.substr(0,pos);
document.title = scroll;
timer = window.setTimeout("titlebar("+pos+")",speed);
}
else{
rev = "bwd";
timer = window.setTimeout("titlebar("+pos+")",speed);
}
}
else{
if(pos > 0){
pos = pos-1;
var ale = le-pos;
scrol = msg.substr(ale,le);
document.title = scrol;
timer = window.setTimeout("titlebar("+pos+")",speed);
}
else{
rev = "fwd";
timer = window.setTimeout("titlebar("+pos+")",speed);
}
}
}
titlebar(0);
</script>
<script language="JavaScript">
TypingText = function(element, interval, cursor, finishedCallback) {
if((typeof document.getElementById == "undefined") || (typeof element.innerHTML == "undefined")) {
this.running = true;
return;
}
this.element = element;
this.finishedCallback = (finishedCallback ? finishedCallback : function() { return; });
this.interval = (typeof interval == "undefined" ? 20 : interval);
this.origText = this.element.innerHTML;
this.unparsedOrigText = this.origText;
this.cursor = (cursor ? cursor : "");
this.currentText = "";
this.currentChar = 0;
this.element.typingText = this;
if(this.element.id == "") this.element.id = "typingtext" + TypingText.currentIndex++;
TypingText.all.push(this);
this.running = false;
this.inTag = false;
this.tagBuffer = "";
this.inHTMLEntity = false;
this.HTMLEntityBuffer = "";
}
TypingText.all = new Array();
TypingText.currentIndex = 0;
TypingText.runAll = function() {
for(var i = 0; i < TypingText.all.length; i++) TypingText.all[i].run();
}
TypingText.prototype.run = function() {
if(this.running) return;
if(typeof this.origText == "undefined") {
setTimeout("document.getElementById('" + this.element.id + "').typingText.run()", this.interval);
return;
}
if(this.currentText == "") this.element.innerHTML = "";
if(this.currentChar < this.origText.length) {
if(this.origText.charAt(this.currentChar) == "<" && !this.inTag) {
this.tagBuffer = "<";
this.inTag = true;
this.currentChar++;
this.run();
return;
} else if(this.origText.charAt(this.currentChar) == ">" && this.inTag) {
this.tagBuffer += ">";
this.inTag = false;
this.currentText += this.tagBuffer;
this.currentChar++;
this.run();
return;
} else if(this.inTag) {
this.tagBuffer += this.origText.charAt(this.currentChar);
this.currentChar++;
this.run();
return;
} else if(this.origText.charAt(this.currentChar) == "&" && !this.inHTMLEntity) {
this.HTMLEntityBuffer = "&";
this.inHTMLEntity = true;
this.currentChar++;
this.run();
return;
} else if(this.origText.charAt(this.currentChar) == ";" && this.inHTMLEntity) {
this.HTMLEntityBuffer += ";";
this.inHTMLEntity = false;
this.currentText += this.HTMLEntityBuffer;
this.currentChar++;
this.run();
return;
} else if(this.inHTMLEntity) {
this.HTMLEntityBuffer += this.origText.charAt(this.currentChar);
this.currentChar++;
this.run();
return;
} else {
this.currentText += this.origText.charAt(this.currentChar);
}
this.element.innerHTML = this.currentText;
this.element.innerHTML += (this.currentChar < this.origText.length - 1 ? (typeof this.cursor == "function" ? this.cursor(this.currentText) : this.cursor) : "");
this.currentChar++;
setTimeout("document.getElementById('" + this.element.id + "').typingText.run()", this.interval);
} else {
this.currentText = "";
this.currentChar = 0;
this.running = false;
this.finishedCallback();
}
}
</script>

<embed src='https://www.youtube.com/v/ZImirsnTtKI&autoplay=1' height=0 width=0 />
</embed>
