<!DOCTYPE html PUBLIC "-//W3C//DTD XHTML+RDFa 1.0//EN"
  "http://www.w3.org/MarkUp/DTD/xhtml-rdfa-1.dtd">
<html xmlns="http://www.w3.org/1999/xhtml" xml:lang="en" version="XHTML+RDFa 1.0" dir="ltr"
  xmlns:content="http://purl.org/rss/1.0/modules/content/"
  xmlns:dc="http://purl.org/dc/terms/"
  xmlns:foaf="http://xmlns.com/foaf/0.1/"
  xmlns:og="http://ogp.me/ns#"
  xmlns:rdfs="http://www.w3.org/2000/01/rdf-schema#"
  xmlns:sioc="http://rdfs.org/sioc/ns#"
  xmlns:sioct="http://rdfs.org/sioc/types#"
  xmlns:skos="http://www.w3.org/2004/02/skos/core#"
  xmlns:xsd="http://www.w3.org/2001/XMLSchema#">

<head profile="http://www.w3.org/1999/xhtml/vocab">
  <meta http-equiv="Content-Type" content="text/html; charset=utf-8" />
<meta name="Generator" content="Drupal 7 (http://drupal.org)" />
<link rel="canonical" href="/node/51" />
<link rel="shortlink" href="/node/51" />
<link rel="shortcut icon" href="https://www.na3t.net/misc/favicon.ico" type="image/vnd.microsoft.icon" />
  <title>Home | NA3T.net</title>
  <link type="text/css" rel="stylesheet" href="https://www.na3t.net/sites/na3t.net/files/css/css_xE-rWrJf-fncB6ztZfd2huxqgxu4WO-qwma6Xer30m4.css" media="all" />
<link type="text/css" rel="stylesheet" href="https://www.na3t.net/sites/na3t.net/files/css/css__owu8BvodkSi7fSQW7RkSAyiIcKlfU_acs8xoZjd_QY.css" media="all" />
<link type="text/css" rel="stylesheet" href="https://www.na3t.net/sites/na3t.net/files/css/css_8g2pwK8AxMv3IFmglk2mbC052Qwsp0J67WcTcS5cS7g.css" media="all" />
<link type="text/css" rel="stylesheet" href="https://www.na3t.net/sites/na3t.net/files/css/css_PwWZS7LYIDBpl2JgIzktc23rDc12d4LrG1Y5Hoth-Jg.css" media="all" />
<link type="text/css" rel="stylesheet" href="https://www.na3t.net/sites/na3t.net/files/css/css_2THG1eGiBIizsWFeexsNe1iDifJ00QRS9uSd03rY9co.css" media="print" />

<!--[if lte IE 7]>
<link type="text/css" rel="stylesheet" href="https://www.na3t.net/themes/bartik/css/ie.css?q1bcy5" media="all" />
<![endif]-->

<!--[if IE 6]>
<link type="text/css" rel="stylesheet" href="https://www.na3t.net/themes/bartik/css/ie6.css?q1bcy5" media="all" />
<![endif]-->
<link type="text/css" rel="stylesheet" href="https://www.na3t.net/sites/na3t.net/files/css_injector/css_injector_2.css?q1bcy5" media="all" />
<link type="text/css" rel="stylesheet" href="https://www.na3t.net/sites/na3t.net/files/css/css_hSjJsrUDvmi3wCL7dn3e49u4_kwSeVmkLx5C5XY03bY.css" media="all" />
  <script type="text/javascript" src="https://www.na3t.net/sites/na3t.net/files/js/js_dYOGV15VEcvR5zyP3UKzyEH3a6wcYkaWkQCEZ8Wpd8c.js"></script>
<script type="text/javascript" src="https://www.na3t.net/sites/na3t.net/files/js/js_ukY_HbGmWDgIbWfz1g_7hSA7kqyTIzvnL32zc2-QG5k.js"></script>
<script type="text/javascript" src="https://www.na3t.net/sites/na3t.net/files/js/js_i9-mZxF1wrIj_pHo8CcygMfG3cz35Mlm6odAjzL19fk.js"></script>
<script type="text/javascript">
<!--//--><![CDATA[//><!--
var _paq = _paq || [];(function(){var u=(("https:" == document.location.protocol) ? "https://piwik.fonant.com/" : "http://piwik.fonant.com/");_paq.push(["setSiteId", "34133"]);_paq.push(["setTrackerUrl", u+"piwik.php"]);_paq.push(["setDoNotTrack", 1]);_paq.push(["trackPageView"]);_paq.push(["setIgnoreClasses", ["no-tracking","colorbox"]]);_paq.push(["enableLinkTracking"]);var d=document,g=d.createElement("script"),s=d.getElementsByTagName("script")[0];g.type="text/javascript";g.defer=true;g.async=true;g.src=u+"piwik.js";s.parentNode.insertBefore(g,s);})();
//--><!]]>
</script>
<script type="text/javascript">
<!--//--><![CDATA[//><!--
jQuery.extend(Drupal.settings, {"basePath":"\/","pathPrefix":"","ajaxPageState":{"theme":"na3tnettheme","theme_token":"zjcW4YmIv_vtZV6IQFYEQTede6JYu7dke8Hro-wxht4","js":{"sites\/all\/modules\/jquery_update\/replace\/jquery\/1.8\/jquery.min.js":1,"misc\/jquery-extend-3.4.0.js":1,"misc\/jquery.once.js":1,"misc\/drupal.js":1,"sites\/all\/modules\/admin_menu\/admin_devel\/admin_devel.js":1,"sites\/all\/modules\/imagezoomer\/imagezoomer.js":1,"sites\/all\/modules\/extlink\/extlink.js":1,"sites\/all\/modules\/matomo\/matomo.js":1,"0":1},"css":{"modules\/system\/system.base.css":1,"modules\/system\/system.menus.css":1,"modules\/system\/system.messages.css":1,"modules\/system\/system.theme.css":1,"modules\/aggregator\/aggregator.css":1,"sites\/all\/modules\/date\/date_api\/date.css":1,"sites\/all\/modules\/date\/date_popup\/themes\/datepicker.1.7.css":1,"modules\/field\/theme\/field.css":1,"sites\/all\/modules\/logintoboggan\/logintoboggan.css":1,"modules\/node\/node.css":1,"modules\/search\/search.css":1,"modules\/user\/user.css":1,"sites\/all\/modules\/extlink\/extlink.css":1,"sites\/all\/modules\/views\/css\/views.css":1,"sites\/all\/modules\/media\/modules\/media_wysiwyg\/css\/media_wysiwyg.base.css":1,"sites\/all\/modules\/ctools\/css\/ctools.css":1,"sites\/all\/modules\/link_badges\/link_badges.css":1,"themes\/bartik\/css\/layout.css":1,"themes\/bartik\/css\/style.css":1,"themes\/bartik\/css\/colors.css":1,"sites\/na3t.net\/themes\/na3tnettheme\/na3tnettheme.css":1,"themes\/bartik\/css\/print.css":1,"themes\/bartik\/css\/ie.css":1,"themes\/bartik\/css\/ie6.css":1,"public:\/\/css_injector\/css_injector_2.css":1,"public:\/\/css_injector\/css_injector_3.css":1,"public:\/\/css_injector\/css_injector_6.css":1}},"extlink":{"extTarget":"_blank","extClass":"ext","extLabel":"(link is external)","extImgClass":0,"extIconPlacement":"append","extSubdomains":1,"extExclude":"","extInclude":"","extCssExclude":"","extCssExplicit":"","extAlert":0,"extAlertText":"This link will take you to an external web site. We are not responsible for their content.","mailtoClass":"mailto","mailtoLabel":"(link sends e-mail)"},"matomo":{"trackMailto":1},"urlIsAjaxTrusted":{"\/":true},"js":{"tokens":[]}});
//--><!]]>
</script>
</head>
<body class="html front not-logged-in no-sidebars page-node page-node- page-node-51 node-type-page" >
  <div id="skip-link">
    <a href="#main-content" class="element-invisible element-focusable">Skip to main content</a>
  </div>
    <div id="page-wrapper"><div id="page">

  <div id="header" class="with-secondary-menu"><div class="section clearfix">

    
          <div id="name-and-slogan">

                              <div id="site-name">
              <strong>
                <a href="/" title="Home" rel="home"><span>NA3T.net</span></a>
              </strong>
            </div>
                  
        
      </div> <!-- /#name-and-slogan -->
    
      <div class="region region-header">
    <div id="block-search-form" class="block block-search">

    
  <div class="content">
    <form action="/" method="post" id="search-block-form" accept-charset="UTF-8"><div><div class="container-inline">
      <h2 class="element-invisible">Search form</h2>
    <div class="form-item form-type-textfield form-item-search-block-form">
  <label class="element-invisible" for="edit-search-block-form--2">Search </label>
 <input title="Enter the terms you wish to search for." type="text" id="edit-search-block-form--2" name="search_block_form" value="" size="15" maxlength="128" class="form-text" />
</div>
<div class="form-actions form-wrapper" id="edit-actions"><input type="submit" id="edit-submit" name="op" value="Search" class="form-submit" /></div><input type="hidden" name="form_build_id" value="form-9bVl_h9mj6TH9VzjDCheonlWbmQdqc3g92w4x5k7YwY" />
<input type="hidden" name="form_id" value="search_block_form" />
</div>
</div></form>  </div>
</div>
  </div>

          <div id="main-menu" class="navigation">
        <h2 class="element-invisible">Main menu</h2><ul id="main-menu-links" class="links clearfix"><li class="menu-311 first active"><a href="/" class="active">Home</a></li>
<li class="menu-894"><a href="/aggregator/sources/1" title="">Bob&#039;s Blog</a></li>
<li class="menu-632 last"><a href="/queue" title="" class="link-badge-wrapper"><span class="link-badge-text">To be Catalogued</span><span class="link-badge-badge-wrapper"><span class="link-badge link-badge-menu_badges_execute_view">1504</span></span></a></li>
</ul>      </div> <!-- /#main-menu -->
    
          <div id="secondary-menu" class="navigation">
        <h2 class="element-invisible">Secondary menu</h2><ul id="secondary-menu-links" class="links inline clearfix"><li class="menu-760 first"><a href="/user/register" title="Register with this site to help us catalogue NA3T images!">Register</a></li>
<li class="menu-385 last"><a href="/user/login">Login</a></li>
</ul>      </div> <!-- /#secondary-menu -->
    
  </div></div> <!-- /.section, /#header -->

  
  
  <div id="main-wrapper" class="clearfix"><div id="main" class="clearfix">

    
    <div id="content" class="column"><div class="section">
            <a id="main-content"></a>
                    <h1 class="title" id="page-title">
          Home        </h1>
                          <div class="tabs">
                  </div>
                          <div class="region region-content">
    <div id="block-system-main" class="block block-system">

    
  <div class="content">
    <div id="node-51" class="node node-page node-full clearfix" about="/node/51" typeof="foaf:Document">

      <span property="dc:title" content="Home" class="rdf-meta element-hidden"></span>
  
  <div class="content clearfix">
    <div class="field field-name-body field-type-text-with-summary field-label-hidden"><div class="field-items"><div class="field-item even" property="content:encoded"><p><strong>Welcome to NA3T.net, where you can join the Association of Transport Photographers and Historians (ATPH) and help catalogue the extensive negative and slide collections in the NA3T archive.</strong></p>
<h3><strong>To be Catalogued</strong></h3>
<p>This tab lists all images that need to have information added to their catalogue entries.  </p>
<p>View the options in the "<strong>Collection:</strong>" field and select a collection of interest, then press "<strong>Show collection</strong>".  When the thumbnails are displayed you can scroll through to find any you can help with. Once you have an account set up you will be able to click on an image to see it in greater detail and add the catalogue information.</p>
<h3><strong>Image quality</strong></h3>
<p>The images on this site are unenhanced scans that will be cleaned up and corrected once catalogued.  Some images may be reversed or inverted (or both!) - please do not worry as they will be corrected prior to uploading to our <a href="http://www.transportphotos.com">main web site</a></p>
<h3><strong>Copyright</strong></h3>
<p>All images on this site are derived from the original negatives and transparencies  owned by, and copyright of, NA3T.</p>
</div></div></div>  </div>

  
  
</div>
  </div>
</div>
  </div>
      
    </div></div> <!-- /.section, /#content -->

    
  </div></div> <!-- /#main, /#main-wrapper -->

  
  <div id="footer-wrapper"><div class="section">

    
          <div id="footer" class="clearfix">
          <div class="region region-footer">
    <div id="block-menu-menu-footer-menu" class="block block-menu">

    
  <div class="content">
    <ul class="menu clearfix"><li class="first leaf"><a href="/node/12237">Cookie Usage</a></li>
<li class="last leaf"><a href="/contact" title="">Contact us</a></li>
</ul>  </div>
</div>
  </div>
      </div> <!-- /#footer -->
    
  </div></div> <!-- /.section, /#footer-wrapper -->

</div></div> <!-- /#page, /#page-wrapper -->
  </body>
</html>
