<!DOCTYPE html>
<html  lang="en" dir="ltr" prefix="fb: http://ogp.me/ns/fb# og: http://ogp.me/ns# article: http://ogp.me/ns/article# book: http://ogp.me/ns/book# profile: http://ogp.me/ns/profile# video: http://ogp.me/ns/video# product: http://ogp.me/ns/product#">
<head>
  <meta charset="utf-8" />
<link rel="shortcut icon" href="https://nfpsynergy.net/favicon.ico" type="image/vnd.microsoft.icon" />
<link href="/rss.xml" title="nfpSynergy News Feed" type="application/rss+xml" rel="alternate" />
<meta name="description" content="nfpSynergy is a research consultancy that aims to provide the ideas, insights and information to help non-profits and charities thrive." />
<meta name="generator" content="Drupal 7 (http://drupal.org)" />
<link rel="canonical" href="https://nfpsynergy.net/nfpsynergy-research-and-consultancy-charities" />
<link rel="shortlink" href="https://nfpsynergy.net/node/3035" />
<meta property="fb:admins" content="100005760733624" />
<meta property="og:site_name" content="nfpSynergy" />
<meta property="og:type" content="article" />
<meta property="og:url" content="https://nfpsynergy.net/nfpsynergy-research-and-consultancy-charities" />
<meta property="og:title" content="nfpSynergy research and consultancy for charities" />
<meta property="og:image" content="https://nfpsynergy.net/image-for/node/3035?facebookPeaseUpdateYourCache=1" />
<meta name="twitter:image" content="https://nfpsynergy.net/image-for/node/3035?twitter=2" />
  <title>nfpSynergy research and consultancy for charities | nfpSynergy</title>

      <meta name="MobileOptimized" content="width">
    <meta name="HandheldFriendly" content="true">
    <meta name="viewport" content="width=device-width">
  
  <link type="text/css" rel="stylesheet" href="https://nfpsynergy.net/sites/default/files/css/css_jBwSVbWCh9nmmlL-RlePLRXDimx5KqzjNMX4aGATABU.css" media="all" />
<link type="text/css" rel="stylesheet" href="https://nfpsynergy.net/sites/default/files/css/css_g25u1tOSXusW-VdCXjYJKiA0rvSS6V5_Mto7t5QvFhA.css" media="all" />
<link type="text/css" rel="stylesheet" href="https://nfpsynergy.net/sites/default/files/css/css_8ubH_KUwRFCBO_3PmXgAJkjzr7Fl4A2byXTP9Zc4LQ0.css" media="all" />
  <script src="//ajax.googleapis.com/ajax/libs/jquery/1.8.3/jquery.min.js"></script>
<script>window.jQuery || document.write("<script src='/sites/all/modules/jquery_update/replace/jquery/1.8/jquery.min.js'>\x3C/script>")</script>
<script src="https://nfpsynergy.net/sites/default/files/js/js_dWhBODswdXXk1M5Z5nyqNfGljmqwxUwAK9i6D0YSDNs.js"></script>
<script src="https://nfpsynergy.net/sites/default/files/js/js_Q2kecghLvvd69tAPGWpW7ObwRsXWuwiJPaPsZga9Egc.js"></script>
<script src="https://nfpsynergy.net/sites/default/files/js/js_jln9TvT0eQpJP3lcR0LEuRqPhGjstxZAKhhZ2vSGZw0.js"></script>
<script>(function(i,s,o,g,r,a,m){i["GoogleAnalyticsObject"]=r;i[r]=i[r]||function(){(i[r].q=i[r].q||[]).push(arguments)},i[r].l=1*new Date();a=s.createElement(o),m=s.getElementsByTagName(o)[0];a.async=1;a.src=g;m.parentNode.insertBefore(a,m)})(window,document,"script","//www.google-analytics.com/analytics.js","ga");ga("create", "UA-31271342-1", {"cookieDomain":"auto"});ga('require', 'eventTracker');
ga('require', 'impressionTracker',  {
  rootMargin: '-30px 0 0',
  elements: ['pp-id-13'],
  hitFilter: function(model, object, e) {
    model.set('eventCategory', 'Navigation', true);
    var l = model.get('eventLabel');
    if (l == 'pp-id-13') {
     model.set('eventLabel', 'welcome', true);
    }
  }
});
ga('require', 'maxScrollTracker', {
  hitFilter: function(model, object, e) {
    model.set('eventCategory', 'Navigation', true);
    model.set('eventAction', 'Scroll', true);
  }
});
ga('require', 'cleanUrlTracker', {trailingSlash: 'remove'});ga("send", "pageview");</script>
<script src="https://nfpsynergy.net/sites/default/files/js/js_L3g1sTLgAXGO2yeIykGflkIJDJlufyXUN7s4fIbo7Js.js"></script>
<script>jQuery.extend(Drupal.settings, {"basePath":"\/","pathPrefix":"","ajaxPageState":{"theme":"n16","theme_token":"uVx7upAoBf5rObftZHpHVxxxKhg548pa8tRO4vYM3ck","jquery_version":"1.8","js":{"0":1,"1":1,"sites\/all\/modules\/eu_cookie_compliance\/js\/eu_cookie_compliance.js":1,"\/\/ajax.googleapis.com\/ajax\/libs\/jquery\/1.8.3\/jquery.min.js":1,"2":1,"misc\/jquery-extend-3.4.0.js":1,"misc\/jquery.once.js":1,"misc\/drupal.js":1,"sites\/all\/modules\/eu_cookie_compliance\/js\/jquery.cookie-1.4.1.min.js":1,"sites\/all\/modules\/jquery_update\/replace\/misc\/jquery.form.min.js":1,"misc\/ajax.js":1,"sites\/all\/modules\/jquery_update\/js\/jquery_update.js":1,"misc\/textarea.js":1,"misc\/progress.js":1,"sites\/all\/modules\/google_analytics\/googleanalytics.js":1,"3":1,"sites\/all\/themes\/n16\/js\/slick\/slick\/slick.min.js":1,"sites\/all\/themes\/n16\/js\/vendor\/autotrack\/autotrack.js":1,"sites\/all\/themes\/n16\/js\/script.js":1},"css":{"modules\/system\/system.base.css":1,"modules\/system\/system.menus.css":1,"modules\/system\/system.messages.css":1,"modules\/system\/system.theme.css":1,"sites\/all\/modules\/comment_notify\/comment_notify.css":1,"sites\/all\/modules\/footnotes\/footnotes.css":1,"modules\/comment\/comment.css":1,"sites\/all\/modules\/date\/date_api\/date.css":1,"sites\/all\/modules\/date\/date_popup\/themes\/datepicker.1.7.css":1,"modules\/field\/theme\/field.css":1,"modules\/node\/node.css":1,"modules\/search\/search.css":1,"modules\/user\/user.css":1,"sites\/all\/modules\/youtube\/css\/youtube.css":1,"sites\/all\/modules\/views\/css\/views.css":1,"sites\/all\/modules\/ckeditor\/css\/ckeditor.css":1,"sites\/all\/modules\/ctools\/css\/ctools.css":1,"sites\/all\/modules\/eu_cookie_compliance\/css\/eu_cookie_compliance.bare.css":1,"sites\/all\/modules\/field_collection\/field_collection.theme.css":1,"sites\/all\/themes\/n16\/system.base.css":1,"sites\/all\/themes\/n16\/system.menus.css":1,"sites\/all\/themes\/n16\/system.messages.css":1,"sites\/all\/themes\/n16\/system.theme.css":1,"sites\/all\/themes\/n16\/comment.css":1,"sites\/all\/themes\/n16\/node.css":1,"sites\/all\/themes\/n16\/css\/styles.css":1,"sites\/all\/themes\/n16\/js\/slick\/slick\/slick.css":1}},"ajax":{"edit-submit":{"wrapper":"nfp-contact-form","callback":"nfp_contact_form_ajax","event":"manualmatic","url":"\/system\/ajax","submit":{"_triggering_element_name":"op","_triggering_element_value":"Send"}},"edit-submit--3":{"wrapper":"nfp-subscribe-footer-form","callback":"nfp_subscribe_footer_form_ajax","event":"mousedown","keypress":true,"prevent":"click","url":"\/system\/ajax","submit":{"_triggering_element_name":"op","_triggering_element_value":"Subscribe"}}},"urlIsAjaxTrusted":{"\/system\/ajax":true,"\/":true},"eu_cookie_compliance":{"popup_enabled":1,"popup_agreed_enabled":0,"popup_hide_agreed":0,"popup_clicking_confirmation":false,"popup_scrolling_confirmation":false,"popup_html_info":"\u003Cdiv\u003E\n  \u003Cdiv class=\u0022popup-content info\u0022\u003E\n    \u003Cdiv id=\u0022popup-text\u0022\u003E\n      \u003Ch2\u003EWe use cookies on this site to enhance your user experience\u003C\/h2\u003E              \u003Cbutton type=\u0022button\u0022 class=\u0022find-more-button eu-cookie-compliance-more-button\u0022\u003EMore info\u003C\/button\u003E\n          \u003C\/div\u003E\n    \u003Cdiv id=\u0022popup-buttons\u0022\u003E\n      \u003Cbutton type=\u0022button\u0022 class=\u0022agree-button eu-cookie-compliance-secondary-button\u0022\u003EGot It\u003C\/button\u003E\n              \u003Cbutton type=\u0022button\u0022 class=\u0022decline-button eu-cookie-compliance-default-button\u0022 \u003ENo, thanks\u003C\/button\u003E\n          \u003C\/div\u003E\n  \u003C\/div\u003E\n\u003C\/div\u003E","use_mobile_message":false,"mobile_popup_html_info":"\u003Cdiv\u003E\n  \u003Cdiv class=\u0022popup-content info\u0022\u003E\n    \u003Cdiv id=\u0022popup-text\u0022\u003E\n                    \u003Cbutton type=\u0022button\u0022 class=\u0022find-more-button eu-cookie-compliance-more-button\u0022\u003EMore info\u003C\/button\u003E\n          \u003C\/div\u003E\n    \u003Cdiv id=\u0022popup-buttons\u0022\u003E\n      \u003Cbutton type=\u0022button\u0022 class=\u0022agree-button eu-cookie-compliance-secondary-button\u0022\u003EGot It\u003C\/button\u003E\n              \u003Cbutton type=\u0022button\u0022 class=\u0022decline-button eu-cookie-compliance-default-button\u0022 \u003ENo, thanks\u003C\/button\u003E\n          \u003C\/div\u003E\n  \u003C\/div\u003E\n\u003C\/div\u003E\n","mobile_breakpoint":"768","popup_html_agreed":"\u003Cdiv\u003E\n  \u003Cdiv class=\u0022popup-content agreed\u0022\u003E\n    \u003Cdiv id=\u0022popup-text\u0022\u003E\n      \u003Ch2\u003EThank you for accepting cookies\u003C\/h2\u003E\u003Cp\u003EYou can now hide this message or find out more about cookies.\u003C\/p\u003E    \u003C\/div\u003E\n    \u003Cdiv id=\u0022popup-buttons\u0022\u003E\n      \u003Cbutton type=\u0022button\u0022 class=\u0022hide-popup-button eu-cookie-compliance-hide-button\u0022\u003EHide\u003C\/button\u003E\n              \u003Cbutton type=\u0022button\u0022 class=\u0022find-more-button eu-cookie-compliance-more-button-thank-you\u0022 \u003EMore info\u003C\/button\u003E\n          \u003C\/div\u003E\n  \u003C\/div\u003E\n\u003C\/div\u003E","popup_use_bare_css":1,"popup_height":"auto","popup_width":0,"popup_delay":1000,"popup_link":"\/privacy-policy","popup_link_new_window":1,"popup_position":null,"popup_language":"en","store_consent":false,"better_support_for_screen_readers":0,"reload_page":0,"domain":"","popup_eu_only_js":0,"cookie_lifetime":"100","cookie_session":false,"disagree_do_not_show_popup":0,"method":"opt_in","whitelisted_cookies":"","withdraw_markup":"\u003Cbutton type=\u0022button\u0022 class=\u0022eu-cookie-withdraw-tab\u0022\u003EPrivacy settings\u003C\/button\u003E\n\u003Cdiv class=\u0022eu-cookie-withdraw-banner\u0022\u003E\n  \u003Cdiv class=\u0022popup-content info\u0022\u003E\n    \u003Cdiv id=\u0022popup-text\u0022\u003E\n      We use cookies on this site to enhance your user experience\u003Cp\u003EYou have given your consent for us to set cookies.\u003C\/p\u003E    \u003C\/div\u003E\n    \u003Cdiv id=\u0022popup-buttons\u0022\u003E\n      \u003Cbutton type=\u0022button\u0022 class=\u0022eu-cookie-withdraw-button\u0022\u003EWithdraw consent\u003C\/button\u003E\n    \u003C\/div\u003E\n  \u003C\/div\u003E\n\u003C\/div\u003E\n","withdraw_enabled":false},"googleanalytics":{"trackOutbound":1,"trackMailto":1,"trackDownload":1,"trackDownloadExtensions":"7z|aac|arc|arj|asf|asx|avi|bin|csv|doc(x|m)?|dot(x|m)?|exe|flv|gif|gz|gzip|hqx|jar|jpe?g|js|mp(2|3|4|e?g)|mov(ie)?|msi|msp|pdf|phps|png|ppt(x|m)?|pot(x|m)?|pps(x|m)?|ppam|sld(x|m)?|thmx|qtm?|ra(m|r)?|sea|sit|tar|tgz|torrent|txt|wav|wma|wmv|wpd|xls(x|m|b)?|xlt(x|m)|xlam|xml|z|zip"}});</script>
      <!--[if lt IE 9]>
    <script src="/sites/all/themes/zen/js/html5shiv.min.js"></script>
    <![endif]-->
    <link href="https://fonts.googleapis.com/css?family=Open+Sans:400,400i,700,700i|Roboto:300,400,700&subset=latin-ext" rel="stylesheet">
</head>
<body class="html front not-logged-in no-sidebars page-node page-node- page-node-3035 node-type-page nfp-category--information" >
  <a href="#main-content" class="skip-link" >Skip to Content</a>
    <header id="page-header" role="banner">
  <div id="page-header__content">
    <h1 id="page-header__name-logo">
      <a href="/" title="nfpSynergy Homepage"><img alt="nfpSynergy research and consultancy for charities" src="/sites/all/themes/n16/images/nfpSynergy-logo.png"></a>
    </h1>
    <button id="page-header__menu-toggle" >&#x2630;</button>
    <nav id="page-header__main-menu">
    <div class="block block-menu-block first last odd" role="navigation" id="block-menu-block-3">

        <h2 class="block__title">Main menu</h2>
    
  <div class="menu-block-wrapper menu-block-3 menu-name-main-menu parent-mlid-0 menu-level-1">
  <ul class="menu"><li class="menu__item is-expanded first expanded menu-mlid-310"><a href="/about-nfpsynergy" class="menu__link">About</a><ul class="menu"><li class="menu__item is-leaf first leaf menu-mlid-3994"><a href="/about/social-investment-nfpsynergy" class="menu__link">Social Investment</a></li>
<li class="menu__item is-leaf is-parent leaf has-children menu-mlid-3995"><a href="/about/our-team" class="menu__link">Our Team</a></li>
<li class="menu__item is-leaf leaf menu-mlid-4016"><a href="/about/jargon-buster" class="menu__link">Jargon Buster</a></li>
<li class="menu__item is-leaf leaf menu-mlid-4017"><a href="/about/privacy-policy" class="menu__link">Privacy Policy</a></li>
<li class="menu__item is-leaf is-parent last leaf has-children menu-mlid-4014"><a href="/about/working-at-nfpsynergy" class="menu__link">Working at nfpSynergy</a></li>
</ul></li>
<li class="menu__item is-expanded expanded menu-mlid-4078"><a href="/research" class="menu__link">Research</a><ul class="has-groupings"><li class="grouping" ><span>How We Work</span><ul><li class="menu__item is-leaf is-parent first leaf has-children menu-mlid-632"><a href="/tracking-research" title="Our Tracking Research products" class="menu__link">Tracking Research</a></li>
<li class="menu__item is-leaf leaf menu-mlid-4079"><a href="/bespoke-research" class="menu__link">Bespoke Research</a></li>
<li class="menu__item is-leaf leaf menu-mlid-4140"><a href="/research/methodology" class="menu__link">Methodology</a></li>
</ul><li class="grouping" ><span>By Location</span><ul><li class="menu__item is-leaf leaf menu-mlid-4138"><a href="/research-by-location/worldwide" class="menu__link">The World</a></li>
<li class="menu__item is-leaf leaf menu-mlid-4104"><a href="/research-by-location/UK" class="menu__link">UK-Wide</a></li>
<li class="menu__item is-leaf leaf menu-mlid-4105"><a href="/research-by-location/Wales" class="menu__link">Wales</a></li>
<li class="menu__item is-leaf leaf menu-mlid-4106"><a href="/research-by-location/Scotland" class="menu__link">Scotland</a></li>
<li class="menu__item is-leaf leaf menu-mlid-4107"><a href="/research-by-location/Northern-Ireland" class="menu__link">Northern Ireland</a></li>
<li class="menu__item is-leaf leaf menu-mlid-4108"><a href="/research-by-location/Republic-of-Ireland" class="menu__link">Republic of Ireland</a></li>
</ul><li class="grouping" ><span>By Audience</span><ul><li class="menu__item is-leaf leaf menu-mlid-4080"><a href="/research-by-audience/general-public" class="menu__link">General Public</a></li>
<li class="menu__item is-leaf leaf menu-mlid-4084"><a href="/supporter-satisfaction-benchmark" title="" class="menu__link">Supporters</a></li>
<li class="menu__item is-leaf leaf menu-mlid-4083"><a href="/research-by-audience/politicians" class="menu__link">Politicians</a></li>
<li class="menu__item is-leaf leaf menu-mlid-4082"><a href="/research-by-audience/stakeholders" class="menu__link">Stakeholders</a></li>
<li class="menu__item is-leaf leaf menu-mlid-4094"><a href="/research-by-audience/hard-to-reach" class="menu__link">Hard-to-reach audiences</a></li>
<li class="menu__item is-leaf leaf menu-mlid-4096"><a href="/research-by-audience/healthcare-professionals" class="menu__link">Healthcare professionals</a></li>
<li class="menu__item is-leaf leaf menu-mlid-4095"><a href="/research-by-audience/journalists" class="menu__link">Journalists</a></li>
<li class="menu__item is-leaf last leaf menu-mlid-4174"><a href="/research-by-audience/grant-makers" class="menu__link">Grant-makers</a></li>
</ul><li class="grouping" ><span>By Expertise</span><ul><li class="menu__item is-leaf leaf menu-mlid-4103"><a href="/expertise/product-and-service-development" class="menu__link">Product Development</a></li>
<li class="menu__item is-leaf leaf menu-mlid-4101"><a href="/expertise/impact-evaluation" class="menu__link">Impact Evaluation</a></li>
<li class="menu__item is-leaf leaf menu-mlid-4097"><a href="/expertise/brand-and-strategy" class="menu__link">Brand and Strategy</a></li>
<li class="menu__item is-leaf leaf menu-mlid-4100"><a href="/expertise/communications" class="menu__link">Communications</a></li>
<li class="menu__item is-leaf leaf menu-mlid-4099"><a href="/expertise/influencer-support" class="menu__link">Influencer Support</a></li>
<li class="menu__item is-leaf leaf menu-mlid-4102"><a href="/expertise/fundraising" class="menu__link">Fundraising</a></li>
</ul></ul></li>
<li class="menu__item is-leaf leaf menu-mlid-634"><a href="/free-reports-and-presentations" title="Keep up-to-date with these downloadable free resources." class="menu__link">Free Resources</a></li>
<li class="menu__item is-leaf leaf menu-mlid-4021"><a href="/our-clients" class="menu__link">Our Clients</a></li>
<li class="menu__item is-leaf leaf menu-mlid-4116"><a href="/blog" class="menu__link">Blog</a></li>
<li class="menu__item is-expanded expanded menu-mlid-4147"><a href="/contact" title="" class="menu__link">Contact</a><ul class="menu"><li class="menu__item is-leaf first leaf menu-mlid-4169"><a href="/contact" title="" class="menu__link">Contact nfpSynergy</a></li>
<li class="menu__item is-leaf last leaf menu-mlid-4168"><a href="/about/nfpsynergy-newsletter" class="menu__link">nfpSynergy Newsletter</a></li>
</ul></li>
<li class="menu__item is-leaf is-active last leaf active menu-mlid-4142"><a href="/user/login?destination=client-area" title="" class="menu__link">Client Area</a></li>
</ul></div>

</div>
    </nav>
  </div>
</header>

<main role="main" id="main-content">
    
    <div class="page__content">
        


<article class="node node-page view-mode-full nfp-category--information clearfix node-3035" data-nfp-category="information">
  
<div class="paragraphs-items paragraphs-items-field-slices paragraphs-items-field-slices-full paragraphs-items-full">
  <div class="field field-name-field-slices field-type-paragraphs field-label-hidden">
    <div class="field-items">
          <div class="field-item even"><div class="entity entity-paragraphs-item paragraphs-item-slice-slider pp-id-15 has-0-cols" id="pp-id-15">
  <div class="content">
    <div class="field-collection-container clearfix"><div class="slider field field-name-field-slides field-type-field-collection field-label-hidden">
  <div class="slider__slides" data-i="0" data-count="3">
          <div class="slider__slide_wrapper">
      <div class="slider__slide entity entity-field-collection-item field-collection-item-field-slides text-colour-white"  style="background-image:url(&quot;https://nfpsynergy.net/sites/default/files/styles/slider/public/field/image/lucas-benjamin-GAM-7l4QzmI-unsplash.jpg&quot;)">
<div class="slider__dimmer">  <div class="slider__content">
    <div class="field field-name-field-slice-text field-type-text-long field-label-hidden">
    <div class="field-items">
          <div class="field-item even"><p class="slider__blog-title">New in Blog</p><h1>How successful have charities been over the last few decades?</h1><p>A Look back at our Past Imperfect Report: This week's blog looks at trend data on cancer and poverty and what this tells us about the impact that charities in these sectors are making.</p><a class='button primary' href='/node/4787'>Read Full Article <span class='visually-hidden'>How successful have charities been over the last few decades?</span></a></div>
      </div>
</div>
  </div>
  </div></div>
      </div>
          <div class="slider__slide_wrapper">
      <div class="slider__slide entity entity-field-collection-item field-collection-item-field-slides text-colour-white"  style="background-image:url(&quot;https://nfpsynergy.net/sites/default/files/styles/slider/public/images/thomas-kelley-136961-unsplash-min.jpg&quot;)">
  <div class="slider__content">
    <div class="field field-name-field-slice-text field-type-text-long field-label-hidden">
    <div class="field-items">
          <div class="field-item even"><h1><span>Find out what MPs think about your charity</span></h1>

<p><a class="button primary" href="https://nfpsynergy.net/tracking-research/charity-parliamentary-monitor" target="_blank">with our research</a></p>

<p> </p></div>
      </div>
</div>
  </div>
  </div>
      </div>
          <div class="slider__slide_wrapper">
      <div class="slider__slide entity entity-field-collection-item field-collection-item-field-slides text-colour-white"  style="background-image:url(&quot;https://nfpsynergy.net/sites/default/files/styles/slider/public/images/globe.jpg&quot;)">
  <div class="slider__content">
    <div class="field field-name-field-slice-text field-type-text-long field-label-hidden">
    <div class="field-items">
          <div class="field-item even"><h1>Fundraising around the world </h1>

<p><a class="button primary" href="https://nfpsynergy.net/free-report/charity-fundraising-around-the-world" target="_blank">read new report</a></p></div>
      </div>
</div>
  </div>
  </div>
      </div>
      </div>
</div>
<a id="slider__end" name="slider__end"></a>
</div>  </div>
</div>
</div>
          <div class="field-item odd"><div class="pp-normal entity entity-paragraphs-item paragraphs-item-normal pp-id-13 centred has-1-cols" id="pp-id-13">
    <div class="content">
    <div class="pp-normal__header">
      <!--
THIS FILE IS NOT USED AND IS HERE AS A STARTING POINT FOR CUSTOMIZATION ONLY.
See http://api.drupal.org/api/function/theme_field/7 for details.
After copying this file to your theme's folder and customizing it, remove this
HTML comment.
-->
<h2 class="slice-title">Welcome to nfpSynergy</h2>
          </div>
    <div class="pp-normal__cols">
      <div class="pp-normal__col1">
        <div class="field field-name-field-slice-text field-type-text-long field-label-hidden">
    <div class="field-items">
          <div class="field-item even"><p>A leading organisation in the UK that provides high quality market research and consulting services exclusively for charities and non-profits.</p>

<p><a class="button primary" href="/about-nfpsynergy" target="_blank">Read more about us</a></p>

<p class="icon--or">or</p>

<p><a class="tertiary" href="https://nfpsynergy.net/#good-company">See some of our clients</a></p></div>
      </div>
</div>
      </div>
      <div class="pp-normal__col2">
              </div>
    </div>
    <div class="pp-normal__footer">
    </div>
  </div>
</div>
</div>
          <div class="field-item even"><div class="pp-normal entity entity-paragraphs-item paragraphs-item-normal pp-id-3 bg2 centred has-1-cols" id="pp-id-3">
    <div class="content">
    <div class="pp-normal__header">
      <!--
THIS FILE IS NOT USED AND IS HERE AS A STARTING POINT FOR CUSTOMIZATION ONLY.
See http://api.drupal.org/api/function/theme_field/7 for details.
After copying this file to your theme's folder and customizing it, remove this
HTML comment.
-->
<h2 class="slice-title">Connect to your audience</h2>
      <!--
THIS FILE IS NOT USED AND IS HERE AS A STARTING POINT FOR CUSTOMIZATION ONLY.
See http://api.drupal.org/api/function/theme_field/7 for details.
After copying this file to your theme's folder and customizing it, remove this
HTML comment.
-->
<p class="slice-leader">Get to know your existing supporters and find new advocates</p>
    </div>
    <div class="pp-normal__cols">
      <div class="pp-normal__col1">
        <div class="field field-name-field-slice-text field-type-text-long field-label-hidden">
    <div class="field-items">
          <div class="field-item even"><ul class="audiences">
	<li class="audiences--public"><a href="/research/general-public" target="_blank">General public</a></li>
	<li class="audiences--journalists"><a href="/node/3043" target="_blank">Journalists</a></li>
	<li class="audiences--healthcare"><a href="/node/3044" target="_blank">Healthcare Professionals</a></li>
	<li class="audiences--hard"><a href="/node/3042" target="_blank">Hard-to-reach audiences</a></li>
	<li class="audiences--supporters"><a href="/supporter-satisfaction-benchmark" target="_blank">Supporters</a></li>
	<li class="audiences--politicians"><a href="/node/3040" target="_blank">Politicians</a></li>
	<li class="audiences--stakeholders"><a href="/node/3039" target="_blank">Stakeholders</a></li>
	<li class="audiences--grantmakers"><a href="/node/4205" target="_blank">Grant-makers</a></li>
</ul>

<h2>Wherever they are</h2>

<ul class="countries">
	<li class="country--world"><a href="https://nfpsynergy.net/research-by-location/worldwide" target="_blank">The World</a></li>
	<li class="country--uk"><a href="/uk-wide-research" target="_blank">UK-wide</a></li>
	<li class="country--ni"><a href="/northern-ireland" target="_blank">Northern Ireland</a></li>
	<li class="country--roi"><a href="/republic-ireland" target="_blank">Republic of Ireland</a></li>
	<li class="country--scotland"><a href="/scotland" target="_blank">Scotland</a></li>
	<li class="country--wales"><a href="/wales" target="_blank">Wales</a></li>
</ul></div>
      </div>
</div>
      </div>
      <div class="pp-normal__col2">
              </div>
    </div>
    <div class="pp-normal__footer">
    </div>
  </div>
</div>
</div>
          <div class="field-item odd"><div class="pp-cs entity entity-paragraphs-item paragraphs-item-content-selection pp-id-4 has-0-cols" id="pp-id-4">
  <div class="content">
    <div class="pp-cs__header">
      <!--
THIS FILE IS NOT USED AND IS HERE AS A STARTING POINT FOR CUSTOMIZATION ONLY.
See http://api.drupal.org/api/function/theme_field/7 for details.
After copying this file to your theme's folder and customizing it, remove this
HTML comment.
-->
<h2 class="slice-title">Find robust answers to tough questions</h2>
      <!--
THIS FILE IS NOT USED AND IS HERE AS A STARTING POINT FOR CUSTOMIZATION ONLY.
See http://api.drupal.org/api/function/theme_field/7 for details.
After copying this file to your theme's folder and customizing it, remove this
HTML comment.
-->
<p class="slice-leader">Everything you need to make better decisions</p>
    </div>
    <div class="pp-cs__content">
      <div class="field-collection-container clearfix">  <div class="pp-cs__node">
    <article class="node node-page node-teaser nfp-category--consultancy clearfix node-3050 " data-nfp-category="consultancy">
  <div class="field field-name-field-image field-type-image field-label-hidden">
    <div class="field-items">
          <div class="field-item even"><a href="/expertise/fundraising"><img src="https://nfpsynergy.net/sites/default/files/styles/content_selection/public/images/charity%20collection%20buckets.jpg?itok=e8_SNp6M" width="624" height="351" alt="Fundraising buckets" title="Fundraising" /></a></div>
      </div>
</div>
    
        <h1><a href="/expertise/fundraising">Fundraising          </a></h1>
    
  
  <div class="teaser__summary">
    Our research has contributed to the fundraising strategies for 75% of the UK’s top 50 fundraising charity and non-profit brands over the last 15 years.  </div>
      <div class="teaser__read-more">
      <a href="/expertise/fundraising" class="tertiary" >Find Out More</a>    </div>
    </article>
  </div>
  <div class="pp-cs__node">
    <article class="node node-page node-teaser nfp-category--consultancy clearfix node-3045 " data-nfp-category="consultancy">
  <div class="field field-name-field-image field-type-image field-label-hidden">
    <div class="field-items">
          <div class="field-item even"><a href="/expertise/brand-and-strategy"><img src="https://nfpsynergy.net/sites/default/files/styles/content_selection/public/images/maze%20game.jpg?itok=LAA7iUFe" width="624" height="351" alt="Maze game" title="Brand and Strategy" /></a></div>
      </div>
</div>
    
        <h1><a href="/expertise/brand-and-strategy">Brand and strategy          </a></h1>
    
  
  <div class="teaser__summary">
    We’ll  find the evidence to ensure your organisation makes informed decisions about future direction and creates effective strategies to get there.  </div>
      <div class="teaser__read-more">
      <a href="/expertise/brand-and-strategy" class="tertiary" >Find Out More</a>    </div>
    </article>
  </div>
  <div class="pp-cs__node">
    <article class="node node-page node-teaser nfp-category--consultancy clearfix node-3047 " data-nfp-category="consultancy">
  <div class="field field-name-field-image field-type-image field-label-hidden">
    <div class="field-items">
          <div class="field-item even"><a href="/expertise/influencer-support"><img src="https://nfpsynergy.net/sites/default/files/styles/content_selection/public/images/house%20of%20commons.jpg?itok=qpw86frZ" width="624" height="351" alt="Secure influencer support" title="Secure influencer support" /></a></div>
      </div>
</div>
    
        <h1><a href="/expertise/influencer-support">Secure influencer support          </a></h1>
    
  
  <div class="teaser__summary">
    We want to help you develop strong engagement strategies and build lasting professional relationships with key influencers in your charity’s sector.  </div>
      <div class="teaser__read-more">
      <a href="/expertise/influencer-support" class="tertiary" >Find Out More</a>    </div>
    </article>
  </div>
  <div class="pp-cs__node">
    <article class="node node-page node-teaser nfp-category--consultancy clearfix node-3049 " data-nfp-category="consultancy">
  <div class="field field-name-field-image field-type-image field-label-hidden">
    <div class="field-items">
          <div class="field-item even"><a href="/expertise/impact-evaluation"><img src="https://nfpsynergy.net/sites/default/files/styles/content_selection/public/images/impact%20evaulation.jpg?itok=BQ68eEtD" width="624" height="351" alt="Evaluate your impact" title="Evaluate your impact " /></a></div>
      </div>
</div>
    
        <h1><a href="/expertise/impact-evaluation">Evaluate your impact          </a></h1>
    
  
  <div class="teaser__summary">
    Determining the impact your organisation makes in the lives of its beneficiaries isn't always easy. We can help you measure the effects of your key services and activities.  </div>
      <div class="teaser__read-more">
      <a href="/expertise/impact-evaluation" class="tertiary" >Find Out More</a>    </div>
    </article>
  </div>
  <div class="pp-cs__node">
    <article class="node node-page node-teaser nfp-category--consultancy clearfix node-3051 " data-nfp-category="consultancy">
  <div class="field field-name-field-image field-type-image field-label-hidden">
    <div class="field-items">
          <div class="field-item even"><a href="/expertise/product-and-service-development"><img src="https://nfpsynergy.net/sites/default/files/styles/content_selection/public/images/product%20development_0.JPG?itok=PxY0n3Ko" width="624" height="351" alt="Develop your products and services" title="Develop your products and services" /></a></div>
      </div>
</div>
    
        <h1><a href="/expertise/product-and-service-development">Develop your products and services          </a></h1>
    
  
  <div class="teaser__summary">
    Whatever sector your charity or non-profit is working in, we can use our research to assist you in the development of successful services and products.  </div>
      <div class="teaser__read-more">
      <a href="/expertise/product-and-service-development" class="tertiary" >Find Out More</a>    </div>
    </article>
  </div>
  <div class="pp-cs__node">
    <article class="node node-page node-teaser nfp-category--consultancy clearfix node-3048 " data-nfp-category="consultancy">
  <div class="field field-name-field-image field-type-image field-label-hidden">
    <div class="field-items">
          <div class="field-item even"><a href="/expertise/communications"><img src="https://nfpsynergy.net/sites/default/files/styles/content_selection/public/images/develop%20your%20brand%20communications_0.JPG?itok=bUbmJikk" width="624" height="351" alt="brand communications" title="Develop your brand communications" /></a></div>
      </div>
</div>
    
        <h1><a href="/expertise/communications">Develop your brand communications          </a></h1>
    
  
  <div class="teaser__summary">
    Our research has helped charities and non-profits develop communications which exemplify their brand and resonate with a wide range of audiences.  </div>
      <div class="teaser__read-more">
      <a href="/expertise/communications" class="tertiary" >Find Out More</a>    </div>
    </article>
  </div>
</div>    </div>
    <div class="pp-normal__footer">
    </div>
  </div>
</div>
</div>
          <div class="field-item even"><div class="pp-normal entity entity-paragraphs-item paragraphs-item-normal pp-id-5 bg1 has-1-cols" id="pp-id-5">
  <a id="free-resources" ></a>  <div class="content">
    <div class="pp-normal__header">
      <!--
THIS FILE IS NOT USED AND IS HERE AS A STARTING POINT FOR CUSTOMIZATION ONLY.
See http://api.drupal.org/api/function/theme_field/7 for details.
After copying this file to your theme's folder and customizing it, remove this
HTML comment.
-->
<h2 class="slice-title">Our Views, Opinions and Predictions</h2>
          </div>
    <div class="pp-normal__cols">
      <div class="pp-normal__col1">
              </div>
      <div class="pp-normal__col2">
        <div class="field field-name-field-slice-widgets field-type-blockreference field-label-hidden">
    <div class="field-items">
          <div class="field-item even"><div class="block block-nfp first odd" id="block-nfp-nfp-3-freebies">

      
  <div class="nfp_3_freebies__items"><div class="nfp_3_freebies__item"><article class="node node-free-resources node-promoted node-teaser nfp-category--press-release clearfix node-4061 " data-nfp-category="press-release">
  <div class="field field-name-field-image field-type-image field-label-hidden">
    <div class="field-items">
          <div class="field-item even"><a href="/press-release/trust-charities-and-overseas-development-sector"><img src="https://nfpsynergy.net/sites/default/files/styles/content_selection/public/resources/adnanta-raharja-329594-unsplash.jpg?itok=IQgibi_t" width="624" height="351" alt="parachute" /></a></div>
      </div>
</div>
      <p class="teaser__resource-type">Press Release</p>
    
        <h1><a href="/press-release/trust-charities-and-overseas-development-sector">Trust in Charities and the Overseas Development Sector          </a></h1>
    
  
  <div class="teaser__summary">
    <p>Stories in the media continue to shake the sector. We ran this survey to measure the level of trust in the charity sector shortly after the controversies around Oxfam and other charities, as well as the President’s Club fundraising event, hit the news.</p>  </div>
    <div class="field field-name-field-tags field-type-taxonomy-term-reference field-label-above">
      <div class="field-label">Tags:&nbsp;</div>
    <div class="field-items">
          <div class="field-item even"><a href="/tags/general-research">General research</a></div>
          <div class="field-item odd"><a href="/tags/public-attitudes">Public Attitudes</a></div>
      </div>
</div>
</article>
</div><div class="nfp_3_freebies__item"><article class="node node-free-resources node-promoted node-teaser nfp-category--free-report clearfix node-4742 " data-nfp-category="free-report">
  <div class="field field-name-field-image field-type-image field-label-hidden">
    <div class="field-items">
          <div class="field-item even"><a href="/free-report/action-trustee-racial-diversity-%E2%80%93-key-findings-mapping-survey-questionnaire"><img src="https://nfpsynergy.net/sites/default/files/styles/content_selection/public/resources/diversity.jpg?itok=QAdKRddQ" width="624" height="351" alt="" /></a></div>
      </div>
</div>
      <p class="teaser__resource-type">Free Report</p>
    
        <h1><a href="/free-report/action-trustee-racial-diversity-%E2%80%93-key-findings-mapping-survey-questionnaire">Action for Trustee Racial Diversity – Key findings from mapping survey questionnaire           </a></h1>
    
  
  <div class="teaser__summary">
    This week's guest blog is written by Malcolm John, looking into into the apparent lack of diversity of charity among charity trustees. This report contains the data Malcolm used to create his blog.  </div>
    <div class="field field-name-field-tags field-type-taxonomy-term-reference field-label-above">
      <div class="field-label">Tags:&nbsp;</div>
    <div class="field-items">
          <div class="field-item even"><a href="/tags/facts-and-figures">Facts and Figures</a></div>
          <div class="field-item odd"><a href="/tags/guest-blog">Guest Blog</a></div>
      </div>
</div>
</article>
</div><div class="nfp_3_freebies__item"><article class="node node-article node-promoted node-teaser nfp-category--blog clearfix node-4787 " data-nfp-category="blog">
  <div class="field field-name-field-image field-type-image field-label-hidden">
    <div class="field-items">
          <div class="field-item even"><a href="/blog/past-imperfect-report-on-charity-sucesses"><img src="https://nfpsynergy.net/sites/default/files/styles/content_selection/public/field/image/lucas-benjamin-GAM-7l4QzmI-unsplash.jpg?itok=PEgVdxl-" width="624" height="351" alt="" /></a></div>
      </div>
</div>
      <p class="teaser__resource-type">Blog</p>
    
        <h1><a href="/blog/past-imperfect-report-on-charity-sucesses">How successful have charities been over the last few decades?          </a></h1>
    
  
  <div class="teaser__summary">
    A look back at our Past Imperfect free report: What can key statistics tell us about the impact of charities on their causes over the last few decades and how can charities build a strategy around this.  </div>
    <div class="field field-name-field-tags field-type-taxonomy-term-reference field-label-inline clearfix">
      <div class="field-label">Tags:&nbsp;</div>
    <div class="field-items">
          <div class="field-item even"><a href="/tags/general-research">General research</a></div>
          <div class="field-item odd"><a href="/tags/social-investment">Social Investment</a></div>
      </div>
</div>
</article>
</div></div>
</div>
</div>
      </div>
</div>
      </div>
    </div>
    <div class="pp-normal__footer">
    </div>
  </div>
</div>
</div>
          <div class="field-item odd"><div class="pp-normal entity entity-paragraphs-item paragraphs-item-normal pp-id-16 has-1-cols" id="pp-id-16">
    <div class="content">
    <div class="pp-normal__header">
      <!--
THIS FILE IS NOT USED AND IS HERE AS A STARTING POINT FOR CUSTOMIZATION ONLY.
See http://api.drupal.org/api/function/theme_field/7 for details.
After copying this file to your theme's folder and customizing it, remove this
HTML comment.
-->
<h2 class="slice-title">What people say about us</h2>
          </div>
    <div class="pp-normal__cols">
      <div class="pp-normal__col1">
              </div>
      <div class="pp-normal__col2">
        <div class="field field-name-field-slice-widgets field-type-blockreference field-label-hidden">
    <div class="field-items">
          <div class="field-item even"><div class="block block-views even" id="block-views-random-boast-block-1">

      
  <div class="view view-random-boast view-id-random_boast view-display-id-block_1 view-dom-id-71f65ffbcea1c35bbbeacd7c80d86aad">
        
  
  
      <div class="view-content">
        <div class="views-row views-row-1 views-row-odd views-row-first views-row-last">
      
  <div class="views-field views-field-field-image">        <div class="field-content"><img src="https://nfpsynergy.net/sites/default/files/styles/logo_small/public/client-logos/DEC_logo_solo_no_strap_555.jpg?itok=_w8XJegm" width="151" height="150" alt="Disasters emergency committee" /></div>  </div>  
  <div class="views-field views-field-field-boast">        <div class="field-content"><blockquote><div class="nfp-bq1"></div><div class="nfp-bq2"></div>
<p>“As well as using the comprehensive review to prepare ourselves for future appeals, we found the research was great to share with other suppliers to help them understand what we do. We also decided to do a public and donor survey, our second project with nfpSynergy.” </p>
</blockquote>

<p class="quote__name">Adil Husseini</p>

<p class="quote__job_title">Head of Fundraising &amp; Marketing at DEC</p></div>  </div>  </div>
    </div>
  
  
  
  
  
  
</div>
</div>
</div>
      </div>
</div>
      </div>
    </div>
    <div class="pp-normal__footer">
    </div>
  </div>
</div>
</div>
          <div class="field-item even"><a class="n16-anchor" id="good-company" ></a>
<div class="pp-normal entity entity-paragraphs-item paragraphs-item-normal pp-id-453 has-1-cols" id="pp-id-453">
  <a id="relevant-clients" ></a>  <div class="content">
    <div class="pp-normal__header">
      <!--
THIS FILE IS NOT USED AND IS HERE AS A STARTING POINT FOR CUSTOMIZATION ONLY.
See http://api.drupal.org/api/function/theme_field/7 for details.
After copying this file to your theme's folder and customizing it, remove this
HTML comment.
-->
<h2 class="slice-title">You will be in good company</h2>
      <!--
THIS FILE IS NOT USED AND IS HERE AS A STARTING POINT FOR CUSTOMIZATION ONLY.
See http://api.drupal.org/api/function/theme_field/7 for details.
After copying this file to your theme's folder and customizing it, remove this
HTML comment.
-->
<p class="slice-leader">Some of our clients:</p>
    </div>
    <div class="pp-normal__cols">
      <div class="pp-normal__col1">
              </div>
      <div class="pp-normal__col2">
        <div class="field field-name-field-slice-widgets field-type-blockreference field-label-hidden">
    <div class="field-items">
          <div class="field-item even"><div class="block block-views odd" id="block-views-featured-clients-grid-block-2">

      
  <div class="view view-featured-clients-grid view-id-featured_clients_grid view-display-id-block_2 view-dom-id-4b30ebe02bb3e653beb465cffc2ce5c1">
        
  
  
      <div class="view-empty">
      <div class="view view-featured-clients-grid view-id-featured_clients_grid view-display-id-block_4 view-dom-id-a46296daad5a188dd368e6713ea21c28">
        
  
  
      <div class="view-content">
        <div class="views-row views-row-1">
      
  <div class="views-field views-field-field-image">        <div class="field-content"><a href="/our-clients/scope"><img src="https://nfpsynergy.net/sites/default/files/styles/logo_small/public/client-logos/Scope-logo-1000px.jpg?itok=YQmJOyxR" width="253" height="150" alt="Logo: Scope. About disability" /></a></div>  </div>  
  <div class="views-field views-field-title">        <span class="field-content"><a href="/our-clients/scope">Scope</a></span>  </div>  </div>
  <div class="views-row views-row-2">
      
  <div class="views-field views-field-field-image">        <div class="field-content"><a href="/our-clients/macmillan-cancer-support"><img src="https://nfpsynergy.net/sites/default/files/styles/logo_small/public/client-logos/M_white_mid_RGB.jpg?itok=PqApwaKK" width="300" height="125" alt="Logo: We are Macmillan. Cancer Support." /></a></div>  </div>  
  <div class="views-field views-field-title">        <span class="field-content"><a href="/our-clients/macmillan-cancer-support">Macmillan Cancer Support</a></span>  </div>  </div>
  <div class="views-row views-row-3">
      
  <div class="views-field views-field-field-image">        <div class="field-content"><a href="/our-clients/the-childrens-society"><img src="https://nfpsynergy.net/sites/default/files/styles/logo_small/public/client-logos/The%20Children%27s%20Society%20-%20Key%20line%20logo%20-%20on%20white%20-%20RGB.jpg?itok=e40rKEQL" width="294" height="150" alt="The children&#039;s society logo" /></a></div>  </div>  
  <div class="views-field views-field-title">        <span class="field-content"><a href="/our-clients/the-childrens-society">The Children&#039;s Society</a></span>  </div>  </div>
  <div class="views-row views-row-4">
      
  <div class="views-field views-field-field-image">        <div class="field-content"><a href="/our-clients/breast-cancer-care"><img src="https://nfpsynergy.net/sites/default/files/styles/logo_small/public/client-logos/breast%20cancer%20care%20logo.jpg?itok=RqKORYqd" width="172" height="150" alt="Breast Cancer Care logo" /></a></div>  </div>  
  <div class="views-field views-field-title">        <span class="field-content"><a href="/our-clients/breast-cancer-care">Breast Cancer Care</a></span>  </div>  </div>
  <div class="views-row views-row-5">
      
  <div class="views-field views-field-field-image">        <div class="field-content"><a href="/our-clients/battersea-dogs-cats-home"><img src="https://nfpsynergy.net/sites/default/files/styles/logo_small/public/client-logos/battersea%20logo.jpeg?itok=5w-K682N" width="300" height="150" alt="Battersea charity logo" /></a></div>  </div>  
  <div class="views-field views-field-title">        <span class="field-content"><a href="/our-clients/battersea-dogs-cats-home">Battersea Dogs &amp; Cats Home</a></span>  </div>  </div>
  <div class="views-row views-row-6">
      
  <div class="views-field views-field-field-image">        <div class="field-content"><a href="/our-clients/disasters-emergency-committee"><img src="https://nfpsynergy.net/sites/default/files/styles/logo_small/public/client-logos/DEC_logo_solo_no_strap_555.jpg?itok=_w8XJegm" width="151" height="150" alt="Disasters emergency committee" /></a></div>  </div>  
  <div class="views-field views-field-title">        <span class="field-content"><a href="/our-clients/disasters-emergency-committee">Disasters Emergency Committee</a></span>  </div>  </div>
  <div class="views-row views-row-7">
      
  <div class="views-field views-field-field-image">        <div class="field-content"><a href="/our-clients/rspb"><img src="https://nfpsynergy.net/sites/default/files/styles/logo_small/public/client-logos/rspb-1.jpg?itok=Ba2QCw29" width="300" height="150" alt="RSPB Logo" /></a></div>  </div>  
  <div class="views-field views-field-title">        <span class="field-content"><a href="/our-clients/rspb">RSPB</a></span>  </div>  </div>
  <div class="views-row views-row-8">
      
  <div class="views-field views-field-field-image">        <div class="field-content"><a href="/our-clients/girlguiding"><img src="https://nfpsynergy.net/sites/default/files/styles/logo_small/public/client-logos/Girlguiding-logo_0.jpg?itok=nNMauloo" width="255" height="150" alt="Girlguiding logo" /></a></div>  </div>  
  <div class="views-field views-field-title">        <span class="field-content"><a href="/our-clients/girlguiding">Girlguiding</a></span>  </div>  </div>
  <div class="views-row views-row-9">
      
  <div class="views-field views-field-field-image">        <div class="field-content"><a href="/our-clients/all-we-can"><img src="https://nfpsynergy.net/sites/default/files/styles/logo_small/public/client-logos/all%20we%20can%20logo.jpg?itok=upjo5cdd" width="280" height="150" alt="All we can logo" /></a></div>  </div>  
  <div class="views-field views-field-title">        <span class="field-content"><a href="/our-clients/all-we-can">All We Can</a></span>  </div>  </div>
    </div>
  
  
  
  
  
  
</div>    </div>
  
  
  
  
  
  
</div>
</div>
</div>
      </div>
</div>
      </div>
    </div>
    <div class="pp-normal__footer">
    </div>
  </div>
</div>
</div>
          <div class="field-item odd"><div class="pp-normal entity entity-paragraphs-item paragraphs-item-normal pp-id-17 bg3 centred has-1-cols" id="pp-id-17">
  <a id="contact" ></a>  <div class="content">
    <div class="pp-normal__header">
      <!--
THIS FILE IS NOT USED AND IS HERE AS A STARTING POINT FOR CUSTOMIZATION ONLY.
See http://api.drupal.org/api/function/theme_field/7 for details.
After copying this file to your theme's folder and customizing it, remove this
HTML comment.
-->
<h2 class="slice-title">Talk to us</h2>
      <!--
THIS FILE IS NOT USED AND IS HERE AS A STARTING POINT FOR CUSTOMIZATION ONLY.
See http://api.drupal.org/api/function/theme_field/7 for details.
After copying this file to your theme's folder and customizing it, remove this
HTML comment.
-->
<p class="slice-leader">Interested in our consultancy services, tracking research, or anything else? Call us on 020 7426 8888 or use this form.</p>
    </div>
    <div class="pp-normal__cols">
      <div class="pp-normal__col1">
              </div>
      <div class="pp-normal__col2">
        <div class="field field-name-field-slice-widgets field-type-blockreference field-label-hidden">
    <div class="field-items">
          <div class="field-item even"><div id="nfp_contact_form"><div class="block block-nfp even" id="block-nfp-nfp-contact">

      
  <form action="/" method="post" id="nfp-contact-form" accept-charset="UTF-8"><div><input type="hidden" name="page_url" value="" />
<div class="alpha grid-2"><div class="form-item form-type-textfield form-item-name">
  <label for="edit-name">Enter name </label>
 <input type="text" id="edit-name" name="name" value="" size="6" maxlength="128" class="form-text" />
</div>
</div><div class="omega grid-2"><div class="form-item form-type-textfield form-item-email">
  <label for="edit-email">Enter email </label>
 <input type="text" id="edit-email" name="email" value="" size="6" maxlength="128" class="form-text" />
</div>
</div><div class="form-item form-type-textfield form-item-organisation">
  <label for="edit-organisation">Enter Organisation </label>
 <input type="text" id="edit-organisation" name="organisation" value="" size="20" maxlength="128" class="form-text" />
</div>
<div class="form-item form-type-textarea form-item-comment">
  <label for="edit-comment">Enter query </label>
 <div class="form-textarea-wrapper resizable"><textarea id="edit-comment" name="comment" cols="20" rows="3" class="form-textarea"></textarea></div>
</div>
<input type="submit" id="edit-submit" name="op" value="Send" class="form-submit" /><input type="hidden" name="form_build_id" value="form-ALn4Vvosy_OUjCYDMUJLRVxF9VXRiPOzrDVv0BrVufY" />
<input type="hidden" name="form_id" value="nfp_contact_form" />
</div></form>
</div>
</div></div>
      </div>
</div>
      </div>
    </div>
    <div class="pp-normal__footer">
    </div>
  </div>
</div>
</div>
      </div>
</div>
</div>

        <footer>
        <a id="comments-anchor" name="comments-anchor" style="position:absolute;margin-top:-6rem;" ></a>
      </footer>

</article>
      </div>
  </main>

<footer class="page-footer" role="contentinfo">
  <div class="footer__content">
    <div class="footer__2-cols">
        <div class="footer__left">
          <div class="footer__logo-and-sm">
            <img src="/sites/all/themes/n16/images/nfpSynergy-logo-white-130px.png" alt="nfpSynergy" />
            <div class="footer__sm">
              <a href="https://www.linkedin.com/company/nfpsynergy" class="linkedin">Facebook</a>
              <a href="https://twitter.com/nfpSynergy" class="twitter">Twitter</a>
              <a href="https://www.facebook.com/nfpsynergy" class="facebook">Facebook</a>
            </div>
          </div>
          <form class="nfp-subscribe-footer" action="/" method="post" id="nfp-subscribe-footer-form" accept-charset="UTF-8"><div><div class="form-item form-type-textfield form-item-email">
  <label for="edit-email--2">Email <span class="form-required" title="This field is required.">*</span></label>
 <input type="text" id="edit-email--2" name="email" value="" size="20" maxlength="128" class="form-text required" />
</div>
<div class="form-item form-type-textfield form-item-name">
  <label for="edit-name--2">Name </label>
 <input type="text" id="edit-name--2" name="name" value="" size="20" maxlength="128" class="form-text" />
</div>
<div class="form-item form-type-textfield form-item-organisation">
  <label for="edit-organisation--2">Organisation </label>
 <input type="text" id="edit-organisation--2" name="organisation" value="" size="20" maxlength="128" class="form-text" />
</div>
<div class="form-item-submit"><input type="submit" id="edit-submit--3" name="op" value="Subscribe" class="form-submit" /></div><input type="hidden" name="form_build_id" value="form-pR9Tj-_GqzYbTPgw3OLUTPYtWAnWxXbP0Kb7Ke24dA4" />
<input type="hidden" name="form_id" value="nfp_subscribe_footer_form" />
</div></form>          <div class="footer__smallprint">
            <p>nfpSynergy, <br/>
            2-6 Tenter Ground, Spitalfields, London E1 7NH<br/>
            T: 020 7426 8888<br/>
            </p>

            <p>Registered in England No. 04387900<br/>
            VAT Registration 839 8186 72<br />
            nfpSynergy is a London Living Wage employer</p>

            <p>Website design - <a href="https://webflow.com/dmitry">Dmitry Kravchenko</a><br />
            Website build - <a href="https://artfulrobot.uk">Artful Robot</a></p>

          </div>
        </div>
        <div class="footer__right">
          <div class="footer__right-col">
            <span class="footer__col-header">Company</span>
            <ul>
              <li><a href="/about-nfpsynergy" >About</a></li>
              <li><a href="/about/our-team" >Our Team</a></li>
              <li><a href="/our-clients" >Our Clients</a></li>
              <li><a href="/about/social-investment-nfpsynergy" >Social Investment</a></li>
              <li><a href="/about/jargon-buster" >Jargon Buster</a></li>
              <li><a href="/research/methodology" >Methodology</a></li>
              <li><a href="/contact" >Contact</a></li>
            </ul>
          </div>
          <div class="footer__right-col">
            <span class="footer__col-header">Product</span>
            <ul>
              <li><a href="/tracking-research" >Tracking Research</a></li>
              <li><a href="/bespoke-research" >Bespoke Research</a></li>
              <li><a href="/free-reports-and-presentations" >Free Resources</a></li>
              <li><a href="/blog" >Blog</a></li>
            </ul>
          </div>
          <div class="footer__right-col">
            <span class="footer__col-header">Legal</span>
            <ul>
              <li><a href="/about/privacy-policy" >Privacy Policy</a></li>
            </ul>
          </div>
      </div>
    </div>
  </div>
</footer>

  <script>function euCookieComplianceLoadScripts() {}</script>
<script>var eu_cookie_compliance_cookie_name = "";</script>
<script src="https://nfpsynergy.net/sites/default/files/js/js_2lJC5gTZ8B3-P19n2LPEd0viiCEmLJ5gcIAFYex1r0U.js"></script>
<div class="baselinegrid"></div>
</body>
</html>
