
<!DOCTYPE html>
<html  lang="en" dir="ltr"
  xmlns:content="http://purl.org/rss/1.0/modules/content/"
  xmlns:dc="http://purl.org/dc/terms/"
  xmlns:foaf="http://xmlns.com/foaf/0.1/"
  xmlns:og="http://ogp.me/ns#"
  xmlns:rdfs="http://www.w3.org/2000/01/rdf-schema#"
  xmlns:sioc="http://rdfs.org/sioc/ns#"
  xmlns:sioct="http://rdfs.org/sioc/types#"
  xmlns:skos="http://www.w3.org/2004/02/skos/core#"
  xmlns:xsd="http://www.w3.org/2001/XMLSchema#">
<head>
  <meta http-equiv="Content-Type" content="text/html; charset=utf-8" />
<meta name="Generator" content="Drupal 7 (http://drupal.org)" />
<link rel="canonical" href="/content/home-0" />
<link rel="shortlink" href="/node/3230" />

  <title>Home | Ray Wilson | 2019 Tour</title>
  <!--[if IE]><meta http-equiv='X-UA-Compatible' content='IE=edge,chrome=1'><![endif]-->
  <meta name=viewport content="width=device-width, initial-scale=1">

  <link type="text/css" rel="stylesheet" href="https://www.raywilson.net/sites/default/files/css/css_lQaZfjVpwP_oGNqdtWCSpJT1EMqXdMiU84ekLLxQnc4.css" media="all" />
<link type="text/css" rel="stylesheet" href="https://www.raywilson.net/sites/default/files/css/css_7o6VCO_OUfmZvLFDyRocbIA7eGi0wI7EPyNDU1AGjeU.css" media="all" />
<link type="text/css" rel="stylesheet" href="https://www.raywilson.net/sites/default/files/css/css_uBzzM_XavyXskn5Bf4ZafJsoCHCq5VvwDRBhrQdM2u8.css" media="all" />
<link type="text/css" rel="stylesheet" href="https://www.raywilson.net/sites/default/files/css/css_DaxLH0jW7-6thk4lTZAq4D4w7e-5SPbJaHsNlnxz2gU.css" media="all" />
<link type="text/css" rel="stylesheet" href="//fonts.googleapis.com/css?family=Open+Sans:400italic,700italic,400,300,700|Dosis:300,400,700" media="all" />
<link type="text/css" rel="stylesheet" href="https://www.raywilson.net/sites/default/files/css/css_6HpYLCGo0epTCbcG0QUXWaZQB1DhgIguupK3Tj55efw.css" media="all" />
<link type="text/css" rel="stylesheet" href="https://www.raywilson.net/sites/default/files/css/css_n-0-MC8Njb2q6ccQNAWCB4kiBVd5_vNvfHyXxx7Gqsk.css" media="all" />
  </head>
<body class="appear-animate html front not-logged-in no-sidebars page-node page-node- page-node-3230 node-type-page">
  <div class="main-wrap">
          <!-- Page Loader -->        
      <div class="page-loader">
          <div class="loader">Loading...</div>
      </div>
      <!-- End Page Loader -->
    
        <div class = "page">

        <div  class="nd-region">
         
      <div class = "container-fluid">
        <div  id="Header" class="row">     
                                                    <div  id="top" class="col-md-12 ">
                                                <div class="region region-top">
      <div id="block-block-34" class="block block-block " >
  
        
  <div class = "block-content clearfix">
    <!-- Navigation panel -->
<nav class="main-nav dark js-stick">
  <div class="full-wrapper relative clearfix">
    <!-- Logo ( * your text or image into link tag *) -->
        <div class="mobile-nav">
        <i class="fa fa-bars"></i>
    </div>
    
    <!-- Main Menu -->
    <div class="inner-nav desktop-nav">
      <ul class="clearlist">
        <li><a href="/" title="" class="active">| Home</a></li>
<li><a href="/latest-tour-dates" title="">| Tour </a></li>
<li><a href="/content/biography">| Biog</a></li>
<li><a href="/content/music">| Music</a></li>
<li><a href="/content/photos">| Photos</a></li>
<li><a href="/videos">| Videos</a></li>
<li><a href="/press" title="">| PRESS</a></li>
<li><a href="http://www.genesisclassic.com" title="">| Genesis Classic</a></li>
<li><a href="/content/online-shop">| Shop</a></li>
<li><a href="/content/contact" title="" class="mn-has-sub">| Contact <i class="fa fa-angle-down"></i></a><ul class = "mn-sub"><li><a href="/content/konzerte-mit-ray-wilson-buchen" title="Konzerte mit Ray Wilson buchen">Konzert Booking</a></li>
<li><a href="/content/booking-koncert%C3%B3w_2">Booking Koncertów</a></li>
</ul></li>
                                      </ul>
    </div>
    <!-- End Main Menu -->
  </div>
</nav>
   </div>

  </div> <!-- /.block -->
  <div id="block-block-35" class="block block-block " >
  
        
  <div class = "block-content clearfix">
    <div  class = ' slider-wrapper' data-autoplay = "3000"><div class="work-full-media mt-0 white-shadow">
        <div class="clearlist work-full-slider owl-carousel owl-theme" style="opacity: 1; display: block;">
<div >
<a  href = 'https://shop3.raywilson.net/index.php/cd-dvd.html'><img style="" typeof="foaf:Image" src="https://www.raywilson.net/sites/default/files/upon-header-available-now.jpg" alt="Upon My Life - Available Now" title="Upon My Life - Available Now" /></a>
</div>
<div >
<a  href = 'https://shop3.raywilson.net/index.php/cd-dvd/ray-wilson-zdf-at-bauhaus-cd-dvd.html'><img style="" typeof="foaf:Image" src="https://www.raywilson.net/sites/default/files/ZDF-02.jpg" alt="Alt" title="Buy Now" /></a>
</div>
<div >
<a  href = 'https://shop3.raywilson.net/index.php/cd-dvd/time-and-distance.html'><img style="" typeof="foaf:Image" src="https://www.raywilson.net/sites/default/files/TandD-03.jpg" alt="Alt" title="Buy Now" /></a>
</div>
</div>
      </div></div>
<div  class = ' row pi-text-center' style = ' text-align:center;'>
<div  class = ' pi-text-center' style = ' text-align:center;'>
  <div id="block-social-media-links-social-media-links" class="block block-social-media-links " >
  
        
  <div class = "block-content clearfix">
    <ul class="social-media-links platforms inline horizontal"><li  class="facebook first"><a href="https://www.facebook.com/raywilsonofficial/" target="_blank" title="Facebook"><img src="https://www.raywilson.net/sites/all/modules/social_media_links/libraries/elegantthemes/PNG/facebook.png" alt="Facebook icon" /></a></li><li  class="twitter"><a href="http://www.twitter.com/raywilson_20" target="_blank" title="Twitter"><img src="https://www.raywilson.net/sites/all/modules/social_media_links/libraries/elegantthemes/PNG/twitter.png" alt="Twitter icon" /></a></li><li  class="instagram"><a href="http://www.instagram.com/raywilsonmusic" target="_blank" title="Instagram"><img src="https://www.raywilson.net/sites/all/modules/social_media_links/libraries/elegantthemes/PNG/instagram.png" alt="Instagram icon" /></a></li><li  class="youtube_channel last"><a href="http://www.youtube.com/channel/raywilsonofficial" target="_blank" title="Youtube (Channel)"><img src="https://www.raywilson.net/sites/all/modules/social_media_links/libraries/elegantthemes/PNG/youtube.png" alt="Youtube (Channel) icon" /></a></li></ul>  </div>

  </div> <!-- /.block -->

</div>
</div>
   </div>

  </div> <!-- /.block -->
  </div>
                                              </div>
                                                                                                                                                                                </div>
      </div>
          </div>
    
      <div  class="nd-region">
         
      <div class = "container-fluid">
        <div  id="Content" class="row">     
                                                                                                <div  id="content" class="col-md-12 ">
                                              <div class = "container"><div class = "row"><div class = "col-md-8 col-md-offset-2"></div></div></div>  <div class="region region-content">
      <div id="block-system-main" class="block block-system " >
  
        
  <div class = "block-content clearfix">
    <div id="node-3230" class="node node-page clearfix" about="/content/home-0" typeof="foaf:Document">

  
      <span property="dc:title" content="Home" class="rdf-meta element-hidden"></span>
  
  <div class="content">
    <div class="field field-name-body field-type-text-with-summary field-label-hidden"><section  class = ' page-section parallax-0 banner-section' data-background = 'https://www.raywilson.net/sites/default/files/UPON-2019-BG-01_5.jpg' data-uri = 'public://UPON-2019-BG-01_5.jpg' style = 'background-image: url("https://www.raywilson.net/sites/default/files/UPON-2019-BG-01_5.jpg");'>
<div  class = ' container' style = 'padding-top: 10px;'>
<div  class = ' row'>
<div  class = ' col-md-3'>
<span ><img style="" typeof="foaf:Image" src="https://www.raywilson.net/sites/default/files/RayWilson_UponMyLife_Cover.jpg" alt="Alt" title="" /></span>
<div class="mb-10"><a  class = ' btn btn-mod  btn-medium btn-round pi-text-center' target = '_blank' href = 'https://shop3.raywilson.net/index.php/cd-dvd/ray-wilson-upon-my-life-double-cd.html' style = ' text-align:center;'>Buy Now</a></div>
</div>
<div  class = ' col-md-3'>
<span ><img style="" typeof="foaf:Image" src="https://www.raywilson.net/sites/default/files/RayWilson_ZDF%40Bauhaus_CD%2BDVD_Cover_1.jpg" alt="Ray Wilson ZDF@Bauhaus" title="" /></span>
<div class="mb-10"><a  class = ' btn btn-mod  btn-medium btn-round pi-text-center' target = '_blank' href = 'https://shop3.raywilson.net/index.php/cd-dvd/ray-wilson-zdf-at-bauhaus-cd-dvd.html' style = ' text-align:center;'>Buy Now</a></div>
</div>
<div  class = ' col-md-3'>
<span ><img style="" typeof="foaf:Image" src="https://www.raywilson.net/sites/default/files/RW-MMTOH-Front_Large_0.jpg" alt="Makes Me Think Of Home CD Cover" title="" /></span>
<div class="mb-10"><a  class = ' btn btn-mod  btn-medium btn-round pi-text-center' target = '_blank' href = 'https://shop3.raywilson.net/index.php/cd-dvd/makes-me-think-of-home.html' style = ' text-align:center;'>Buy Now</a></div>
</div>
<div  class = ' col-md-3'>
<span ><img style="" typeof="foaf:Image" src="https://www.raywilson.net/sites/default/files/RW_SfaF_Front-1000px.jpg" alt="Song For A Friend CD Cover" title="" /></span>
<div class="mb-10"><a  class = ' btn btn-mod  btn-medium btn-round pi-text-center' target = '_blank' href = 'https://shop3.raywilson.net/index.php/cd-dvd/song-for-a-friend.html' style = ' text-align:center;'>Buy Now</a></div>
</div>
</div>
<div  class = ' row'>
<div >
<h4  class = ' align-left font-alt uppercase black'>UPCOMING TOUR DATES
</h4>
<div ><div class="view view-tour-home view-id-tour_home view-display-id-block view-dom-id-d907b25a63f66a19a96e2e5103ea7f18">
        
    
  <div class="clearfix"></div>
  
  
      <div class="view-content">
      <table class="views-table cols-5 tablesaw tablesaw-stack table table-striped table-bordered"  data-tablesaw-mode="stack">
     <tbody>
      <tr>
              <th class="views-field views-field-field-date" >
          Date        </th>
              <th class="views-field views-field-field-venue" >
          Venue        </th>
              <th class="views-field views-field-field-city" >
          City        </th>
              <th class="views-field views-field-field-tickets" >
          Tickets        </th>
              <th class="views-field views-field-field-website" >
          Website        </th>
          </tr>
            <tr class=" views-field-tooltip-row views-row-first">
                  <td class="views-field views-field-field-date" >
            <span class="date-display-single" property="dc:date" datatype="xsd:dateTime" content="2019-12-06T00:00:00+05:30">06 Dec</span>          </td>
                  <td class="views-field views-field-field-venue" >
            <p>Christuskirche Bochum</p>
          </td>
                  <td class="views-field views-field-field-city" >
            <p>Bochum</p>
          </td>
                  <td class="views-field views-field-field-tickets" >
            <a href="https://www.eventim.de/tickets.html?affiliate=GMD&amp;doc=artistPages/tickets&amp;fun=artist&amp;action=tickets&amp;key=1493607%2411409856&amp;x10=1&amp;x11=Ray%20Wilson%202019" target="_blank">Tickets &gt;&gt;</a>          </td>
                  <td class="views-field views-field-field-website" >
                      </td>
              </tr>
          <tr class=" views-field-tooltip-row">
                  <td class="views-field views-field-field-date" >
            <span class="date-display-single" property="dc:date" datatype="xsd:dateTime" content="2019-12-07T00:00:00+05:30">07 Dec</span>          </td>
                  <td class="views-field views-field-field-venue" >
            <p>Scala Leverkusen</p>
          </td>
                  <td class="views-field views-field-field-city" >
            <p>Leverkusen</p>
          </td>
                  <td class="views-field views-field-field-tickets" >
            <a href="https://www.eventim.de/ray-wilson-band-genesis-classics-leverkusen-tickets.html?affiliate=EVE&amp;doc=artistPages/tickets&amp;fun=artist&amp;action=tickets&amp;key=1493607%2411298669&amp;jumpIn=yTix&amp;kuid=966&amp;from=erdetaila" target="_blank">Tickets &gt;&gt;</a>          </td>
                  <td class="views-field views-field-field-website" >
                      </td>
              </tr>
          <tr class=" views-field-tooltip-row">
                  <td class="views-field views-field-field-date" >
            <span class="date-display-single" property="dc:date" datatype="xsd:dateTime" content="2019-12-12T00:00:00+05:30">12 Dec</span>          </td>
                  <td class="views-field views-field-field-venue" >
            <p>Dom Muzyki, Bielskie Centrum Kultury</p>
          </td>
                  <td class="views-field views-field-field-city" >
            <p>Bielsko-Biała</p>
          </td>
                  <td class="views-field views-field-field-tickets" >
            <a href="https://bilety.bck.bielsko.pl/index.php/repertoire.html?id=39" target="_blank">Tickets &gt;&gt;</a>          </td>
                  <td class="views-field views-field-field-website" >
            <a href="http://www.bck.bielsko.pl/" target="_blank">Website &gt;&gt;</a>          </td>
              </tr>
          <tr class=" views-field-tooltip-row">
                  <td class="views-field views-field-field-date" >
            <span class="date-display-single" property="dc:date" datatype="xsd:dateTime" content="2019-12-13T00:00:00+05:30">13 Dec</span>          </td>
                  <td class="views-field views-field-field-venue" >
            <p>Christuskirche Bochum</p>
          </td>
                  <td class="views-field views-field-field-city" >
            <p>Bochum</p>
          </td>
                  <td class="views-field views-field-field-tickets" >
            <a href="https://www.eventim.de/event/ray-wilson-christuskirche-12248686/" target="_blank">Tickets &gt;&gt;</a>          </td>
                  <td class="views-field views-field-field-website" >
                      </td>
              </tr>
          <tr class=" views-field-tooltip-row views-row-last">
                  <td class="views-field views-field-field-date" >
            <span class="date-display-single" property="dc:date" datatype="xsd:dateTime" content="2019-12-21T00:00:00+05:30">21 Dec</span>          </td>
                  <td class="views-field views-field-field-venue" >
            <p>Cultuurpodium Boerderij</p>
          </td>
                  <td class="views-field views-field-field-city" >
            <p>Zoetermeer</p>
          </td>
                  <td class="views-field views-field-field-tickets" >
            <a href="https://www.ticketmaster.nl/event/233705" target="_blank">Tickets &gt;&gt;</a>          </td>
                  <td class="views-field views-field-field-website" >
                      </td>
              </tr>
      </tbody>
</table>
    </div>
  
      <div class="item-list"><ul class="pager"><li class="pager-previous first">&nbsp;</li>
<li class="pager-current">1 of 17</li>
<li class="pager-next last"><a href="/content/home-0?page=1"><i class="fa fa-angle-right"></i></a></li>
</ul></div>  
  
  
  
  
</div></div>
</div>
</div>
<div  class = ' row'>
<div >
<h4  class = ' align-left font-alt uppercase black'>LATEST VIDEO
</h4>
<div ><div class="view view-video-home view-id-video_home view-display-id-page view-dom-id-611c8d7bd3b9a0197c3b7f9c2ffa518c">
        
    
  <div class="clearfix"></div>
  
  
      <div class="view-content">
        <div class = "row row-1 row-first" >
                <div class = "col-md-6 col-1 col-first" >
          
  <div class="views-field views-field-field-youtube">        <div class="field-content"><div class="youtube-container--responsive"><iframe id="youtube-field-player" class="youtube-field-player"
    width="100%" height="100%"
    src="https://www.youtube-nocookie.com/embed/9kvEzhfbYIo?rel=0&enablejsapi=1&origin=https%3A//www.raywilson.net&wmode=opaque" title="Embedded video for Come The End Of The World" frameborder="0"
    allowfullscreen><a href="https://www.youtube-nocookie.com/embed/9kvEzhfbYIo?rel=0&amp;enablejsapi=1&amp;origin=https%3A//www.raywilson.net&amp;wmode=opaque">Embedded video for Come The End Of The World</a></iframe></div></div>  </div>      </div>
                <div class = "col-md-6 col-2 col-last" >
          
  <div class="views-field views-field-field-youtube">        <div class="field-content"><div class="youtube-container--responsive"><iframe id="youtube-field-player--2" class="youtube-field-player"
    width="100%" height="100%"
    src="https://www.youtube-nocookie.com/embed/6LyRTs2WG0s?rel=0&enablejsapi=1&origin=https%3A//www.raywilson.net&wmode=opaque" title="Embedded video for I Wait And I Pray" frameborder="0"
    allowfullscreen><a href="https://www.youtube-nocookie.com/embed/6LyRTs2WG0s?rel=0&amp;enablejsapi=1&amp;origin=https%3A//www.raywilson.net&amp;wmode=opaque">Embedded video for I Wait And I Pray</a></iframe></div></div>  </div>      </div>
      </div>
  <div class = "row row-2" >
                <div class = "col-md-6 col-1 col-first" >
          
  <div class="views-field views-field-field-youtube">        <div class="field-content"><div class="youtube-container--responsive"><iframe id="youtube-field-player--3" class="youtube-field-player"
    width="100%" height="100%"
    src="https://www.youtube-nocookie.com/embed/FcZmMNFb0d0?rel=0&enablejsapi=1&origin=https%3A//www.raywilson.net&wmode=opaque" title="Embedded video for Upon My Life | CD 1 Preview" frameborder="0"
    allowfullscreen><a href="https://www.youtube-nocookie.com/embed/FcZmMNFb0d0?rel=0&amp;enablejsapi=1&amp;origin=https%3A//www.raywilson.net&amp;wmode=opaque">Embedded video for Upon My Life | CD 1 Preview</a></iframe></div></div>  </div>      </div>
                <div class = "col-md-6 col-2 col-last" >
          
  <div class="views-field views-field-field-youtube">        <div class="field-content"><div class="youtube-container--responsive"><iframe id="youtube-field-player--4" class="youtube-field-player"
    width="100%" height="100%"
    src="https://www.youtube-nocookie.com/embed/jZccBPl2chc?rel=0&enablejsapi=1&origin=https%3A//www.raywilson.net&wmode=opaque" title="Embedded video for &amp;quot;Change&amp;quot; ZDF@Bauhaus" frameborder="0"
    allowfullscreen><a href="https://www.youtube-nocookie.com/embed/jZccBPl2chc?rel=0&amp;enablejsapi=1&amp;origin=https%3A//www.raywilson.net&amp;wmode=opaque">Embedded video for &amp;amp;quot;Change&amp;amp;quot; ZDF@Bauhaus</a></iframe></div></div>  </div>      </div>
      </div>
  <div class = "row row-3 row-last" >
                <div class = "col-md-6 col-1 col-first" >
          
  <div class="views-field views-field-field-youtube">        <div class="field-content"><div class="youtube-container--responsive"><iframe id="youtube-field-player--5" class="youtube-field-player"
    width="100%" height="100%"
    src="https://www.youtube-nocookie.com/embed/RMeMVJGSElU?rel=0&enablejsapi=1&origin=https%3A//www.raywilson.net&wmode=opaque" title="Embedded video for &amp;quot;Inside&amp;quot; ZDF@Bauhaus" frameborder="0"
    allowfullscreen><a href="https://www.youtube-nocookie.com/embed/RMeMVJGSElU?rel=0&amp;enablejsapi=1&amp;origin=https%3A//www.raywilson.net&amp;wmode=opaque">Embedded video for &amp;amp;quot;Inside&amp;amp;quot; ZDF@Bauhaus</a></iframe></div></div>  </div>      </div>
                <div class = "col-md-6 col-2 col-last" >
          
  <div class="views-field views-field-field-youtube">        <div class="field-content"><div class="youtube-container--responsive"><iframe id="youtube-field-player--6" class="youtube-field-player"
    width="100%" height="100%"
    src="https://www.youtube-nocookie.com/embed/UysZN1fZoAk?rel=0&enablejsapi=1&origin=https%3A//www.raywilson.net&wmode=opaque" title="Embedded video for &amp;quot;Along The Way&amp;quot; ZDF@Bauhaus" frameborder="0"
    allowfullscreen><a href="https://www.youtube-nocookie.com/embed/UysZN1fZoAk?rel=0&amp;enablejsapi=1&amp;origin=https%3A//www.raywilson.net&amp;wmode=opaque">Embedded video for &amp;amp;quot;Along The Way&amp;amp;quot; ZDF@Bauhaus</a></iframe></div></div>  </div>      </div>
      </div>
    </div>
  
      <div class = "pagination"><div class="item-list"><ul class="pager"><li class="pager-current first"><a href = "#" class = "active">1</a></li>
<li class="pager-item"><a title="Go to page 2" href="/content/home-0?page=1">2</a></li>
<li class="pager-item"><a title="Go to page 3" href="/content/home-0?page=2">3</a></li>
<li class="pager-item"><a title="Go to page 4" href="/content/home-0?page=3">4</a></li>
<li class="pager-item"><a title="Go to page 5" href="/content/home-0?page=4">5</a></li>
<li class="pager-next"><a href="/content/home-0?page=1"><i class="fa fa-angle-right"></i></a></li>
<li class="pager-last last"><a href="/content/home-0?page=4"><i class="fa fa-angle-double-right"></i></a></li>
</ul></div></div>  
  
  
  
  
</div></div>
</div>
</div>
<div  class = ' row pi-text-center' style = 'padding-top: 20px; padding-bottom: 20px; text-align:center;'>
<div  class = ' col-md-3 pi-text-center' style = ' text-align:center;'>
<a href="https://www.facebook.com/raywilsonofficial/" target = "_blank" class = ""><i  class = ' fa fa-facebook-square' target = '1' style = "font-size:50px;"></i></a>
</div>
<div  class = ' col-md-3 pi-text-center' style = ' text-align:center;'>
<a href="https://www.instagram.com/raywilsonmusic/" target = "_blank" class = ""><i  class = ' fa fa-instagram' target = '1' style = "font-size:50px;"></i></a>
</div>
<div  class = ' col-md-3 pi-text-center' style = ' text-align:center;'>
<a href="https://www.youtube.com/raywilsonofficial" target = "_blank" class = " lightbox-gallery-1 mfp-iframe"><i  class = ' fa fa-youtube-square' target = '1' style = "font-size:50px;"></i></a>
</div>
<div  class = ' col-md-3 pi-text-center' style = ' text-align:center;'>
<a href="https://twitter.com/RayWilson_20" target = "_blank" class = ""><i  class = ' fa fa-twitter-square' target = '1' style = "font-size:50px;"></i></a>
</div>
</div>
</div>
</section>
 </div>  </div>

  
  
</div>
  </div>

  </div> <!-- /.block -->
  </div>
                                              </div>
                                                                                                                                    </div>
      </div>
          </div>
    
      <div  class="nd-region">
         
      <div class = "container-fluid">
        <div  id="Content-Bottom-Full-Width" class="row">     
                                                                                                                                                                            </div>
      </div>
          </div>
    
      <div  class="nd-region">
         
      <div class = "container">
        <div  id="Content-Bottom" class="row">     
                                                                                                                                                                            </div>
      </div>
          </div>
    
      <div  class="nd-region">
         
      <div class = "container-fluid">
        <div  id="Footer" class="row">     
                                                                                                                                                                                        <div  id="footer" class="col-md-12 " style="padding-top: 140px; ">
                                                <div class="region region-footer">
      <div id="block-block-24" class="block block-block " >
  
        
  <div class = "block-content clearfix">
    <section  class = ' bg-dark page-section bg-scroll'>
<div  class = ' container' style = 'padding-top: 10px;'>
<div  class = ' pi-text-center' style = ' text-align:center;'><p>© 2019 Ray Wilson</p><p>// <a href="http://www.raywilson.net" target="_blank">www.raywilson.net</a> &nbsp;// <a href="http://www.genesisclassic.com" target="_blank">www.genesisclassic.com</a> &nbsp; // <a href="http://www.raywilsonfoundation.org" target="_blank">www.raywilsonfoundation.org</a>&nbsp; // <a href="http://www.raywilsonagency.com" target="_blank">www.raywilsonagency.com</a></p><p><a href="http://www.elixirstrings.co.uk/" target="_blank"><img alt="" src="/sites/default/files/elixir_footer.jpg" style="width: 130px; height: 69px; border-width: 2px; border-style: solid;"></a></p></div>
</div>
</section>
   </div>

  </div> <!-- /.block -->
  </div>
                                              </div>
                                            </div>
      </div>
          </div>
    

  <div class="local-scroll">
    <a href="#top" class="link-to-top"><i class="fa fa-caret-up"></i></a>
  </div>

</div>    <script src="//maps.googleapis.com/maps/api/js?key=" type="text/javascript"></script>
    <script type="text/javascript" src="https://www.raywilson.net/sites/default/files/js/js_EebRuRXFlkaf356V0T2K_8cnUVfCKesNTxdvvPSEhCM.js"></script>
<script type="text/javascript" src="https://www.raywilson.net/sites/default/files/js/js_BLxotNs2yt7YGlf9QRI9L9AMfdnkQfnN-_ADBTW3SiE.js"></script>
<script type="text/javascript" src="https://www.raywilson.net/sites/default/files/js/js_R9UbiVw2xuTUI0GZoaqMDOdX0lrZtgX-ono8RVOUEVc.js"></script>
<script type="text/javascript" src="https://www.raywilson.net/sites/default/files/js/js_8b6jK7G_mzwROGuzqElBo_fUuw0_RpoTmbj60BbfjPU.js"></script>
<script type="text/javascript">
<!--//--><![CDATA[//><!--
(function(i,s,o,g,r,a,m){i["GoogleAnalyticsObject"]=r;i[r]=i[r]||function(){(i[r].q=i[r].q||[]).push(arguments)},i[r].l=1*new Date();a=s.createElement(o),m=s.getElementsByTagName(o)[0];a.async=1;a.src=g;m.parentNode.insertBefore(a,m)})(window,document,"script","https://www.google-analytics.com/analytics.js","ga");ga("create", "UA-132813108-3", {"cookieDomain":"auto"});ga("set", "anonymizeIp", true);ga("send", "pageview");
//--><!]]>
</script>
<script type="text/javascript" src="https://www.raywilson.net/sites/default/files/js/js_M6ZdU63q2gy8XKCD4BPKLIakbG6C2bViuwzi_6x9uxE.js"></script>
<script type="text/javascript">
<!--//--><![CDATA[//><!--
jQuery.extend(Drupal.settings, {"basePath":"\/","pathPrefix":"","ajaxPageState":{"theme":"rhythm_sub","theme_token":"68y_43kqoASTAkoK0ubkk-cp-om-Dz5oH8u_uZox7iU","jquery_version":"1.10","js":{"sites\/all\/modules\/responsive_tables_filter\/tablesaw\/js\/tablesaw.stackonly.js":1,"sites\/all\/modules\/responsive_tables_filter\/tablesaw\/js\/tablesaw-init.js":1,"sites\/all\/modules\/jquery_update\/replace\/jquery\/1.10\/jquery.min.js":1,"misc\/jquery-extend-3.4.0.js":1,"misc\/jquery.once.js":1,"misc\/drupal.js":1,"sites\/all\/modules\/jquery_update\/replace\/ui\/external\/jquery.cookie.js":1,"sites\/all\/modules\/jquery_update\/replace\/misc\/jquery.form.min.js":1,"misc\/ajax.js":1,"sites\/all\/modules\/jquery_update\/js\/jquery_update.js":1,"sites\/all\/modules\/admin_menu\/admin_devel\/admin_devel.js":1,"sites\/all\/modules\/lightbox2\/js\/lightbox.js":1,"sites\/all\/modules\/views\/js\/base.js":1,"misc\/progress.js":1,"sites\/all\/modules\/google_analytics\/googleanalytics.js":1,"sites\/all\/modules\/views\/js\/ajax_view.js":1,"0":1,"sites\/all\/themes\/rhythm\/js\/jquery.easing.1.3.js":1,"sites\/all\/themes\/rhythm\/js\/bootstrap.min.js":1,"sites\/all\/themes\/rhythm\/js\/SmoothScroll.js":1,"sites\/all\/themes\/rhythm\/js\/jquery.scrollTo.min.js":1,"sites\/all\/themes\/rhythm\/js\/jquery.localScroll.min.js":1,"sites\/all\/themes\/rhythm\/js\/jquery.viewport.mini.js":1,"sites\/all\/themes\/rhythm\/js\/jquery.countTo.js":1,"sites\/all\/themes\/rhythm\/js\/jquery.appear.js":1,"sites\/all\/themes\/rhythm\/js\/jquery.sticky.js":1,"sites\/all\/themes\/rhythm\/js\/jquery.parallax-1.1.3.js":1,"sites\/all\/themes\/rhythm\/js\/jquery.fitvids.js":1,"sites\/all\/themes\/rhythm\/js\/owl.carousel.min.js":1,"sites\/all\/themes\/rhythm\/js\/isotope.pkgd.min.js":1,"sites\/all\/themes\/rhythm\/js\/imagesloaded.pkgd.min.js":1,"sites\/all\/themes\/rhythm\/js\/jquery.magnific-popup.min.js":1,"sites\/all\/themes\/rhythm\/js\/gmap3.min.js":1,"sites\/all\/themes\/rhythm\/js\/wow.min.js":1,"sites\/all\/themes\/rhythm\/js\/masonry.pkgd.min.js":1,"sites\/all\/themes\/rhythm\/js\/jquery.simple-text-rotator.min.js":1,"sites\/all\/themes\/rhythm\/js\/jquery.mb.YTPlayer.js":1,"sites\/all\/themes\/rhythm\/js\/all.js":1,"sites\/all\/themes\/rhythm\/js\/drupal.js":1},"css":{"modules\/system\/system.base.css":1,"sites\/all\/modules\/responsive_tables_filter\/tablesaw\/css\/tablesaw.stackonly.css":1,"sites\/all\/modules\/date\/date_api\/date.css":1,"sites\/all\/modules\/date\/date_popup\/themes\/datepicker.1.7.css":1,"sites\/all\/modules\/date\/date_repeat_field\/date_repeat_field.css":1,"modules\/field\/theme\/field.css":1,"modules\/node\/node.css":1,"modules\/user\/user.css":1,"sites\/all\/modules\/youtube\/css\/youtube.css":1,"sites\/all\/modules\/views\/css\/views.css":1,"sites\/all\/modules\/ckeditor\/css\/ckeditor.css":1,"sites\/all\/modules\/media\/modules\/media_wysiwyg\/css\/media_wysiwyg.base.css":1,"sites\/all\/modules\/ctools\/css\/ctools.css":1,"sites\/all\/modules\/lightbox2\/css\/lightbox.css":1,"sites\/all\/modules\/tagclouds\/tagclouds.css":1,"sites\/all\/modules\/social_media_links\/social_media_links.css":1,"\/\/fonts.googleapis.com\/css?family=Open+Sans:400italic,700italic,400,300,700|Dosis:300,400,700":1,"sites\/all\/themes\/rhythm\/css\/bootstrap.min.css":1,"sites\/all\/themes\/rhythm\/css\/style.css":1,"sites\/all\/themes\/rhythm\/css\/style-responsive.css":1,"sites\/all\/themes\/rhythm\/css\/animate.min.css":1,"sites\/all\/themes\/rhythm\/css\/vertical-rhythm.min.css":1,"sites\/all\/themes\/rhythm\/css\/owl.carousel.css":1,"sites\/all\/themes\/rhythm\/css\/magnific-popup.css":1,"sites\/all\/themes\/rhythm\/css\/YTPlayer.css":1,"sites\/all\/themes\/rhythm\/css\/drupal.css":1,"sites\/all\/themes\/rhythm\/rhythm_sub\/css\/custom.css":1}},"jcarousel":{"ajaxPath":"\/jcarousel\/ajax\/views"},"lightbox2":{"rtl":0,"file_path":"\/(\\w\\w\/)public:\/","default_image":"\/sites\/all\/modules\/lightbox2\/images\/brokenimage.jpg","border_size":10,"font_color":"000","box_color":"fff","top_position":"","overlay_opacity":"0.8","overlay_color":"000","disable_close_click":1,"resize_sequence":0,"resize_speed":400,"fade_in_speed":400,"slide_down_speed":600,"use_alt_layout":0,"disable_resize":0,"disable_zoom":0,"force_show_nav":0,"show_caption":1,"loop_items":0,"node_link_text":"View Image Details","node_link_target":0,"image_count":"Image !current of !total","video_count":"Video !current of !total","page_count":"Page !current of !total","lite_press_x_close":"press \u003Ca href=\u0022#\u0022 onclick=\u0022hideLightbox(); return FALSE;\u0022\u003E\u003Ckbd\u003Ex\u003C\/kbd\u003E\u003C\/a\u003E to close","download_link_text":"","enable_login":false,"enable_contact":false,"keys_close":"c x 27","keys_previous":"p 37","keys_next":"n 39","keys_zoom":"z","keys_play_pause":"32","display_image_size":"original","image_node_sizes":"()","trigger_lightbox_classes":"","trigger_lightbox_group_classes":"","trigger_slideshow_classes":"","trigger_lightframe_classes":"","trigger_lightframe_group_classes":"","custom_class_handler":0,"custom_trigger_classes":"","disable_for_gallery_lists":true,"disable_for_acidfree_gallery_lists":true,"enable_acidfree_videos":true,"slideshow_interval":5000,"slideshow_automatic_start":true,"slideshow_automatic_exit":true,"show_play_pause":true,"pause_on_next_click":false,"pause_on_previous_click":true,"loop_slides":false,"iframe_width":600,"iframe_height":400,"iframe_border":1,"enable_video":0,"useragent":"\u0027Mozilla\/5.0 (Windows NT 10.0; Win64; x64) AppleWebKit\/537.36 (KHTML, like Gecko) Chrome\/78.0.3904.70 Safari\/537.36\u0027"},"views":{"ajax_path":"\/views\/ajax","ajaxViews":{"views_dom_id:d907b25a63f66a19a96e2e5103ea7f18":{"view_name":"tour_home","view_display_id":"block","view_args":"","view_path":"node\/3230","view_base_path":null,"view_dom_id":"d907b25a63f66a19a96e2e5103ea7f18","pager_element":0},"views_dom_id:611c8d7bd3b9a0197c3b7f9c2ffa518c":{"view_name":"video_home","view_display_id":"page","view_args":"","view_path":"node\/3230","view_base_path":"videos","view_dom_id":"611c8d7bd3b9a0197c3b7f9c2ffa518c","pager_element":0}}},"urlIsAjaxTrusted":{"\/views\/ajax":true},"better_exposed_filters":{"views":{"tour_home":{"displays":{"block":{"filters":[]}}},"video_home":{"displays":{"page":{"filters":[]}}}}},"googleanalytics":{"trackOutbound":1,"trackMailto":1,"trackDownload":1,"trackDownloadExtensions":"7z|aac|arc|arj|asf|asx|avi|bin|csv|doc(x|m)?|dot(x|m)?|exe|flv|gif|gz|gzip|hqx|jar|jpe?g|js|mp(2|3|4|e?g)|mov(ie)?|msi|msp|pdf|phps|png|ppt(x|m)?|pot(x|m)?|pps(x|m)?|ppam|sld(x|m)?|thmx|qtm?|ra(m|r)?|sea|sit|tar|tgz|torrent|txt|wav|wma|wmv|wpd|xls(x|m|b)?|xlt(x|m)|xlam|xml|z|zip"},"theme_path":"sites\/all\/themes\/rhythm","base_path":"\/"});
//--><!]]>
</script>
    <!--[if lt IE 10]><script type="text/javascript" src="/sites/all/themes/rhythm/js/placeholder.js"></script><![endif]-->
    <script type="text/javascript" src="https://www.raywilson.net/sites/default/files/js/js__oLvKY2ezPkaoDDfghGVOQdHk5kdeJzAnEzRQAJNLwc.js"></script>
  </div>
</body>
</html>