<!DOCTYPE html>
<!--[if lt IE 7]><html class="lt-ie9 lt-ie8 lt-ie7" lang="en" dir="ltr"><![endif]-->
<!--[if IE 7]><html class="lt-ie9 lt-ie8" lang="en" dir="ltr"><![endif]-->
<!--[if IE 8]><html class="lt-ie9" lang="en" dir="ltr"><![endif]-->
<!--[if gt IE 8]><!--><html lang="en" dir="ltr" prefix="content: http://purl.org/rss/1.0/modules/content/ dc: http://purl.org/dc/terms/ foaf: http://xmlns.com/foaf/0.1/ og: http://ogp.me/ns# rdfs: http://www.w3.org/2000/01/rdf-schema# sioc: http://rdfs.org/sioc/ns# sioct: http://rdfs.org/sioc/types# skos: http://www.w3.org/2004/02/skos/core# xsd: http://www.w3.org/2001/XMLSchema#"><!--<![endif]-->
<head>
<meta charset="utf-8" />
<meta name="Generator" content="Drupal 7 (http://drupal.org)" />
<link rel="canonical" href="/content/redbridge-cvs-supporting-local-community-groups-and-charities" />
<link rel="shortlink" href="/node/1" />
<link rel="alternate" type="text/calendar" title="Add to My Calendar" href="webcal://www.redbridgecvs.net/calendar-node-field-date/ical/%2A/calendar.ics" />
<link rel="shortcut icon" href="https://www.redbridgecvs.net/sites/redbridgecvs.net/files/favicon.ico" type="image/vnd.microsoft.icon" />
<meta name="viewport" content="width=device-width, initial-scale=1" />
<meta name="MobileOptimized" content="width" />
<meta name="HandheldFriendly" content="true" />
<meta name="apple-mobile-web-app-capable" content="yes" />
<title>Redbridge CVS | Supporting local community groups and charities | RedbridgeCVS</title>
<link type="text/css" rel="stylesheet" href="https://www.redbridgecvs.net/sites/redbridgecvs.net/files/css/css_xE-rWrJf-fncB6ztZfd2huxqgxu4WO-qwma6Xer30m4.css" media="all" />
<link type="text/css" rel="stylesheet" href="https://www.redbridgecvs.net/sites/redbridgecvs.net/files/css/css_vZ_wrMQ9Og-YPPxa1q4us3N7DsZMJa-14jShHgRoRNo.css" media="screen" />
<link type="text/css" rel="stylesheet" href="https://www.redbridgecvs.net/sites/redbridgecvs.net/files/css/css_pDPJPsPFwl5pCbuAQquhZHYgG406lEbB_0Ahy306zmY.css" media="all" />
<link type="text/css" rel="stylesheet" href="https://www.redbridgecvs.net/sites/redbridgecvs.net/files/css/css_zIoWmph3xbsxZLRvUiyCsi9SRnKA4m7pxKvHVKU5nvA.css" media="all" />
<style>#sliding-popup.sliding-popup-bottom,#sliding-popup.sliding-popup-bottom .eu-cookie-withdraw-banner,.eu-cookie-withdraw-tab{background:#114400;}#sliding-popup.sliding-popup-bottom.eu-cookie-withdraw-wrapper{background:transparent}#sliding-popup .popup-content #popup-text h1,#sliding-popup .popup-content #popup-text h2,#sliding-popup .popup-content #popup-text h3,#sliding-popup .popup-content #popup-text p,.eu-cookie-compliance-secondary-button,.eu-cookie-withdraw-tab{color:#FFF !important;}.eu-cookie-withdraw-tab{border-color:#FFF;}.eu-cookie-compliance-more-button{color:#FFF !important;}
</style>
<link type="text/css" rel="stylesheet" href="https://www.redbridgecvs.net/sites/redbridgecvs.net/files/css/css_UOHnobtBEVxtSEYsoGnPE4hQvU5QJ4J9dfDN4O3e-AY.css" media="screen" />
<link type="text/css" rel="stylesheet" href="https://www.redbridgecvs.net/sites/redbridgecvs.net/files/css/css_j2cEdLhAQHmSsdf6AJclB0EXUEM5Fwq5IEbWmnSDT_A.css" media="all" />
<link type="text/css" rel="stylesheet" href="https://www.redbridgecvs.net/sites/redbridgecvs.net/files/css/css_9trYKO-7IDNZRVdrvbdLIMzgGkEodq4VfImhqnwWG3w.css" media="screen" />
<link type="text/css" rel="stylesheet" href="https://www.redbridgecvs.net/sites/redbridgecvs.net/files/css/css_xWgghxp9Xy7Xgsawe5KXSUPx3UZxElv9-qG4ifmZIYE.css" media="only screen" />
<link type="text/css" rel="stylesheet" href="https://www.redbridgecvs.net/sites/redbridgecvs.net/files/css/css_VEZpGjQWWtOIuMV0P9F4uxw0qv97gg577SqdEo7oBa0.css" media="screen" />
<link type="text/css" rel="stylesheet" href="https://www.redbridgecvs.net/sites/redbridgecvs.net/files/css/css_4PALBGkqRkaCeR84SJQWAiuaE2CexOIE8FqtskgclHw.css" media="only screen" />
<link type="text/css" rel="stylesheet" href="https://www.redbridgecvs.net/sites/redbridgecvs.net/files/css/css__pLv5MZYXsmal-by8dkOTaozIMoAAA86fDyT4J5ajXk.css" media="screen" />
<link type="text/css" rel="stylesheet" href="//fonts.googleapis.com/css?family=Roboto|News+Cycle|Roboto+Slab|Roboto+Condensed:300,300italic,400,400italic,700,700italic" media="all" />
<link type="text/css" rel="stylesheet" href="https://www.redbridgecvs.net/sites/redbridgecvs.net/files/css/css_kKwMsXzoMYAqSNKzokA_TeIE8hYHkkSOZ2c0J9TPAI4.css" media="all" />

<!--[if IE 6]>
<link type="text/css" rel="stylesheet" href="https://www.redbridgecvs.net/sites/redbridgecvs.net/files/css/css_4vF6cQdmt-P63-YYVe_hkaljQFwUHQ0tOHvnOU48wIk.css" media="screen" />
<![endif]-->

<!--[if lte IE 7]>
<link type="text/css" rel="stylesheet" href="https://www.redbridgecvs.net/sites/redbridgecvs.net/files/css/css_Q6ypqflPLOcCsAebzOL1Hp9HhyHbYsm4au8kHUSLB9o.css" media="screen" />
<![endif]-->

<!--[if IE 8]>
<link type="text/css" rel="stylesheet" href="https://www.redbridgecvs.net/sites/redbridgecvs.net/files/css/css_ryaYgbUvGxthS8XbWhaKOv1FEVkBflAH6a9wAJf57ek.css" media="screen" />
<![endif]-->

<!--[if lte IE 9]>
<link type="text/css" rel="stylesheet" href="https://www.redbridgecvs.net/sites/redbridgecvs.net/files/css/css_pnfzqG-RLxbPsPzX3G71PFNYcOt4-E_uO5B02Qr6db0.css" media="screen" />
<![endif]-->
<script src="https://www.redbridgecvs.net/sites/redbridgecvs.net/files/js/js_qikmINIYTWe4jcTUn8cKiMr8bmSDiZB9LQqvceZ6wlM.js"></script>
<script src="https://www.redbridgecvs.net/sites/redbridgecvs.net/files/js/js_Mpf8AlobReA8sCo1uY047aluGQSeW3ZrfdhuOuatJoY.js"></script>
<script src="https://www.redbridgecvs.net/sites/redbridgecvs.net/files/js/js_DOzvLCrfBcD7MPYaY4jtTklhCucSNnIbDwPOTfYUS7I.js"></script>
<script>var text_resize_scope = "body";
    var text_resize_minimum = "12";
    var text_resize_maximum = "25";
    var text_resize_line_height_allow = 0;
    var text_resize_line_height_min = "16";
    var text_resize_line_height_max = "36";</script>
<script src="https://www.redbridgecvs.net/sites/redbridgecvs.net/files/js/js_yTLDbW9B7c-SGSADOLEZG4JCQ5keS2bNQwPRL_PZKns.js"></script>
<script>(function(i,s,o,g,r,a,m){i["GoogleAnalyticsObject"]=r;i[r]=i[r]||function(){(i[r].q=i[r].q||[]).push(arguments)},i[r].l=1*new Date();a=s.createElement(o),m=s.getElementsByTagName(o)[0];a.async=1;a.src=g;m.parentNode.insertBefore(a,m)})(window,document,"script","//www.google-analytics.com/analytics.js","ga");ga("create", "UA-56250723-1", {"cookieDomain":"auto"});ga("send", "pageview");</script>
<script src="https://www.redbridgecvs.net/sites/redbridgecvs.net/files/js/js_P80ibIK16nfOavgxReWCuM2Ti5YnqrRRT8nC0FuhmQ4.js"></script>
<script src="https://www.redbridgecvs.net/sites/redbridgecvs.net/files/js/js_gbyHUwy9HvaTRDVKMTaLfb8neFOC0yae0zJHryKR58Y.js"></script>
<script src="https://www.redbridgecvs.net/sites/redbridgecvs.net/files/js/js_bOjt6zaGKW3Ql601Hup9iK7fIzn0qjAbJuy9e8DrGus.js"></script>
<script>jQuery.extend(Drupal.settings, {"basePath":"\/","pathPrefix":"","ajaxPageState":{"theme":"at_magazine","theme_token":"TU07vsPTDKvovqwJju0LV3tbO2feYo6TLGISnXle16k","js":{"0":1,"1":1,"sites\/redbridgecvs.net\/modules\/contributed\/clientside_validation\/clientside_validation.ie8.js":1,"sites\/redbridgecvs.net\/modules\/contributed\/clientside_validation\/clientside_validation.js":1,"sites\/redbridgecvs.net\/modules\/contributed\/eu_cookie_compliance\/js\/eu_cookie_compliance.js":1,"misc\/jquery.js":1,"misc\/jquery-extend-3.4.0.js":1,"misc\/jquery.once.js":1,"misc\/drupal.js":1,"misc\/ui\/jquery.effects.core.min.js":1,"sites\/redbridgecvs.net\/modules\/contributed\/eu_cookie_compliance\/js\/jquery.cookie-1.4.1.min.js":1,"sites\/redbridgecvs.net\/modules\/contributed\/views_slideshow\/js\/views_slideshow.js":1,"sites\/redbridgecvs.net\/modules\/contributed\/beautytips\/js\/jquery.bt.min.js":1,"sites\/redbridgecvs.net\/modules\/contributed\/beautytips\/js\/beautytips.min.js":1,"sites\/redbridgecvs.net\/modules\/contributed\/beautytips\/other_libs\/excanvas_r3\/excanvas.compiled.js":1,"sites\/redbridgecvs.net\/libraries\/colorbox\/jquery.colorbox-min.js":1,"sites\/redbridgecvs.net\/modules\/contributed\/colorbox\/js\/colorbox.js":1,"sites\/redbridgecvs.net\/modules\/contributed\/colorbox\/styles\/default\/colorbox_style.js":1,"2":1,"sites\/redbridgecvs.net\/modules\/contributed\/text_resize\/text_resize.js":1,"sites\/redbridgecvs.net\/libraries\/jquery.cycle\/jquery.cycle.all.js":1,"sites\/redbridgecvs.net\/modules\/contributed\/ddblock\/js\/json2.pack.js":1,"sites\/redbridgecvs.net\/modules\/contributed\/ddblock\/js\/ddblock.js":1,"sites\/redbridgecvs.net\/modules\/contributed\/ddblock\/js\/tools.scrollable-1.0.5.min.js":1,"sites\/redbridgecvs.net\/modules\/contributed\/google_analytics\/googleanalytics.js":1,"3":1,"sites\/redbridgecvs.net\/modules\/contributed\/clientside_validation\/jquery-validate\/jquery.validate.js":1,"sites\/redbridgecvs.net\/libraries\/superfish\/jquery.hoverIntent.minified.js":1,"sites\/redbridgecvs.net\/libraries\/superfish\/sfsmallscreen.js":1,"sites\/redbridgecvs.net\/libraries\/superfish\/supposition.js":1,"sites\/redbridgecvs.net\/libraries\/superfish\/superfish.js":1,"sites\/redbridgecvs.net\/libraries\/superfish\/supersubs.js":1,"sites\/redbridgecvs.net\/modules\/contributed\/superfish\/superfish.js":1,"sites\/redbridgecvs.net\/themes\/at_magazine\/js\/eq.js":1,"sites\/redbridgecvs.net\/themes\/at_magazine\/js\/eq-gp.js":1,"sites\/all\/themes\/adaptivetheme\/at_core\/scripts\/scalefix.js":1},"css":{"modules\/system\/system.base.css":1,"modules\/system\/system.menus.css":1,"modules\/system\/system.messages.css":1,"modules\/system\/system.theme.css":1,"sites\/redbridgecvs.net\/modules\/contributed\/views_slideshow\/views_slideshow.css":1,"sites\/redbridgecvs.net\/modules\/contributed\/calendar\/css\/calendar_multiday.css":1,"sites\/redbridgecvs.net\/modules\/contributed\/calendar_tooltips\/calendar_tooltips.css":1,"modules\/comment\/comment.css":1,"sites\/redbridgecvs.net\/modules\/contributed\/date\/date_api\/date.css":1,"sites\/redbridgecvs.net\/modules\/contributed\/date\/date_popup\/themes\/datepicker.1.7.css":1,"sites\/redbridgecvs.net\/modules\/contributed\/date\/date_repeat_field\/date_repeat_field.css":1,"modules\/field\/theme\/field.css":1,"modules\/node\/node.css":1,"modules\/search\/search.css":1,"modules\/user\/user.css":1,"sites\/redbridgecvs.net\/modules\/contributed\/views\/css\/views.css":1,"sites\/redbridgecvs.net\/modules\/contributed\/ckeditor\/css\/ckeditor.css":1,"sites\/redbridgecvs.net\/modules\/contributed\/colorbox\/styles\/default\/colorbox_style.css":1,"sites\/redbridgecvs.net\/modules\/contributed\/ctools\/css\/ctools.css":1,"sites\/redbridgecvs.net\/modules\/contributed\/panels\/css\/panels.css":1,"sites\/redbridgecvs.net\/modules\/contributed\/text_resize\/text_resize.css":1,"sites\/redbridgecvs.net\/modules\/contributed\/ddblock\/css\/ddblock.css":1,"sites\/redbridgecvs.net\/modules\/contributed\/eu_cookie_compliance\/css\/eu_cookie_compliance.css":1,"sites\/all\/modules\/civicrm\/css\/crm-i.css":1,"sites\/all\/modules\/civicrm\/css\/civicrm.css":1,"sites\/redbridgecvs.net\/libraries\/superfish\/css\/superfish.css":1,"0":1,"sites\/all\/themes\/adaptivetheme\/at_core\/css\/at.settings.style.headings.css":1,"sites\/all\/themes\/adaptivetheme\/at_core\/css\/at.layout.css":1,"sites\/redbridgecvs.net\/themes\/at_magazine\/css\/styles.base.css":1,"sites\/redbridgecvs.net\/themes\/at_magazine\/css\/styles.settings.css":1,"sites\/redbridgecvs.net\/themes\/at_magazine\/css\/styles.modules.css":1,"sites\/redbridgecvs.net\/themes\/at_magazine\/color\/colors.css":1,"sites\/redbridgecvs.net\/themes\/at_magazine\/css\/styles.custom.css":1,"public:\/\/adaptivetheme\/at_magazine_files\/at_magazine.default.layout.css":1,"public:\/\/adaptivetheme\/at_magazine_files\/at_magazine.responsive.layout.css":1,"public:\/\/adaptivetheme\/at_magazine_files\/at_magazine.fonts.css":1,"public:\/\/adaptivetheme\/at_magazine_files\/at_magazine.responsive.styles.css":1,"public:\/\/adaptivetheme\/at_magazine_files\/at_magazine.custom.css":1,"\/\/fonts.googleapis.com\/css?family=Roboto|News+Cycle|Roboto+Slab|Roboto+Condensed:300,300italic,400,400italic,700,700italic":1,"sites\/redbridgecvs.net\/themes\/at_magazine\/custom\/modules\/ddblock\/upright60p\/ddblock-cycle-upright60p.css":1,"sites\/redbridgecvs.net\/themes\/at_magazine\/css\/ie-6.css":1,"sites\/redbridgecvs.net\/themes\/at_magazine\/css\/ie-lte-7.css":1,"sites\/redbridgecvs.net\/themes\/at_magazine\/css\/ie-8.css":1,"sites\/redbridgecvs.net\/themes\/at_magazine\/css\/ie-lte-9.css":1}},"colorbox":{"opacity":"0.85","current":"{current} of {total}","previous":"\u00ab Prev","next":"Next \u00bb","close":"Close","maxWidth":"98%","maxHeight":"98%","fixed":true,"mobiledetect":true,"mobiledevicewidth":"480px"},"viewsSlideshow":{"homepage_slideshow-block_1":{"methods":{"goToSlide":["viewsSlideshowPager","viewsSlideshowSlideCounter","viewsSlideshowCycle"],"nextSlide":["viewsSlideshowPager","viewsSlideshowSlideCounter","viewsSlideshowCycle"],"pause":["viewsSlideshowControls","viewsSlideshowCycle"],"play":["viewsSlideshowControls","viewsSlideshowCycle"],"previousSlide":["viewsSlideshowPager","viewsSlideshowSlideCounter","viewsSlideshowCycle"],"transitionBegin":["viewsSlideshowPager","viewsSlideshowSlideCounter"],"transitionEnd":[]},"paused":0},"homepage_slideshow-block_1_2":{"methods":{"goToSlide":["viewsSlideshowPager","viewsSlideshowSlideCounter","viewsSlideshowCycle"],"nextSlide":["viewsSlideshowPager","viewsSlideshowSlideCounter","viewsSlideshowCycle"],"pause":["viewsSlideshowControls","viewsSlideshowCycle"],"play":["viewsSlideshowControls","viewsSlideshowCycle"],"previousSlide":["viewsSlideshowPager","viewsSlideshowSlideCounter","viewsSlideshowCycle"],"transitionBegin":["viewsSlideshowPager","viewsSlideshowSlideCounter"],"transitionEnd":[]},"paused":0}},"ddblockContent":{"3":{"block":"3","nrOfItems":2,"setDimensions":"upright60p","contentContainer":"div.slide","custom":"","fx":"scrollLeft","easeOut":"linear","easeIn":"linear","speed":"500","timeOut":"8000","pause":"1","next":"0","overflow":"hidden","pager":"none","pagerPosition":"bottom","pagerPrevNextLoop":"1","pagerScrollableLoop":"1","nrOfPagerItems":"5","pagerContainer":".scrollable-pager-item","pagerEvent":"click","pagerDisableClick":"1","pagerFast":"1","pagerPause":"1","pager2":"1","pager2Event":"click","pager2SlideHide":"0","slideText":"1","slideTextjQuery":"0","slideTextPosition":"bottom","slideTextContainer":"div.slide-text","slideTextEffectBefore":"fadeOut","slideTextEffectBeforeSpeed":"250","slideTextEffectBeforeEasing":"linear","slideTextEffectAfter":"fadeIn","slideTextEffectAfterSpeed":"1000","slideTextEffectAfterEasing":"linear","height":"195","width":"195"}},"eu_cookie_compliance":{"popup_enabled":1,"popup_agreed_enabled":1,"popup_hide_agreed":0,"popup_clicking_confirmation":false,"popup_scrolling_confirmation":false,"popup_html_info":"\u003Cdiv\u003E\n  \u003Cdiv class=\u0022popup-content info\u0022\u003E\n    \u003Cdiv id=\u0022popup-text\u0022\u003E\n      \u003Cp\u003ERedbridgeCVS keeps records of the use that people make of our website. We do this in accordance with the law and our policies to understand how people use the site, and to ensure it meets people\u0027s needs. To see our Privacy Notice, including full information about how we store and use data, click More Info.\u003C\/p\u003E\n              \u003Cbutton type=\u0022button\u0022 class=\u0022find-more-button eu-cookie-compliance-more-button\u0022\u003EMore info\u003C\/button\u003E\n          \u003C\/div\u003E\n    \u003Cdiv id=\u0022popup-buttons\u0022\u003E\n      \u003Cbutton type=\u0022button\u0022 class=\u0022agree-button eu-cookie-compliance-secondary-button\u0022\u003EOK, I agree\u003C\/button\u003E\n              \u003Cbutton type=\u0022button\u0022 class=\u0022decline-button eu-cookie-compliance-default-button\u0022 \u003ENo, thanks\u003C\/button\u003E\n          \u003C\/div\u003E\n  \u003C\/div\u003E\n\u003C\/div\u003E","use_mobile_message":false,"mobile_popup_html_info":"\u003Cdiv\u003E\n  \u003Cdiv class=\u0022popup-content info\u0022\u003E\n    \u003Cdiv id=\u0022popup-text\u0022\u003E\n                    \u003Cbutton type=\u0022button\u0022 class=\u0022find-more-button eu-cookie-compliance-more-button\u0022\u003EMore info\u003C\/button\u003E\n          \u003C\/div\u003E\n    \u003Cdiv id=\u0022popup-buttons\u0022\u003E\n      \u003Cbutton type=\u0022button\u0022 class=\u0022agree-button eu-cookie-compliance-secondary-button\u0022\u003EOK, I agree\u003C\/button\u003E\n              \u003Cbutton type=\u0022button\u0022 class=\u0022decline-button eu-cookie-compliance-default-button\u0022 \u003ENo, thanks\u003C\/button\u003E\n          \u003C\/div\u003E\n  \u003C\/div\u003E\n\u003C\/div\u003E\n","mobile_breakpoint":"768","popup_html_agreed":"\u003Cdiv\u003E\n  \u003Cdiv class=\u0022popup-content agreed\u0022\u003E\n    \u003Cdiv id=\u0022popup-text\u0022\u003E\n      \u003Cp\u003ERedbridgeCVS keeps records of the use that people make of our website. We do this in accordance with the law and our policies to understand how people use the site, and to ensure it meets people\u0027s needs. To see our Privacy Notice, including full information about how we store and use data, click More Info.\u003C\/p\u003E\n    \u003C\/div\u003E\n    \u003Cdiv id=\u0022popup-buttons\u0022\u003E\n      \u003Cbutton type=\u0022button\u0022 class=\u0022hide-popup-button eu-cookie-compliance-hide-button\u0022\u003EHide\u003C\/button\u003E\n              \u003Cbutton type=\u0022button\u0022 class=\u0022find-more-button eu-cookie-compliance-more-button-thank-you\u0022 \u003EMore info\u003C\/button\u003E\n          \u003C\/div\u003E\n  \u003C\/div\u003E\n\u003C\/div\u003E","popup_use_bare_css":false,"popup_height":"auto","popup_width":"100%","popup_delay":1000,"popup_link":"\/privacy","popup_link_new_window":1,"popup_position":null,"popup_language":"en","store_consent":true,"better_support_for_screen_readers":0,"reload_page":0,"domain":"","popup_eu_only_js":0,"cookie_lifetime":"100","cookie_session":false,"disagree_do_not_show_popup":0,"method":"opt_in","whitelisted_cookies":"","withdraw_markup":"\u003Cbutton type=\u0022button\u0022 class=\u0022eu-cookie-withdraw-tab\u0022\u003EPrivacy settings\u003C\/button\u003E\n\u003Cdiv class=\u0022eu-cookie-withdraw-banner\u0022\u003E\n  \u003Cdiv class=\u0022popup-content info\u0022\u003E\n    \u003Cdiv id=\u0022popup-text\u0022\u003E\n      \u003Cp\u003E\tWe use cookies on this site to enhance your user experienceYou have given your consent for us to set cookies.\u003C\/p\u003E\n    \u003C\/div\u003E\n    \u003Cdiv id=\u0022popup-buttons\u0022\u003E\n      \u003Cbutton type=\u0022button\u0022 class=\u0022eu-cookie-withdraw-button\u0022\u003EWithdraw consent\u003C\/button\u003E\n    \u003C\/div\u003E\n  \u003C\/div\u003E\n\u003C\/div\u003E\n","withdraw_enabled":1},"googleanalytics":{"trackOutbound":1,"trackMailto":1,"trackDownload":1,"trackDownloadExtensions":"7z|aac|arc|arj|asf|asx|avi|bin|csv|doc(x|m)?|dot(x|m)?|exe|flv|gif|gz|gzip|hqx|jar|jpe?g|js|mp(2|3|4|e?g)|mov(ie)?|msi|msp|pdf|phps|png|ppt(x|m)?|pot(x|m)?|pps(x|m)?|ppam|sld(x|m)?|thmx|qtm?|ra(m|r)?|sea|sit|tar|tgz|torrent|txt|wav|wma|wmv|wpd|xls(x|m|b)?|xlt(x|m)|xlam|xml|z|zip","trackColorbox":1},"beautytips":{"calendar-tooltips":{"cssStyles":[],"cssSelect":".calendar-calendar .mini-day-on a, .calendar-calendar .day a, .calendar-calendar .mini-day-on span, .calendar-calendar .day span","contentSelector":"$(this).next().html()","trigger":["mouseover","mouseout"],"list":["cssStyles","contentSelector","trigger"]}},"urlIsAjaxTrusted":{"\/search\/node":true,"\/":true,"\/content\/redbridge-cvs-supporting-local-community-groups-and-charities?destination=node\/1":true},"superfish":{"1":{"id":"1","sf":{"animation":{"opacity":"show","height":"show"},"speed":"\u0027fast\u0027","autoArrows":true,"dropShadows":false,"disableHI":false},"plugins":{"smallscreen":{"mode":"window_width","addSelected":false,"menuClasses":false,"hyperlinkClasses":false,"title":"Main menu"},"supposition":true,"bgiframe":false,"supersubs":{"minWidth":"12","maxWidth":"27","extraWidth":1}}}},"adaptivetheme":{"at_magazine":{"layout_settings":{"bigscreen":"two-sidebars-right","tablet_landscape":"two-sidebars-right","tablet_portrait":"one-col-vert","smalltouch_landscape":"one-col-vert","smalltouch_portrait":"one-col-stack"},"media_query_settings":{"bigscreen":"only screen and (min-width:1025px)","tablet_landscape":"only screen and (min-width:769px) and (max-width:1024px)","tablet_portrait":"only screen and (min-width:581px) and (max-width:768px)","smalltouch_landscape":"only screen and (min-width:321px) and (max-width:580px)","smalltouch_portrait":"only screen and (max-width:320px)"}}},"clientsideValidation":{"forms":{"search-block-form":{"errorPlacement":1,"general":{"errorClass":"error","wrapper":"li","validateTabs":"","scrollTo":1,"scrollSpeed":1000,"disableHtml5Validation":1,"validateOnBlur":1,"validateOnBlurAlways":0,"validateOnKeyUp":1,"validateBeforeAjax":0,"validateOnSubmit":1,"showMessages":0,"errorElement":"label"},"rules":{"search_block_form":{"maxlength":128,"messages":{"maxlength":"Search field has to have maximum 128 values."}}}},"user-login-form":{"errorPlacement":1,"general":{"errorClass":"error","wrapper":"li","validateTabs":"","scrollTo":1,"scrollSpeed":1000,"disableHtml5Validation":1,"validateOnBlur":1,"validateOnBlurAlways":0,"validateOnKeyUp":1,"validateBeforeAjax":0,"validateOnSubmit":1,"showMessages":0,"errorElement":"label"},"rules":{"name":{"required":true,"messages":{"required":"E-mail or username field is required.","maxlength":"E-mail or username field has to have maximum 60 values."},"maxlength":60},"pass":{"required":true,"messages":{"required":"Password field is required.","maxlength":"Password field has to have maximum 128 values."},"maxlength":128}}},"search-form":{"errorPlacement":1,"general":{"errorClass":"error","wrapper":"li","validateTabs":"","scrollTo":1,"scrollSpeed":1000,"disableHtml5Validation":1,"validateOnBlur":1,"validateOnBlurAlways":0,"validateOnKeyUp":1,"validateBeforeAjax":0,"validateOnSubmit":1,"showMessages":0,"errorElement":"label"},"rules":{"keys":{"maxlength":255,"messages":{"maxlength":"Enter your keywords field has to have maximum 255 values."}}}}},"general":{"usexregxp":0,"months":{"January":1,"Jan":1,"February":2,"Feb":2,"March":3,"Mar":3,"April":4,"Apr":4,"May":5,"June":6,"Jun":6,"July":7,"Jul":7,"August":8,"Aug":8,"September":9,"Sep":9,"October":10,"Oct":10,"November":11,"Nov":11,"December":12,"Dec":12}},"groups":{"search-block-form":{},"user-login-form":{},"search-form":{}}}});</script>
<!--[if lt IE 9]>
<script src="https://www.redbridgecvs.net/sites/all/themes/adaptivetheme/at_core/scripts/html5.js?q1mhnj"></script>
<![endif]-->
</head>
<body class="html front not-logged-in one-sidebar sidebar-first page-node page-node- page-node-1 node-type-page atr-7.x-3.x atv-7.x-3.1 site-name-redbridgecvs color-scheme-custom at-magazine bb-n hl-l mb-ad rc-0 bs-n iat-r">
  <div id="skip-link" class="nocontent">
    <a href="#main-content" class="element-invisible element-focusable">Skip to main content</a>
  </div>
    <div id="page" class="page snc-n snw-n sna-l sns-n ssc-n ssw-n ssa-l sss-n btc-n btw-b bta-l bts-n ntc-n ntw-b nta-l nts-n ctc-n ctw-n cta-l cts-n ptc-n ptw-b pta-l pts-n container">

   <!-- /menu bar top -->

  <header id="header" class="clearfix" role="banner">
          <!-- start: Branding -->
      <div id="branding" class="branding-elements clearfix">

                  <!-- start: Site name and Slogan hgroup -->
          <div class="h-group" id="name-and-slogan">
                          <h1 id="site-name">
			  <a href="/" title="Home page" class="active">RedbridgeCVS</a>               
               </h1>
                                      <h2 id="site-slogan"><p>Inspiring everyone to play a part in a caring, vibrant community</p></h2>
                      </div><!-- /end #name-and-slogan -->
          
                  <div id="logo">
            <a href="/" class="active"><img class="site-logo" typeof="foaf:Image" src="https://www.redbridgecvs.net/sites/redbridgecvs.net/files/wheel%20grey%20cropped.jpg" alt="RedbridgeCVS" /></a>          </div>
                  
          
              </div><!-- /end #branding -->
        <!-- region: Header -->
    <div class="region region-header"><div class="region-inner clearfix">



<div id="block-text-resize-0" class="block block-text-resize no-title odd first block-count-1 block-region-header block-0 block-first">
  <div class="block-inner clearfix">
                <div class="block-content content no-title">
      <div class="block-content-inner clearfix">
        <a href="javascript:;" class="changer" id="text_resize_decrease"><sup>-</sup>A</a> <a href="javascript:;" class="changer" id="text_resize_reset">A</a> <a href="javascript:;" class="changer" id="text_resize_increase"><sup>+</sup>A</a><div id="text_resize_clear"></div>      </div>
    </div>
  </div>
</div>





<div id="block-search-form" class="block block-search no-title even last block-count-2 block-region-header block-form" role="search">
  <div class="block-inner clearfix">
                <div class="block-content content no-title">
      <div class="block-content-inner clearfix">
        <form action="/" method="post" id="search-block-form" accept-charset="UTF-8"><div><div class="container-inline">
      <h2 class="element-invisible">Search form</h2>
    <div class="form-item form-type-textfield form-item-search-block-form">
  <label class="element-invisible" for="edit-search-block-form--2">Search </label>
 <input title="Enter the terms you wish to search for." type="search" id="edit-search-block-form--2" name="search_block_form" value="" size="15" maxlength="128" class="form-text" />
</div>
<div class="form-actions form-wrapper" id="edit-actions"><input type="submit" id="edit-submit" name="op" value="Search" class="form-submit" /></div><input type="hidden" name="form_build_id" value="form-QMQvPD9n2MMN71qT1dxwPmaZNAReQdeQ6gFPXNAm7cE" />
<input type="hidden" name="form_id" value="search_block_form" />
</div>
</div></form>      </div>
    </div>
  </div>
</div>

</div></div>  </header>

      <div id="menu-bar-wrapper" class="clearfix">
      <div id="menu-bar" class="nav clearfix"><nav id="block-superfish-1" class="block block-superfish menu-wrapper menu-bar-wrapper clearfix odd first last block-count-3 block-region-menu-bar block-1 block-first">
              <h2 class="element-invisible block-title">Main menu</h2>
        
    <ul id="superfish-1" class="menu sf-menu sf-main-menu sf-horizontal sf-style-none sf-total-items-7 sf-parent-items-5 sf-single-items-2"><li id="menu-221-1" class="active-trail first odd sf-item-1 sf-depth-1 sf-no-children"><a href="/" class="sf-depth-1 active">Home</a></li><li id="menu-731-1" class="middle even sf-item-2 sf-depth-1 sf-total-children-9 sf-parent-children-0 sf-single-children-9 menuparent"><a href="/news" class="sf-depth-1 menuparent">News</a><ul><li id="menu-8057-1" class="first odd sf-item-1 sf-depth-2 sf-no-children"><a href="/blog" title="" class="sf-depth-2">Blog</a></li><li id="menu-734-1" class="middle even sf-item-2 sf-depth-2 sf-no-children"><a href="/news/redbridgecvs-news" title="" class="sf-depth-2">RedbridgeCVS news</a></li><li id="menu-735-1" class="middle odd sf-item-3 sf-depth-2 sf-no-children"><a href="/news/redbridge-voluntary-groups" title="" class="sf-depth-2">Redbridge voluntary groups</a></li><li id="menu-736-1" class="middle even sf-item-4 sf-depth-2 sf-no-children"><a href="/news/funding" title="" class="sf-depth-2">Funding</a></li><li id="menu-737-1" class="middle odd sf-item-5 sf-depth-2 sf-no-children"><a href="/news/health-care" title="" class="sf-depth-2">Health and care</a></li><li id="menu-738-1" class="middle even sf-item-6 sf-depth-2 sf-no-children"><a href="/news/partnerships" title="" class="sf-depth-2">Public sector and partnerships</a></li><li id="menu-739-1" class="middle odd sf-item-7 sf-depth-2 sf-no-children"><a href="/news/training" title="" class="sf-depth-2">Training, development, support</a></li><li id="menu-740-1" class="middle even sf-item-8 sf-depth-2 sf-no-children"><a href="/news/volunteering" title="" class="sf-depth-2">Volunteering</a></li><li id="menu-741-1" class="last odd sf-item-9 sf-depth-2 sf-no-children"><a href="/news/jobs" title="" class="sf-depth-2">Job vacancies</a></li></ul></li><li id="menu-758-1" class="middle odd sf-item-3 sf-depth-1 sf-no-children"><a href="/events" title="" class="sf-depth-1">Events</a></li><li id="menu-609-1" class="middle even sf-item-4 sf-depth-1 sf-total-children-7 sf-parent-children-6 sf-single-children-1 menuparent"><a title="" class="sf-depth-1 menuparent nolink">What we do<span class="sf-sub-indicator"></span></a><ul><li id="menu-610-1" class="first odd sf-item-1 sf-depth-2 sf-total-children-2 sf-parent-children-0 sf-single-children-2 menuparent"><a title="" class="sf-depth-2 menuparent nolink">Information for community groups<span class="sf-sub-indicator"></span></a><ul><li id="menu-611-1" class="first odd sf-item-1 sf-depth-3 sf-no-children"><a href="/what-we-do/information/community-newsletter" class="sf-depth-3">Community Newsletter</a></li><li id="menu-612-1" class="last even sf-item-2 sf-depth-3 sf-no-children"><a href="/what-we-do/information/websiteenews" class="sf-depth-3">Website/eNews</a></li></ul></li><li id="menu-614-1" class="middle even sf-item-2 sf-depth-2 sf-total-children-1 sf-parent-children-0 sf-single-children-1 menuparent"><a title="" class="sf-depth-2 menuparent nolink">Practical help for community groups<span class="sf-sub-indicator"></span></a><ul><li id="menu-615-1" class="firstandlast odd sf-item-1 sf-depth-3 sf-no-children"><a href="/what-we-do/support-services/copying" class="sf-depth-3">Copying</a></li></ul></li><li id="menu-616-1" class="middle odd sf-item-3 sf-depth-2 sf-total-children-2 sf-parent-children-0 sf-single-children-2 menuparent"><a title="" class="sf-depth-2 menuparent nolink">Helping your group survive and grow<span class="sf-sub-indicator"></span></a><ul><li id="menu-621-1" class="first odd sf-item-1 sf-depth-3 sf-no-children"><a href="/what-we-do/training/redbridgecvs-training" class="sf-depth-3">Training</a></li><li id="menu-623-1" class="last even sf-item-2 sf-depth-3 sf-no-children"><a href="/what-we-do/development/fundraising-support" class="sf-depth-3">Fundraising support</a></li></ul></li><li id="menu-619-1" class="middle even sf-item-4 sf-depth-2 sf-total-children-7 sf-parent-children-0 sf-single-children-7 menuparent"><a title="" class="sf-depth-2 menuparent nolink">Health and wellbeing projects<span class="sf-sub-indicator"></span></a><ul><li id="menu-624-1" class="first odd sf-item-1 sf-depth-3 sf-no-children"><a href="/health" class="sf-depth-3">Health partnerships</a></li><li id="menu-626-1" class="middle even sf-item-2 sf-depth-3 sf-no-children"><a href="/what-we-do/health/fit-fun" class="sf-depth-3">Fit for Fun</a></li><li id="menu-627-1" class="middle odd sf-item-3 sf-depth-3 sf-no-children"><a href="/what-we-do/health/tb-awareness-project" class="sf-depth-3">TB Awareness Project</a></li><li id="menu-13990-1" class="middle even sf-item-4 sf-depth-3 sf-no-children"><a href="/content/social-prescribing" class="sf-depth-3">Social prescribing</a></li><li id="menu-14706-1" class="middle odd sf-item-5 sf-depth-3 sf-no-children"><a href="https://www.redbridgecvs.net/content/hiv-awareness-project-0" title="" class="sf-depth-3">HIV Awareness Project</a></li><li id="menu-625-1" class="middle even sf-item-6 sf-depth-3 sf-no-children"><a href="/what-we-do/health/bamer-psychological-health" title="" class="sf-depth-3">BAMER psychological health (closed)</a></li><li id="menu-7757-1" class="last odd sf-item-7 sf-depth-3 sf-no-children"><a href="/content/domestic-abuse-awareness" title="" class="sf-depth-3">Domestic Abuse Awareness (closed)</a></li></ul></li><li id="menu-13654-1" class="middle odd sf-item-5 sf-depth-2 sf-total-children-3 sf-parent-children-0 sf-single-children-3 menuparent"><a title="" class="sf-depth-2 menuparent nolink">Helping local people find work<span class="sf-sub-indicator"></span></a><ul><li id="menu-622-1" class="first odd sf-item-1 sf-depth-3 sf-no-children"><a href="/what-we-do/training/employment-skills" class="sf-depth-3">Employment and Skills Team (EaST)</a></li><li id="menu-13652-1" class="middle even sf-item-2 sf-depth-3 sf-no-children"><a href="/content/create-your-future" class="sf-depth-3">Create Your Future</a></li><li id="menu-14721-1" class="last odd sf-item-3 sf-depth-3 sf-no-children"><a href="/content/progress-work" class="sf-depth-3">Progress in Work</a></li></ul></li><li id="menu-620-1" class="middle even sf-item-6 sf-depth-2 sf-total-children-6 sf-parent-children-0 sf-single-children-6 menuparent"><a title="" class="sf-depth-2 menuparent nolink">Networks and partnerships<span class="sf-sub-indicator"></span></a><ul><li id="menu-628-1" class="first odd sf-item-1 sf-depth-3 sf-no-children"><a href="/what-we-do/networks/consultations" class="sf-depth-3">Consultations</a></li><li id="menu-629-1" class="middle even sf-item-2 sf-depth-3 sf-no-children"><a href="/what-we-do/networks/compact" class="sf-depth-3">Compact</a></li><li id="menu-630-1" class="middle odd sf-item-3 sf-depth-3 sf-no-children"><a href="/pavsp" class="sf-depth-3">Public and Voluntary Sectors&#039; Partnership</a></li><li id="menu-631-1" class="middle even sf-item-4 sf-depth-3 sf-no-children"><a href="/what-we-do/networks/rpceg" class="sf-depth-3">Redbridge Safer Neighbourhood Board</a></li><li id="menu-632-1" class="middle odd sf-item-5 sf-depth-3 sf-no-children"><a href="/what-we-do/networks/voluntary-sector-network" class="sf-depth-3">Voluntary Sector Network</a></li><li id="menu-14020-1" class="last even sf-item-6 sf-depth-3 sf-no-children"><a href="/rcypn" class="sf-depth-3">Redbridge Children and Young People&#039;s Network</a></li></ul></li><li id="menu-1090-1" class="last odd sf-item-7 sf-depth-2 sf-no-children"><a href="/content/volunteer-centre-redbridge" class="sf-depth-2">Volunteer Centre Redbridge</a></li></ul></li><li id="menu-1089-1" class="middle odd sf-item-5 sf-depth-1 sf-total-children-4 sf-parent-children-0 sf-single-children-4 menuparent"><a title="" class="sf-depth-1 menuparent nolink">Volunteering<span class="sf-sub-indicator"></span></a><ul><li id="menu-698-1" class="first odd sf-item-1 sf-depth-2 sf-no-children"><a href="/volunteering/people-considering-volunteering" class="sf-depth-2">Would you like to become a volunteer?</a></li><li id="menu-1060-1" class="middle even sf-item-2 sf-depth-2 sf-no-children"><a href="/volunteering/opportunities" title="" class="sf-depth-2">Volunteering opportunities</a></li><li id="menu-699-1" class="middle odd sf-item-3 sf-depth-2 sf-no-children"><a href="/volunteering/volunteering-organisations" class="sf-depth-2">Support for organisations</a></li><li id="menu-942-1" class="last even sf-item-4 sf-depth-2 sf-no-children"><a href="/news/volunteering" title="" class="sf-depth-2">Volunteering news and one-off opportunities</a></li></ul></li><li id="menu-700-1" class="middle even sf-item-6 sf-depth-1 sf-total-children-1 sf-parent-children-0 sf-single-children-1 menuparent"><a title="" class="sf-depth-1 menuparent nolink">For Members<span class="sf-sub-indicator"></span></a><ul><li id="menu-13971-1" class="firstandlast odd sf-item-1 sf-depth-2 sf-no-children"><a href="https://www.redbridgecvs.net/content/about-membership" title="" class="sf-depth-2">About membership</a></li></ul></li><li id="menu-703-1" class="last odd sf-item-7 sf-depth-1 sf-total-children-4 sf-parent-children-0 sf-single-children-4 menuparent"><a title="" class="sf-depth-1 menuparent nolink">About Redbridge<span class="sf-sub-indicator"></span></a><ul><li id="menu-7756-1" class="first odd sf-item-1 sf-depth-2 sf-no-children"><a href="/content/directory-members" class="sf-depth-2">Directory of members</a></li><li id="menu-947-1" class="middle even sf-item-2 sf-depth-2 sf-no-children"><a href="/about-redbridge/venues" title="" class="sf-depth-2">Directory of venues</a></li><li id="menu-704-1" class="middle odd sf-item-3 sf-depth-2 sf-no-children"><a href="/about-redbridge/other-local-services" class="sf-depth-2">Other local services</a></li><li id="menu-1028-1" class="last even sf-item-4 sf-depth-2 sf-no-children"><a href="/content/neighbouring-boroughs" title="Neighbouring boroughs" class="sf-depth-2">Neighbouring boroughs</a></li></ul></li></ul>
</nav>
</div> <!-- /menu bar -->
    </div>
  
   <!-- Breadcrumbs -->
   <!-- /message -->
   <!-- /help -->

   <!-- /secondary-content -->

    


  <div id="columns" class="at-mag-columns"><div class="columns-inner clearfix">
    <div id="content-column"><div class="content-inner">

       <!-- /highlight -->

      
      <section id="main-content">
      
        		<div class="region region-content-prefix"><div class="region-inner clearfix">



<div id="block-ddblock-3" class="block block-ddblock no-title odd first last block-count-4 block-region-content-prefix block-3 block-first">
  <div class="block-inner clearfix">
                <div class="block-content content no-title">
      <div class="block-content-inner clearfix">
        <!-- dynamic display block slideshow -->
<div id="ddblock-3" class="ddblock-cycle-upright60p clearfix">
 <div class="container clearfix">
  <div class="container-inner clearfix">
    
   <!-- slider content -->
   <div class="slider clearfix">
    <div class="slider-inner clearfix">
                  <div class="slide clearfix">
        <div class="slide-inner clearfix">
                   <a href="https://www.redbridgecvs.net/content/custom-built-courses-your-premises">
		  <img typeof="foaf:Image" class="image-style-none" src="https://www.redbridgecvs.net/sites/redbridgecvs.net/files/slides/Training_RCSS_800.jpg" width="800" height="420" alt="Young carers on assertiveness training" />         </a>
		                
         <div class="slide-text slide-text-horizontal slide-text-bottom clearfix">
          <div class="slide-text-inner clearfix">
                                    <div class="slide-title slide-title-horizontal clearfix">
              <div class="slide-title-inner clearfix">
               <h2><a href="/content/we-can-support-your-group-custom-built-training"><a href="https://www.redbridgecvs.net/content/custom-built-courses-your-premises">We can support your group with custom-built training </a></a></h2>
              </div> <!-- slide-title-inner-->
             </div>  <!-- slide-title-->
                           
                         <div class="slide-body-horizontal clearfix">
              <div class="slide-body-inner clearfix">
               <p><p>We provided assertiveness training for these young carers - affordable courses available on lots of topics.</p>
</p>
              </div> <!-- slide-body-inner-->
             </div>  <!-- slide-body-->
                   
                     </div> <!-- slide-text-inner-->
         </div>  <!-- slide-text-->
        </div> <!-- slide-inner-->
       </div>  <!-- slide-->
             <div class="slide clearfix">
        <div class="slide-inner clearfix">
                   <a href="https://www.redbridgecvs.net/news/new-homeless-hostel-getting-under-way">
		  <img typeof="foaf:Image" class="image-style-none" src="https://www.redbridgecvs.net/sites/redbridgecvs.net/files/slides/MalachiBuildingSite.jpg" width="800" height="420" alt="Project Malachi building site" />         </a>
		                
         <div class="slide-text slide-text-horizontal slide-text-bottom clearfix">
          <div class="slide-text-inner clearfix">
                                    <div class="slide-title slide-title-horizontal clearfix">
              <div class="slide-title-inner clearfix">
               <h2><a href="/content/building-work-under-way-new-homeless-hostel"><a href="https://www.redbridgecvs.net/news/new-homeless-hostel-getting-under-way">Building work under way for new homeless hostel </a></a></h2>
              </div> <!-- slide-title-inner-->
             </div>  <!-- slide-title-->
                           
                         <div class="slide-body-horizontal clearfix">
              <div class="slide-body-inner clearfix">
               <p><p>Project Malachi in Ilford will be open this autumn.</p>
</p>
              </div> <!-- slide-body-inner-->
             </div>  <!-- slide-body-->
                   
                     </div> <!-- slide-text-inner-->
         </div>  <!-- slide-text-->
        </div> <!-- slide-inner-->
       </div>  <!-- slide-->
               </div> <!-- slider-inner-->
   </div>  <!-- slider-->
    
   <!-- prev/next pager on slide -->
       <div class="pager-slide prev-container prev-container-bottom">
     <a class="prev" href="#"></a>
    </div>
    <div class="pager-slide next-container next-container-bottom">
     <a class="next" href="#"></a>
    </div>
    
  </div> <!-- container-inner-->
 </div> <!--container-->
</div> <!--  template -->
      </div>
    </div>
  </div>
</div>

</div></div> <!-- /content-prefix -->
                	   
              
	
            

      <div class="region region-content-aside"><div class="region-inner clearfix">



<div id="block-block-2" class="block block-block no-title odd first last block-count-5 block-region-content-aside block-2 block-first">
  <div class="block-inner clearfix">
                <div class="block-content content no-title">
      <div class="block-content-inner clearfix">
        <h3>
	<a href="http://www.redbridgecvs.net/news">Latest news</a> • <a href="http://www.redbridgecvs.net/events/calendar/month">Events this month</a> • <a href="http://www.redbridgecvs.net/training">Training</a> • <a href="http://www.redbridgecvs.net/fitforfun">Get fit, feel good, have fun</a><br />
	<a href="/what-we-do/development/fundraising-support">Find funding</a> • <a href="https://www.redbridgecvs.net/volunteering/people-considering-volunteering">Interested in volunteering?</a></h3>
<p> </p>
<div>
<div style="float: left; width; 380px;">
		<a href="https://www.redbridge.gov.uk/leisure-sport-and-the-arts/play-streets/"><img alt="Space hoppers" src="/sites/redbridgecvs.net/files/spacehopper380.jpg" style="width: 380px; height: 250px; padding-right:15px;" /></a><br />
		 <br />
		<a href="https://www.redbridge.gov.uk/leisure-sport-and-the-arts/play-streets/">Set up a play street, win a space hopper!</a></div>
<div style="float: left; width; 380px;">
		<a href="https://www.redbridgecvs.net/news/healthwatch-redbridge-2018-2019-annual-report"><img alt="Healthwatch annual report" src="/sites/redbridgecvs.net/files/HealthWatchReport380.jpg" style="width: 380px; height: 250px;" /></a><br />
		 <br />
		<a href="https://www.redbridgecvs.net/news/st-francis-hospice-launches-support-project-male-carers">H</a><a href="https://www.redbridgecvs.net/news/healthwatch-redbridge-2018-2019-annual-report">ealthwatch Redbridge launches Annual Report</a></div>
</div>
<p> </p>
      </div>
    </div>
  </div>
</div>

</div></div> <!-- /content-aside -->

    </div></div> <!-- /content-column -->

    <div class="region region-sidebar-first sidebar"><div class="region-inner clearfix">



<div id="block-block-14" class="block block-block no-title odd first block-count-6 block-region-sidebar-first block-14 block-first">
  <div class="block-inner clearfix">
                <div class="block-content content no-title">
      <div class="block-content-inner clearfix">
        <p><a href="https://twitter.com/redbridgecvs"><img alt="" src="/sites/redbridgecvs.net/files/followtwitter_0.jpg" style="width: 279px; height: 90px;" /></a></p>
      </div>
    </div>
  </div>
</div>





<div id="block-block-11" class="block block-block no-title even block-count-7 block-region-sidebar-first block-11">
  <div class="block-inner clearfix">
                <div class="block-content content no-title">
      <div class="block-content-inner clearfix">
        <p><a href="https://www.redbridgecvs.net/content/our-members-and-supporters"><img alt="Join RedbridgeCVS" src="/sites/redbridgecvs.net/files/JoinJan16.jpg" style="width: 279px; height: 90px;" /></a></p>
      </div>
    </div>
  </div>
</div>





<div id="block-block-12" class="block block-block no-title odd block-count-8 block-region-sidebar-first block-12">
  <div class="block-inner clearfix">
                <div class="block-content content no-title">
      <div class="block-content-inner clearfix">
        <p><a href="https://www.redbridgecvs.net/sites/redbridgecvs.net/files/How%20to%20start%20a%20community%20group.pdf"><img src="https://www.redbridgecvs.net/sites/redbridgecvs.net/files/StartJan16.jpg" /></a></p>
      </div>
    </div>
  </div>
</div>





<div id="block-block-13" class="block block-block no-title even block-count-9 block-region-sidebar-first block-13">
  <div class="block-inner clearfix">
                <div class="block-content content no-title">
      <div class="block-content-inner clearfix">
        <p><a href="https://www.redbridgecvs.net/what-we-do/development/fundraising-support"><img src="https://www.redbridgecvs.net/sites/redbridgecvs.net/files/FundingJan16.jpg" /></a></p>
      </div>
    </div>
  </div>
</div>





<section id="block-user-login" class="block block-user odd block-count-10 block-region-sidebar-first block-login" role="form">
  <div class="block-inner clearfix">
              <h2 class="block-title">Member log in</h2>
            <div class="block-content content">
      <div class="block-content-inner clearfix">
        <form action="/content/redbridge-cvs-supporting-local-community-groups-and-charities?destination=node/1" method="post" id="user-login-form" accept-charset="UTF-8"><div><div class="form-item form-type-textfield form-item-name">
  <label for="edit-name">E-mail or username <span class="form-required" title="This field is required.">*</span></label>
 <input type="text" id="edit-name" name="name" value="" size="15" maxlength="60" class="form-text required" />
</div>
<div class="form-item form-type-password form-item-pass">
  <label for="edit-pass">Password <span class="form-required" title="This field is required.">*</span></label>
 <input type="password" id="edit-pass" name="pass" size="15" maxlength="128" class="form-text required" />
</div>
<div class="item-list"><ul><li class="even first last"><a href="/user/password" title="Request new password via e-mail.">Request new password</a></li></ul></div><input type="hidden" name="form_build_id" value="form-my25yVZCL_21zFf9k6HK2RCWP_L00OjWBONGM-QO5sI" />
<input type="hidden" name="form_id" value="user_login_block" />
<div class="form-actions form-wrapper" id="edit-actions--2"><input type="submit" id="edit-submit--2" name="op" value="Log in" class="form-submit" /></div></div></form>      </div>
    </div>
  </div>
</section>





<section id="block-views-news-block" class="block block-views even block-count-11 block-region-sidebar-first block-news-block">
  <div class="block-inner clearfix">
              <h2 class="block-title">Latest News</h2>
            <div class="block-content content">
      <div class="block-content-inner clearfix">
        <div class="view view-news view-id-news view-display-id-block view-dom-id-a83bea5edf0177da889c4e6f2bf9aec2">
        
  
  
      <div class="view-content">
      <div class="item-list">    <ul class="item-list">          <li class="views-row views-row-1 views-row-odd views-row-first">  
  <div class="views-field views-field-title">        <span class="field-content"><a href="/news/new-lay-member-volunteer-opportunity-redbridge-safeguarding-adults-board">New Lay Member Volunteer opportunity with The Redbridge Safeguarding Adults Board</a></span>  </div></li>
          <li class="views-row views-row-2 views-row-even">  
  <div class="views-field views-field-title">        <span class="field-content"><a href="/news/macmillan-campaign-raises-awareness-important-issue-general-election">Macmillan campaign raises awareness on important issue before the General Election</a></span>  </div></li>
          <li class="views-row views-row-3 views-row-odd views-row-last">  
  <div class="views-field views-field-title">        <span class="field-content"><a href="/news/london-international-arts-festival">London International Arts Festival </a></span>  </div></li>
      </ul></div>    </div>
  
  
  
  
  
  
</div>      </div>
    </div>
  </div>
</section>





<section id="block-views-calendar-block-2" class="block block-views odd last block-count-12 block-region-sidebar-first block-calendar-block-2">
  <div class="block-inner clearfix">
              <h2 class="block-title">Coming events</h2>
            <div class="block-content content">
      <div class="block-content-inner clearfix">
        <div class="view view-calendar view-id-calendar view-display-id-block_2 view-dom-id-19af838db888f77c6a632da816d14d58">
        
  
  
      <div class="view-content">
      <div class="item-list">    <ul class="item-list">          <li class="views-row views-row-1 views-row-odd views-row-first">  
  <div class="views-field views-field-title">        <span class="field-content"><a href="/events/training-managing-volunteers-your-organisation-3">Training: Managing Volunteers in your Organisation</a></span>  </div>  
  <div class="views-field views-field-field-date">        <div class="field-content"><span class="date-display-single" property="dc:date" datatype="xsd:dateTime" content="2019-12-05T09:30:00+00:00">Thu, 05/12/2019 - 09:30</span></div>  </div></li>
          <li class="views-row views-row-2 views-row-even">  
  <div class="views-field views-field-title">        <span class="field-content"><a href="/events/saint-francis-hospice-5k-fun-run-santas-grotto-and-winter-market">Saint Francis Hospice 5k Fun Run, Santa&#039;s grotto and winter market</a></span>  </div>  
  <div class="views-field views-field-field-date">        <div class="field-content"><span class="date-display-single" property="dc:date" datatype="xsd:dateTime" content="2019-12-08T09:30:00+00:00">Sun, 08/12/2019 - 09:30</span></div>  </div></li>
          <li class="views-row views-row-3 views-row-odd">  
  <div class="views-field views-field-title">        <span class="field-content"><a href="/events/barking-library-film-club-2">Barking Library Film Club </a></span>  </div>  
  <div class="views-field views-field-field-date">        <div class="field-content"><span class="date-display-single" property="dc:date" datatype="xsd:dateTime" content="2019-12-09T18:30:00+00:00">Mon, 09/12/2019 - 18:30</span></div>  </div></li>
          <li class="views-row views-row-4 views-row-even">  
  <div class="views-field views-field-title">        <span class="field-content"><a href="/events/age-uk-redbridge-barking-havering-di%E2%80%99s-diamonds-and-geezers-service-launch">Age UK Redbridge, Barking &amp; Havering Di’s Diamonds and Geezers Service Launch</a></span>  </div>  
  <div class="views-field views-field-field-date">        <div class="field-content"><span class="date-display-single" property="dc:date" datatype="xsd:dateTime" content="2019-12-10T13:00:00+00:00">Tue, 10/12/2019 - 13:00</span></div>  </div></li>
          <li class="views-row views-row-5 views-row-odd views-row-last">  
  <div class="views-field views-field-title">        <span class="field-content"><a href="/events/forever-young-programme-festive-sharing-bay-session">Forever Young Programme Festive Sharing Bay Session </a></span>  </div>  
  <div class="views-field views-field-field-date">        <div class="field-content"><span class="date-display-single" property="dc:date" datatype="xsd:dateTime" content="2019-12-14T11:30:00+00:00">Sat, 14/12/2019 - 11:30</span></div>  </div></li>
      </ul></div>    </div>
  
  
  
  
  
      <div class="feed-icon">
      <a href='webcal://www.redbridgecvs.net/calendar-node-field-date/ical/%2A/calendar.ics' class='ical-icon'><img typeof="foaf:Image" class="image-style-none" src="https://www.redbridgecvs.net/sites/redbridgecvs.net/modules/contributed/date_ical/images/ical-feed-icon-34x14.png" alt="Add to My Calendar" title="Add to My Calendar" /></a>    </div>
  
</div>      </div>
    </div>
  </div>
</section>

</div></div>    
  </div></div> <!-- /columns -->

   <!-- /tertiary-content -->

  
  
  
  <div class="region region-logos"><div class="region-inner clearfix">



<div id="block-block-1" class="block block-block no-title odd first last block-count-13 block-region-logos block-1 block-first">
  <div class="block-inner clearfix">
                <div class="block-content content no-title">
      <div class="block-content-inner clearfix">
        <div class="funders-logos">
<p style="text-align:center"><img alt="London Borough of Redbridge" class="first" src="/sites/redbridgecvs.net/files/logos/lb-redbridge.png" style="width: 114px; height: 64px; margin-left: 5px; margin-right: 5px;" /><img alt="NHS Redbridge Clinical Commissioing Group" src="/sites/redbridgecvs.net/files/logos/nhs.png" style="width: 154px; height: 67px; margin-left: 5px; margin-right: 5px;" /><img alt="London Councils" src="/sites/redbridgecvs.net/files/logos/london-councils.png" style="width: 94px; height: 68px; margin-left: 0px; margin-right: 0px;" /><img alt="Mayor of London" src="/sites/redbridgecvs.net/files/logos/mayor-of-london.png" style="width: 119px; height: 64px;" /><img alt="European Social Fund" src="/sites/redbridgecvs.net/files/ESF_Col_Landscape%20150w.jpg" style="width: 143px; margin: 10px 0px; height: 32px;" /><img alt="Skills Funding Agency" src="/sites/redbridgecvs.net/files/logos/skills-funding-agency.png" style="width: 86px; height: 73px; margin-left: 0px; margin-right: 0px;" /><img alt="" src="/sites/redbridgecvs.net/files/LCF.jpg" style="width: 91px; height: 48px; margin-left: 5px; margin-right: 5px;" />  <img alt="Big Lottery" src="/sites/redbridgecvs.net/files/Blue_small.jpg" style="width: 86px; height: 58px;" /></p>
</div>
<p> </p>
      </div>
    </div>
  </div>
</div>

</div></div> <!-- /logo region -->
      
      <footer id="footer"><div id="footer-inner" class="clearfix">

            


      <div class="region region-footer"><div class="region-inner clearfix">



<div id="block-block-7" class="block block-block no-title odd first last block-count-14 block-region-footer block-7 block-first">
  <div class="block-inner clearfix">
                <div class="block-content content no-title">
      <div class="block-content-inner clearfix">
        <div style="font-size:120%;">
<div>
<div style="float: left; width: 300px;">
			<a href="http://www.redbridgecvs.net/about-us/our-mission-aims-and-values"><span style="text-decoration: underline;">Our mission, aims and values</span></a></div>
<div style="float: left; width: 200px;">
			<a href="http://www.redbridgecvs.net/about-us/our-staff"><span style="text-decoration: underline;">Our staff</span></a></div>
<div style="float: left; width: 300px;">
			<a href="http://www.redbridgecvs.net/content/our-members-and-supporters"><span style="text-decoration: underline;">Our members and supporters</span></a></div>
<div style="float: left; width: 250px;">
			<a href="http://www.redbridgecvs.net/content/annual-reports-and-accounts"><span style="text-decoration: underline;">Annual reviews and accounts</span></a></div>
</div>
<div style="clear: both;">
<div style="float: left; width: 300px;">
			<a href="http://www.redbridgecvs.net/content/our-strategic-plan"><span style="text-decoration: underline;">Our strategic plan</span></a></div>
<div style="float: left; width: 200px;">
			<a href="http://www.redbridgecvs.net/about-us/our-board-members"><span style="text-decoration: underline;">Our board members</span></a></div>
<div style="float: left; width: 300px;">
			<a href="http://www.redbridgecvs.net/about-us/our-partner-organisations"><span style="text-decoration: underline;">Our partner organisations</span></a></div>
<p>		<a href="http://www.redbridgecvs.net/about-us/contact-us"><span style="text-decoration: underline;">How to find us</span></a></p></div>
</div>
<div style="clear: both;">
<div style="float: left; width: 300px; font-size:120%;">
		<span style="text-decoration: underline;"><a href="http://www.redbridgecvs.net/privacy">How we use your information</a></span><span style="font-size: 12px;"> </span></div>
</div>
<p> </p>
<p>  </p>
<p>© RedbridgeCVS<br />
	<strong>RedbridgeCVS, first floor, 103 Cranbrook Rd, Ilford IG1 4PU • 020 8553 1004 • <a href="mailto:info@redbridgecvs.net">info@redbridgecvs.net</a></strong><br />
	Company number 2569614 (registered in England) • Registered charity 1005075</p>
      </div>
    </div>
  </div>
</div>

</div></div> <!-- /footer region -->

       <!-- /feed icons -->

    </div></footer> <!-- /footer/footer-inner -->
    

    
</div> <!-- /page -->

    <div id="copyright" class="container">
       <div id="cis"><a href="http://www.cismedia.co.uk" target="external" title="Website by CISMedia">CIS</a></div>
    </div>  <script>function euCookieComplianceLoadScripts() {Drupal.attachBehaviors();}</script>
<script>var eu_cookie_compliance_cookie_name = "";</script>
<script src="https://www.redbridgecvs.net/sites/redbridgecvs.net/files/js/js_IjWnpKYXI70XjFqr9gruiFgn4GBvUdRIp2vbZWjoOY8.js"></script>
<script src="https://www.redbridgecvs.net/sites/redbridgecvs.net/files/js/js_2lJC5gTZ8B3-P19n2LPEd0viiCEmLJ5gcIAFYex1r0U.js"></script>
</body>
</html>
