<!DOCTYPE html PUBLIC "-//W3C//DTD XHTML+RDFa 1.0//EN"
  "http://www.w3.org/MarkUp/DTD/xhtml-rdfa-1.dtd">
<html xmlns="http://www.w3.org/1999/xhtml" xml:lang="en" version="XHTML+RDFa 1.0" dir="ltr">

<head profile="http://www.w3.org/1999/xhtml/vocab">
  <meta http-equiv="Content-Type" content="text/html; charset=utf-8" />
<meta name="Generator" content="Drupal 7 (http://drupal.org)" />
<link rel="alternate" type="application/rss+xml" title="Rijidij.net RSS" href="https://www.rijidij.net/rss.xml" />
<link rel="shortcut icon" href="https://www.rijidij.net/misc/favicon.ico" type="image/vnd.microsoft.icon" />
  <title>
    Rijidij.net | Craig Wood : Software Engineer and Web Developer  </title>
  <link type="text/css" rel="stylesheet" href="https://www.rijidij.net/sites/default/files/css/css_xE-rWrJf-fncB6ztZfd2huxqgxu4WO-qwma6Xer30m4.css" media="all" />
<link type="text/css" rel="stylesheet" href="https://www.rijidij.net/sites/default/files/css/css_u9dR08xa8dT67C6XjYpRRC6dnxCEW6MTu5FeKIkPOxY.css" media="all" />
<link type="text/css" rel="stylesheet" href="https://www.rijidij.net/sites/default/files/css/css_0Ae6fdCn1t2ysdMm2yehowT2z5VTp4QD3_jVbdw1P9w.css" media="all" />
<style type="text/css" media="all">
<!--/*--><![CDATA[/*><!--*/
#sliding-popup.sliding-popup-bottom{background:#173544;}#sliding-popup .popup-content #popup-text h1,#sliding-popup .popup-content #popup-text h2,#sliding-popup .popup-content #popup-text h3,#sliding-popup .popup-content #popup-text p{color:#ffffff !important;}

/*]]>*/-->
</style>
<link type="text/css" rel="stylesheet" href="https://www.rijidij.net/sites/default/files/css/css_A0ehOTblGg7yiCEKH54bRMiKlRvmP_4o9yEPbp04bX8.css" media="all" />
<link type="text/css" rel="stylesheet" href="https://www.rijidij.net/sites/default/files/css/css_2THG1eGiBIizsWFeexsNe1iDifJ00QRS9uSd03rY9co.css" media="print" />

<!--[if lte IE 7]>
<link type="text/css" rel="stylesheet" href="https://www.rijidij.net/sites/all/themes/sub_bartik/css/ie.css?pn380a" media="all" />
<![endif]-->

<!--[if IE 6]>
<link type="text/css" rel="stylesheet" href="https://www.rijidij.net/sites/all/themes/sub_bartik/css/ie6.css?pn380a" media="all" />
<![endif]-->
<link type="text/css" rel="stylesheet" href="https://www.rijidij.net/sites/default/files/css/css_Dk2GKEcXH6e8Bq71u5TFBq3PSkFUkjxvqk4TBlXcgO4.css" media="screen" />
  <script type="text/javascript" src="https://www.rijidij.net/sites/default/files/js/js_vDrW3Ry_4gtSYaLsh77lWhWjIC6ml2QNkcfvfP5CVFs.js"></script>
<script type="text/javascript" src="https://www.rijidij.net/sites/default/files/js/js_CC-zfeuQHcDhFtVRuKW53h30TL7j_105J32Nz8b8R38.js"></script>
<script type="text/javascript" src="https://www.rijidij.net/sites/default/files/js/js_ACUjKkq92BnV35AxdxxUB7FFULYq6NVobmWEoFQ1-5A.js"></script>
<script type="text/javascript" src="https://www.rijidij.net/sites/all/modules/lightbox2/js/lightbox.js?1575282223"></script>
<script type="text/javascript" src="https://www.rijidij.net/sites/default/files/js/js_gPqjYq7fqdMzw8-29XWQIVoDSWTmZCGy9OqaHppNxuQ.js"></script>
<script type="text/javascript">
<!--//--><![CDATA[//><!--
(function(i,s,o,g,r,a,m){i["GoogleAnalyticsObject"]=r;i[r]=i[r]||function(){(i[r].q=i[r].q||[]).push(arguments)},i[r].l=1*new Date();a=s.createElement(o),m=s.getElementsByTagName(o)[0];a.async=1;a.src=g;m.parentNode.insertBefore(a,m)})(window,document,"script","https://www.google-analytics.com/analytics.js","ga");ga("create", "UA-20944291-1", {"cookieDomain":"auto"});ga("send", "pageview");
//--><!]]>
</script>
<script type="text/javascript">
<!--//--><![CDATA[//><!--
jQuery.extend(Drupal.settings, {"basePath":"\/","pathPrefix":"","ajaxPageState":{"theme":"sub_bartik","theme_token":"FNuLnBytg5scbmfbu0JGK4VP41rh183t3ntwSFTojHg","js":{"0":1,"sites\/all\/modules\/eu_cookie_compliance\/js\/eu_cookie_compliance.js":1,"misc\/jquery.js":1,"misc\/jquery.once.js":1,"misc\/drupal.js":1,"misc\/jquery.cookie.js":1,"sites\/all\/libraries\/colorbox\/jquery.colorbox.js":1,"sites\/all\/modules\/colorbox\/js\/colorbox.js":1,"sites\/all\/modules\/colorbox\/styles\/default\/colorbox_style.js":1,"sites\/all\/modules\/lightbox2\/js\/lightbox.js":1,"sites\/all\/modules\/google_analytics\/googleanalytics.js":1,"1":1},"css":{"modules\/system\/system.base.css":1,"modules\/system\/system.menus.css":1,"modules\/system\/system.messages.css":1,"modules\/system\/system.theme.css":1,"modules\/book\/book.css":1,"modules\/field\/theme\/field.css":1,"modules\/node\/node.css":1,"modules\/user\/user.css":1,"sites\/all\/modules\/views\/css\/views.css":1,"sites\/all\/modules\/colorbox\/styles\/default\/colorbox_style.css":1,"sites\/all\/modules\/ctools\/css\/ctools.css":1,"sites\/all\/modules\/lightbox2\/css\/lightbox.css":1,"sites\/all\/modules\/eu_cookie_compliance\/css\/eu_cookie_compliance.css":1,"0":1,"themes\/bartik\/css\/layout.css":1,"themes\/bartik\/css\/style.css":1,"sites\/all\/themes\/sub_bartik\/css\/colors.css":1,"sites\/all\/themes\/sub_bartik\/css\/sub_bartik.css":1,"themes\/bartik\/css\/print.css":1,"sites\/all\/themes\/sub_bartik\/css\/ie.css":1,"sites\/all\/themes\/sub_bartik\/css\/ie6.css":1,"public:\/\/css_injector\/css_injector_1.css":1}},"colorbox":{"opacity":"0.85","current":"{current} of {total}","previous":"\u00ab Prev","next":"Next \u00bb","close":"Close","maxWidth":"98%","maxHeight":"98%","fixed":true,"mobiledetect":true,"mobiledevicewidth":"480px"},"lightbox2":{"rtl":0,"file_path":"\/(\\w\\w\/)public:\/","default_image":"\/sites\/all\/modules\/lightbox2\/images\/brokenimage.jpg","border_size":10,"font_color":"000","box_color":"fff","top_position":"","overlay_opacity":"0.8","overlay_color":"000","disable_close_click":1,"resize_sequence":0,"resize_speed":400,"fade_in_speed":400,"slide_down_speed":600,"use_alt_layout":0,"disable_resize":0,"disable_zoom":0,"force_show_nav":0,"show_caption":1,"loop_items":0,"node_link_text":"View Image Details","node_link_target":0,"image_count":"Image !current of !total","video_count":"Video !current of !total","page_count":"Page !current of !total","lite_press_x_close":"press \u003Ca href=\u0022#\u0022 onclick=\u0022hideLightbox(); return FALSE;\u0022\u003E\u003Ckbd\u003Ex\u003C\/kbd\u003E\u003C\/a\u003E to close","download_link_text":"","enable_login":false,"enable_contact":false,"keys_close":"c x 27","keys_previous":"p 37","keys_next":"n 39","keys_zoom":"z","keys_play_pause":"32","display_image_size":"original","image_node_sizes":"()","trigger_lightbox_classes":"","trigger_lightbox_group_classes":"","trigger_slideshow_classes":"","trigger_lightframe_classes":"","trigger_lightframe_group_classes":"","custom_class_handler":0,"custom_trigger_classes":"","disable_for_gallery_lists":true,"disable_for_acidfree_gallery_lists":true,"enable_acidfree_videos":true,"slideshow_interval":5000,"slideshow_automatic_start":true,"slideshow_automatic_exit":true,"show_play_pause":true,"pause_on_next_click":false,"pause_on_previous_click":true,"loop_slides":false,"iframe_width":600,"iframe_height":400,"iframe_border":1,"enable_video":0},"eu_cookie_compliance":{"popup_enabled":1,"popup_agreed_enabled":0,"popup_hide_agreed":0,"popup_clicking_confirmation":true,"popup_scrolling_confirmation":false,"popup_html_info":"\u003Cdiv\u003E\n  \u003Cdiv class =\u0022popup-content info\u0022\u003E\n    \u003Cdiv id=\u0022popup-text\u0022\u003E\n      \u003Cp\u003EWe use cookies on this site to enhance your user experience\u003Cbr \/\u003EBy clicking any link on this page you are giving your consent for us to set cookies.\u003C\/p\u003E\n    \u003C\/div\u003E\n    \u003Cdiv id=\u0022popup-buttons\u0022\u003E\n      \u003Cbutton type=\u0022button\u0022 class=\u0022agree-button\u0022\u003EOK, I agree\u003C\/button\u003E\n              \u003Cbutton type=\u0022button\u0022 class=\u0022find-more-button\u0022\u003ENo, give me more info\u003C\/button\u003E\n          \u003C\/div\u003E\n  \u003C\/div\u003E\n\u003C\/div\u003E","use_mobile_message":false,"mobile_popup_html_info":"\u003Cdiv\u003E\n  \u003Cdiv class =\u0022popup-content info\u0022\u003E\n    \u003Cdiv id=\u0022popup-text\u0022\u003E\n          \u003C\/div\u003E\n    \u003Cdiv id=\u0022popup-buttons\u0022\u003E\n      \u003Cbutton type=\u0022button\u0022 class=\u0022agree-button\u0022\u003EOK, I agree\u003C\/button\u003E\n              \u003Cbutton type=\u0022button\u0022 class=\u0022find-more-button\u0022\u003ENo, give me more info\u003C\/button\u003E\n          \u003C\/div\u003E\n  \u003C\/div\u003E\n\u003C\/div\u003E\n","mobile_breakpoint":"768","popup_html_agreed":"\u003Cdiv\u003E\n  \u003Cdiv class =\u0022popup-content agreed\u0022\u003E\n    \u003Cdiv id=\u0022popup-text\u0022\u003E\n      \u003Ch2\u003EThank you for accepting cookies\u003C\/h2\u003E\n\u003Cp\u003EYou can now hide this message or find out more about cookies.\u003C\/p\u003E\n    \u003C\/div\u003E\n    \u003Cdiv id=\u0022popup-buttons\u0022\u003E\n      \u003Cbutton type=\u0022button\u0022 class=\u0022hide-popup-button\u0022\u003EHide\u003C\/button\u003E\n              \u003Cbutton type=\u0022button\u0022 class=\u0022find-more-button\u0022 \u003EMore info\u003C\/button\u003E\n          \u003C\/div\u003E\n  \u003C\/div\u003E\n\u003C\/div\u003E","popup_use_bare_css":false,"popup_height":"auto","popup_width":"100%","popup_delay":1000,"popup_link":"\/cookies","popup_link_new_window":1,"popup_position":null,"popup_language":"en","better_support_for_screen_readers":0,"reload_page":0,"domain":"","popup_eu_only_js":0,"cookie_lifetime":"100","disagree_do_not_show_popup":0},"googleanalytics":{"trackOutbound":1,"trackMailto":1,"trackDownload":1,"trackDownloadExtensions":"7z|aac|arc|arj|asf|asx|avi|bin|csv|doc(x|m)?|dot(x|m)?|exe|flv|gif|gz|gzip|hqx|jar|jpe?g|js|mp(2|3|4|e?g)|mov(ie)?|msi|msp|pdf|phps|png|ppt(x|m)?|pot(x|m)?|pps(x|m)?|ppam|sld(x|m)?|thmx|qtm?|ra(m|r)?|sea|sit|tar|tgz|torrent|txt|wav|wma|wmv|wpd|xls(x|m|b)?|xlt(x|m)|xlam|xml|z|zip","trackColorbox":1,"trackCrossDomains":["rijidij.net"]}});
//--><!]]>
</script>
</head>
<body class="html front not-logged-in one-sidebar sidebar-first page-node" >
  <div id="skip-link">
    <a href="#main-content" class="element-invisible element-focusable">Skip to main content</a>
  </div>
    <div id="page-wrapper"><div id="page">

  <div id="header" class="without-secondary-menu"><div class="section clearfix">

          <a href="/" title="Home" rel="home" id="logo">
        <img src="https://www.rijidij.net/sites/default/files/color/sub_bartik-bfb3c6b7/logo.png" alt="Home" />
      </a>
    
          <div id="name-and-slogan">

                              <h1 id="site-name" class="element-invisible">
              <a href="/" title="Home" rel="home"><span>Rijidij.net</span></a>
            </h1>
                  
                  <div id="site-slogan">
            <span id='myname'>Craig Wood</span> : Software Engineer and Web Developer          </div>
        
      </div> <!-- /#name-and-slogan -->
    
    
          <div id="main-menu" class="navigation">
        <h2 class="element-invisible">Main menu</h2><ul id="main-menu-links" class="links clearfix"><li class="menu-125 first active"><a href="/" title="It&#039;s where the heart is..." class="active">Home</a></li>
<li class="menu-148"><a href="/work" title="Too much makes me a dull boy...">Work</a></li>
<li class="menu-156"><a href="/play" title="Playtime!">Play</a></li>
<li class="menu-120 last"><a href="/contact" title="Say Hello!">Contact</a></li>
</ul>      </div> <!-- /#main-menu -->
    
    
  </div></div> <!-- /.section, /#header -->

  
  
  <div id="main-wrapper" class="clearfix"><div id="main" class="clearfix">

    
          <div id="sidebar-first" class="column sidebar"><div class="section">
          <div class="region region-sidebar-first">
    <div id="block-menu-menu-about-menu" class="block block-menu">

    <h2>About</h2>
  
  <div class="content">
    <ul class="menu clearfix"><li class="first leaf"><a href="/about_me" title="About Me">About Me</a></li>
<li class="leaf"><a href="/about_rijidij" title="About Rijidij">About Rijidij</a></li>
<li class="last leaf"><a href="/cookies" title="EU cookie law">About cookies</a></li>
</ul>  </div>
</div>
<div id="block-system-main-menu" class="block block-system block-menu">

    <h2>Contents</h2>
  
  <div class="content">
    <ul class="menu clearfix"><li class="first leaf"><a href="/" title="It&#039;s where the heart is..." class="active">Home</a></li>
<li class="expanded"><a href="/work" title="Too much makes me a dull boy...">Work</a><ul class="menu clearfix"><li class="first leaf"><a href="/cv" title="Curriculum Vitae">CV</a></li>
<li class="last leaf"><a href="/portfolio" title="Websites and Blogs I have designed and built">Portfolio</a></li>
</ul></li>
<li class="collapsed"><a href="/play" title="Playtime!">Play</a></li>
<li class="last leaf"><a href="/contact" title="Say Hello!">Contact</a></li>
</ul>  </div>
</div>
<div id="block-block-7" class="block block-block">

    
  <div class="content">
    <p><a class="twitter-timeline" data-dnt="true" href="https://twitter.com/rijidij" data-widget-id="269211688929214464" data-chrome="transparent" data-tweet-limit="3">Tweets by @rijidij</a></p>
<script>
<!--//--><![CDATA[// ><!--
!function(d,s,id){var js,fjs=d.getElementsByTagName(s)[0],p=/^http:/.test(d.location)?'http':'https';if(!d.getElementById(id)){js=d.createElement(s);js.id=id;js.src=p+"://platform.twitter.com/widgets.js";fjs.parentNode.insertBefore(js,fjs);}}(document,"script","twitter-wjs");
//--><!]]>
</script>  </div>
</div>
<div id="block-block-6" class="block block-block">

    
  <div class="content">
    <div style="text-align:center;"><a href="http://giffgaff.com/orders/affiliate/rijidij" target="_blank"><img src="http://giffgaff.com/banner/10_125x125.png" width="125" height="125" alt="Get a free giffgaff Sim" /></a></div>
  </div>
</div>
  </div>
      </div></div> <!-- /.section, /#sidebar-first -->
    
    <div id="content" class="column"><div class="section">
            <a id="main-content"></a>
                                <div class="tabs">
                  </div>
                          <div class="region region-content">
    <div id="block-system-main" class="block block-system">

    
  <div class="content">
    <div id="node-79" class="node node-portfolio-item node-promoted node-teaser clearfix">

        <h2>
      <a href="/node/79">Fuller Hair World</a>
    </h2>
    
      <div class="meta submitted">
            Submitted by <span class="username">Rijidij</span> on Wed, 17/07/2013 - 15:42    </div>
  
  <div class="content clearfix">
    <div class="field field-name-body field-type-text-with-summary field-label-hidden"><div class="field-items"><div class="field-item even"><p>A new website that I developed for my friends Rene and Adrian at <a href="http://fullerhairworld.com" target="_blank"><strong>R&amp;A Fuller Hair World</strong></a>.</p>
<p>I built their original site (in hand-crafted PHP and HTML), which served them faithfully for over 10 years! I am very pleased and honoured that they asked me, once again, to create an exciting and dynamic web presence for them.</p>
</div></div></div><div class="field field-name-field-image field-type-image field-label-hidden"><div class="field-items"><div class="field-item even"><a href="/node/79"><img src="https://www.rijidij.net/sites/default/files/styles/screenshot/public/images/portfolio/FHW-Screenshot_0.png?itok=kb7a6A4Y" width="300" height="220" alt="R&amp;A Fuller Hair World" title="R&amp;A Fuller Hair World" /></a></div></div></div>  </div>

      <div class="link-wrapper">
      <ul class="links inline"><li class="node-readmore first last"><a href="/node/79" rel="tag" title="Fuller Hair World">Read more<span class="element-invisible"> about Fuller Hair World</span></a></li>
</ul>    </div>
  
  
</div>
<div id="node-78" class="node node-blog node-promoted node-teaser clearfix">

        <h2>
      <a href="/node/78">sites.php + drush: A cautionary tale.</a>
    </h2>
    
      <div class="meta submitted">
            Submitted by <span class="username">Rijidij</span> on Fri, 12/07/2013 - 16:31    </div>
  
  <div class="content clearfix">
    <div class="field field-name-taxonomy-vocabulary-1 field-type-taxonomy-term-reference field-label-inline clearfix"><h3 class="field-label">Work: </h3><ul class="links inline"><li class="taxonomy-term-reference-0"><a href="/drupal">Drupal</a></li><li class="taxonomy-term-reference-1"><a href="/taxonomy/term/9">Geek-Speak</a></li></ul></div><div class="field field-name-body field-type-text-with-summary field-label-hidden"><div class="field-items"><div class="field-item even"><p style="margin-bottom: 0cm;">The worst kind of error is one that doesn't look like an error.</p>
<p style="margin-bottom: 0cm;">You may recall that I manage several Drupal multi-site installations and use Drush to move them through development to production. I thought I'd document a <span style="font-family: 'courier new', courier;">drush sql-sync</span> gotcha that could cause a lot of damage, and hopefully save others from doing the same.</p>
<p style="margin-bottom: 0cm;"><span style="line-height: 1.5;" data-mce-mark="1"></span></p>
</div></div></div>  </div>

      <div class="link-wrapper">
      <ul class="links inline"><li class="node-readmore first"><a href="/node/78" rel="tag" title="sites.php + drush: A cautionary tale.">Read more<span class="element-invisible"> about sites.php + drush: A cautionary tale.</span></a></li>
<li class="blog_usernames_blog last"><a href="/work" title="Read Rijidij&#039;s latest blog entries.">Rijidij&#039;s blog</a></li>
</ul>    </div>
  
  
</div>
<div id="node-77" class="node node-blog node-promoted node-teaser clearfix">

        <h2>
      <a href="/node/77">Drush (rsync)</a>
    </h2>
    
      <div class="meta submitted">
            Submitted by <span class="username">Rijidij</span> on Thu, 04/07/2013 - 12:21    </div>
  
  <div class="content clearfix">
    <div class="field field-name-body field-type-text-with-summary field-label-hidden"><div class="field-items"><div class="field-item even"><p>It's been described as the <em>Swiss army knife for Drupal developers</em>, and I wouldn't be without it. Drush is a fantastic tool and a great time saver - but not without issues...</p>
</div></div></div>  </div>

      <div class="link-wrapper">
      <ul class="links inline"><li class="node-readmore first"><a href="/node/77" rel="tag" title="Drush (rsync)">Read more<span class="element-invisible"> about Drush (rsync)</span></a></li>
<li class="blog_usernames_blog last"><a href="/work" title="Read Rijidij&#039;s latest blog entries.">Rijidij&#039;s blog</a></li>
</ul>    </div>
  
  
</div>
<div id="node-76" class="node node-blog node-promoted node-teaser clearfix">

        <h2>
      <a href="/node/76">It&#039;s the little things...</a>
    </h2>
    
      <div class="meta submitted">
            Submitted by <span class="username">Rijidij</span> on Sun, 30/06/2013 - 23:30    </div>
  
  <div class="content clearfix">
    <div class="field field-name-body field-type-text-with-summary field-label-hidden"><div class="field-items"><div class="field-item even"><p>Have a look at the header of this site. By default, the whole slogan appears in italics.<br />
But what if I want say, my name in bold, normal; and the rest in italics?<br />
Sometime CSS alone doesn't quite get the job done.</p>
<p>Read more to find out how I did it.</p>
</div></div></div>  </div>

      <div class="link-wrapper">
      <ul class="links inline"><li class="node-readmore first"><a href="/node/76" rel="tag" title="It&#039;s the little things...">Read more<span class="element-invisible"> about It&#039;s the little things...</span></a></li>
<li class="blog_usernames_blog last"><a href="/work" title="Read Rijidij&#039;s latest blog entries.">Rijidij&#039;s blog</a></li>
</ul>    </div>
  
  
</div>

<div id="node-74" class="node node-blog-gallery node-promoted node-teaser clearfix">

        <h2>
      <a href="/node/74">Nice Gallery effect</a>
    </h2>
      
      <div class="meta submitted">
            Submitted by <span class="username">Rijidij</span> on Sat, 29/06/2013 - 18:46    </div>
  
  <div class="content clearfix">
    <div class="field field-name-body field-type-text-with-summary field-label-hidden"><div class="field-items"><div class="field-item even"><p>I recently found a really cool "fan-stack" (that's my name for it) gallery teaser widget.<br />
It's from megadrupal's blog and can be found <a href="http://megadrupal.com/blog/creating-an-image-gallery-in-drupal-7" target="_blank">here</a>.<br />
You can have as many images as you like (if your content type is set up that way) but only the top 3 are visible. <em>Click on the images below to see the bonus 4th image!</em></p>
</div></div></div>  </div>
  
	<!-- Render the gallery thumbnails (wrapped in a div for CSS) -->
	<div id="gallery-thumbs">
            <a href="https://www.rijidij.net/sites/default/files/images/blog/HanaShades.jpg" rel="group-74" 
           class="colorbox" title="Hana in shades">
          <img class="image1" src="https://www.rijidij.net/sites/default/files/styles/gallery_thumb/public/images/blog/HanaShades.jpg?itok=OCq6Dp2D" />
        </a>
              <a href="https://www.rijidij.net/sites/default/files/images/blog/IMGP2059.JPG" rel="group-74" 
           class="colorbox" title="Hana & Mei-Mei">
          <img class="image2" src="https://www.rijidij.net/sites/default/files/styles/gallery_thumb/public/images/blog/IMGP2059.JPG?itok=m4ZGheLO" />
        </a>
              <a href="https://www.rijidij.net/sites/default/files/images/blog/IMGP2573.JPG" rel="group-74" 
           class="colorbox" title="Snow dogs">
          <img class="image3" src="https://www.rijidij.net/sites/default/files/styles/gallery_thumb/public/images/blog/IMGP2573.JPG?itok=A8vpxKjL" />
        </a>
              <a href="https://www.rijidij.net/sites/default/files/images/blog/Meg.jpg" rel="group-74" 
           class="colorbox" title="Meg - the happiest dog in the world...">
          <img class="image4" src="https://www.rijidij.net/sites/default/files/styles/gallery_thumb/public/images/blog/Meg.jpg?itok=olCK2whP" />
        </a>
        </div>

      <div class="link-wrapper">
      <ul class="links inline"><li class="node-readmore first last"><a href="/node/74" rel="tag" title="Nice Gallery effect">Read more<span class="element-invisible"> about Nice Gallery effect</span></a></li>
</ul>    </div>
  
</div>
<h2 class="element-invisible">Pages</h2><div class="item-list"><ul class="pager"><li class="pager-current first">1</li>
<li class="pager-item"><a title="Go to page 2" href="/node?page=1">2</a></li>
<li class="pager-item"><a title="Go to page 3" href="/node?page=2">3</a></li>
<li class="pager-item"><a title="Go to page 4" href="/node?page=3">4</a></li>
<li class="pager-item"><a title="Go to page 5" href="/node?page=4">5</a></li>
<li class="pager-item"><a title="Go to page 6" href="/node?page=5">6</a></li>
<li class="pager-item"><a title="Go to page 7" href="/node?page=6">7</a></li>
<li class="pager-next"><a title="Go to next page" href="/node?page=1">next ›</a></li>
<li class="pager-last last"><a title="Go to last page" href="/node?page=6">last »</a></li>
</ul></div>  </div>
</div>
  </div>
      <a href="/rss.xml" class="feed-icon" title="Subscribe to Rijidij.net RSS"><img src="https://www.rijidij.net/misc/feed.png" width="16" height="16" alt="Subscribe to Rijidij.net RSS" /></a>
    </div></div> <!-- /.section, /#content -->

    
  </div></div> <!-- /#main, /#main-wrapper -->

  
  <div id="footer-wrapper"><div class="section">

    
          <div id="footer" class="clearfix">
          <div class="region region-footer">
    <div id="block-system-powered-by" class="block block-system">

    
  <div class="content">
    <span>Powered by <a href="https://www.drupal.org">Drupal</a></span>  </div>
</div>
  </div>
      </div> <!-- /#footer -->
    
  </div></div> <!-- /.section, /#footer-wrapper -->

</div></div> <!-- /#page, /#page-wrapper -->
  <script type="text/javascript">
<!--//--><![CDATA[//><!--
var eu_cookie_compliance_cookie_name = "";
//--><!]]>
</script>
<script type="text/javascript" src="https://www.rijidij.net/sites/default/files/js/js_tqC0xSbhZO_YGs08n9CwrrPj091CkUFnc8Rnjlybb3I.js"></script>
</body>
</html>
