

<!DOCTYPE html>
<!--[if lt IE 9 ]><html dir="ltr" lang="en-US" class="lt-ie9 ie-oldie"> <![endif]-->
<!--[if IE 9 ]><html dir="ltr" lang="en-US" class="ie9 ie-oldie"> <![endif]-->
<!--[if (gte IE 9)|(gt IEMobile 7)|!(IEMobile)|!(IE)]><!--><html 
  xmlns:content="http://purl.org/rss/1.0/modules/content/"
  xmlns:dc="http://purl.org/dc/terms/"
  xmlns:foaf="http://xmlns.com/foaf/0.1/"
  xmlns:og="http://ogp.me/ns#"
  xmlns:rdfs="http://www.w3.org/2000/01/rdf-schema#"
  xmlns:sioc="http://rdfs.org/sioc/ns#"
  xmlns:sioct="http://rdfs.org/sioc/types#"
  xmlns:skos="http://www.w3.org/2004/02/skos/core#"
  xmlns:xsd="http://www.w3.org/2001/XMLSchema#"><!--<![endif]-->
<head profile="http://www.w3.org/1999/xhtml/vocab">
    <link href='//fonts.googleapis.com/css?family=Lato|Playfair+Display|Viga|Armata|Josefin+Sans|Lobster|Crete+Round|Josefin+Slab|Tangerine|Great+Vibes|Droid+Serif|Pacifico|Fjalla+One|Krona+One|Chewy|Oswald|Signika|Dancing+Script|Montserrat|Courgette|Handlee|Ultra|Slabo+27px|Open+Sans|Pontano+Sans|Shadows+Into+Light|Gloria+Hallelujah|Indie+Flower|Architects+Daughter' rel='stylesheet' type='text/css'>
  <meta charset="utf-8">
  <meta name="viewport" content="width=device-width, initial-scale=1.0">
    <!--[if IE]><![endif]-->
<!--[if IE]><meta http-equiv="X-UA-Compatible" content="IE=edge,chrome=1" />
<![endif]--><meta http-equiv="Content-Type" content="text/html; charset=utf-8" />
<link rel="shortcut icon" href="https://www.simongibbons.net/themes/bootstrap/bootstrap_subtheme/favicon.ico" type="image/vnd.microsoft.icon" />
<meta name="Generator" content="Drupal 7 (http://drupal.org)" />
  <title>SIMON GIBBONS</title>
  <link type="text/css" rel="stylesheet" href="//www.simongibbons.net/sites/default/files/css/css_lQaZfjVpwP_oGNqdtWCSpJT1EMqXdMiU84ekLLxQnc4.css" media="all" />
<link type="text/css" rel="stylesheet" href="//www.simongibbons.net/sites/default/files/css/css_888gVpvKPK4CtULYSS2TRPLordqrV0nmRsIpY9np7Sg.css" media="all" />
<link type="text/css" rel="stylesheet" href="//www.simongibbons.net/sites/default/files/css/css_MnXiytJtb186Ydycnpwpw34cuUsHaKc80ey5LiQXhSY.css" media="all" />
<link type="text/css" rel="stylesheet" href="//maxcdn.bootstrapcdn.com/bootstrap/3.0.2/css/bootstrap.min.css" media="all" />
<link type="text/css" rel="stylesheet" href="//www.simongibbons.net/sites/default/files/css/css_DUuZWxDxXIj3TgYiQ1syWwjtC36on5caWO-4Ptsvvg8.css" media="all" />
  <!-- HTML5 element support for IE6-8 -->
  <!--[if lt IE 9]>
    <script src="//html5shiv.googlecode.com/svn/trunk/html5.js"></script>
  <![endif]-->
  <script src="https://www.simongibbons.net/sites/default/files/js/js_MpKfe1sTh5JIVGCZ17DsAuT1rqAC38MLLlkjqjQ1X_k.js"></script>
<script src="//maxcdn.bootstrapcdn.com/bootstrap/3.0.2/js/bootstrap.min.js"></script>
<script src="https://www.simongibbons.net/sites/default/files/js/js_R9UbiVw2xuTUI0GZoaqMDOdX0lrZtgX-ono8RVOUEVc.js"></script>
<script src="https://www.simongibbons.net/sites/default/files/js/js_wCgoxiHRr4uLaTPiqLbihnWP7UjKLVYrc7tY32Kl8-o.js"></script>
<script>jQuery.extend(Drupal.settings, {"basePath":"\/","pathPrefix":"","ajaxPageState":{"theme":"bootstrap_subtheme","theme_token":"xPYZNWqtdurMZLTv3ML6X_KpJKsEMRu1jX9NoF55gh4","js":{"themes\/bootstrap\/js\/bootstrap.js":1,"sites\/all\/modules\/jquery_update\/replace\/jquery\/1.10\/jquery.min.js":1,"misc\/jquery.once.js":1,"misc\/drupal.js":1,"\/\/maxcdn.bootstrapcdn.com\/bootstrap\/3.0.2\/js\/bootstrap.min.js":1,"sites\/all\/modules\/admin_menu\/admin_devel\/admin_devel.js":1,"themes\/bootstrap\/bootstrap_subtheme\/bootstrap\/js\/collapse.js":1,"themes\/bootstrap\/bootstrap_subtheme\/js\/jquery.colorbox-min.js":1,"themes\/bootstrap\/bootstrap_subtheme\/js\/ssm.min.js":1,"themes\/bootstrap\/bootstrap_subtheme\/js\/masonry.min.js":1,"themes\/bootstrap\/bootstrap_subtheme\/js\/chosen.jquery.min.js":1,"themes\/bootstrap\/bootstrap_subtheme\/js\/swiper.min.js":1,"themes\/bootstrap\/bootstrap_subtheme\/js\/main.js":1,"themes\/bootstrap\/bootstrap_subtheme\/js\/modernizr.min.js":1,"themes\/bootstrap\/bootstrap_subtheme\/js\/jquery.justifiedGallery.min.js":1},"css":{"modules\/system\/system.base.css":1,"sites\/all\/modules\/date\/date_api\/date.css":1,"sites\/all\/modules\/date\/date_popup\/themes\/datepicker.1.7.css":1,"modules\/field\/theme\/field.css":1,"sites\/all\/modules\/mollom\/mollom.css":1,"sites\/all\/modules\/ubercart\/uc_order\/uc_order.css":1,"sites\/all\/modules\/ubercart\/uc_product\/uc_product.css":1,"sites\/all\/modules\/ubercart\/uc_store\/uc_store.css":1,"sites\/all\/modules\/views\/css\/views.css":1,"sites\/all\/modules\/ckeditor\/css\/ckeditor.css":1,"sites\/all\/modules\/ctools\/css\/ctools.css":1,"\/\/maxcdn.bootstrapcdn.com\/bootstrap\/3.0.2\/css\/bootstrap.min.css":1,"themes\/bootstrap\/css\/overrides.css":1,"themes\/bootstrap\/bootstrap_subtheme\/css\/justifiedGallery.min.css":1,"themes\/bootstrap\/bootstrap_subtheme\/css\/style.css":1,"themes\/bootstrap\/bootstrap_subtheme\/css\/swiper.css":1}},"bootstrap":{"anchorsFix":1,"anchorsSmoothScrolling":1,"popoverEnabled":1,"popoverOptions":{"animation":1,"html":0,"placement":"right","selector":"","trigger":"click","title":"","content":"","delay":0,"container":"body"},"tooltipEnabled":1,"tooltipOptions":{"animation":1,"html":0,"placement":"auto left","selector":"","trigger":"hover focus","delay":0,"container":"body"}}});</script>
  <!--colours-->
          
  
  
            
<style>
	body {
		background-color: #ffffff;
		color:;
		font-family: Lato;
	}
	a {
		color:#ff7c00;
	}
	a:hover, a:focus  {
		color:#999999;
	}
	.artist-navigation li .item { 
		background-color:#ff7c00;
		color:#fff;
		font-family:Lato;
	}
	.image .description {
		background-color:#ff7c00	}
	.artist-header .artist-navigation li.active .item {
		background-color:#999999;
		color:#fff 
	}
	.artist-header .artist-navigation li .item.active {
		background-color:#ff7c00;
	}
	.artist-header .artist-navigation li .item:hover {
		background-color:#ff7c00;
	}
	h1,.h1,h2,h3,h4,h5,h6,.h2,.h3,.h4,.h5,.h6{
		font-family: Lato;
		color: #000;
	}
	.artist-header .title {
		font-family: Lato;
	}
	.artist-header .title a{
		color: #ff7c00;
	}
	.artist-header .title a:hover {
		color: #999999;
	}
	.artist-header .blurb {
		font-family: Lato;
		color: #000;
	}
	.artist-header .artist-navigation {
		font-family: Lato;
	}
	.structure-header .artist-navigation .item-list .item-list ul{
		background: #ff7c00;
	}
	.structure-header .artist-navigation .item-list .item-list a{
		color: #fff;
	}
	.structure-header .artist-navigation .item-list .item-list a:hover,
	.structure-header .artist-navigation .item-list .item-list a.active{
		color: #999999;
	}
	.nav-style-bar .artist-navigation {
		background: #ff7c00;
	}
	.nav-style-bar .artist-navigation ul li .item{
		color: #fff;
		background:transparent;
	}
	.nav-style-bar .artist-navigation ul li .item:hover{
		color: #999999;
		background: transparent;
	}
	.nav-style-links .artist-navigation ul li .item{
		color: #ff7c00;
		background:transparent;
	}
	.nav-style-links .artist-navigation ul li .item:hover,
	.nav-style-links .artist-navigation ul li .item.active{
		color: #999999;
		background:transparent;
	}
	.nav-style-button .artist-navigation ul li .item{
		background: #ff7c00;
		color: #fff;
	}
	.nav-style-button .artist-navigation ul li .item:hover,
	.nav-style-button .artist-navigation ul li .item.active{
		background: #999999;
		color: #fff;
	}

	.nav-style-button .artist-navigation .item-list .item-list ul li .item{
		background: #ff7c00;
		color: #fff;
	}
	.nav-style-button .artist-navigation .item-list .item-list ul li .item:hover,
	.nav-style-button .artist-navigation .item-list .item-list ul li .item.active{
		background: #999999;
		color: #fff;
	}

	.nav-style-links .structure-header .artist-navigation .item-list .item-list ul{
		background: transparent;
	}

	.artist-navigation ul li .nav-embedded .nav-container{
		background: #ff7c00;
		color: #fff;
	}
	.artist-navigation ul li .nav-embedded .nav-embedded-title,
	.artist-navigation ul li .nav-embedded .close{
		color: #fff;
	}

	.artist-navigation ul li .nav-embedded .nav-container .item{
		background: #ff7c00;
		color: #fff;
	}

	body {  background-image:url(none);  background-repeat:no-repeat;  background-size:inherit;  background-position-x:left;  background-position-y:top;  background-position-y:top;} 

	/* boxed content */
	.bg-boxed-content{
		background-color: #ff7c00;
		color: ;
	}
	.bg-boxed-content a,
	.bg-boxed-content a:hover{
		color: ;
	}
	.bg-boxed-content .structure-content .structure-wrapper{
		background-color: rgba(255,255,255,1);
		color: #000;
		}
	.bg-boxed-content .artist-header .blurb {
		color:  ;
	}
	.bg-boxed-content .artist-header .title a{
		color: #999999;
	}
	.bg-boxed-content .artist-header .title a:hover{
		color: ;
	}
	.bg-boxed-content .footer,
	.bg-boxed-content .footer a,
	.bg-boxed-content .footer a:hover{
		color: ;
	}
	.bg-boxed-content.nav-style-bar .artist-navigation {
		background-color: #999999;
	}
	.bg-boxed-content.nav-style-bar .artist-navigation ul li .item{
		background: transparent;
		color: #fff;
	}
	.bg-boxed-content.nav-style-bar .artist-navigation ul li .item.active,
	.bg-boxed-content.nav-style-bar .artist-navigation ul li .item:hover{
		color: ;
		background-color: transparent;
	}
	.bg-boxed-content.nav-style-button .artist-navigation ul li .item{
		color: #fff;
		background: #999999;
	}
	.bg-boxed-content.nav-style-button .artist-navigation ul li .item:hover,
	.bg-boxed-content.nav-style-button .artist-navigation ul li .item.active{
		color: #fff;
		background: ;
	}
	.bg-boxed-content.nav-style-links .artist-navigation ul li .item{
		background-color: transparent;
		color: #999999;
	}
	.bg-boxed-content.nav-style-links .artist-navigation ul li .item.hover,
	.bg-boxed-content.nav-style-links .artist-navigation ul li .item.active{
		background-color: transparent;
		color: ;
	}
	.bg-boxed-content .structure-header .artist-navigation .item-list .item-list ul {
		background: #999999;
	}
	.bg-boxed-content .structure-header .artist-navigation .item-list .item-list .item {
		background: #999999;
		color: #fff;
	}
	.bg-boxed-content .structure-header .artist-navigation .item-list .item-list .item.active,
	.bg-boxed-content .structure-header .artist-navigation .item-list .item-list li:hover,
	.bg-boxed-content .structure-header .artist-navigation .item-list .item-list .item:hover {
		color: ;
		background: #999999;
	}
	.bg-boxed-content.nav-style-button .structure-header .artist-navigation .item-list .item-list .item {
		background: #999999;
		color: #fff;
	}
	.bg-boxed-content.nav-style-button .structure-header .artist-navigation .item-list .item-list .item.active,
	.bg-boxed-content.nav-style-button .structure-header .artist-navigation .item-list .item-list li:hover,
	.bg-boxed-content.nav-style-button .structure-header .artist-navigation .item-list .item-list .item:hover {
		color: #fff;
		background: ;
	}

	.bg-boxed-content .structure-content a{
		color: #ff7c00;
	}

	.bg-boxed-content .structure-content a:hover{
		color: #999999;
	}

	.bg-boxed-content .structure-wrapper {  background-image:url(none);  background-repeat:no-repeat;  background-size:inherit;  background-position-x:left;  background-position-y:top;  background-position-y:top;} 


	/* boxed page */
	.bg-boxed-page{
		background-color:#ff7c00;
		color: ;
	}

	.bg-boxed-page .main-container{
		background-color:rgba(255,255,255,1);
		color: #000;
	}

	.bg-boxed-page .main-container {  background-image:url(none);  background-repeat:no-repeat;  background-size:inherit;  background-position-x:left;  background-position-y:top;  background-position-y:top;} 

	.bg-boxed-page .footer,
	.bg-boxed-page .footer a,
	.bg-boxed-page .footer a:hover{
		color: ;
	}
	@media(min-width:992px){
		.layout-sidebar.bg-boxed-page .main-container{
			background-color:rgba(255,255,255,1);
			color: #000;
		}
		.layout-sidebar.bg-boxed-page .structure-header{
			background:transparent;
		}
		.layout-sidebar.bg-boxed-page .structure-content{
			background:transparent;
		}
	}


	/* header split */
	.bg-header-split{
		background-color:#ff7c00;
		color: ;
		}
	.bg-header-split .structure-content{
		background-color:rgba(255,255,255,1);
		color: #000;
	}
	.bg-header-split .artist-header .blurb {
		color:  ;
	}
	.bg-header-split .artist-header .title a{
		color: #999999;
	}
	.bg-header-split .artist-header .title a:hover{
		color: ;
	}
	.bg-header-split .footer,
	.bg-header-split .footer a,
	.bg-header-split .footer a:hover{
		color: ;
	}
	.bg-header-split.nav-style-bar .artist-navigation {
		background: #999999;
	}
	.bg-header-split.nav-style-bar .artist-navigation ul li .item{
		background: transparent;
		color: #fff;
	}
	.bg-header-split.nav-style-bar .artist-navigation ul li .item.active,
	.bg-header-split.nav-style-bar .artist-navigation ul li .item:hover{
		color: ;
		background: transparent;
	}
	.bg-header-split.nav-style-button .artist-navigation ul li .item{
		color: #fff;
		background: #999999;
	}
	.bg-header-split.nav-style-button .artist-navigation ul li .item:hover,
	.bg-header-split.nav-style-button .artist-navigation ul li .item.active{
		color: #fff;
		background: ;
	}
	.bg-header-split.nav-style-links .artist-navigation ul li .item{
		background-color: transparent;
		color: #999999;
	}
	.bg-header-split.nav-style-links .artist-navigation ul li .item.hover,
	.bg-header-split.nav-style-links .artist-navigation ul li .item.active{
		background-color: transparent;
		color: ;
	}

	.bg-header-split .structure-header .artist-navigation .item-list .item-list ul {
		background: #999999;
	}
	.bg-header-split .structure-header .artist-navigation .item-list .item-list .item {
		background: #999999;
		color: #fff;
	}
	.bg-header-split .structure-header .artist-navigation .item-list .item-list .item.active,
	.bg-header-split .structure-header .artist-navigation .item-list .item-list li:hover,
	.bg-header-split .structure-header .artist-navigation .item-list .item-list .item:hover {
		color: ;
		background: #999999;
	}
	.bg-header-split.nav-style-button .structure-header .artist-navigation .item-list .item-list .item {
		background: #999999;
		color: #fff;
	}
	.bg-header-split.nav-style-button .structure-header .artist-navigation .item-list .item-list .item.active,
	.bg-header-split.nav-style-button .structure-header .artist-navigation .item-list .item-list li:hover,
	.bg-header-split.nav-style-button .structure-header .artist-navigation .item-list .item-list .item:hover {
		color: #fff;
		background: ;
	}

	body.bg-header-split{
		background-image:none;
	}
	.bg-header-split .structure-header {  background-image:url(none);  background-repeat:no-repeat;  background-size:inherit;  background-position-x:left;  background-position-y:top;  background-position-y:top;} 
	.bg-header-split .structure-content {  background-image:url(none);  background-repeat:no-repeat;  background-size:inherit;  background-position-x:left;  background-position-y:top;  background-position-y:top;} 


	@media(min-width:992px){
		.layout-sidebar.bg-header-split { background-color:rgba(255,255,255,1); }
		.layout-sidebar.bg-header-split:before { background-color:#ff7c00;; }
		.layout-sidebar.bg-header-split .structure-header{ background-color:transparent; }
		.layout-sidebar.bg-header-split .structure-content{ background-color:transparent; }
		.layout-sidebar.bg-header-split .footer{ color:#000; }
		.layout-sidebar.bg-header-split .footer a{ color:#000; }
	}
</style>  
  
  
  
  
  
  
  <meta name="viewport" content="width=device-width, initial-scale=1">
  <script>
    (function(i,s,o,g,r,a,m){i['GoogleAnalyticsObject']=r;i[r]=i[r]||function(){
    (i[r].q=i[r].q||[]).push(arguments)},i[r].l=1*new Date();a=s.createElement(o),
    m=s.getElementsByTagName(o)[0];a.async=1;a.src=g;m.parentNode.insertBefore(a,m)
    })(window,document,'script','//www.google-analytics.com/analytics.js','ga');

    ga('create', 'UA-54997285-1', 'auto');
    var hostarray = window.location.hostname.split("www.");
    var host = hostarray[hostarray.length - 1];
    if (host.indexOf('siteyourart')>-1){
      host = '';
    }
    //send analytics if site is not localhost
    if (host.indexOf('localhost') !== 0){
      ga('send', 'pageview', host + window.location.pathname);
    }

  </script>
</head>
<body class="html not-front not-logged-in no-sidebars page-sites page-sites-si layout-center bg-simple nav-style-button nav-justify-none" >
  <div id="skip-link">
    <a href="#main-content" class="element-invisible element-focusable">Skip to main content</a>
  </div>
    
<div class="">


  
        
    <div class="text-center">
      <p class="mb-large mt-large"><a href="http://www.siteyourart.com/" class="logo">Site Your Art</a></p>
      <h1 class="h3">This account is inactive.</h1>
      <p>If you are the owner of this account, you can activate it by <a href="http://www.siteyourart.com/purchase">purchasing</a> either a monthly or yearly payment plan at £5 per month or £50 per year.</p>
    </div>
  </div>
  <script src="https://www.simongibbons.net/sites/default/files/js/js_qbcXaWamgLM6iblS6__9Wf2AfdABNsY67PvIPpzYl2E.js"></script>
</body>
</html>
