
<!DOCTYPE html>
<html  lang="en" dir="ltr">
	
	<head>
  
  <meta http-equiv="Content-Type" content="text/html; charset=utf-8" />
<link rel="shortlink" href="/node/110" />
<meta name="Generator" content="Drupal 7 (http://drupal.org)" />
<link rel="canonical" href="/content/synergyweb-home" />

  <title>SynergyWeb Home | SynergyWeb</title>
	<meta http-equiv="X-UA-Compatible" content="IE=edge">
  <meta class="viewport" name="viewport" content="width=device-width, initial-scale=1.0">

  <style type="text/css" media="all">
@import url("https://www.synergyweb.net/modules/system/system.base.css?q055rn");
@import url("https://www.synergyweb.net/modules/system/system.messages.css?q055rn");
</style>
<style type="text/css" media="all">
@import url("https://www.synergyweb.net/modules/comment/comment.css?q055rn");
@import url("https://www.synergyweb.net/sites/all/modules/date/date_api/date.css?q055rn");
@import url("https://www.synergyweb.net/sites/all/modules/date/date_popup/themes/datepicker.1.7.css?q055rn");
@import url("https://www.synergyweb.net/modules/field/theme/field.css?q055rn");
@import url("https://www.synergyweb.net/modules/node/node.css?q055rn");
@import url("https://www.synergyweb.net/sites/all/modules/ubercart/uc_store/uc_store.css?q055rn");
@import url("https://www.synergyweb.net/modules/user/user.css?q055rn");
@import url("https://www.synergyweb.net/sites/all/modules/views/css/views.css?q055rn");
@import url("https://www.synergyweb.net/sites/all/modules/ckeditor/css/ckeditor.css?q055rn");
</style>
<style type="text/css" media="all">
@import url("https://www.synergyweb.net/sites/all/modules/ctools/css/ctools.css?q055rn");
@import url("https://www.synergyweb.net/sites/all/modules/md_slider/css/animate.css?q055rn");
@import url("https://www.synergyweb.net/sites/all/modules/md_slider/css/md-slider.css?q055rn");
</style>
<style type="text/css" media="all">
<!--/*--><![CDATA[/*><!--*/
.md-layer-1-0-0{z-index:978 !important;}.md-layer-1-0-1{z-index:979 !important;}.md-layer-1-0-2{z-index:981 !important;}.md-layer-1-0-3{z-index:984 !important;}.md-layer-1-0-4{z-index:987 !important;}.md-layer-1-0-5{z-index:990 !important;}.md-layer-1-0-6{z-index:998 !important;}.md-layer-1-0-7{z-index:1000 !important;}.md-layer-1-0-8{z-index:999 !important;}.md-layer-1-0-9{z-index:993 !important;}.md-layer-1-0-10{z-index:980 !important;}.md-layer-1-0-11{z-index:983 !important;}.md-layer-1-0-12{z-index:986 !important;}.md-layer-1-0-13{z-index:989 !important;}.md-layer-1-0-14{z-index:992 !important;}.md-layer-1-0-15{z-index:995 !important;}.md-layer-1-0-16{z-index:996 !important;}.md-layer-1-0-17{z-index:997 !important;}.md-layer-1-0-18{z-index:982 !important;}.md-layer-1-0-19{z-index:985 !important;}.md-layer-1-0-20{z-index:988 !important;}.md-layer-1-0-21{z-index:991 !important;}.md-layer-1-0-22{z-index:994 !important;}.md-layer-1-1-0{z-index:994 !important;color:#ffffff !important;text-align:center;font-size:3em;font-family:"Anton";}.md-layer-1-1-1{z-index:996 !important;color:#ffffff !important;text-align:center;font-size:2.4166666666667em;font-family:"Anton";}.md-layer-1-1-2{z-index:997 !important;color:#f89406 !important;text-align:center;font-size:1.8333333333333em;font-family:"Anton";text-transform:none;}.md-layer-1-1-3{z-index:998 !important;color:#f89406 !important;text-align:center;font-size:1.8333333333333em;font-family:"Anton";}.md-layer-1-1-4{z-index:999 !important;color:#f89406 !important;text-align:center;font-size:1.8333333333333em;font-family:"Anton";}.md-layer-1-1-5{z-index:1000 !important;color:#f89406 !important;text-align:center;font-size:1.8333333333333em;font-family:"Anton";}.md-layer-1-1-6{z-index:995 !important;color:#ffffff !important;text-align:center;font-size:3em;font-family:"Anton";}.md-layer-1-2-0{z-index:997 !important;color:#ebebeb !important;text-align:center;font-size:3.3333333333333em;font-family:"Anton";}.md-layer-1-2-1{z-index:998 !important;color:#f89406 !important;text-align:center;font-size:2.3333333333333em;font-family:"Anton";}.md-layer-1-2-2{z-index:999 !important;color:#f89406 !important;text-align:center;font-size:2.3333333333333em;font-family:"Anton";}.md-layer-1-2-3{z-index:1000 !important;color:#f89406 !important;text-align:center;font-size:2.3333333333333em;font-family:"Anton";}.md-layer-1-3-0{z-index:996 !important;color:#f2f0e9 !important;font-size:3em;font-family:"Anton";}.md-layer-1-3-1{z-index:997 !important;color:#f2f0e9 !important;font-size:2.1666666666667em;font-family:"Anton";}.md-layer-1-3-2{z-index:998 !important;color:#f2f0e9 !important;font-size:2.1666666666667em;font-family:"Anton";}.md-layer-1-3-3{z-index:999 !important;color:#f2f0e9 !important;font-size:2.1666666666667em;font-family:"Anton";}.md-layer-1-4-0{z-index:996 !important;color:#e5ece2 !important;font-size:3.1666666666667em;font-family:"Anton";}.md-layer-1-4-1{z-index:997 !important;color:#f89406 !important;font-size:2.1666666666667em;font-family:"Anton";}.md-layer-1-4-2{z-index:999 !important;color:#f89406 !important;font-size:2.1666666666667em;font-family:"Anton";}.md-layer-1-4-3{z-index:998 !important;color:#f89406 !important;font-size:2.1666666666667em;font-family:"Anton";}.md-layer-1-4-4{z-index:1000 !important;color:#e5ece2 !important;font-size:2.5em;font-family:"Anton";}.md-layer-1-5-0{z-index:1000 !important;color:#ffffff !important;font-size:2.0833333333333em;font-family:"Anton";}.md-layer-1-5-1{z-index:2 !important;color:#ffffff !important;font-size:3em;font-family:"Anton";}.md-layer-1-5-2{z-index:2 !important;color:#ffffff !important;font-size:2.0833333333333em;font-family:"Anton";}.md-layer-1-5-3{z-index:2 !important;color:#ffffff !important;font-size:2.0833333333333em;font-family:"Anton";}.md-layer-1-5-4{z-index:2 !important;color:#ffffff !important;font-size:2.0833333333333em;font-family:"Anton";}.md-layer-1-5-5{z-index:2 !important;color:#ffffff !important;font-size:2.0833333333333em;font-family:"Anton";}

/*]]>*/-->
</style>
<style type="text/css" media="all">
@import url("https://www.synergyweb.net/sites/all/modules/md_slider/css/md-slider-style.css?q055rn");
</style>
<style type="text/css" media="all">
<!--/*--><![CDATA[/*><!--*/
@media (max-width:460px){.hideonmobile{display:none !important;}}

/*]]>*/-->
</style>
<link type="text/css" rel="stylesheet" href="https://fonts.googleapis.com/css?family=Anton" media="all" />
<style type="text/css" media="all">
<!--/*--><![CDATA[/*><!--*/
div.a85e6_field{display:none;visibility:hidden;}
div.a4c27_field{display:none;visibility:hidden;}
div.ad30d_field{display:none;visibility:hidden;}

/*]]>*/-->
</style>
<style type="text/css" media="all">
@import url("https://www.synergyweb.net/sites/all/modules/webform/css/webform.css?q055rn");
</style>
<link type="text/css" rel="stylesheet" href="https://fonts.googleapis.com/css?family=Anton%7CFrancois+One%7CCourgette%7CVT323" media="all" />
<style type="text/css" media="all">
@import url("https://www.synergyweb.net/sites/all/themes/progressive/css/buttons/social-icons.css?q055rn");
@import url("https://www.synergyweb.net/sites/all/themes/progressive/css/buttons/buttons.css?q055rn");
@import url("https://www.synergyweb.net/sites/all/themes/progressive/css/font-awesome.min.css?q055rn");
@import url("https://www.synergyweb.net/sites/all/themes/progressive/css/bootstrap.min.css?q055rn");
@import url("https://www.synergyweb.net/sites/all/themes/progressive/css/jslider.css?q055rn");
@import url("https://www.synergyweb.net/sites/all/themes/progressive/css/settings.css?q055rn");
@import url("https://www.synergyweb.net/sites/all/themes/progressive/css/jquery.fancybox.css?q055rn");
@import url("https://www.synergyweb.net/sites/all/themes/progressive/css/animate_progressive.css?q055rn");
@import url("https://www.synergyweb.net/sites/all/themes/progressive/css/video-js.min.css?q055rn");
@import url("https://www.synergyweb.net/sites/all/themes/progressive/css/morris.css?q055rn");
@import url("https://www.synergyweb.net/sites/all/themes/progressive/css/ladda.min.css?q055rn");
@import url("https://www.synergyweb.net/sites/all/themes/progressive/css/style.css?q055rn");
@import url("https://www.synergyweb.net/sites/all/themes/progressive/css/responsive.css?q055rn");
@import url("https://www.synergyweb.net/sites/all/themes/progressive/css/customizer/pages.css?q055rn");
@import url("https://www.synergyweb.net/sites/all/themes/progressive/css/YTPlayer.css?q055rn");
@import url("https://www.synergyweb.net/sites/all/themes/progressive/css/drupal.css?q055rn");
@import url("https://www.synergyweb.net/sites/all/themes/progressive/css/ie/ie.css?q055rn");
@import url("https://www.synergyweb.net/sites/all/themes/progressive/progressive_sub/css/vex.css?q055rn");
@import url("https://www.synergyweb.net/sites/all/themes/progressive/progressive_sub/css/vex-theme-wireframe.css?q055rn");
@import url("https://www.synergyweb.net/sites/all/themes/progressive/progressive_sub/css/vex-theme-top.css?q055rn");
@import url("https://www.synergyweb.net/sites/all/themes/progressive/progressive_sub/css/divascookies.css?q055rn");
</style>
<style type="text/css" media="all">
@import url("https://www.synergyweb.net/sites/all/themes/progressive/css/customizer/elements-pages-customizer.css?q055rn");
@import url("https://www.synergyweb.net/sites/all/themes/progressive/progressive_sub/css/custom.css?q055rn");
</style>

  <!--[if lt IE 9]>
    <script src="https://oss.maxcdn.com/libs/html5shiv/3.7.0/html5shiv.js"></script>
    <script src="https://oss.maxcdn.com/libs/respond.js/1.4.2/respond.min.js"></script>
    <link rel='stylesheet' href="/sites/all/themes/progressive/progressive_sub/css/ie/ie8.css">
  <![endif]-->
	
<link rel="apple-touch-icon" sizes="57x57" href="/sites/default/files/favicon/apple-icon-57x57.png">
<link rel="apple-touch-icon" sizes="60x60" href="/sites/default/files/favicon/apple-icon-60x60.png">
<link rel="apple-touch-icon" sizes="72x72" href="/sites/default/files/favicon/apple-icon-72x72.png">
<link rel="apple-touch-icon" sizes="76x76" href="/sites/default/files/favicon/apple-icon-76x76.png">
<link rel="apple-touch-icon" sizes="114x114" href="/sites/default/files/favicon/apple-icon-114x114.png">
<link rel="apple-touch-icon" sizes="120x120" href="/sites/default/files/favicon/apple-icon-120x120.png">
<link rel="apple-touch-icon" sizes="144x144" href="/sites/default/files/favicon/apple-icon-144x144.png">
<link rel="apple-touch-icon" sizes="152x152" href="/sites/default/files/favicon/apple-icon-152x152.png">
<link rel="apple-touch-icon" sizes="180x180" href="/sites/default/files/favicon/apple-icon-180x180.png">
<link rel="icon" type="image/x-ico" sizes="192x192"  href="/sites/default/files/favicon/android-icon-192x192.png">
<link rel="icon" type="image/x-ico" sizes="32x32" href="/sites/default/files/favicon/favicon-32x32.png">
<link rel="icon" type="image/x-ico" sizes="96x96" href="/sites/default/files/favicon/favicon-96x96.png">
<link rel="icon" type="image/x-ico" sizes="16x16" href="/sites/default/files/favicon/favicon-16x16.png">
<link rel="manifest" href="/sites/default/files/favicon/manifest.json">
<meta name="msapplication-TileColor" content="#ffffff">
<meta name="msapplication-TileImage" content="/sites/default/files/favicon/ms-icon-144x144.png">
<meta name="theme-color" content="#ffffff">

</head>
	<body class="fixed-header html front not-logged-in no-sidebars page-node page-node- page-node-110 node-type-page">

	

				
			<!-- Sliding div starts here -->
			<div id="slider" style="right:-332px;">
				<div id="contact-sidebar" >
					<img alt="" src="/sites/default/files/contact.png"/>
				</div>
				<div id="contact-header">
						
					<div style="padding:0 5px 20px 5px;">
						<h5>Quick Contact</h5>
						<p>Don't be shy, drop us a line, we would love to help you with your project.</p>
					</div>
					<form class="quick-contact" id="form" method="post" autocomplete="off">
						<input data-h5-errorid="name-error-message" class="form-control" type="text" name="name" placeholder="Your Name" required />
						<div id="name-error-message" class="ui-state-error message" style="top: 163px;">This field is required.</div>
						<input data-h5-errorid="email-error-message" class="form-control" type="email" name="realemail" placeholder="Your Email" pattern="[^@\s]+@[^@\s]+\.[^@\s]+" required oninvalid="this.setCustomValidity('Invalid email address detected.')"  oninput="this.setCustomValidity('')" />
						<div id="email-error-message" class="ui-state-error message" style="top: 225px;">A valid email address is required.</div>
						<textarea data-h5-errorid="message-error-message" style="resize: none;" class="form-control" name="message" placeholder="Message" required></textarea><br/>
						<div id="message-error-message" class="ui-state-error message" style="top: 347px;">This field is required.</div>
						<input class="form-control santa" type="email" name="email" />
						<input class="btn contact-button" type="submit" value="Send Message">
					</form>	
				</div>
			</div>
			<!-- Sliding div ends here -->			
			
			
			

	
    <div class="page-box"><div class="page-box-content">
  <div class="main" role="main">

    
      <div  style="padding-top: 0px; padding-bottom: 0px; " class="nd-region">
  
       

      <div class = "container-fluid">

        <div  id="Header" class="row">     

          
                                          <div  class="col-md-12 " id="progressive_cms-menu">
                              
                                  <div id="block-progressive-cms-menu" class="widget block block-progressive-cms" >
  
        
  <div class = "block-content clearfix">
    
<header class="header header-two">
  <div class = "header-wrapper">
    <div class="container">
      <div class="row">
        <div class="col-xs-6 col-md-3 col-lg-3 logo-box">
        <div class="logo">
          <a href="/">
           
			<img src="https://www.synergyweb.net/sites/default/files/synergyweb-logo.png" class="logo-img" alt="">


          </a>
        </div>
        </div><!-- .logo-box -->
        
        <div class="col-xs-6 col-md-9 col-lg-9 right-box">
        <div class="right-box-wrapper">
          <div class="header-icons">
		  
		    <div class="icon-header hidden-600">
				<a class="icon-header-btn" href="https://www.facebook.com/synergyweb.net/?fref=ts" target="_blank">
					<img src="/sites/default/files/facebook.png" alt="" width="20" height="20" style="vertical-align: top;">
				</a>
            </div>
			
			 <div class="icon-header hidden-600">
				<a class="icon-header-btn" href="https://twitter.com/synergyweb_net" target="_blank">
					<img src="/sites/default/files/twitter.png" alt="" width="20" height="20" style="vertical-align: top;">
				</a>
            </div>
		
			 <div class="icon-header hidden-600">
				<a class="icon-header-btn" href="https://www.linkedin.com/company/2578005?trk=NUS_CMPY_TWIT" target="_blank">
					<img src="/sites/default/files/linked-in.png" alt="" width="20" height="20" style="vertical-align: top;">
				</a>
            </div>
			
            <div class="icon-header hidden-600">
              <a class="icon-header-btn" href="/contact-us">
				<img src="/sites/default/files/email.png" alt="" width="20" height="20" style="vertical-align: top;">
              </a>
            </div>
			
            <div class="phone-header hidden-600">
              <a class="icon-header-btn" href="#">
				<img src="/sites/default/files/phone.png" alt="" width="20" height="18" style="vertical-align: top;">
              </a>
            </div>
            
			
                      </div><!-- .header-icons -->
          
          <div class="primary">
          <div class="navbar navbar-default" role="navigation">
            <button type="button" class="navbar-toggle btn-navbar collapsed" data-toggle="collapse" data-target=".primary .navbar-collapse">
              <span class="text">Menu</span>
              <span class="icon-bar"></span>
              <span class="icon-bar"></span>
              <span class="icon-bar"></span>
            </button>
      
            <nav class="collapse collapsing navbar-collapse">
              <ul class="nav navbar-nav navbar-center">
                  <li class="tb-megamenu-item level-1 mega">
  <a href="https://www.synergyweb.net#" class="">
        
    Home      </a>
  </li>

<li class="tb-megamenu-item level-1 mega dropdown parent">
  <a href="https://www.synergyweb.net#services" class="">
        
    Services      </a>
  <ul  data-class="" data-width="" class="sub row tb-megamenu-submenu dropdown-menu mega-dropdown-menu nav-child">
  <li  data-class="" data-width="12" data-hidewcol="0" id="tb-megamenu-column-4" class="tb-megamenu-column megamenu-column-single  mega-col-nav">
  <ul  class="tb-megamenu-subnav mega-nav level-1 items-3">
  <li class="tb-megamenu-item level-2 mega dropdown-submenu parent">
  <a href="/website-design" class="">
        
    Website Design      </a>
  <ul  data-class="" data-width="" class="sub row tb-megamenu-submenu dropdown-menu mega-dropdown-menu nav-child">
  <li  data-class="" data-width="12" data-hidewcol="0" id="tb-megamenu-column-1" class="tb-megamenu-column megamenu-column-single  mega-col-nav">
  <ul  class="tb-megamenu-subnav mega-nav level-2 items-8">
  <li class="tb-megamenu-item level-3 mega">
  <a href="/website-design" class="">
        
    Website Design      </a>
  </li>

<li class="tb-megamenu-item level-3 mega">
  <a href="http://www.synergyweb.net/website-design#content-management" class="">
        
    Content Management      </a>
  </li>

<li class="tb-megamenu-item level-3 mega">
  <a href="http://www.synergyweb.net/website-design#content-updates" class="">
        
    Content Updates      </a>
  </li>

<li class="tb-megamenu-item level-3 mega">
  <a href="http://www.synergyweb.net/website-design#e-commerce" class="">
        
    E-commerce      </a>
  </li>

<li class="tb-megamenu-item level-3 mega">
  <a href="http://www.synergyweb.net/website-design#blog-websites" class="">
        
    Blog Websites      </a>
  </li>

<li class="tb-megamenu-item level-3 mega">
  <a href="http://www.synergyweb.net/website-design#domain-management" class="">
        
    Domain Management      </a>
  </li>

<li class="tb-megamenu-item level-3 mega">
  <a href="http://www.synergyweb.net/website-design#videography" class="">
        
    Videography      </a>
  </li>

<li class="tb-megamenu-item level-3 mega">
  <a href="http://www.synergyweb.net/website-design#demo-sites" class="">
        
    Demo Sites      </a>
  </li>
</ul>
</li>
</ul>
</li>

<li class="tb-megamenu-item level-2 mega dropdown-submenu parent">
  <a href="/web-hosting" class="">
        
    Web Hosting      </a>
  <ul  data-class="" data-width="" class="sub row tb-megamenu-submenu dropdown-menu mega-dropdown-menu nav-child">
  <li  data-class="" data-width="12" data-hidewcol="0" id="tb-megamenu-column-2" class="tb-megamenu-column megamenu-column-single  mega-col-nav">
  <ul  class="tb-megamenu-subnav mega-nav level-2 items-6">
  <li class="tb-megamenu-item level-3 mega">
  <a href="http://www.synergyweb.net/web-hosting#host" class="">
        
    HomeHost      </a>
  </li>

<li class="tb-megamenu-item level-3 mega">
  <a href="http://www.synergyweb.net/web-hosting#host" class="">
        
    BusinessHost      </a>
  </li>

<li class="tb-megamenu-item level-3 mega">
  <a href="http://www.synergyweb.net/web-hosting#host" class="">
        
    AwesomeHost      </a>
  </li>

<li class="tb-megamenu-item level-3 mega">
  <a href="http://www.synergyweb.net/web-hosting#website-backup" class="">
        
    Website Backup      </a>
  </li>

<li class="tb-megamenu-item level-3 mega">
  <a href="http://www.synergyweb.net/web-hosting#systems-monitoring" class="">
        
    Systems Monitoring      </a>
  </li>

<li class="tb-megamenu-item level-3 mega">
  <a href="http://www.synergyweb.net/web-hosting#fms" class="">
        
    Fully Managed Service      </a>
  </li>
</ul>
</li>
</ul>
</li>

<li class="tb-megamenu-item level-2 mega dropdown-submenu parent">
  <a href="/internet-marketing" class="">
        
    Internet Marketing      </a>
  <ul  data-class="" data-width="" class="sub row tb-megamenu-submenu dropdown-menu mega-dropdown-menu nav-child">
  <li  data-class="" data-width="12" data-hidewcol="0" id="tb-megamenu-column-3" class="tb-megamenu-column megamenu-column-single  mega-col-nav">
  <ul  class="tb-megamenu-subnav mega-nav level-2 items-4">
  <li class="tb-megamenu-item level-3 mega">
  <a href="http://www.synergyweb.net/internet-marketing#email-marketing" class="">
        
    Email Marketing      </a>
  </li>

<li class="tb-megamenu-item level-3 mega">
  <a href="http://www.synergyweb.net/internet-marketing#social-media" class="">
        
    Social Media      </a>
  </li>

<li class="tb-megamenu-item level-3 mega">
  <a href="http://www.synergyweb.net/internet-marketing#seo" class="">
        
    Search Engine Optimisation      </a>
  </li>

<li class="tb-megamenu-item level-3 mega">
  <a href="http://www.synergyweb.net/internet-marketing#ppc" class="">
        
    Pay per Click      </a>
  </li>
</ul>
</li>
</ul>
</li>
</ul>
</li>
</ul>
</li>

<li class="tb-megamenu-item level-1 mega">
  <a href="https://www.synergyweb.net#portfolio" class="">
        
    Portfolio      </a>
  </li>

<li class="tb-megamenu-item level-1 mega">
  <a href="/blog" class="">
        
    Blog      </a>
  </li>

<li class="tb-megamenu-item level-1 mega">
  <a href="/contact-us" class="">
        
    Contact Us      </a>
  </li>
              </ul>
            </nav>
          </div>
          </div><!-- .primary -->
        </div>
        </div>
        <div class="phone-active col-sm-9 col-md-9">
          <a href="#" class="close"><span>close</span>×</a>
                    <span class="title">Call Us</span> <strong>01449 512122</strong>
        </div>
        <div class="search-active col-sm-9 col-md-9">
          <a href="#" class="close"><span>close</span>×</a>
         
        </div> 
      </div><!--.row -->
    </div>
  </div>
</header><!-- .header -->  </div>

  </div> <!-- /.block -->
                
                              </div>
                                    
          
                      
          
                      
          
                      
          
                      
          
                      
          
                      
          
        </div>

      </div>

    
      </div>
    


      <div  style="padding-top: 0px; padding-bottom: 0px; " class="nd-region">
  
       

      <div class = "container-fluid">

        <div  id="Content" class="row">     

          
                      
          
                                          <div  id="content" class="col-md-12 ">
                              
                                  <div id="block-system-main" class="widget block block-system" >
  
        
  <div class = "block-content clearfix">
          <h2 class = "hidden">SynergyWeb Home</h2>
    
    
    <div class="content clearfix node-page">
      <div class="field field-name-body field-type-text-with-summary field-label-hidden">  <div id="block-md-slider-homepage" class="widget block block-md-slider" >
  
        
  <div class = "block-content clearfix">
    <div id="md-slider-1-block" class="md-slide-items" data-thumb-width='100' data-thumb-height='75'>
          
          
  <div class="md-slide-item slide-2" data-timeout='5600' data-transition="slit-horizontal-top-right,strip-left-up,strip-right-left-down,slide-in-down,fade" data-thumb-type='image' data-thumb-alt='' data-thumb='https://www.synergyweb.net/sites/default/files/styles/md_slider_1_thumb/public/Header-2b_1.jpg?itok=Xa3r3lRU'>
    <div class="md-mainimg" style="">
              <img src="https://www.synergyweb.net/sites/default/files/Header-2b_1.jpg" alt="" />
          </div>
        <div class="md-objects">
                <div class="md-object none md-layer-1-1-0 fdsfds" data-x='124' data-y='72' data-width='470' data-height='40' data-start='600' data-stop='5600' data-easein='bounceInLeft' data-paddingtop='0' data-paddingright='0' data-paddingbottom='0' data-paddingleft='0'>
                        Websites designed with the              </div>
                <div class="md-object none md-layer-1-1-1 fdsfds" data-x='175.5' data-y='233' data-width='367' data-height='33' data-start='1600' data-stop='5600' data-easein='bounceInRight'>
                        Perfect HTML5 & CSS3              </div>
                <div class="md-object none md-layer-1-1-2 fdsfds" data-x='292.5' data-y='370' data-width='133' data-height='24' data-start='2500' data-stop='5600' data-easein='tinUpIn'>
                        DYNAMIC              </div>
                <div class="md-object none md-layer-1-1-3 fdsfds" data-x='214' data-y='340' data-width='143' data-height='30' data-start='3000' data-stop='5600' data-easein='tinUpIn'>
                        DRAMATIC              </div>
                <div class="md-object none md-layer-1-1-4 fdsfds" data-x='339' data-y='340' data-width='170' data-height='31' data-start='3400' data-stop='5600' data-easein='tinUpIn'>
                        AFFORDABLE              </div>
                <div class="md-object none md-layer-1-1-5 fdsfds" data-x='258.5' data-y='310' data-width='201' data-height='27' data-start='3800' data-stop='5600' data-easein='tinUpIn'>
                        PROFESSIONAL              </div>
                <div class="md-object none md-layer-1-1-6 fdsfds" data-x='193' data-y='120' data-width='332' data-height='44' data-start='600' data-stop='5600' data-easein='bounceInLeft'>
                        Latest Technologies              </div>
          </div>
  </div>
          
  <div class="md-slide-item slide-3" data-timeout='4900' data-transition="slit-horizontal-left-top,strip-down-right,strip-down-left,strip-up-down-right,fade" data-thumb-type='image' data-thumb-alt='' data-thumb='https://www.synergyweb.net/sites/default/files/styles/md_slider_1_thumb/public/Header-3b.jpg?itok=sviTHlM7'>
    <div class="md-mainimg" style="">
              <img src="https://www.synergyweb.net/sites/default/files/Header-3b.jpg" alt="" />
          </div>
        <div class="md-objects">
                <div class="md-object none md-layer-1-2-0 fdsfds" data-x='580' data-y='70' data-width='400' data-height='51' data-start='600' data-stop='4900' data-easein='fadeInLeftBig'>
                        Fully Managed Hosting              </div>
                <div class="md-object none md-layer-1-2-1 fdsfds" data-x='628' data-y='168' data-width='138' data-height='41' data-start='1300' data-stop='4900' data-easein='rotateInUpLeft'>
                        Powerfull              </div>
                <div class="md-object none md-layer-1-2-2 fdsfds" data-x='763' data-y='168' data-width='172' data-height='41' data-start='2000' data-stop='4900' data-easein='rotateInUpRight'>
                        Feature rich              </div>
                <div class="md-object none md-layer-1-2-3 fdsfds" data-x='718.5' data-y='223' data-width='123' data-height='41' data-start='2700' data-stop='4900' data-easein='twisterInUp'>
                        Flexible              </div>
          </div>
  </div>
          
  <div class="md-slide-item slide-4" data-timeout='5000' data-transition="slit-horizontal-bottom-up,strip-down-right,strip-left-up,strip-left-down,bottom-curtain,slide-in-right" data-thumb-type='image' data-thumb-alt='' data-thumb='https://www.synergyweb.net/sites/default/files/styles/md_slider_1_thumb/public/Header-1b_1.jpg?itok=ZyIOdc0B'>
    <div class="md-mainimg" style="">
              <img src="https://www.synergyweb.net/sites/default/files/Header-1b_1.jpg" alt="" />
          </div>
        <div class="md-objects">
                <div class="md-object none md-layer-1-3-0 fdsfds" data-x='533' data-y='73' data-width='505' data-height='42' data-start='700' data-stop='5000' data-easein='fadeInLeftBig'>
                        Beautifully Crafted Websites              </div>
                <div class="md-object none md-layer-1-3-1 fdsfds" data-x='533' data-y='144' data-width='302' data-height='34' data-start='1400' data-stop='5000' data-easein='bounceInUp'>
                        Fully responsive              </div>
                <div class="md-object none md-layer-1-3-2 fdsfds" data-x='533' data-y='207' data-width='171' data-height='37' data-start='2200' data-stop='5000' data-easein='bounceInUp'>
                        Retina ready              </div>
                <div class="md-object none md-layer-1-3-3 fdsfds" data-x='533' data-y='274' data-width='280' data-height='37' data-start='2900' data-stop='5000' data-easein='bounceInUp'>
                        Clean and valid code              </div>
          </div>
  </div>
          
  <div class="md-slide-item slide-5" data-timeout='5400' data-transition="strip-down-right,strip-right-up,left-curtain,slide-in-left,slide-in-up,slide-in-down" data-thumb-type='image' data-thumb-alt='' data-thumb='https://www.synergyweb.net/sites/default/files/styles/md_slider_1_thumb/public/Header-4b.jpg?itok=H0c4nKGo'>
    <div class="md-mainimg" style="">
              <img src="https://www.synergyweb.net/sites/default/files/Header-4b.jpg" alt="" />
          </div>
        <div class="md-objects">
                <div class="md-object md-layer-1-4-0 fdsfds" data-x='84' data-y='58' data-width='358' data-height='63' data-start='700' data-stop='5400'>
                        Internet Marketing              </div>
                <div class="md-object none md-layer-1-4-1 fdsfds" data-x='84' data-y='142' data-width='320' data-height='36' data-start='1500' data-stop='5400' data-easein='fadeInRight'>
                        eMarketing Campaigns              </div>
                <div class="md-object md-layer-1-4-2 fdsfds" data-x='84' data-y='256' data-width='67' data-height='32' data-start='3000' data-stop='5400' data-easein='fadeInRight'>
                        SEO              </div>
                <div class="md-object none md-layer-1-4-3 fdsfds" data-x='84' data-y='199' data-width='191' data-height='36' data-start='2300' data-stop='5400' data-easein='fadeInRight'>
                        Social Media              </div>
                <div class="md-object md-layer-1-4-4 fdsfds" data-x='84' data-y='309' data-width='192' data-height='50' data-start='3700' data-stop='5400' data-easein='tinRightIn'>
                        Supercharged!              </div>
          </div>
  </div>
          
  <div class="md-slide-item slide-6" data-timeout='5000' data-transition="slit-vertical-down,strip-up-left,right-curtain" data-thumb-type='image' data-thumb-alt='' data-thumb='https://www.synergyweb.net/sites/default/files/styles/md_slider_1_thumb/public/Header-5b.jpg?itok=Ptc3w_b5'>
    <div class="md-mainimg" style="">
              <img src="https://www.synergyweb.net/sites/default/files/Header-5b.jpg" alt="" />
          </div>
        <div class="md-objects">
                <div class="md-object md-layer-1-5-0 fdsfds" data-x='195' data-y='381' data-width='432' data-height='36' data-start='1400' data-stop='5000' data-easein='swap'>
                        to on-line.               </div>
                <div class="md-object md-layer-1-5-1 fdsfds" data-x='159' data-y='56' data-width='504' data-height='53' data-start='600' data-stop='5000' data-easein='fadeInLeftBig'>
                        When Life Goes A Little Bit Crazy…              </div>
                <div class="md-object md-layer-1-5-2 fdsfds" data-x='195' data-y='344.32' data-width='432' data-height='36' data-start='1400' data-stop='5000' data-easein='swap'>
                        there’s not much we can’t turn our hand              </div>
                <div class="md-object md-layer-1-5-3 fdsfds" data-x='195' data-y='271' data-width='432' data-height='36' data-start='1400' data-stop='5000' data-easein='swap'>
                        We have a wealth of technical knowledge,               </div>
                <div class="md-object md-layer-1-5-4 fdsfds" data-x='195' data-y='307.666' data-width='432' data-height='36' data-start='1400' data-stop='5000' data-easein='swap'>
                        systems engineering, event management,              </div>
                <div class="md-object md-layer-1-5-5 fdsfds" data-x='195' data-y='191' data-width='432' data-height='36' data-start='1400' data-stop='5000' data-easein='swap'>
                        ….we can help with the unusual.              </div>
          </div>
  </div>
    </div>
  </div>

  </div> <!-- /.block -->

<div  style = 'padding-top: 60px;' class = 'container'>
<div  class = 'row'>
<div  class = 'col-sm-4 col-md-4'>
<div  class = 'big-services-box'>
        <div class="big-icon bg" data-appear-animation="wobble"><i class="fa fa-picture-o"></i></div>
        <h4 class="title"  data-appear-animation="bounceInLeft">Website Design</h4>
        <div class="text-small"  data-appear-animation="bounceInLeft">
          
<p>Beautiful and engaging website design, based on clean and solid code, with a strong vision for your core business aims.</p>


          <div class="clearfix"></div><br>
          <a class="btn btn-default" href = "/website-design">Read More</a>
        </div>
      </div>
<div  class = 'service-spacer spacer' style = 'height: 0px;'></div>
</div>
<div  class = 'col-sm-4 col-md-4'>
<div  class = 'big-services-box'>
        <div class="big-icon bg" data-appear-animation="wobble"><i class="fa fa-wrench"></i></div>
        <h4 class="title"  data-appear-animation="bounceInUp">Web Hosting</h4>
        <div class="text-small"  data-appear-animation="bounceInUp">
          
<p>Feature rich, powerful, flexible web hosting, select the level that’s right for your business or let us manage everything for you.</p>


          <div class="clearfix"></div><br>
          <a class="btn btn-default" href = "/web-hosting">Read More</a>
        </div>
      </div>
<div  class = 'service-spacer spacer' style = 'height: 0px;'></div>
</div>
<div  class = 'col-sm-4 col-md-4'>
<div  class = 'big-services-box'>
        <div class="big-icon bg" data-appear-animation="wobble"><i class="fa fa-bug"></i></div>
        <h4 class="title"  data-appear-animation="bounceInRight">Internet Marketing</h4>
        <div class="text-small"  data-appear-animation="bounceInRight">
          
<p>Helping you stand out from the crowd and reach out to your target audience, whatever the size of your business.</p>


          <div class="clearfix"></div><br>
          <a class="btn btn-default" href = "/internet-marketing">Read More</a>
        </div>
      </div>
</div>
</div>
</div>
<div  style = 'padding-top: 50px; padding-bottom: 50px;' data-appear-animation-delay = '200' data-appear-animation = 'fadeInUp' id = 'services' class = 'container'>
<div  data-appear-animation-delay = '200' data-appear-animation = 'fadeInUp' class = 'title-box'><h1 class = "title">What we do</h1></div>
<div  class = 'row'>
<div  data-appear-animation-delay = '200' data-appear-animation = 'fadeInUp' style = 'padding-bottom: 40px;' class = 'col-sm-6 col-md-6'>
<p><strong>SynergyWeb understands that your website is central to your brand identity, reputation and how customers perceive you.&nbsp;</strong></p>
<p>That’s why we craft beautiful and appealing websites that deliver engaging digital journeys to ensure your target audience has the very best experience.</p>
<p>Static, dynamic, brochure websites, CMS, e-commerce, portfolio or blog sites, our solutions are fully responsive, device compatible and easy to use.</p>
<p>We are passionate about providing the best possible service to our clients. We bring creative, technical and strategic expertise to every project - ours is a long term relationship that keeps on delivering.</p>

</div>
<div  data-appear-animation-delay = '200' data-appear-animation = 'fadeInUp' class = 'col-sm-6 col-md-6'>
<div class="filter-box accordions-filter">
      <div class="btn-group filter-buttons filter-list">
        <button type="button" class="dropdown-toggle" data-toggle="dropdown">
          All <span class="caret"></span>
        </button>
        <ul class="dropdown-menu" role="menu">
          <li><a href="#" data-filter="*" class="active">All</a></li><li><a href="#" data-filter=".design">Design</a></li><li><a href="#" data-filter=".hosting">Hosting</a></li><li><a href="#" data-filter=".marketing">Marketing</a></li>     
        </ul>
        <div class="clearfix"></div>
      </div><div  class = 'panel-group  multi-collapse filter-elements' id = "accordion434604">
<div  class = 'panel panel-default design'>
    <div class="panel-heading">
      <div class="panel-title">
        <a data-toggle="collapse" data-parent="#accordion434604" href="#accordion-400159">
          Website Design
        </a>
      </div>
    </div>
    <div id="accordion-400159" class="panel-collapse collapse">
      <div class="panel-body">
        
<div  style = 'padding-bottom: 7px; padding-right: 10px; padding-left: 10px;'><p>Brochure websites, CMS, E-commerce, Portfolio or Blog sites, whatever your business we have a solution to showcase you.</p>
</div>
<div  style = 'padding-right: 10px; text-align:right;' class = 'container'>
<a  class = 'btn-warning btn-xs btn' href = '/website-design'>
<p>Read More</p>

</a>
</div>

      </div>
    </div>
  </div>
<div  class = 'marketing panel panel-default design'>
    <div class="panel-heading">
      <div class="panel-title">
        <a data-toggle="collapse" data-parent="#accordion434604" href="#accordion-400160">
          Content Management & Updates
        </a>
      </div>
    </div>
    <div id="accordion-400160" class="panel-collapse collapse">
      <div class="panel-body">
        
<div  style = 'padding-bottom: 7px; padding-right: 10px; padding-left: 10px;'><p>Additions, amendments, updates, however we can help we will ensure that content and code is fully search engine optimised and reaches out to your customer, technically and visually.</p>
</div>
<div  style = 'padding-right: 10px; text-align:right;' class = 'container'>
<a  class = 'btn-warning btn-xs btn' href = '/website-design#content-management'>
<p>Read More</p>

</a>
</div>

      </div>
    </div>
  </div>
<div  class = 'design panel panel-default hosting'>
    <div class="panel-heading">
      <div class="panel-title">
        <a data-toggle="collapse" data-parent="#accordion434604" href="#accordion-400161">
          Web & Domain Hosting 
        </a>
      </div>
    </div>
    <div id="accordion-400161" class="panel-collapse collapse">
      <div class="panel-body">
        
<div  style = 'padding-bottom: 7px; padding-right: 10px; padding-left: 10px;'><p>Whether you need a basic hosting platform, dedicated server, domain management, or a fully managed service, we have powerful, resilient hosting and email solutions to meet your business needs.</p>
</div>
<div  style = 'padding-right: 10px; text-align:right;' class = 'container'>
<a  class = 'btn-warning btn-xs btn' href = '/web-hosting'>
<p>Read More</p>

</a>
</div>

      </div>
    </div>
  </div>
<div  class = 'panel panel-default hosting'>
    <div class="panel-heading">
      <div class="panel-title">
        <a data-toggle="collapse" data-parent="#accordion434604" href="#accordion-400162">
          Back-up & Monitoring 
        </a>
      </div>
    </div>
    <div id="accordion-400162" class="panel-collapse collapse">
      <div class="panel-body">
        
<div  style = 'padding-bottom: 7px; padding-right: 10px; padding-left: 10px;'><p>Secure your domain, protect your brand. 24/7 website monitoring to ensure maximum uptime, back-up protection, replication or restoration – we’ve got you covered!</p>
</div>
<div  style = 'padding-right: 10px; text-align:right;' class = 'container'>
<a  class = 'btn-warning btn-xs btn' href = '/web-hosting#website-backup'>
<p>Read More</p>

</a>
</div>

      </div>
    </div>
  </div>
<div  class = 'hosting marketing panel panel-default design'>
    <div class="panel-heading">
      <div class="panel-title">
        <a data-toggle="collapse" data-parent="#accordion434604" href="#accordion-400163">
          Fully Managed Service
        </a>
      </div>
    </div>
    <div id="accordion-400163" class="panel-collapse collapse">
      <div class="panel-body">
        
<div  style = 'padding-bottom: 7px; padding-right: 10px; padding-left: 10px;'><p>We can take care of everything you need, or just the elements you don’t have the time or in-house expertise for - our fully managed service is totally flexible, just give us a call.</p>
</div>
<div  style = 'padding-right: 10px; text-align:right;' class = 'container'>
<a  class = 'btn-warning btn-xs btn' href = '/contact-us'>
<p>Contact Us</p>

</a>
</div>

      </div>
    </div>
  </div>
<div  class = 'panel panel-default marketing'>
    <div class="panel-heading">
      <div class="panel-title">
        <a data-toggle="collapse" data-parent="#accordion434604" href="#accordion-400164">
          Internet Marketing
        </a>
      </div>
    </div>
    <div id="accordion-400164" class="panel-collapse collapse">
      <div class="panel-body">
        
<div  style = 'padding-bottom: 7px; padding-right: 10px; padding-left: 10px;'><p>Creating an online presence is so much more than just a website. We can help drive customers to you via targeted online marketing campaigns that inspire and motivate.</p>
</div>
<div  style = 'padding-right: 10px; text-align:right;' class = 'container'>
<a  class = 'btn-warning btn-xs btn' href = '/internet-marketing'>
<p>Read More</p>

</a>
</div>

      </div>
    </div>
  </div>
<div  class = 'panel panel-default marketing'>
    <div class="panel-heading">
      <div class="panel-title">
        <a data-toggle="collapse" data-parent="#accordion434604" href="#accordion-400165">
          Email Marketing
        </a>
      </div>
    </div>
    <div id="accordion-400165" class="panel-collapse collapse">
      <div class="panel-body">
        
<div  style = 'padding-bottom: 7px; padding-right: 10px; padding-left: 10px;'><p>Connect with existing customers and engage with new, we can help promote your business, your services and your products by building relationships by reaching out with targeted email campaigns.</p>
</div>
<div  style = 'padding-right: 10px; text-align:right;' class = 'container'>
<a  class = 'btn-warning btn-xs btn' href = '/internet-marketing#email-marketing'>
<p>Read More</p>

</a>
</div>

      </div>
    </div>
  </div>
<div  class = 'panel panel-default marketing'>
    <div class="panel-heading">
      <div class="panel-title">
        <a data-toggle="collapse" data-parent="#accordion434604" href="#accordion-400166">
          SEO, Social Media & Pay Per Click
        </a>
      </div>
    </div>
    <div id="accordion-400166" class="panel-collapse collapse">
      <div class="panel-body">
        
<div  style = 'padding-bottom: 7px; padding-right: 10px; padding-left: 10px;'><p>Empower your online presence and take advantage of free marketing - optimise your website for search engine visibility, engage via Social Media or pay for advertising for driven results.</p>
</div>
<div  style = 'padding-right: 10px; text-align:right;' class = 'container'>
<a  class = 'btn-warning btn-xs btn' href = '/internet-marketing#social-media'>
<p>Read More</p>

</a>
</div>

      </div>
    </div>
  </div>
</div></div>
</div>
</div>
</div>
<div  style = 'padding-top: 60px; padding-bottom: 20px;' id = 'portfolio' class = 'content-block full-width-box'><div class="fwb-bg fwb-paralax"  data-speed = '0.5' style = 'background-image: url("https://www.synergyweb.net/sites/default/files/Demo-site-panel-background_2.jpg");'><div class="overlay"></div></div>
<div  style = 'padding-right: 5px; padding-left: 5px;'><div class="view view-projects view-id-projects view-display-id-block view-dom-id-842d7daa2e5fe1dfc9f5b3a2841ed1a3">
        
  
  
      <div class="container">
  <div class="portfolio">

    <div class="btn-group filter-buttons filter-list white clearfix">
      <button type="button" class="dropdown-toggle" data-toggle="dropdown">
        All items<span class="caret"></span>
      </button>
      <ul class="dropdown-menu" role="menu">
        <li><a href="#" data-filter="*" class="active">All items</a></li>
                  <li><a href="#" data-filter=".Blog">Blog</a></li>
                  <li><a href="#" data-filter=".CMS">CMS</a></li>
                  <li><a href="#" data-filter=".Videography">Videography</a></li>
                  <li><a href="#" data-filter=".e-commerce">e-commerce</a></li>
              </ul>
    </div><!-- .filter-buttons -->

    <div class="row filter-elements">
                        <div class="work-element Blog CMS col-sm-3 col-xs-12 col-md-4">
  <a href="/content/intents-effects" class="work">
    <img src="https://www.synergyweb.net/sites/default/files/styles/project__270x197_/public/ie1.png?itok=mbtLjtut" width="370" height="270" />    <span class="shadow"></span>
    <div class="bg-hover"></div>
    <div class="work-title">
      <h3 class="title">Intents Effects</h3>      <div class="description">Blog / CMS</div>
    </div>
  </a>
</div><!-- .work-element -->                  <div class="work-element Blog CMS Videography col-sm-3 col-xs-12 col-md-4">
  <a href="/content/great-balls-fire" class="work">
    <img src="https://www.synergyweb.net/sites/default/files/styles/project__270x197_/public/gbof1.png?itok=PrwwPdXc" width="370" height="270" />    <span class="shadow"></span>
    <div class="bg-hover"></div>
    <div class="work-title">
      <h3 class="title">Great Balls of Fire</h3>      <div class="description">Blog / CMS / Videography</div>
    </div>
  </a>
</div><!-- .work-element -->                  <div class="work-element CMS col-sm-3 col-xs-12 col-md-4">
  <a href="/content/bonnie-portraits" class="work">
    <img src="https://www.synergyweb.net/sites/default/files/styles/project__270x197_/public/bonnie1.png?itok=FtmBYF62" width="370" height="270" />    <span class="shadow"></span>
    <div class="bg-hover"></div>
    <div class="work-title">
      <h3 class="title">Bonnie Portraits</h3>      <div class="description">CMS</div>
    </div>
  </a>
</div><!-- .work-element -->                                <div class="work-element CMS col-sm-3 col-xs-12 col-md-4">
  <a href="/content/rsa-pest-management" class="work">
    <img src="https://www.synergyweb.net/sites/default/files/styles/project__270x197_/public/rsa1_1.png?itok=mYVGxWNd" width="370" height="270" />    <span class="shadow"></span>
    <div class="bg-hover"></div>
    <div class="work-title">
      <h3 class="title">RSA Pest Management</h3>      <div class="description">CMS</div>
    </div>
  </a>
</div><!-- .work-element -->                  <div class="work-element CMS col-sm-3 col-xs-12 col-md-4">
  <a href="/content/pitkin-ruddock" class="work">
    <img src="https://www.synergyweb.net/sites/default/files/styles/project__270x197_/public/pandr1.png?itok=AQqlJnLE" width="370" height="270" />    <span class="shadow"></span>
    <div class="bg-hover"></div>
    <div class="work-title">
      <h3 class="title">Pitkin &amp; Ruddock</h3>      <div class="description">CMS</div>
    </div>
  </a>
</div><!-- .work-element -->                  <div class="work-element CMS col-sm-3 col-xs-12 col-md-4">
  <a href="/content/mbc-electrical" class="work">
    <img src="https://www.synergyweb.net/sites/default/files/styles/project__270x197_/public/mbc1.png?itok=jV2fdWBo" width="370" height="270" />    <span class="shadow"></span>
    <div class="bg-hover"></div>
    <div class="work-title">
      <h3 class="title">MBC Electrical</h3>      <div class="description">CMS</div>
    </div>
  </a>
</div><!-- .work-element -->                                <div class="work-element CMS e-commerce col-sm-3 col-xs-12 col-md-4">
  <a href="/content/valley-farm" class="work">
    <img src="https://www.synergyweb.net/sites/default/files/styles/project__270x197_/public/vf1.png?itok=ubSB5Eom" width="370" height="270" />    <span class="shadow"></span>
    <div class="bg-hover"></div>
    <div class="work-title">
      <h3 class="title">Valley Farm</h3>      <div class="description">CMS / e-commerce</div>
    </div>
  </a>
</div><!-- .work-element -->                  <div class="work-element Blog CMS col-sm-3 col-xs-12 col-md-4">
  <a href="/content/emerald-bridal-coaching" class="work">
    <img src="https://www.synergyweb.net/sites/default/files/styles/project__270x197_/public/ebc1.png?itok=JBj2-U_-" width="370" height="270" />    <span class="shadow"></span>
    <div class="bg-hover"></div>
    <div class="work-title">
      <h3 class="title">Emerald Bridal Coaching</h3>      <div class="description">Blog / CMS</div>
    </div>
  </a>
</div><!-- .work-element -->                  <div class="work-element CMS col-sm-3 col-xs-12 col-md-4">
  <a href="/content/wild-duck-0" class="work">
    <img src="https://www.synergyweb.net/sites/default/files/styles/project__270x197_/public/wd1.png?itok=iMtNmYzz" width="370" height="270" />    <span class="shadow"></span>
    <div class="bg-hover"></div>
    <div class="work-title">
      <h3 class="title">The Wild Duck</h3>      <div class="description">CMS</div>
    </div>
  </a>
</div><!-- .work-element -->                  </div>

  </div>
</div>  
      <div class="view-footer-pager hidden">
      <div  style = 'padding-bottom: 20px; text-align:center;' class = 'container'>
<a  class = 'btn-warning btn' href = '/portfolio'>
Full Portfolio</a>
</div>
     </div>
  
  
  
  
      <div class="view-footer">
      <div  style = 'padding-bottom: 20px; text-align:center;' class = 'container'>
<a  class = 'btn-warning btn' href = '/portfolio'>
Full Portfolio</a>
</div>
     </div>
  
  
</div></div>
</div>
<div  style = 'padding-top: 60px; padding-bottom: 70px; padding-right: 20px; padding-left: 20px;' class = 'container'>
<div  data-appear-animation-delay = '200' data-appear-animation = 'fadeInLeftBig' class = 'content-block frame' style = ' text-align:center;'>
<p><span style="font-family: Courgette, cursive; font-size: 24px; font-weight: normal;">“Life is like riding a bicycle. To keep your balance, you must keep moving”</span></p>
<p><span style="font-family: Anton; font-size: 20px; font-weight: normal;">– Albert Einstein</span></p>

</div>
</div>
<div  id = 'videography' class = 'container'>
</div>
<div  style = 'padding-top: 120px; padding-bottom: 130px; text-align:center;' class = 'white container-video-synergy full-width-box' data-stellar-background-ratio = '0.5' id = 'wrap-1000'><a class="player" data-property="{videoURL: 'http://www.youtube.com/watch?v=m0Ubou4cduY', containment:'#wrap-1000', autoPlay:true, showControls:true, loop:true, mute:true, startAt:0, opacity:1, addRaster:false}"></a><div class="overlay"></div>
<div  class = 'container'>
<div  class = 'title-white title-box text-center'><h2 class = "title">Videography</h2></div>
<p>Add drama, action, movement to engage your audience or tell a story using videography.&nbsp; We can embed your video and also offer drone videography services – perfect for promoting places, events or a journey…</p>

<a  class = 'btn-warning btn' href = '/contact-us'>
Contact Us</a>
</div>
</div>
<div  class = 'container-videoMobile-synergy'><div class="container-videoMobile-synergy" style="background-color: #e9e9e9">
<div class="synergy-video full-width-box" style="padding-top: 170px; padding-bottom: 170px; text-align:center;">
<div class="video-container">
<iframe allowfullscreen="" height="360" src="https://www.youtube.com/embed/m0Ubou4cduY?autoplay=0&amp;modestbranding=1&amp;controls=0&amp;showinfo=0&amp;rel=0&amp;enablejsapi=1&amp;version=3&amp;playerapiid=mbYTP_YTP_1492088253239&amp;origin=http%3A%2F%2Fdev.synergyweb.net&amp;allowfullscreen=true&amp;wmode=transparent&amp;iv_load_policy=3&amp;html5=1&amp;widgetid=1&amp;playsinline=1" style="position: absolute; z-index: 0; width: 1730.6px; height: 840px; 							top: 0px; left: 207.8px; overflow: hidden; opacity: 1; 							user-select: none; margin-top: -250px; margin-bottom: -260px; margin-left: -207.8px; 							transition-property: opacity; transition-duration: 1000ms;" title="YouTube video player" width="640"></iframe></div>
</div>
<div style="padding: 10px 25px 45px 25px; background-color: #e9e9e9">
<div class="title title-box text-center">
<h2 class="title">Videography</h2>
</div>
<div class="text-center">
<p>Add drama, action, movement to engage your audience or tell a story using videography.&nbsp; We can embed your video and also offer drone videography services - perfect for promoting places, events or a journey...</p>
<p><a class="btn" href="/contact-us">Contact Us</a></div>
</div>
</div>
</div>
<div  style = 'padding-top: 60px; padding-right: 20px; padding-left: 20px; padding-bottom: 70px; display: none;' class = 'container'>
<div  data-appear-animation-delay = '200' data-appear-animation = 'fadeInRightBig' class = 'content-block frame' style = ' text-align:center;'>
<p><span style="font-size: 17px; line-height: 22px;">We like our work to do the talking. Take a look at our demo and reference sites,<br>covering a broad range of sectors, to give you a flavour of what’s achievable.<br><br>Then give us a call to talk about what we can do for you...</span></p>

</div>
</div>
<div  style = 'padding-top: 46px; padding-bottom: 34px; display: none;' id = 'demo-sites' class = 'content-block full-width-box'><div class="fwb-bg fwb-paralax"  data-speed = '0.6' style = 'background-image: url("https://www.synergyweb.net/sites/default/files/Portfolio-panel-background_0.jpg");'><div class="overlay"></div></div>
<div  class = 'container'>
<div  class = 'title-white title-box' style = 'font-size: 24px !important;'><h2 class = "title">Demo Sites</h2></div>
<div ><div class="view view-our-team view-id-our_team view-display-id-block_1 view-dom-id-acdfabb14dc03283fadfa87062bed1df">
        
  
  
      <div class = "row text-center" >
            <div class = "col-md-3 col-sm-3 employee rotation">
        <div class="default">
  <div class="image">
    <img src="https://www.synergyweb.net/sites/default/files/styles/product_270x270/public/demo-wildduck.jpg?itok=heCulG17" width="270" height="270" alt="" />  </div>
  <div class="description">
  <div class="vertical">
    <h3 class="name">The Wild Duck</h3>    <div class="role">CMS Website</div>  </div>
  </div>
</div>
<div class="employee-hover">
  <h3 class="name">The Wild Duck</h3>  <div class="role">CMS Website</div>  <div class="image">
    <img src="https://www.synergyweb.net/sites/default/files/styles/team_60x60/public/demo-wildduck.jpg?itok=C1-Kpum6" width="60" height="60" alt="" />  </div>
  <div>
    <div><p>Sed cursus ante dapibus diam. Sed nisi. Nulla quis sem at nibh elementum imperdiet.<br />
Sed cursus ante dapibus diam. Sed nisi. Nulla quis sem at nibh elementum imperdiet.</p>
</div>  </div>
 
			
	
		<div class="icon-demovisit-wrapper">
			<a class="icon-demovisit" href="http://www.thewildduck.net" target="_blank">
				Visit Demo Site
			</a>
		</div>

 

</div><!-- .employee-hover-->
      </div>
          <div class = "col-md-3 col-sm-3 employee rotation">
        <div class="default">
  <div class="image">
    <img src="https://www.synergyweb.net/sites/default/files/styles/product_270x270/public/upload_image_50.png?itok=TA6-Akcb" width="270" height="270" alt="" />  </div>
  <div class="description">
  <div class="vertical">
    <h3 class="name">Jecika Parker</h3>    <div class="role">Manager</div>  </div>
  </div>
</div>
<div class="employee-hover">
  <h3 class="name">Jecika Parker</h3>  <div class="role">Manager</div>  <div class="image">
    <img src="https://www.synergyweb.net/sites/default/files/styles/team_60x60/public/upload_image_50.png?itok=AbJ2_KHw" width="60" height="60" alt="" />  </div>
  <div>
    <div><p>Sed cursus ante dapibus diam. Sed nisi. Nulla quis sem at nibh elementum imperdiet.</p>
</div>  </div>
 
			
	
		<div class="icon-demovisit-wrapper">
			<a class="icon-demovisit" href="" target="_blank">
				Visit Demo Site
			</a>
		</div>

 

</div><!-- .employee-hover-->
      </div>
          <div class = "col-md-3 col-sm-3 employee rotation">
        <div class="default">
  <div class="image">
    <img src="https://www.synergyweb.net/sites/default/files/styles/product_270x270/public/upload_image_49.png?itok=i6dyzOUp" width="270" height="270" alt="" />  </div>
  <div class="description">
  <div class="vertical">
    <h3 class="name">Philip Fry</h3>    <div class="role">CEO / Founder</div>  </div>
  </div>
</div>
<div class="employee-hover">
  <h3 class="name">Philip Fry</h3>  <div class="role">CEO / Founder</div>  <div class="image">
    <img src="https://www.synergyweb.net/sites/default/files/styles/team_60x60/public/upload_image_49.png?itok=FJwXvusq" width="60" height="60" alt="" />  </div>
  <div>
    <div><p>Sed cursus ante dapibus diam. Sed nisi. Nulla quis sem at nibh elementum imperdiet.</p>
</div>  </div>
 
			
	
		<div class="icon-demovisit-wrapper">
			<a class="icon-demovisit" href="" target="_blank">
				Visit Demo Site
			</a>
		</div>

 

</div><!-- .employee-hover-->
      </div>
          <div class = "col-md-3 col-sm-3 employee rotation">
        <div class="default">
  <div class="image">
    <img src="https://www.synergyweb.net/sites/default/files/styles/product_270x270/public/upload_image_44.png?itok=e8E_YkRj" width="270" height="270" alt="" />  </div>
  <div class="description">
  <div class="vertical">
    <h3 class="name">Mett Rayan</h3>    <div class="role">Manager</div>  </div>
  </div>
</div>
<div class="employee-hover">
  <h3 class="name">Mett Rayan</h3>  <div class="role">Manager</div>  <div class="image">
    <img src="https://www.synergyweb.net/sites/default/files/styles/team_60x60/public/upload_image_44.png?itok=wFoN0f7e" width="60" height="60" alt="" />  </div>
  <div>
    <div><p>Sed cursus ante dapibus diam. Sed nisi. Nulla quis sem at nibh elementum imperdiet.</p>
</div>  </div>
 
			
	
		<div class="icon-demovisit-wrapper">
			<a class="icon-demovisit" href="" target="_blank">
				Visit Demo Site
			</a>
		</div>

 

</div><!-- .employee-hover-->
      </div>
        <div class="clearfix"></div>
</div>  
  
  
  
  
  
  
</div></div>
</div>
</div>
<div  style = 'padding-top: 40px;' class = 'container'>
<div  class = 'row'>
<div  style = 'padding-bottom: 76px;' class = 'col-sm-12 col-md-6'>
<div  class = 'title-box'><h2 class = "title">Testimonials</h2></div>
<div  style = 'padding-bottom: 25px;' class = 'respond-carousel carousel-box overflow load' data-carousel-autoplay = 'true' data-carousel-nav = 'false' data-carousel-one = 'true' data-duration = '2000'>
  <div class = "row">
    <div class="carousel">
      
<div><div  class = 'col-sm-12 col-md-12'>
<div  class = 'respond border'><div class = "description border-warning">
<p>I would highly recommend the services of Synergy. Not only have they produced our dynamic website that showcases our services perfectly - the content management system is so easy to use – but their help with our online and e-marketing has been brilliant. We now have a comprehensive brand identity across all platforms, we are building our online profile, engaging with social media, as well as continuing to develop the website adding new functionality to ensure we remain current and new customers can find us. Their customer service and account management is excellent and has been nothing less than proactive and creative at all times.</p>

</div>
  <div class = "name"><div class = "icon"><img class="img-circle" src="https://www.synergyweb.net/sites/default/files/pr-post.jpg" alt="" /></div><strong>Damian Nunn</strong><a href = "#" class = "no-border">, Pitkin & Ruddock Ltd</a>
  </div></div>
</div><div class="clearfix"></div></div>
<div><div  class = 'col-sm-12 col-md-12'>
<div  class = 'respond border'><div class = "description border-warning">
<p>I would highly recommend the services of Synergy. Not only have they produced our dynamic website that showcases our services perfectly - the content management system is so easy to use – but their help with our online and e-marketing has been brilliant. We now have a comprehensive brand identity across all platforms, we are building our online profile, engaging with social media, as well as continuing to develop the website adding new functionality to ensure we remain current and new customers can find us. Their customer service and account management is excellent and has been nothing less than proactive and creative at all times.</p>

</div>
  <div class = "name"><div class = "icon"><img class="img-circle" src="https://www.synergyweb.net/sites/default/files/pr-post.jpg" alt="" /></div><strong>Damian Nunn</strong><a href = "#" class = "no-border">, Pitkin & Ruddock Ltd</a>
  </div></div>
</div><div class="clearfix"></div></div>

    </div>
  </div>
  <div class="clearfix"></div>
    
  </div>
<div  style = 'padding-bottom: 25px;' class = 'respond-carousel carousel-box overflow load' data-carousel-autoplay = 'true' data-carousel-nav = 'false' data-carousel-one = 'true' data-duration = '2500'>
  <div class = "row">
    <div class="carousel">
      
<div><div  class = 'col-sm-12 col-md-12'>
<div  class = 'respond bg'><div class = "description bg-info">
<p>Synergy designed and&nbsp;developed our running club's new website last year.&nbsp; The finished result is exactly as we envisaged; engaging,&nbsp;informative and easy to navigate and is responsible for a marked increase in new member enquiries.&nbsp; Julia at Synergy was extremely patient in teaching me how to&nbsp;manage the content&nbsp;going forward, providing fantastic support which continues to this day.</p>

</div>
  <div class = "name"><div class = "icon"><img class="img-circle" src="https://www.synergyweb.net/sites/default/files/sep-post.jpg" alt="" /></div><strong>Claire</strong><a href = "#" class = "no-border">, Saint Edmund Pacers</a>
  </div></div>
</div><div class="clearfix"></div></div>
<div><div  class = 'col-sm-12 col-md-12'>
<div  class = 'respond bg'><div class = "description bg-info">
<p>Synergy designed and&nbsp;developed our running club's new website last year.&nbsp; The finished result is exactly as we envisaged; engaging,&nbsp;informative and easy to navigate and is responsible for a marked increase in new member enquiries.&nbsp; Julia at Synergy was extremely patient in teaching me how to&nbsp;manage the content&nbsp;going forward, providing fantastic support which continues to this day.</p>

</div>
  <div class = "name"><div class = "icon"><img class="img-circle" src="https://www.synergyweb.net/sites/default/files/sep-post.jpg" alt="" /></div><strong>Claire</strong><a href = "#" class = "no-border">, Saint Edmund Pacers</a>
  </div></div>
</div><div class="clearfix"></div></div>

    </div>
  </div>
  <div class="clearfix"></div>
    
  </div>
<div  style = 'padding-bottom: 25px;' class = 'respond-carousel carousel-box overflow load' data-carousel-autoplay = 'true' data-carousel-nav = 'false' data-carousel-one = 'true' data-duration = '1750'>
  <div class = "row">
    <div class="carousel">
      
<div><div  class = 'col-sm-12 col-md-12'>
<div  class = 'respond border'><div class = "description border-warning">
<p>I'm very happy with the modern eye-catching website design that Synergy have created for my business. Throughout the design process and afterwards they have provided, and continue to provide, excellent customer care and a no fuss service to make changes and solve any issues that arise.&nbsp;</p>

</div>
  <div class = "name"><div class = "icon"><img class="img-circle" src="https://www.synergyweb.net/sites/default/files/tt-post.jpg" alt="" /></div><strong>Helen Butler</strong><a href = "#" class = "no-border">, Thatched Farm B&B and Holiday Cottages</a>
  </div></div>
</div><div class="clearfix"></div></div>
<div><div  class = 'col-sm-12 col-md-12'>
<div  class = 'respond border'><div class = "description border-warning">
<p>I'm very happy with the modern eye-catching website design that Synergy have created for my business. Throughout the design process and afterwards they have provided, and continue to provide, excellent customer care and a no fuss service to make changes and solve any issues that arise.&nbsp;</p>

</div>
  <div class = "name"><div class = "icon"><img class="img-circle" src="https://www.synergyweb.net/sites/default/files/tt-post.jpg" alt="" /></div><strong>Helen Butler</strong><a href = "#" class = "no-border">, Thatched Farm B&B and Holiday Cottages</a>
  </div></div>
</div><div class="clearfix"></div></div>

    </div>
  </div>
  <div class="clearfix"></div>
    
  </div>
</div>
<div  style = 'padding-bottom: 76px;' class = 'col-sm-12 col-md-6'>
  <div id="block-views-latest-posts-block" class="widget block block-views " >
  
      <div class="title-box title-h2" >
      <a href="/blog" class="btn btn-default">All posts <i class="icon-arrow-right icon-white"></i></a>      <h2 class="title">Latest Posts</h2>
          </div>
  
  <div class = "block-content clearfix">
    <div class="view view-latest-posts view-id-latest_posts view-display-id-block view-dom-id-dd996bc1c438d0a23174a2932f4c29da">
        
  
  
          <ul class="latest-posts">          <li class=""><img data-appear-animation="rotateIn" class="image img-circle" src="https://www.synergyweb.net/sites/default/files/styles/blog_84x84/public/Light%20bulb%20snip.PNG?itok=31xppOwh" width="84" height="84" alt="" /> <div class="description">
  <a href="/blog/making-most-social-media">
    <strong></strong>    Are you making the most of Social Media? Social Media&nbsp;can help you reach new audiences and drive leads, traffic, and revenue  </a>
</div>
<div class="meta">
  <span>SynergyWeb</span>, 
  
  <span class="time">14.12.2018, 17:00:</span></div></li>
          <li class=""><img data-appear-animation="rotateIn" class="image img-circle" src="https://www.synergyweb.net/sites/default/files/styles/blog_84x84/public/Light%20bulb%20snip.PNG?itok=31xppOwh" width="84" height="84" alt="" /> <div class="description">
  <a href="/blog/customers-today-are-not-just-consumers">
    <strong></strong>    “Customers today are not just consumers; they are also creators, developing content and ideas — and encountering challenges —  </a>
</div>
<div class="meta">
  <span>SynergyWeb</span>, 
  
  <span class="time">27.10.2018, 17:53:</span></div></li>
          <li class=""><img data-appear-animation="rotateIn" class="image img-circle" src="https://www.synergyweb.net/sites/default/files/styles/blog_84x84/public/Valley%20Farm.PNG?itok=bmV4xSLp" width="84" height="84" alt="" /> <div class="description">
  <a href="/blog/valley-farm-online-booking">
    <strong></strong>    
Book your activities direct online with Valley Farm Equestrian's new online booking facility. www.valleyfarm.co.uk

   </a>
</div>
<div class="meta">
  <span>SynergyWeb</span>, 
  
  <span class="time">15.09.2018, 12:31:</span></div></li>
          <li class=""><img data-appear-animation="rotateIn" class="image img-circle" src="https://www.synergyweb.net/sites/default/files/styles/blog_84x84/public/Light%20bulb%20snip.PNG?itok=31xppOwh" width="84" height="84" alt="" /> <div class="description">
  <a href="/blog/e-marketing">
    <strong></strong>    Did you know that it costs seven times more to get a new customer than it does to get an existing customer's repeat business?  </a>
</div>
<div class="meta">
  <span>SynergyWeb</span>, 
  
  <span class="time">08.08.2018, 12:40:</span></div></li>
      </ul>  
  
  
  
  
  
  
</div>  </div>

  </div> <!-- /.block -->

</div>
</div>
</div>
 </div>    </div>

        </div>

  </div> <!-- /.block -->
                
                              </div>
                                    
          
                      
          
                      
          
                      
          
                      
          
                      
          
        </div>

      </div>

    
      </div>
    


      <footer  class="nd-region footer-top">
  
       

      <div class = "container">

        <div  id="Footer-Top" class="row">     

          
                      
          
                      
          
                                          <aside  class="col-xs-12 col-sm-6 col-md-3 " id="block-7">
                              
                                  <div id="block-block-7" class="widget block block-block " >
  
      <div class="title-box title-h3" >
            <h3 class="title">Follow Us</h3>
          </div>
  
  <div class = "block-content clearfix">
    <p>Follow us on social media</p>

<span class = "social"><a target="_blank" href="https://www.facebook.com/synergyweb.net/?fref=ts"  class = 'sbtnf sbtnf-rounded color color-hover icon-facebook'></a></span>
<span class = "social"><a target="_blank" href="https://twitter.com/synergyweb_net"  class = 'sbtnf sbtnf-rounded color color-hover icon-twitter'></a></span>
<span class = "social"><a target="_blank" href="https://aboutme.google.com/b/110850482221319275341/"  class = 'sbtnf sbtnf-rounded color color-hover icon-gplus'></a></span>
<span class = "social"><a target="_blank" href="https://www.linkedin.com/company/2578005?trk=NUS_CMPY_TWIT"  class = 'sbtnf sbtnf-rounded color color-hover icon-linkedin'></a></span>
   </div>

  </div> <!-- /.block -->
                
                              </aside>
                                    
          
                                          <aside  class="col-xs-12 col-sm-6 col-md-3 hidden-submit" id="block-8">
                              
                                  <div id="block-block-8" class="widget block block-block " >
  
      <div class="title-box title-h3" >
            <h3 class="title">Newsletter Signup</h3>
          </div>
  
  <div class = "block-content clearfix">
          <article id="node-37" class="node node-webform clearfix">
      <h2 class = "hidden">Newsletter Signup</h2>
    
    
    <div class="content clearfix node-webform">
      <form class="webform-client-form webform-client-form-37" enctype="multipart/form-data" action="/" method="post" id="webform-client-form-37" accept-charset="UTF-8"><div><div  class="form-item webform-component webform-component-display webform-component--sign-up">
 <p>Sign up for our newsletter</p>

 
</div>
<div  class="form-item webform-component webform-component-email webform-component--email">
  <label class="element-invisible" for="edit-submitted-email">Email <span class="form-required" title="This field is required.">*</span></label>
 <input required="required" class="email form-control form-control required form-text form-email required" type="email" id="edit-submitted-email" name="submitted[email]" size="60" />
</div>
<div  class="form-item webform-component webform-component-display webform-component--submit-icon">
 <button class="newsletter-submit"><span class="glyphicon glyphicon-arrow-right"></span></button>
</div>
<div class="a85e6_field"><span class="description"> (If you're a human, don't change the following field)</span><div class="form-type-textfield form-item-685-name form-item form-group">
  <label for="edit-685-name">Enter your name </label>
 <input class="a85e6_field form-control form-text form-control" autocomplete="off" type="text" id="edit-685-name" name="685_name" value="96c5eff396c" size="60" maxlength="128" />
<p class="help-block">Your first name.</p>
</div>
</div><noscript>Please enable Javascript to use this form.</noscript><div class="a4c27_field"><span class="description"> (If you're a human, don't change the following field)</span><div class="form-type-textfield form-item-a4c-name form-item form-group">
  <label for="edit-a4c-name">Enter your name </label>
 <input class="a4c27_field form-control form-text form-control" autocomplete="off" style="font-family: &quot;ace42e5d5125a532a_form&quot;" type="text" id="edit-a4c-name" name="a4c_name" value="827849e8274" size="60" maxlength="128" />
<p class="help-block">Your first name.</p>
</div>
</div><noscript>Please enable Javascript to use this form.</noscript><div class="ad30d_field"><span class="description"> (If you're a human, don't change the following field)</span><div class="form-type-textfield form-item-botcha form-item form-group">
  <label for="edit-botcha">Enter your name </label>
 <input class="ad30d_field form-control form-text form-control" autocomplete="off" type="text" id="edit-botcha" name="botcha" value="bc6c272cbc6" size="60" maxlength="128" />
<p class="help-block">Your first name.</p>
</div>
</div><noscript>Please enable Javascript to use this form.</noscript><input type="hidden" name="details[sid]" />
<input type="hidden" name="details[page_num]" value="1" />
<input type="hidden" name="details[page_count]" value="1" />
<input type="hidden" name="details[finished]" value="0" />
<input type="hidden" name="form_build_id" value="form-T5-FsN-HU160sFlb83iUa7rRzNsH5Kf7bFogUeHWvf0" />
<input type="hidden" name="form_id" value="webform_client_form_37" />
<input type="hidden" name="timegate" value="1575277455" />
<input class="ad30d_field" type="hidden" name="ed3_name" value="bc6c37272cbc6" />
<div class="form-actions"><input class="webform-submit button-primary btn form-submit" type="submit" name="op" value="Submit" /></div></div></form>    </div>

          </article> <!-- /.node -->
    </div>

  </div> <!-- /.block -->
                
                              </aside>
                                    
          
                                          <aside  class="col-xs-12 col-sm-6 col-md-3 " id="block-9">
                              
                                  <div id="block-block-9" class="widget block block-block " >
  
      <div class="title-box title-h3" >
            <h3 class="title">Information</h3>
          </div>
  
  <div class = "block-content clearfix">
    <nav>
<ul>
	<li><a href="/contact-us">Contact Us</a></li>
	<li><a href="/privacy-policy">Privacy Policy</a></li>
	<li><a href="/terms-conditions">Terms &amp; Conditions</a></li>
	<li><a href="/business-terms-conditions">Business Terms &amp; Conditions</a></li>
	<li><a href="/acceptable-use-policy">Acceptable use policy</a></li>
	<li><a href="/website-use-policy">Website use policy</a></li>
	<li><a href="/cookie-policy">Cookies policy</a></li>
</ul>
</nav>
  </div>

  </div> <!-- /.block -->
                
                              </aside>
                                    
          
                                          <aside  class="col-xs-12 col-sm-6 col-md-3 " id="block-10">
                              
                                  <div id="block-block-10" class="widget block block-block " >
  
      <div class="title-box title-h3" >
            <h3 class="title">Services</h3>
          </div>
  
  <div class = "block-content clearfix">
    <nav>
<ul>
	<li><a href="/website-design">Website Design</a></li>
	<li><a href="/web-hosting">Web Hosting</a></li>
	<li><a href="/internet-marketing">Internet Marketing</a></li>
	<li><a href="/#portfolio">Portfolio</a></li>
</ul>
</nav>
  </div>

  </div> <!-- /.block -->
                
                              </aside>
                                    
          
                      
          
        </div>

      </div>

    
      </footer>
    


      <footer  class="nd-region footer-bottom">
  
       

      <div class = "container">

        <div  id="Footer-Bottom" class="row">     

          
                      
          
                      
          
                      
          
                      
          
                      
          
                      
          
                                          <div  class="col-md-12 " id="progressive_cms-footer_copyright">
                              
                                  <div id="block-progressive-cms-footer-copyright" class="widget block block-progressive-cms" >
  
        
  <div class = "block-content clearfix">
    <div class="row">
  <div class="copyright col-xs-12 col-sm-3 col-md-3">
    Copyright © SynergyWeb, 2019  </div>

  <div class="phone col-xs-6 col-sm-3 col-md-3">
      </div>

  <div class="address col-xs-6 col-sm-3 col-md-3">
      </div>

  

  
  <a href="#" class="synergy-back-to-top" style="display: none;">
	<i class="fa fa-arrow-up"></i>
  </a>
  
 
  
</div>  </div>

  </div> <!-- /.block -->
                
                              </div>
                                    
          
        </div>

      </div>

    
      </footer>
    


  </div>

</div></div>  <script type="text/javascript" src="https://www.synergyweb.net/sites/all/modules/jquery_update/replace/jquery/2.1/jquery.min.js?v=2.1.4"></script>
<script type="text/javascript" src="https://www.synergyweb.net/misc/jquery.once.js?v=1.2"></script>
<script type="text/javascript" src="https://www.synergyweb.net/misc/drupal.js?q055rn"></script>
<script type="text/javascript" src="https://www.synergyweb.net/sites/all/modules/md_slider/js/jquery.touchwipe.js?q055rn"></script>
<script type="text/javascript" src="https://www.synergyweb.net/sites/all/modules/md_slider/js/modernizr.js?q055rn"></script>
<script type="text/javascript" src="https://www.synergyweb.net/sites/all/modules/md_slider/js/jquery.easing.js?q055rn"></script>
<script type="text/javascript" src="https://www.synergyweb.net/sites/all/modules/md_slider/js/md-slider.js?q055rn"></script>
<script type="text/javascript">
<!--//--><![CDATA[//><!--
(function($) {
      $(document).ready(function() {
          effectsIn = Drupal.settings.inEffects;
          effectsOut = Drupal.settings.outEffects;
          var options_1 = Drupal.settings.md_slider_options_1;$('#md-slider-1-block').mdSlider(options_1);
      });
    })(jQuery);
//--><!]]>
</script>
<script type="text/javascript" src="https://www.synergyweb.net/sites/all/modules/nikadevs_cms/js/jquery.mb.YTPlayer.js?q055rn"></script>
<script type="text/javascript">
<!--//--><![CDATA[//><!--
(function ($) {
  Drupal.behaviors.a89cb0e8650eff396c5 = {
    attach: function (context, settings) {
      $("input.a85e6_field").each(function() {
        f=$(this)[0];
        if (f.value.indexOf("96c5eff396c")==0){f.value="60"+f.value.substring(4)+"57b1c8c14bd77832e_form";}
      });
    }
  };
})(jQuery);
//--><!]]>
</script>
<script type="text/javascript">
<!--//--><![CDATA[//><!--
(function ($) {
  Drupal.behaviors.a89cb0e8650849e8274 = {
    attach: function (context, settings) {
      $("input.a4c27_field").each(function() {
        f=$(this)[0];
        tok2 = f.style.fontFamily;
        if(tok2.charAt(0) == "'" || tok2.charAt(0) == '"') tok2=tok2.substring(1, tok2.length-1);
        tok2=tok2.substring(1, tok2.length);
        if (f.value.indexOf("827849e827")==0){f.value="78"+f.value.substring(3)+tok2;}
      });
    }
  };
}(jQuery));
//--><!]]>
</script>
<script type="text/javascript">
<!--//--><![CDATA[//><!--
(function ($) {
  Drupal.behaviors.a89cb0e8650272cbc6c = {
    attach: function (context, settings) {
      $("input.ad30d_field").each(function() {
        f=$(this)[0];
        if (f.value.indexOf("bc6c27")==0){
          v=f.value.substring(4);
          $("#webform-client-form-37").get(0).setAttribute('action', '/?d30d_name=da'+v+'c37623e2fd699c808_form');
        }
      });
    }
  };
}(jQuery));
//--><!]]>
</script>
<script type="text/javascript" src="https://www.synergyweb.net/sites/all/modules/webform/js/webform.js?q055rn"></script>
<script type="text/javascript" src="https://www.synergyweb.net/sites/all/themes/progressive/js/bootstrap.min.js?q055rn"></script>
<script type="text/javascript" src="https://www.synergyweb.net/sites/all/themes/progressive/js/price-regulator/jshashtable-2.1_src.js?q055rn"></script>
<script type="text/javascript" src="https://www.synergyweb.net/sites/all/themes/progressive/js/price-regulator/jquery.numberformatter-1.2.3.js?q055rn"></script>
<script type="text/javascript" src="https://www.synergyweb.net/sites/all/themes/progressive/js/price-regulator/tmpl.js?q055rn"></script>
<script type="text/javascript" src="https://www.synergyweb.net/sites/all/themes/progressive/js/price-regulator/jquery.dependClass-0.1.js?q055rn"></script>
<script type="text/javascript" src="https://www.synergyweb.net/sites/all/themes/progressive/js/price-regulator/draggable-0.1.js?q055rn"></script>
<script type="text/javascript" src="https://www.synergyweb.net/sites/all/themes/progressive/js/price-regulator/jquery.slider.js?q055rn"></script>
<script type="text/javascript" src="https://www.synergyweb.net/sites/all/themes/progressive/js/jquery.carouFredSel-6.2.1-packed.js?q055rn"></script>
<script type="text/javascript" src="https://www.synergyweb.net/sites/all/themes/progressive/js/jquery.touchSwipe.min.js?q055rn"></script>
<script type="text/javascript" src="https://www.synergyweb.net/sites/all/themes/progressive/js/jquery.elevateZoom-3.0.8.min.js?q055rn"></script>
<script type="text/javascript" src="https://www.synergyweb.net/sites/all/themes/progressive/js/jquery.imagesloaded.min.js?q055rn"></script>
<script type="text/javascript" src="https://www.synergyweb.net/sites/all/themes/progressive/js/jquery.appear.js?q055rn"></script>
<script type="text/javascript" src="https://www.synergyweb.net/sites/all/themes/progressive/js/jquery.sparkline.min.js?q055rn"></script>
<script type="text/javascript" src="https://www.synergyweb.net/sites/all/themes/progressive/js/jquery.easypiechart.min.js?q055rn"></script>
<script type="text/javascript" src="https://www.synergyweb.net/sites/all/themes/progressive/js/jquery.easing.1.3.js?q055rn"></script>
<script type="text/javascript" src="https://www.synergyweb.net/sites/all/themes/progressive/js/jquery.fancybox.pack.js?q055rn"></script>
<script type="text/javascript" src="https://www.synergyweb.net/sites/all/themes/progressive/js/isotope.pkgd.min.js?q055rn"></script>
<script type="text/javascript" src="https://www.synergyweb.net/sites/all/themes/progressive/js/pixastic.custom.js?q055rn"></script>
<script type="text/javascript" src="https://www.synergyweb.net/sites/all/themes/progressive/js/jquery.knob.js?q055rn"></script>
<script type="text/javascript" src="https://www.synergyweb.net/sites/all/themes/progressive/js/jquery.stellar.min.js?q055rn"></script>
<script type="text/javascript" src="https://www.synergyweb.net/sites/all/themes/progressive/js/jquery.selectBox.min.js?q055rn"></script>
<script type="text/javascript" src="https://www.synergyweb.net/sites/all/themes/progressive/js/jquery.royalslider.min.js?q055rn"></script>
<script type="text/javascript" src="https://www.synergyweb.net/sites/all/themes/progressive/js/jquery.tubular.1.0.js?q055rn"></script>
<script type="text/javascript" src="https://www.synergyweb.net/sites/all/themes/progressive/js/country.js?q055rn"></script>
<script type="text/javascript" src="https://www.synergyweb.net/sites/all/themes/progressive/js/spin.min.js?q055rn"></script>
<script type="text/javascript" src="https://www.synergyweb.net/sites/all/themes/progressive/js/ladda.min.js?q055rn"></script>
<script type="text/javascript" src="https://www.synergyweb.net/sites/all/themes/progressive/js/masonry.pkgd.min.js?q055rn"></script>
<script type="text/javascript" src="https://www.synergyweb.net/sites/all/themes/progressive/js/morris.min.js?q055rn"></script>
<script type="text/javascript" src="https://www.synergyweb.net/sites/all/themes/progressive/js/raphael.min.js?q055rn"></script>
<script type="text/javascript" src="https://www.synergyweb.net/sites/all/themes/progressive/js/video.js?q055rn"></script>
<script type="text/javascript" src="https://www.synergyweb.net/sites/all/themes/progressive/js/livicons-customizer-1.4.js?q055rn"></script>
<script type="text/javascript" src="https://www.synergyweb.net/sites/all/themes/progressive/js/SmoothScroll.js?q055rn"></script>
<script type="text/javascript" src="https://www.synergyweb.net/sites/all/themes/progressive/js/jquery.mb.YTPlayer.js?q055rn"></script>
<script type="text/javascript" src="https://www.synergyweb.net/sites/all/themes/progressive/js/main.js?q055rn"></script>
<script type="text/javascript" src="https://www.synergyweb.net/sites/all/themes/progressive/js/drupal.js?q055rn"></script>
<script type="text/javascript" src="https://www.synergyweb.net/sites/all/themes/progressive/js/jquery-ui.effects.core.js?q055rn"></script>
<script type="text/javascript" src="https://www.synergyweb.net/sites/all/themes/progressive/progressive_sub/js/jquery.h5validate.js?q055rn"></script>
<script type="text/javascript" src="https://www.synergyweb.net/sites/all/themes/progressive/progressive_sub/js/vex.combined.min.js?q055rn"></script>
<script type="text/javascript" src="https://www.synergyweb.net/sites/all/themes/progressive/progressive_sub/js/modernizr-custom.js?q055rn"></script>
<script type="text/javascript" src="https://www.synergyweb.net/sites/all/themes/progressive/progressive_sub/js/jquery.custom.js?q055rn"></script>
<script type="text/javascript" src="https://www.synergyweb.net/sites/all/themes/progressive/progressive_sub/js/custom.js?q055rn"></script>
<script type="text/javascript" src="https://www.synergyweb.net/sites/all/themes/progressive/progressive_sub/js/jquery.divascookies-0.6.js?q055rn"></script>
<script type="text/javascript">
<!--//--><![CDATA[//><!--
jQuery.extend(Drupal.settings, {"basePath":"\/","pathPrefix":"","ajaxPageState":{"theme":"progressive_sub","theme_token":"WbtcRyFemL7J0MMKtDtBpDbFu0qmYlnUao2egLBlHUU","js":{"sites\/all\/modules\/jquery_update\/replace\/jquery\/2.1\/jquery.min.js":1,"misc\/jquery.once.js":1,"misc\/drupal.js":1,"sites\/all\/modules\/md_slider\/js\/jquery.touchwipe.js":1,"sites\/all\/modules\/md_slider\/js\/modernizr.js":1,"sites\/all\/modules\/md_slider\/js\/jquery.easing.js":1,"sites\/all\/modules\/md_slider\/js\/md-slider.js":1,"0":1,"sites\/all\/modules\/nikadevs_cms\/js\/jquery.mb.YTPlayer.js":1,"1":1,"2":1,"3":1,"sites\/all\/modules\/webform\/js\/webform.js":1,"sites\/all\/themes\/progressive\/js\/bootstrap.min.js":1,"sites\/all\/themes\/progressive\/js\/price-regulator\/jshashtable-2.1_src.js":1,"sites\/all\/themes\/progressive\/js\/price-regulator\/jquery.numberformatter-1.2.3.js":1,"sites\/all\/themes\/progressive\/js\/price-regulator\/tmpl.js":1,"sites\/all\/themes\/progressive\/js\/price-regulator\/jquery.dependClass-0.1.js":1,"sites\/all\/themes\/progressive\/js\/price-regulator\/draggable-0.1.js":1,"sites\/all\/themes\/progressive\/js\/price-regulator\/jquery.slider.js":1,"sites\/all\/themes\/progressive\/js\/jquery.carouFredSel-6.2.1-packed.js":1,"sites\/all\/themes\/progressive\/js\/jquery.touchSwipe.min.js":1,"sites\/all\/themes\/progressive\/js\/jquery.elevateZoom-3.0.8.min.js":1,"sites\/all\/themes\/progressive\/js\/jquery.imagesloaded.min.js":1,"sites\/all\/themes\/progressive\/js\/jquery.appear.js":1,"sites\/all\/themes\/progressive\/js\/jquery.sparkline.min.js":1,"sites\/all\/themes\/progressive\/js\/jquery.easypiechart.min.js":1,"sites\/all\/themes\/progressive\/js\/jquery.easing.1.3.js":1,"sites\/all\/themes\/progressive\/js\/jquery.fancybox.pack.js":1,"sites\/all\/themes\/progressive\/js\/isotope.pkgd.min.js":1,"sites\/all\/themes\/progressive\/js\/pixastic.custom.js":1,"sites\/all\/themes\/progressive\/js\/jquery.knob.js":1,"sites\/all\/themes\/progressive\/js\/jquery.stellar.min.js":1,"sites\/all\/themes\/progressive\/js\/jquery.selectBox.min.js":1,"sites\/all\/themes\/progressive\/js\/jquery.royalslider.min.js":1,"sites\/all\/themes\/progressive\/js\/jquery.tubular.1.0.js":1,"sites\/all\/themes\/progressive\/js\/country.js":1,"sites\/all\/themes\/progressive\/js\/spin.min.js":1,"sites\/all\/themes\/progressive\/js\/ladda.min.js":1,"sites\/all\/themes\/progressive\/js\/masonry.pkgd.min.js":1,"sites\/all\/themes\/progressive\/js\/morris.min.js":1,"sites\/all\/themes\/progressive\/js\/raphael.min.js":1,"sites\/all\/themes\/progressive\/js\/video.js":1,"sites\/all\/themes\/progressive\/js\/livicons-customizer-1.4.js":1,"sites\/all\/themes\/progressive\/js\/SmoothScroll.js":1,"sites\/all\/themes\/progressive\/js\/jquery.mb.YTPlayer.js":1,"sites\/all\/themes\/progressive\/js\/main.js":1,"sites\/all\/themes\/progressive\/js\/drupal.js":1,"sites\/all\/themes\/progressive\/js\/jquery-ui.effects.core.js":1,"sites\/all\/themes\/progressive\/progressive_sub\/js\/jquery.h5validate.js":1,"sites\/all\/themes\/progressive\/progressive_sub\/js\/vex.combined.min.js":1,"sites\/all\/themes\/progressive\/progressive_sub\/js\/modernizr-custom.js":1,"sites\/all\/themes\/progressive\/progressive_sub\/js\/jquery.custom.js":1,"sites\/all\/themes\/progressive\/progressive_sub\/js\/custom.js":1,"sites\/all\/themes\/progressive\/progressive_sub\/js\/jquery.divascookies-0.6.js":1},"css":{"modules\/system\/system.base.css":1,"modules\/system\/system.messages.css":1,"modules\/comment\/comment.css":1,"sites\/all\/modules\/date\/date_api\/date.css":1,"sites\/all\/modules\/date\/date_popup\/themes\/datepicker.1.7.css":1,"modules\/field\/theme\/field.css":1,"modules\/node\/node.css":1,"sites\/all\/modules\/ubercart\/uc_store\/uc_store.css":1,"modules\/user\/user.css":1,"sites\/all\/modules\/views\/css\/views.css":1,"sites\/all\/modules\/ckeditor\/css\/ckeditor.css":1,"sites\/all\/modules\/ctools\/css\/ctools.css":1,"sites\/all\/modules\/md_slider\/css\/animate.css":1,"sites\/all\/modules\/md_slider\/css\/md-slider.css":1,"0":1,"sites\/all\/modules\/md_slider\/css\/md-slider-style.css":1,"1":1,"https:\/\/fonts.googleapis.com\/css?family=Anton":1,"sites\/all\/modules\/nikadevs_cms\/css\/YTPlayer.css":1,"2":1,"3":1,"4":1,"sites\/all\/modules\/webform\/css\/webform.css":1,"https:\/\/fonts.googleapis.com\/css?family=Anton%7CFrancois+One%7CCourgette%7CVT323":1,"sites\/all\/themes\/progressive\/css\/buttons\/social-icons.css":1,"sites\/all\/themes\/progressive\/css\/buttons\/buttons.css":1,"sites\/all\/themes\/progressive\/css\/font-awesome.min.css":1,"sites\/all\/themes\/progressive\/css\/bootstrap.min.css":1,"sites\/all\/themes\/progressive\/css\/jslider.css":1,"sites\/all\/themes\/progressive\/css\/settings.css":1,"sites\/all\/themes\/progressive\/css\/jquery.fancybox.css":1,"sites\/all\/themes\/progressive\/css\/animate_progressive.css":1,"sites\/all\/themes\/progressive\/css\/video-js.min.css":1,"sites\/all\/themes\/progressive\/css\/morris.css":1,"sites\/all\/themes\/progressive\/css\/royalslider\/royalslider.css":1,"sites\/all\/themes\/progressive\/css\/royalslider\/skins\/minimal-white\/rs-minimal-white.css":1,"sites\/all\/themes\/progressive\/css\/layerslider\/layerslider.css":1,"sites\/all\/themes\/progressive\/css\/ladda.min.css":1,"sites\/all\/themes\/progressive\/css\/style.css":1,"sites\/all\/themes\/progressive\/css\/responsive.css":1,"sites\/all\/themes\/progressive\/css\/customizer\/pages.css":1,"sites\/all\/themes\/progressive\/css\/YTPlayer.css":1,"sites\/all\/themes\/progressive\/css\/drupal.css":1,"sites\/all\/themes\/progressive\/css\/ie\/ie.css":1,"sites\/all\/themes\/progressive\/progressive_sub\/css\/vex.css":1,"sites\/all\/themes\/progressive\/progressive_sub\/css\/vex-theme-wireframe.css":1,"sites\/all\/themes\/progressive\/progressive_sub\/css\/vex-theme-top.css":1,"sites\/all\/themes\/progressive\/progressive_sub\/css\/divascookies.css":1,"sites\/all\/themes\/progressive\/css\/customizer\/elements-pages-customizer.css":1,"sites\/all\/themes\/progressive\/progressive_sub\/css\/custom.css":1}},"inEffects":["bounceIn","bounceInDown","bounceInUp","bounceInLeft","bounceInRight","fadeIn","fadeInUp","fadeInDown","fadeInLeft","fadeInRight","fadeInUpBig","fadeInDownBig","fadeInLeftBig","fadeInRightBig","flipInX","flipInY","foolishIn","lightSpeedIn","puffIn","rollIn","rotateIn","rotateInDownLeft","rotateInDownRight","rotateInUpLeft","rotateInUpRight","twisterInDown","twisterInUp","swap","swashIn","tinRightIn","tinLeftIn","tinUpIn","tinDownIn","vanishIn"],"outEffects":["bombRightOut","bombLeftOut","bounceOut","bounceOutDown","bounceOutUp","bounceOutLeft","bounceOutRight","fadeOut","fadeOutUp","fadeOutDown","fadeOutLeft","fadeOutRight","fadeOutUpBig","fadeOutDownBig","fadeOutLeftBig","fadeOutRightBig","flipOutX","flipOutY","foolishOut","hinge","holeOut","lightSpeedOut","puffOut","rollOut","rotateOut","rotateOutDownLeft","rotateOutDownRight","rotateOutUpLeft","rotateOutUpRight","rotateDown","rotateUp","rotateLeft","rotateRight","swashOut","tinRightOut","tinLeftOut","tinUpOut","tinDownOut","vanishOut"],"md_slider_options_1":{"fullwidth":true,"transitionsSpeed":800,"width":"1200","height":"500","enableDrag":true,"responsive":true,"pauseOnHover":false,"loop":true,"showLoading":true,"loadingPosition":"top","showArrow":true,"showBullet":false,"posBullet":"5","showThumb":false,"posThumb":"1","slideShowDelay":"5000","slideShow":true,"styleBorder":"0","styleShadow":"0","videoBox":false},"urlIsAjaxTrusted":{"\/":true},"theme_path":"sites\/all\/themes\/progressive","progressive":{"mobile_menu_toggle":1},"ubercart_currency":"$"});
//--><!]]>
</script>
  
</body>
</html>