<!DOCTYPE html>
<html lang="en-US">
<head>
	<meta charset="UTF-8">
	<meta name="viewport" content="width=device-width, initial-scale=1, shrink-to-fit=no">
	<link rel="profile" href="https://gmpg.org/xfn/11">
	<link rel="icon" href="https://www.trackonomics.net/favicon.ico" type="image/x-icon"/>

	<title>Trackonomics | Affiliate Dashboard &amp; Content Analytics</title>

<!-- This site is optimized with the Yoast SEO plugin v12.4 - https://yoast.com/wordpress/plugins/seo/ -->
<meta name="description" content="Trackonomics empowers publishers with data and insight on how their affiliate content is performing. From aggregated reporting to click to sale attribution."/>
<meta name="robots" content="max-snippet:-1, max-image-preview:large, max-video-preview:-1"/>
<link rel="canonical" href="https://www.trackonomics.net/"/>
<meta property="og:locale" content="en_US"/>
<meta property="og:type" content="website"/>
<meta property="og:title" content="Trackonomics | Affiliate Dashboard &amp; Link Tracking"/>
<meta property="og:description" content="Automate, Consolidate &amp; Optimize for all Performance &amp; Affiliate Channels with the Trackonomics Affiliate Dashboard. Performance &amp; ROI Across Networks."/>
<meta property="og:url" content="https://www.trackonomics.net/"/>
<meta property="og:site_name" content="Trackonomics"/>
<meta property="og:image" content="https://www.trackonomics.net/wp-content/uploads/2019/04/trackonomics-logo-1200-x-630.jpg"/>
<meta property="og:image:secure_url" content="https://www.trackonomics.net/wp-content/uploads/2019/04/trackonomics-logo-1200-x-630.jpg"/>
<meta property="og:image:width" content="1200"/>
<meta property="og:image:height" content="630"/>
<meta name="twitter:card" content="summary_large_image"/>
<meta name="twitter:description" content="Automate, Consolidate &amp; Optimize for all Performance &amp; Affiliate Channels with the Trackonomics Affiliate Dashboard. Performance &amp; ROI Across Networks."/>
<meta name="twitter:title" content="Trackonomics | Affiliate Dashboard &amp; Link Tracking"/>
<meta name="twitter:site" content="@TrackonomicsLtd"/>
<meta name="twitter:image" content="https://www.trackonomics.net/wp-content/uploads/2019/04/trackonomics-logo-1024-x-512.jpg"/>
<meta name="twitter:creator" content="@TrackonomicsLtd"/>
<meta name="google-site-verification" content="bInzskhs_tFGmMKEhY7CO0mol1LGZd2kSO-qMwnaoV0"/>
<script type='application/ld+json' class='yoast-schema-graph yoast-schema-graph--main'>{"@context":"https://schema.org","@graph":[{"@type":"Organization","@id":"https://www.trackonomics.net/#organization","name":"Trackonomics","url":"https://www.trackonomics.net/","sameAs":["https://www.facebook.com/Trackonomics-Ltd-189823258626928/","https://www.linkedin.com/company/trackonomics","https://twitter.com/TrackonomicsLtd"],"logo":{"@type":"ImageObject","@id":"https://www.trackonomics.net/#logo","url":"https://www.trackonomics.net/wp-content/uploads/2019/07/Logo-01.png","width":3334,"height":950,"caption":"Trackonomics"},"image":{"@id":"https://www.trackonomics.net/#logo"}},{"@type":"WebSite","@id":"https://www.trackonomics.net/#website","url":"https://www.trackonomics.net/","name":"Trackonomics","publisher":{"@id":"https://www.trackonomics.net/#organization"},"potentialAction":{"@type":"SearchAction","target":"https://www.trackonomics.net/?s={search_term_string}","query-input":"required name=search_term_string"}},{"@type":"WebPage","@id":"https://www.trackonomics.net/#webpage","url":"https://www.trackonomics.net/","inLanguage":"en-US","name":"Trackonomics | Affiliate Dashboard &amp; Content Analytics","isPartOf":{"@id":"https://www.trackonomics.net/#website"},"about":{"@id":"https://www.trackonomics.net/#organization"},"datePublished":"2019-01-17T15:43:10+00:00","dateModified":"2019-10-29T13:08:11+00:00","description":"Trackonomics empowers publishers with data and insight on how their affiliate content is performing. From aggregated reporting to click to sale attribution."}]}</script>
<!-- / Yoast SEO plugin. -->

<link rel='dns-prefetch' href='//s0.wp.com'/>
<link rel='dns-prefetch' href='//s.w.org'/>
<link rel="alternate" type="application/rss+xml" title="Trackonomics &raquo; Feed" href="https://www.trackonomics.net/feed/"/>
<link rel="alternate" type="application/rss+xml" title="Trackonomics &raquo; Comments Feed" href="https://www.trackonomics.net/comments/feed/"/>
		<script type="text/javascript">window._wpemojiSettings={"baseUrl":"https:\/\/s.w.org\/images\/core\/emoji\/12.0.0-1\/72x72\/","ext":".png","svgUrl":"https:\/\/s.w.org\/images\/core\/emoji\/12.0.0-1\/svg\/","svgExt":".svg","source":{"concatemoji":"https:\/\/www.trackonomics.net\/wp-includes\/js\/wp-emoji-release.min.js?ver=5.2.4"}};!function(a,b,c){function d(a,b){var c=String.fromCharCode;l.clearRect(0,0,k.width,k.height),l.fillText(c.apply(this,a),0,0);var d=k.toDataURL();l.clearRect(0,0,k.width,k.height),l.fillText(c.apply(this,b),0,0);var e=k.toDataURL();return d===e}function e(a){var b;if(!l||!l.fillText)return!1;switch(l.textBaseline="top",l.font="600 32px Arial",a){case"flag":return!(b=d([55356,56826,55356,56819],[55356,56826,8203,55356,56819]))&&(b=d([55356,57332,56128,56423,56128,56418,56128,56421,56128,56430,56128,56423,56128,56447],[55356,57332,8203,56128,56423,8203,56128,56418,8203,56128,56421,8203,56128,56430,8203,56128,56423,8203,56128,56447]),!b);case"emoji":return b=d([55357,56424,55356,57342,8205,55358,56605,8205,55357,56424,55356,57340],[55357,56424,55356,57342,8203,55358,56605,8203,55357,56424,55356,57340]),!b}return!1}function f(a){var c=b.createElement("script");c.src=a,c.defer=c.type="text/javascript",b.getElementsByTagName("head")[0].appendChild(c)}var g,h,i,j,k=b.createElement("canvas"),l=k.getContext&&k.getContext("2d");for(j=Array("flag","emoji"),c.supports={everything:!0,everythingExceptFlag:!0},i=0;i<j.length;i++)c.supports[j[i]]=e(j[i]),c.supports.everything=c.supports.everything&&c.supports[j[i]],"flag"!==j[i]&&(c.supports.everythingExceptFlag=c.supports.everythingExceptFlag&&c.supports[j[i]]);c.supports.everythingExceptFlag=c.supports.everythingExceptFlag&&!c.supports.flag,c.DOMReady=!1,c.readyCallback=function(){c.DOMReady=!0},c.supports.everything||(h=function(){c.readyCallback()},b.addEventListener?(b.addEventListener("DOMContentLoaded",h,!1),a.addEventListener("load",h,!1)):(a.attachEvent("onload",h),b.attachEvent("onreadystatechange",function(){"complete"===b.readyState&&c.readyCallback()})),g=c.source||{},g.concatemoji?f(g.concatemoji):g.wpemoji&&g.twemoji&&(f(g.twemoji),f(g.wpemoji)))}(window,document,window._wpemojiSettings);</script>
		<style type="text/css">img.wp-smiley,img.emoji{display:inline!important;border:none!important;box-shadow:none!important;height:1em!important;width:1em!important;margin:0 .07em!important;vertical-align:-.1em!important;background:none!important;padding:0!important}</style>
	<link rel='stylesheet' id='wp-block-library-css' href='https://www.trackonomics.net/wp-includes/css/dist/block-library/style.min.css?ver=5.2.4' type='text/css' media='all'/>
<link rel='stylesheet' id='contact-form-7-css' href='https://www.trackonomics.net/wp-content/plugins/contact-form-7/includes/css/styles.css?ver=5.1.4' type='text/css' media='all'/>
<link rel='stylesheet' id='homepage-style-css' href='https://www.trackonomics.net/wp-content/themes/trackonomics-redesign/dist/css/homepage.css?ver=1554215521' type='text/css' media='all'/>
<link rel='stylesheet' id='zcffront-jquery-ui-css' href='https://www.trackonomics.net/wp-content/plugins/zoho-crm-forms/assets/css/jquery-ui.css?ver=5.2.4' type='text/css' media='all'/>
<link rel='stylesheet' id='zcffront-end-styles-css' href='https://www.trackonomics.net/wp-content/plugins/zoho-crm-forms/assets/css/frontendstyles.css?ver=5.2.4' type='text/css' media='all'/>
<link rel='stylesheet' id='jetpack_css-css' href='https://www.trackonomics.net/wp-content/plugins/jetpack/css/jetpack.css?ver=7.9.1' type='text/css' media='all'/>
<script type='text/javascript' src='https://www.trackonomics.net/wp-includes/js/jquery/jquery.js?ver=1.12.4-wp'></script>
<script type='text/javascript' src='https://www.trackonomics.net/wp-includes/js/jquery/jquery-migrate.min.js?ver=1.4.1'></script>
<script type='text/javascript' src='https://www.trackonomics.net/wp-includes/js/jquery/ui/core.min.js?ver=1.11.4'></script>
<script type='text/javascript' src='https://www.trackonomics.net/wp-includes/js/jquery/ui/datepicker.min.js?ver=1.11.4'></script>
<script type='text/javascript'>jQuery(document).ready(function(jQuery){jQuery.datepicker.setDefaults({"closeText":"Close","currentText":"Today","monthNames":["January","February","March","April","May","June","July","August","September","October","November","December"],"monthNamesShort":["Jan","Feb","Mar","Apr","May","Jun","Jul","Aug","Sep","Oct","Nov","Dec"],"nextText":"Next","prevText":"Previous","dayNames":["Sunday","Monday","Tuesday","Wednesday","Thursday","Friday","Saturday"],"dayNamesShort":["Sun","Mon","Tue","Wed","Thu","Fri","Sat"],"dayNamesMin":["S","M","T","W","T","F","S"],"dateFormat":"MM d, yy","firstDay":1,"isRTL":false});});</script>
<script type='text/javascript' src='https://www.trackonomics.net/wp-content/plugins/zoho-crm-forms/assets/js/moment-with-locales.js?ver=1.6.9.6'></script>
<link rel='https://api.w.org/' href='https://www.trackonomics.net/wp-json/'/>
<link rel="EditURI" type="application/rsd+xml" title="RSD" href="https://www.trackonomics.net/xmlrpc.php?rsd"/>
<link rel="wlwmanifest" type="application/wlwmanifest+xml" href="https://www.trackonomics.net/wp-includes/wlwmanifest.xml"/> 
<meta name="generator" content="WordPress 5.2.4"/>
<link rel='shortlink' href='https://www.trackonomics.net/'/>
<link rel="alternate" type="application/json+oembed" href="https://www.trackonomics.net/wp-json/oembed/1.0/embed?url=https%3A%2F%2Fwww.trackonomics.net%2F"/>
<link rel="alternate" type="text/xml+oembed" href="https://www.trackonomics.net/wp-json/oembed/1.0/embed?url=https%3A%2F%2Fwww.trackonomics.net%2F&#038;format=xml"/>
<style type='text/css'>img#wpstats{display:none}</style><link rel="icon" href="https://www.trackonomics.net/wp-content/uploads/2019/03/favicon-96x96.png" sizes="32x32"/>
<link rel="icon" href="https://www.trackonomics.net/wp-content/uploads/2019/03/favicon-96x96.png" sizes="192x192"/>
<link rel="apple-touch-icon-precomposed" href="https://www.trackonomics.net/wp-content/uploads/2019/03/favicon-96x96.png"/>
<meta name="msapplication-TileImage" content="https://www.trackonomics.net/wp-content/uploads/2019/03/favicon-96x96.png"/>

<!-- Google Tag Manager -->
<script>(function(w,d,s,l,i){w[l]=w[l]||[];w[l].push({'gtm.start':new Date().getTime(),event:'gtm.js'});var f=d.getElementsByTagName(s)[0],j=d.createElement(s),dl=l!='dataLayer'?'&l='+l:'';j.async=true;j.src='https://www.googletagmanager.com/gtm.js?id='+i+dl;f.parentNode.insertBefore(j,f);})(window,document,'script','dataLayer','GTM-TVRNTNZ');</script>
<!-- End Google Tag Manager -->

</head>

<body class="home page-template page-template-page-templates page-template-homepage page-template-page-templateshomepage-php page page-id-9 wp-custom-logo unknown desktop-device">

<!-- Google Tag Manager (noscript) -->
<noscript><iframe src="https://www.googletagmanager.com/ns.html?id=GTM-TVRNTNZ" height="0" width="0" style="display:none;visibility:hidden"></iframe></noscript>
<!-- End Google Tag Manager (noscript) -->

<div id="page" class="site">

	<a class="skip-link screen-reader-text" href="#content">Skip to content</a>

	<header id="site-header" class="site-header fixed">
		<div class="container">
			<div class="inner">

				<div class="logo-wrapper position-center">

					<a class="custom-logo-link" href="/" rel="home">
						<img class="custom-logo d-none d-md-block" src="https://www.trackonomics.net/wp-content/themes/trackonomics-redesign/dist/images/trackonomics-logo.png" alt="Logo"/>

						<img class="custom-logo d-md-none" src="https://www.trackonomics.net/wp-content/themes/trackonomics-redesign/dist/images/trackonomics-logo-phone.png" alt="Phone Logo"/>
					</a>

				</div>

				<div class="menu-wrapper position-right">
					<nav id="site-navigation" class="top-navigation" role="navigation">
	<button class="menu-toggle">
		<span class="line"></span>
		<span class="line"></span>
		<span class="line"></span>
	</button>
	<div class="menu-header-menu-center-container"><ul id="top-menu-center" class="menu nav-menu clearfix"><li id="menu-item-111" class="menu-item menu-item-type-post_type menu-item-object-page menu-item-has-children menu-first-child menu-item-111"><a href="https://www.trackonomics.net/what-we-do/">Product</a>
<ul class="sub-menu">
	<li id="menu-item-110" class="menu-item menu-item-type-post_type menu-item-object-page menu-item-110"><a href="https://www.trackonomics.net/what-we-do/">What We Do</a></li>
	<li id="menu-item-1223" class="menu-item menu-item-type-post_type menu-item-object-page menu-item-1223"><a href="https://www.trackonomics.net/affiliate-dashboard/">Affiliate Dashboard</a></li>
	<li id="menu-item-1246" class="menu-item menu-item-type-post_type menu-item-object-page menu-item-1246"><a href="https://www.trackonomics.net/link-scanner/">Link Scanner</a></li>
	<li id="menu-item-1287" class="menu-item menu-item-type-post_type menu-item-object-page menu-item-1287"><a href="https://www.trackonomics.net/funnel-relay/">Content Analytics</a></li>
	<li id="menu-item-1336" class="menu-item menu-item-type-post_type menu-item-object-page menu-item-1336"><a href="https://www.trackonomics.net/link-generation-extension/">Link Generation</a></li>
</ul>
</li>
<li id="menu-item-1165" class="menu-item menu-item-type-post_type menu-item-object-page menu-item-1165"><a href="https://www.trackonomics.net/integrations/">Integrations</a></li>
<li id="menu-item-1168" class="menu-item menu-item-type-post_type menu-item-object-page menu-item-has-children menu-item-1168"><a href="https://www.trackonomics.net/our-clients/">Company</a>
<ul class="sub-menu">
	<li id="menu-item-1171" class="menu-item menu-item-type-post_type menu-item-object-page menu-item-1171"><a href="https://www.trackonomics.net/our-clients/">Our Clients</a></li>
	<li id="menu-item-1169" class="menu-item menu-item-type-post_type menu-item-object-page menu-item-1169"><a href="https://www.trackonomics.net/careers/">Careers</a></li>
</ul>
</li>
<li id="menu-item-305" class="menu-item menu-item-type-post_type menu-item-object-page menu-item-305"><a href="https://www.trackonomics.net/blogonomics-trackonomics-blog/">Blog</a></li>
<li id="menu-item-303" class="menu-item menu-item-type-custom menu-item-object-custom current-menu-item current_page_item menu-last-child menu-item-303"><a href="/#contact-us" aria-current="page">Contact</a></li>
</ul></div><div class="menu-header-menu-right-container"><ul id="top-menu-right" class="menu clearfix"><li id="menu-item-556" class="menu-item menu-item-type-custom menu-item-object-custom menu-first-child menu-last-child menu-item-556"><a href="#">Start Free Trial</a></li>
</ul></div></nav>
				</div>

			</div>
		</div>
	</header><!-- #site-header -->

	<div id="content" class="site-content">

<div id="primary" class="content-area">
    <main id="main" class="site-main clearfix">

        
<div class="social-icons">
            <nav class="social-navigation">
                            <span class="social-item">
                            <a href="https://www.linkedin.com/company/trackonomics/" target="_blank"><svg xmlns="http://www.w3.org/2000/svg" viewBox="0 0 33.95 33.95"><g data-name="Layer 2"><g data-name="Layer 1"><circle cx="16.975" cy="16.975" r="16.475" fill="none" stroke="#fff"/><path d="M23.18 18.216v4.386h-2.543V18.51c0-1.028-.368-1.73-1.288-1.73a1.391 1.391 0 0 0-1.305.93 1.74 1.74 0 0 0-.084.62v4.272h-2.544s.035-6.93 0-7.649h2.544v1.085l-.017.024h.017v-.024a2.525 2.525 0 0 1 2.292-1.264c1.673 0 2.928 1.093 2.928 3.442zm-10.424-6.95a1.325 1.325 0 1 0-.034 2.644h.017a1.326 1.326 0 1 0 .017-2.644zm-1.289 11.336h2.543v-7.649h-2.543z" fill="#fff"/></g></g></svg>
</a>
                        </span>
                                        <span class="social-item">
                            <a href="https://www.facebook.com/Trackonomics-Ltd-189823258626928" target="_blank"><svg xmlns="http://www.w3.org/2000/svg" viewBox="0 0 33.95 33.95"><g data-name="Layer 2"><g data-name="Layer 1"><circle cx="16.975" cy="16.975" r="16.475" fill="none" stroke="#fff"/><path d="M20.456 10.053l-1.806-.002a3.172 3.172 0 0 0-3.34 3.427v1.58h-1.816a.284.284 0 0 0-.284.285v2.29a.284.284 0 0 0 .284.284h1.816v5.778a.284.284 0 0 0 .284.284h2.37a.284.284 0 0 0 .283-.284v-5.778h2.123a.284.284 0 0 0 .284-.284l.001-2.29a.284.284 0 0 0-.284-.284h-2.124v-1.34c0-.644.154-.97.992-.97l1.217-.001a.284.284 0 0 0 .284-.284v-2.127a.284.284 0 0 0-.284-.284z" fill="#fff"/></g></g></svg>
</a>
                        </span>
                                        <span class="social-item">
                            <a href="https://twitter.com/TrackonomicsLtd" target="_blank"><svg xmlns="http://www.w3.org/2000/svg" viewBox="0 0 33.95 33.95"><g data-name="Layer 2"><g data-name="Layer 1"><circle cx="16.975" cy="16.975" r="16.475" fill="none" stroke="#fff"/><path d="M24.477 12.888a6.147 6.147 0 0 1-1.768.485 3.09 3.09 0 0 0 1.353-1.702 6.206 6.206 0 0 1-1.956.747 3.08 3.08 0 0 0-5.244 2.806 8.738 8.738 0 0 1-6.344-3.216 3.081 3.081 0 0 0 .953 4.109 3.078 3.078 0 0 1-1.394-.386v.038a3.08 3.08 0 0 0 2.468 3.018 3.117 3.117 0 0 1-.81.108 2.955 2.955 0 0 1-.58-.057 3.08 3.08 0 0 0 2.874 2.137 6.175 6.175 0 0 1-3.822 1.316 6.538 6.538 0 0 1-.734-.043 8.75 8.75 0 0 0 13.474-7.371l-.01-.399a6.148 6.148 0 0 0 1.54-1.59z" fill="#fff"/></g></g></svg>
</a>
                        </span>
                    </nav>
    </div>

        
<div class="hero-section">

	<div class="title-wrapper">
				<h1>Use Data to Grow Your Affiliates</h1>

		<a class="trial-button magnific-popup-button" href="#">Free Trial</a>
	</div>

	<div class="graphic yellow-chart" id="chart-container">
		<canvas class="chart" id="chartYellow"></canvas>
	</div>

	<div class="graphic blue-chart" id="chart-container">
		<canvas class="chart" id="chartBlue"></canvas>
	</div>

<!-- 	<div class="scroll">
		<div class="vr">&nbsp;</div>
		Scroll
	</div> -->

</div>




        
    <section id="boxed" class="boxed-elements">
        <div class="container">
            <div class="row">
                                                        <div class="column col-12 col-sm-6 col-lg-3">
                        <a id="box-link" class="box-wrap" href="https://www.trackonomics.net/affiliate-dashboard/#">
                            <div class="box-title">Data Consolidation</div>
                            <div id="circled" class="animated-elem"> </div>                            <div class="description"><span>Pull data from all your affiliate networks into one simple dashboard</span></div>

                            <div class="box-arrow"></div>
                        </a>
                    </div>

                                                        <div class="column col-12 col-sm-6 col-lg-3">
                        <a id="box-link" class="box-wrap" href="https://www.trackonomics.net/link-scanner/#">
                            <div class="box-title">Link Scanner</div>
                            <div id="diamond" class="animated-elem"> </div>                            <div class="description"><span>Prevent lost sales from broken links with our automatic link scanner</span></div>

                            <div class="box-arrow"></div>
                        </a>
                    </div>

                                                        <div class="column col-12 col-sm-6 col-lg-3">
                        <a id="box-link" class="box-wrap" href="https://www.trackonomics.net/funnel-relay/#">
                            <div class="box-title">Content Analytics</div>
                            <div id="multiple-circled" class="animated-elem"> </div>                            <div class="description"><span>Discover the value of your content right down to the page level</span></div>

                            <div class="box-arrow"></div>
                        </a>
                    </div>

                                                        <div class="column col-12 col-sm-6 col-lg-3">
                        <a id="box-link" class="box-wrap" href="https://www.trackonomics.net/link-generation-extension/#">
                            <div class="box-title">Link Generation</div>
                            <div id="windowed" class="animated-elem"> </div>                            <div class="description"><span>Create all your affiliate links in one place & use our product search feature</span></div>

                            <div class="box-arrow"></div>
                        </a>
                    </div>

                            </div>
        </div>
    </section>

        
<section class="white-section">

    <div class="container">
        <div class="row">
            <div class="ws-dots-animation">
                <svg xmlns="http://www.w3.org/2000/svg" viewBox="0 0 120.5 120.5">
                    <defs>
                        <style>.cls-1{fill:none;stroke:#e8e8e8;stroke-width:5px}.cls-2{fill:#304ffe}</style>
                    </defs>
                    <title>Dots Animation SVG</title>
                    <g id="Layer_2" data-name="Layer 2">
                        <g id="Layer_1-2" data-name="Layer 1">
                            <line id="line-8" class="cls-1" x1="52.34043" y1="52.34043" x2="27.3669" y2="27.3669"/>
                            <circle id="circle-8" class="cls-2" cx="21.53613" cy="21.53613" r="5.5"/>
                            <line id="line-7" class="cls-1" x1="49.25" y1="60.25" x2="13.75" y2="60.25"/>
                            <circle id="circle-7" class="cls-2" cx="5.5" cy="60.25" r="5.5"/>
                            <line id="line-6" class="cls-1" x1="52.56367" y1="67.93634" x2="27.36704" y2="93.13297"/>
                            <circle id="circle-6" class="cls-2" cx="21.53613" cy="98.96387" r="5.5"/>
                            <line id="line-5" class="cls-1" x1="60.25" y1="71.07471" x2="60.25" y2="106.75"/>
                            <circle id="circle-5" class="cls-2" cx="60.25" cy="115" r="5.5"/>
                            <line id="line-4" class="cls-1" x1="67.93265" y1="67.93265" x2="93.13297" y2="93.13297"/>
                            <circle id="circle-4" class="cls-2" cx="98.96387" cy="98.96387" r="5.5"/>
                            <line id="line-3" class="cls-1" x1="71.25" y1="60.25" x2="106.75" y2="60.25"/>
                            <circle id="circle-3" class="cls-2" cx="115" cy="60.25" r="5.5"/>
                            <line id="line-2" class="cls-1" x1="68.11106" y1="52.38895" x2="93.13297" y2="27.36704"/>
                            <circle id="circle-2" class="cls-2" cx="98.96387" cy="21.53613" r="5.5"/>
                            <line id="line-1" class="cls-1" x1="60.25" y1="13.75" x2="60.25" y2="49.07423"/>
                            <circle id="circle-1" class="cls-2" cx="60.25" cy="5.5" r="5.5"/>
                            <circle id="Circle-center" class="cls-2" cx="60.25" cy="60.07447" r="5.5"/>
                        </g>
                    </g>
                </svg>
            </div>
            <div class="ws-about">
                    <h2 class="ws-title">
                        Trusted by the World’s Largest Publishers                    </h2>

                    <p class="ws-description">
                        More and more publishers are using Trackonomics to monetize their content and maximize their affiliate marketing revenue                     </p>
            </div>

                            <div class="ws-slider">
                                            <div class="ws-img">
                            <img src="https://www.trackonomics.net/wp-content/uploads/2019/02/homepage-01_uber_logo.png"/>
                        </div>
                                            <div class="ws-img">
                            <img src="https://www.trackonomics.net/wp-content/uploads/2019/02/homepage-02_buzzfeed_logo.png"/>
                        </div>
                                            <div class="ws-img">
                            <img src="https://www.trackonomics.net/wp-content/uploads/2019/10/homepage-03_conde_nast_logo-1.png"/>
                        </div>
                                            <div class="ws-img">
                            <img src="https://www.trackonomics.net/wp-content/uploads/2019/02/homepage-04_meredith_corporation_logo.png"/>
                        </div>
                                            <div class="ws-img">
                            <img src="https://www.trackonomics.net/wp-content/uploads/2019/02/homepage-05_asos_logo.png"/>
                        </div>
                                            <div class="ws-img">
                            <img src="https://www.trackonomics.net/wp-content/uploads/2019/02/homepage-06_acceleration_logo.png"/>
                        </div>
                                            <div class="ws-img">
                            <img src="https://www.trackonomics.net/wp-content/uploads/2019/09/cnet-logo-1.png"/>
                        </div>
                                            <div class="ws-img">
                            <img src="https://www.trackonomics.net/wp-content/uploads/2019/09/vox-logo-1.png"/>
                        </div>
                                            <div class="ws-img">
                            <img src="https://www.trackonomics.net/wp-content/uploads/2019/04/Green-Logotype-2x.png"/>
                        </div>
                                            <div class="ws-img">
                            <img src="https://www.trackonomics.net/wp-content/uploads/2019/02/homepage-07_gizmodo_logo.png"/>
                        </div>
                                            <div class="ws-img">
                            <img src="https://www.trackonomics.net/wp-content/uploads/2019/09/discovery-logo.png"/>
                        </div>
                                            <div class="ws-img">
                            <img src="https://www.trackonomics.net/wp-content/uploads/2019/02/homepage-08_news_uk_logo.png"/>
                        </div>
                                            <div class="ws-img">
                            <img src="https://www.trackonomics.net/wp-content/uploads/2019/02/homepage-09_the_times_logo.png"/>
                        </div>
                                            <div class="ws-img">
                            <img src="https://www.trackonomics.net/wp-content/uploads/2019/02/homepage-10_cnn_logo.png"/>
                        </div>
                                            <div class="ws-img">
                            <img src="https://www.trackonomics.net/wp-content/uploads/2019/02/homepage-11_daily_beast_logo.png"/>
                        </div>
                                            <div class="ws-img">
                            <img src="https://www.trackonomics.net/wp-content/uploads/2019/02/homepage-12_business_insider_logo.png"/>
                        </div>
                                            <div class="ws-img">
                            <img src="https://www.trackonomics.net/wp-content/uploads/2019/02/homepage-13_american_media_inc_logo.png"/>
                        </div>
                                            <div class="ws-img">
                            <img src="https://www.trackonomics.net/wp-content/uploads/2019/02/homepage-14_the_sun_logo.png"/>
                        </div>
                                            <div class="ws-img">
                            <img src="https://www.trackonomics.net/wp-content/uploads/2019/02/homepage-15_independent_logo.png"/>
                        </div>
                                            <div class="ws-img">
                            <img src="https://www.trackonomics.net/wp-content/uploads/2019/02/homepage-16_evening_standard_logo.png"/>
                        </div>
                                            <div class="ws-img">
                            <img src="https://www.trackonomics.net/wp-content/uploads/2019/02/homepage-17_honey_logo.png"/>
                        </div>
                                            <div class="ws-img">
                            <img src="https://www.trackonomics.net/wp-content/uploads/2019/02/homepage-18_vertical_scope_logo.png"/>
                        </div>
                                            <div class="ws-img">
                            <img src="https://www.trackonomics.net/wp-content/uploads/2019/02/homepage-19_sparheld_logo.png"/>
                        </div>
                                            <div class="ws-img">
                            <img src="https://www.trackonomics.net/wp-content/uploads/2019/02/homepage-20_ve_logo.png"/>
                        </div>
                                            <div class="ws-img">
                            <img src="https://www.trackonomics.net/wp-content/uploads/2019/09/elpais-logo.png"/>
                        </div>
                                            <div class="ws-img">
                            <img src="https://www.trackonomics.net/wp-content/uploads/2019/09/syte-logo-1.png"/>
                        </div>
                                            <div class="ws-img">
                            <img src="https://www.trackonomics.net/wp-content/uploads/2019/09/xcaret-logo.png"/>
                        </div>
                                            <div class="ws-img">
                            <img src="https://www.trackonomics.net/wp-content/uploads/2019/09/21buttons-logo-1.png"/>
                        </div>
                                            <div class="ws-img">
                            <img src="https://www.trackonomics.net/wp-content/uploads/2019/09/coupilia-logo-1.png"/>
                        </div>
                                            <div class="ws-img">
                            <img src="https://www.trackonomics.net/wp-content/uploads/2019/09/burda-logo.png"/>
                        </div>
                                            <div class="ws-img">
                            <img src="https://www.trackonomics.net/wp-content/uploads/2019/10/gamespot_logo-1.png"/>
                        </div>
                                            <div class="ws-img">
                            <img src="https://www.trackonomics.net/wp-content/uploads/2019/10/piggy_logo-1.png"/>
                        </div>
                                    </div>
            
        </div>
    </div>

</section>

        
    <section class="quotes-slideshow parallax-window" data-parallax="scroll" data-image-src="https://www.trackonomics.net/wp-content/uploads/2019/03/quotes-hero.jpg">
        <div class="container">
            <div class="row">
                <div class="slider__wrap">
                                            <div class="slick-slide slider__quote">
                            <div class="slider__quote-content">
                                <img class="company-logo" src=""/>

                                <div class="slider__text-wrapper">
                                    <div class="quote">"I've never seen anything that can hold a candle to Trackonomics. This is next level."</div>
                                    <div class="author">— KYLE MURPHY, DIRECTOR, AFFILIATE MARKETING & ECOMMERCE, ANDROID AUTHORITY</div>
                                </div>
                            </div>
                        </div>

                                            <div class="slick-slide slider__quote">
                            <div class="slider__quote-content">
                                <img class="company-logo" src="https://www.trackonomics.net/wp-content/uploads/2019/03/quote_ami.png"/>

                                <div class="slider__text-wrapper">
                                    <div class="quote">"Trackonomics removes the guesswork from our affiliate marketing."</div>
                                    <div class="author">— KARA KAMENEC, SENIOR DIRECTOR E-COMMERCE, AMERICAN MEDIA INC.</div>
                                </div>
                            </div>
                        </div>

                                            <div class="slick-slide slider__quote">
                            <div class="slider__quote-content">
                                <img class="company-logo" src="https://www.trackonomics.net/wp-content/uploads/2019/03/quote_accelerationpartner.png"/>

                                <div class="slider__text-wrapper">
                                    <div class="quote">"Trackonomics are creating the Bloomberg Terminal of Affiliate Marketing."</div>
                                    <div class="author">— ROBERT GLAZER, FOUNDER, ACCELERATION PARTNERS</div>
                                </div>
                            </div>
                        </div>

                                            <div class="slick-slide slider__quote">
                            <div class="slider__quote-content">
                                <img class="company-logo" src="https://www.trackonomics.net/wp-content/uploads/2019/03/quote-buzzfeed.png"/>

                                <div class="slider__text-wrapper">
                                    <div class="quote">"Trackonomics is building a business intelligence tool that will jumpstart a new era of affiliate marketing."</div>
                                    <div class="author">— NILLA ALI, HEAD OF AFFILIATES, BUZZFEED</div>
                                </div>
                            </div>
                        </div>

                                    </div>
            </div>
        </div>
    </section>

        
<section class="track-tools">
    <div class="container">
        <div class="row">
            <div class="definition col-12 col-lg-4"><p>Empowering publishers with data and insight about how their affiliate content is performing</p></div>

                            <div class="col-12 col-lg-8">
                    <div class="row">
                                                    
                            <div class="tool-wrap col-12 col-sm-6 col-lg-4">
                                <div class="tool">
                                    <div class="tool-icon">
                                        <img src="https://www.trackonomics.net/wp-content/uploads/2019/01/lan.svg" alt=""/>
                                    </div>

                                    <div class="tool-info">
                                        <p>Affiliate Dashboard</p>

                                        <span>Consolidate data from multiple platforms and view it all in one simple dashboard</span>
                                    </div>
                                </div>

                            </div>
                                                    
                            <div class="tool-wrap col-12 col-sm-6 col-lg-4">
                                <div class="tool">
                                    <div class="tool-icon">
                                        <img src="https://www.trackonomics.net/wp-content/uploads/2019/01/bell.svg" alt=""/>
                                    </div>

                                    <div class="tool-info">
                                        <p>Affiliate Reporting</p>

                                        <span>Save hours of manual reporting with custom reports sent straight to your inbox</span>
                                    </div>
                                </div>

                            </div>
                                                    
                            <div class="tool-wrap col-12 col-sm-6 col-lg-4">
                                <div class="tool">
                                    <div class="tool-icon">
                                        <img src="https://www.trackonomics.net/wp-content/uploads/2019/01/shuffle-variant.svg" alt=""/>
                                    </div>

                                    <div class="tool-info">
                                        <p>Data Export</p>

                                        <span>Export your data to any tool you want with connectors for GDS, Tableau and more</span>
                                    </div>
                                </div>

                            </div>
                                                    
                            <div class="tool-wrap col-12 col-sm-6 col-lg-4">
                                <div class="tool">
                                    <div class="tool-icon">
                                        <img src="https://www.trackonomics.net/wp-content/uploads/2019/01/auto-fix.svg" alt=""/>
                                    </div>

                                    <div class="tool-info">
                                        <p>Article Level Data</p>

                                        <span>Click to sale attribution showing you how each piece of content is performing</span>
                                    </div>
                                </div>

                            </div>
                                                    
                            <div class="tool-wrap col-12 col-sm-6 col-lg-4">
                                <div class="tool">
                                    <div class="tool-icon">
                                        <img src="https://www.trackonomics.net/wp-content/uploads/2019/01/settings.svg" alt=""/>
                                    </div>

                                    <div class="tool-info">
                                        <p>Link Management</p>

                                        <span>Easily generate unique trackable links and automatically scan for errors</span>
                                    </div>
                                </div>

                            </div>
                                                    
                            <div class="tool-wrap col-12 col-sm-6 col-lg-4">
                                <div class="tool">
                                    <div class="tool-icon">
                                        <img src="https://www.trackonomics.net/wp-content/uploads/2019/01/chart-areaspline.svg" alt=""/>
                                    </div>

                                    <div class="tool-info">
                                        <p>Advanced Benchmarking</p>

                                        <span>Compare eCPCs and measure performance against KPIs from your vertical</span>
                                    </div>
                                </div>

                            </div>
                                            </div>
                </div>
                    </div>
    </div>
</section>


        
    <section id="contact-us" class="contact-us-wrapper">
        <div class="container">
            <div class="contant-title">Get in touch</div>
            <div role="form" class="wpcf7" id="wpcf7-f84-o1" lang="en-US" dir="ltr">
<div class="screen-reader-response"></div>
<form action="/#wpcf7-f84-o1" method="post" class="wpcf7-form" novalidate="novalidate">
<div style="display: none;">
<input type="hidden" name="_wpcf7" value="84"/>
<input type="hidden" name="_wpcf7_version" value="5.1.4"/>
<input type="hidden" name="_wpcf7_locale" value="en_US"/>
<input type="hidden" name="_wpcf7_unit_tag" value="wpcf7-f84-o1"/>
<input type="hidden" name="_wpcf7_container_post" value="0"/>
</div>
<div class="field-wrapper">
<div class="field"><span class="wpcf7-form-control-wrap first-name"><input type="text" name="first-name" value="" size="40" class="wpcf7-form-control wpcf7-text wpcf7-validates-as-required" id="first-name" aria-required="true" aria-invalid="false" placeholder="First Name"/></span></div>
</div>
<div class="field-wrapper">
<div class="field"><span class="wpcf7-form-control-wrap last-name"><input type="text" name="last-name" value="" size="40" class="wpcf7-form-control wpcf7-text wpcf7-validates-as-required" id="last-name" aria-required="true" aria-invalid="false" placeholder="Last Name"/></span></div>
</div>
<div class="field-wrapper">
<div class="field"><span class="wpcf7-form-control-wrap email-address"><input type="email" name="email-address" value="" size="40" class="wpcf7-form-control wpcf7-text wpcf7-email wpcf7-validates-as-required wpcf7-validates-as-email" id="email-address" aria-required="true" aria-invalid="false" placeholder="Email"/></span></div>
</div>
<div class="field-wrapper">
<div class="field"><span class="wpcf7-form-control-wrap company"><input type="text" name="company" value="" size="40" class="wpcf7-form-control wpcf7-text wpcf7-validates-as-required" id="company" aria-required="true" aria-invalid="false" placeholder="Company"/></span></div>
</div>
<div class="field-wrapper">
<div class="field"><span class="wpcf7-form-control-wrap phone-number"><input type="text" name="phone-number" value="" size="40" class="wpcf7-form-control wpcf7-text" id="phone-number" aria-invalid="false" placeholder="Phone"/></span></div>
</div>
<div class="field-wrapper">
<div class="field"><span class="wpcf7-form-control-wrap contact-form-message"><input type="text" name="contact-form-message" value="" size="40" class="wpcf7-form-control wpcf7-text" id="message-field" aria-invalid="false" placeholder="Message"/></span></div>
</div>
<div id="submit-button" class="field-wrapper clearfix">
<div class="field"><input type="submit" value="Contact Us" class="wpcf7-form-control wpcf7-submit"></div>
</div>
<div class="wpcf7-response-output wpcf7-display-none"></div></form></div>        </div>
    </section>


    </main><!-- #main -->
</div><!-- #primary -->


	</div><!-- #content -->

	<footer id="site-footer" class="site-footer">
		<div class="container">
			
				<div class="footer-info col-no-5">
											<div class="footer-area footer-area-1">
							<div class="content">
								<div id="text-4" class="widget widget_text"><div class="widget-title">Contact</div>			<div class="textwidget"><p><a href="mailto:contact@trackonomics.net">contact@trackonomics.net</a></p>
</div>
		</div><div id="nav_menu-2" class="widget widget_nav_menu"><div class="menu-footer-menu-col-4-container"><ul id="menu-footer-menu-col-4" class="menu"><li id="menu-item-56" class="menu-item menu-item-type-custom menu-item-object-custom menu-first-child menu-item-56"><a href="/blogonomics-trackonomics-blog/">Blog</a></li>
<li id="menu-item-58" class="menu-item menu-item-type-post_type menu-item-object-page menu-item-58"><a href="https://www.trackonomics.net/privacy-policy/">Privacy Policy</a></li>
<li id="menu-item-600" class="menu-item menu-item-type-custom menu-item-object-custom menu-last-child menu-item-600"><a href="#">Start Free Trial</a></li>
</ul></div></div>							</div>
						</div>
					
											<div class="footer-area footer-area-2">
							<div class="content">
								<div id="text-3" class="widget widget_text"><div class="widget-title">London</div>			<div class="textwidget"><p>Plexal<br/>
Here East<br/>
London<br/>
E20 3BS</p>
</div>
		</div>							</div>
						</div>
					
											<div class="footer-area footer-area-3">
							<div class="content">
								<div id="text-8" class="widget widget_text"><div class="widget-title">New York</div>			<div class="textwidget"><p>WeWork<br/>
205 E 42nd St<br/>
New York<br/>
NY 10017</p>
</div>
		</div>							</div>
						</div>
					
											<div class="footer-area footer-area-4">
							<div class="content">
								<div id="text-5" class="widget widget_text"><div class="widget-title">San Francisco</div>			<div class="textwidget"><p>2181 Greenwich Street<br/>
San Francisco<br/>
CA 94123</p>
</div>
		</div>							</div>
						</div>
					
											<div class="footer-area footer-area-5">
							<div class="content">
								<div id="text-2" class="widget widget_text"><div class="widget-title">Tel Aviv</div>			<div class="textwidget"><p>26 Ben Avigdor St<br/>
Tel Aviv<br/>
Israel</p>
</div>
		</div>							</div>
						</div>
					
											<div class="footer-area-6">
							<div class="footer-images">
								<div id="media_image-2" class="widget widget_media_image"><a href="http://www.ppa.co.uk/resources/companies/trackonomics"><img src="https://www.trackonomics.net/wp-content/uploads/2019/04/PPA-CORE-LOGO-WHITE.svg" class="image wp-image-784  attachment-full size-full" alt="" style="max-width: 100%; height: auto;"/></a></div><div id="media_image-3" class="widget widget_media_image"><a href="https://performancein.com/top50/"><img width="1" height="1" src="https://www.trackonomics.net/wp-content/uploads/2019/01/02performance-1.svg" class="image wp-image-54  attachment-medium size-medium" alt="" style="max-width: 100%; height: auto;"/></a></div><div id="media_image-4" class="widget widget_media_image"><a href="https://performancemarketingawards.co.uk/2018/"><img width="1" height="1" src="https://www.trackonomics.net/wp-content/uploads/2019/01/03marketing-awards-1.svg" class="image wp-image-55  attachment-medium size-medium" alt="" style="max-width: 100%; height: auto;"/></a></div><div id="media_image-5" class="widget widget_media_image"><a href="https://performancemarketingawards.co.uk/2019/"><img width="157" height="35" src="https://www.trackonomics.net/wp-content/uploads/2019/03/PMA-19-finalist-Best-Content-Marketing-Campaign-300x67.gif" class="image wp-image-612  attachment-160x35 size-160x35" alt="" style="max-width: 100%; height: auto;"/></a></div><div id="media_image-7" class="widget widget_media_image"><img width="300" height="201" src="https://www.trackonomics.net/wp-content/uploads/2019/06/PPA-Annual-Awards-Nominee-Banners-Winner_rev-300x201.png" class="image wp-image-951  attachment-medium size-medium" alt="" style="max-width: 100%; height: auto;" srcset="https://www.trackonomics.net/wp-content/uploads/2019/06/PPA-Annual-Awards-Nominee-Banners-Winner_rev-300x201.png 300w, https://www.trackonomics.net/wp-content/uploads/2019/06/PPA-Annual-Awards-Nominee-Banners-Winner_rev-768x515.png 768w, https://www.trackonomics.net/wp-content/uploads/2019/06/PPA-Annual-Awards-Nominee-Banners-Winner_rev-1024x687.png 1024w" sizes="(max-width: 300px) 100vw, 300px"/></div>							</div>
						</div>
									</div><!-- .footer-info -->
					</div>
	</footer><!-- #site-footer -->

	
<div class="free-trial">

	<div class="white-popup mfp-hide">
		<div class="popupBox">
				<div class="af-form-title">
					<h2>
						Request your free trial					</h2>
				</div>
				<div class="af-form-text">
					We’ll get everything set up for you. Getting started couldn’t be easier.				</div>
				<div role="form" class="wpcf7" id="wpcf7-f599-o2" lang="en-US" dir="ltr">
<div class="screen-reader-response"></div>
<form action="/#wpcf7-f599-o2" method="post" class="wpcf7-form" novalidate="novalidate">
<div style="display: none;">
<input type="hidden" name="_wpcf7" value="599"/>
<input type="hidden" name="_wpcf7_version" value="5.1.4"/>
<input type="hidden" name="_wpcf7_locale" value="en_US"/>
<input type="hidden" name="_wpcf7_unit_tag" value="wpcf7-f599-o2"/>
<input type="hidden" name="_wpcf7_container_post" value="0"/>
</div>
<div class="field-wrapper">
<div class="field"><label>First Name* <span class="wpcf7-form-control-wrap first-name"><input type="text" name="first-name" value="" size="40" class="wpcf7-form-control wpcf7-text wpcf7-validates-as-required" aria-required="true" aria-invalid="false"/></span></label></div>
</div>
<div class="field-wrapper">
<div class="field"><label>Last Name* <span class="wpcf7-form-control-wrap last-name"><input type="text" name="last-name" value="" size="40" class="wpcf7-form-control wpcf7-text wpcf7-validates-as-required" aria-required="true" aria-invalid="false"/></span></label></div>
</div>
<div class="field-wrapper file-upload">
<div class="field"><label>Company* <span class="wpcf7-form-control-wrap company-name"><input type="text" name="company-name" value="" size="40" class="wpcf7-form-control wpcf7-text wpcf7-validates-as-required" aria-required="true" aria-invalid="false"/></span></label></div>
</div>
<div class="field-wrapper">
<div class="field"><label>Email* <span class="wpcf7-form-control-wrap email-address"><input type="email" name="email-address" value="" size="40" class="wpcf7-form-control wpcf7-text wpcf7-email wpcf7-validates-as-required wpcf7-validates-as-email" aria-required="true" aria-invalid="false"/></span></label></div>
</div>
<div class="field-wrapper">
<div class="field"><label>Phone* <span class="wpcf7-form-control-wrap phone-number"><input type="text" name="phone-number" value="" size="40" class="wpcf7-form-control wpcf7-text wpcf7-validates-as-required" aria-required="true" aria-invalid="false"/></span></label></div>
</div>
<p><input type="hidden" id="zc_gad" name="zc_gad" value=""/></p>
<div id="submit-button" class="field-wrapper clearfix">
<div class="field"><input type="submit" value="Get Started" class="wpcf7-form-control wpcf7-submit"></div>
</div>
<div class="wpcf7-response-output wpcf7-display-none"></div></form></div>		</div>
	</div>

</div>
</div><!-- #page -->

<script type='text/javascript'>//<![CDATA[
var wpcf7={"apiSettings":{"root":"https:\/\/www.trackonomics.net\/wp-json\/contact-form-7\/v1","namespace":"contact-form-7\/v1"}};
//]]></script>
<script type='text/javascript' src='https://www.trackonomics.net/wp-content/plugins/contact-form-7/includes/js/scripts.js?ver=5.1.4'></script>
<script type='text/javascript' src='https://s0.wp.com/wp-content/js/devicepx-jetpack.js?ver=201948'></script>
<script type='text/javascript'>//<![CDATA[
var wpcf7_redirect_forms={"599":{"page_id":"660","external_url":"","use_external_url":"","open_in_new_tab":"","http_build_query":"","http_build_query_selectively":"","http_build_query_selectively_fields":"","delay_redirect":"","after_sent_script":"","thankyou_page_url":"https:\/\/www.trackonomics.net\/thank-you-free-trial\/"},"300":{"page_id":"551","external_url":"","use_external_url":"","open_in_new_tab":"","http_build_query":"","http_build_query_selectively":"","http_build_query_selectively_fields":"","delay_redirect":"","after_sent_script":"","thankyou_page_url":"https:\/\/www.trackonomics.net\/thank-you\/"},"147":{"page_id":"666","external_url":"","use_external_url":"","open_in_new_tab":"","http_build_query":"","http_build_query_selectively":"","http_build_query_selectively_fields":"","delay_redirect":"","after_sent_script":"","thankyou_page_url":"https:\/\/www.trackonomics.net\/cv-submit\/"},"84":{"page_id":"664","external_url":"","use_external_url":"","open_in_new_tab":"","http_build_query":"","http_build_query_selectively":"","http_build_query_selectively_fields":"","delay_redirect":"","after_sent_script":"","thankyou_page_url":"https:\/\/www.trackonomics.net\/thank-you-contact\/"}};
//]]></script>
<script type='text/javascript' src='https://www.trackonomics.net/wp-content/plugins/wpcf7-redirect/js/wpcf7-redirect-script.js'></script>
<script type='text/javascript'>//<![CDATA[
var ajax_params={"site_theme_url":"https:\/\/www.trackonomics.net\/wp-content\/themes\/trackonomics-redesign"};
//]]></script>
<script type='text/javascript' src='https://www.trackonomics.net/wp-content/themes/trackonomics-redesign/dist/js/homepage.js?ver=1554215527'></script>
<script type='text/javascript' src='https://www.trackonomics.net/wp-includes/js/wp-embed.min.js?ver=5.2.4'></script>
<script type='text/javascript' src='https://stats.wp.com/e-201948.js' async='async' defer='defer'></script>
<script type='text/javascript'>_stq=window._stq||[];_stq.push(['view',{v:'ext',j:'1:7.9.1',blog:'164449469',post:'9',tz:'0',srv:'www.trackonomics.net'}]);_stq.push(['clickTrackerInit','164449469','9']);</script>

</body>
</html>
