<!DOCTYPE html PUBLIC "-//W3C//DTD XHTML+RDFa 1.0//EN"
  "http://www.w3.org/MarkUp/DTD/xhtml-rdfa-1.dtd">
<html xmlns="http://www.w3.org/1999/xhtml" xml:lang="en" version="XHTML+RDFa 1.0" dir="ltr"
  xmlns:fb="http://ogp.me/ns/fb#">
<head profile="http://www.w3.org/1999/xhtml/vocab">
<title>Car Service and Repairs, MOT’s and Tyres Northampton - Under The Bonnet</title>
<!-- Set the viewport width to device width for mobile -->
<meta name="viewport" content="width=device-width, initial-scale=1, maximum-scale=1" />
<meta http-equiv="Content-Type" content="text/html; charset=utf-8" />
<link rel="shortcut icon" href="https://www.underthebonnet.net/sites/default/files/favicon.ico" type="image/vnd.microsoft.icon" />
<meta name="description" content="Under The Bonnet provide Car Repairs and Car Service in Northampton. They also offer MOTs and Tyres in Northampton and with no hidden costs." />
<meta name="generator" content="Drupal 7 (https://www.drupal.org)" />
<link rel="canonical" href="https://www.underthebonnet.net/" />
<link rel="shortlink" href="https://www.underthebonnet.net/" />
<link href='http://fonts.googleapis.com/css?family=Lato:400,700,400italic,700italic' rel='stylesheet' type='text/css'>
<link type="text/css" rel="stylesheet" href="https://www.underthebonnet.net/sites/default/files/css/css_xE-rWrJf-fncB6ztZfd2huxqgxu4WO-qwma6Xer30m4.css" media="all" />
<link type="text/css" rel="stylesheet" href="https://www.underthebonnet.net/sites/default/files/css/css_vZ_wrMQ9Og-YPPxa1q4us3N7DsZMJa-14jShHgRoRNo.css" media="all" />
<link type="text/css" rel="stylesheet" href="https://www.underthebonnet.net/sites/default/files/css/css_LwEc_9DSsIL9AH8CXm_F0NaGUtF0s_uVWfc4Yz8cxs8.css" media="all" />
<link type="text/css" rel="stylesheet" href="https://www.underthebonnet.net/sites/default/files/css/css_98KBOnKHxhXkeXYDfCzGI8j6izTL__V7qpj4Q34jPPc.css" media="all" />
<link type="text/css" rel="stylesheet" href="https://www.underthebonnet.net/sites/default/files/css/css_rSi8tPpWjghi4gbTSlmL6RQKqMgBaz256HfHse1HXKs.css" media="all" />
<script type="text/javascript" src="https://www.underthebonnet.net/sites/default/files/js/js_vDrW3Ry_4gtSYaLsh77lWhWjIC6ml2QNkcfvfP5CVFs.js"></script>
<script type="text/javascript" src="https://www.underthebonnet.net/sites/default/files/js/js_XiJnibook4xA2MhdzOe4VT3fWK2I_vwjcm3xE2E81NI.js"></script>
<script type="text/javascript" src="https://www.underthebonnet.net/sites/default/files/js/js_t1a8BiPStC8ZXbCzzzbsmroRs6REj__Vlico6FyoDeg.js"></script>
<script type="text/javascript">
<!--//--><![CDATA[//><!--
(function(i,s,o,g,r,a,m){i["GoogleAnalyticsObject"]=r;i[r]=i[r]||function(){(i[r].q=i[r].q||[]).push(arguments)},i[r].l=1*new Date();a=s.createElement(o),m=s.getElementsByTagName(o)[0];a.async=1;a.src=g;m.parentNode.insertBefore(a,m)})(window,document,"script","https://www.google-analytics.com/analytics.js","ga");ga("create", "UA-26496320-1", {"cookieDomain":"auto"});ga("send", "pageview");
//--><!]]>
</script>
<script type="text/javascript" src="https://www.underthebonnet.net/sites/default/files/js/js_5ON4dAdAEL8ViwzgPUNu0DaLi6A4mIalZTrNPxL8xeo.js"></script>
<script type="text/javascript">
<!--//--><![CDATA[//><!--
jQuery.extend(Drupal.settings, {"basePath":"\/","pathPrefix":"","ajaxPageState":{"theme":"underthebonnet","theme_token":"kFnXYbvygoLuQnN4Dn8xhdccrYvhG4FVxO0nFklG4T0","js":{"misc\/jquery.js":1,"misc\/jquery.once.js":1,"misc\/drupal.js":1,"sites\/all\/modules\/nice_menus\/js\/jquery.bgiframe.js":1,"sites\/all\/modules\/nice_menus\/js\/jquery.hoverIntent.js":1,"sites\/all\/modules\/nice_menus\/js\/superfish.js":1,"sites\/all\/modules\/nice_menus\/js\/nice_menus.js":1,"sites\/all\/modules\/views_slideshow\/js\/views_slideshow.js":1,"sites\/all\/libraries\/colorbox\/jquery.colorbox-min.js":1,"sites\/all\/modules\/colorbox\/js\/colorbox.js":1,"sites\/all\/modules\/colorbox\/styles\/default\/colorbox_style.js":1,"sites\/all\/libraries\/nivo-slider\/jquery.nivo.slider.pack.js":1,"sites\/all\/modules\/views_nivo_slider\/views_nivo_slider.js":1,"sites\/all\/modules\/captcha\/captcha.js":1,"sites\/all\/modules\/webform\/js\/webform.js":1,"sites\/all\/libraries\/jquery.cycle\/jquery.cycle.all.js":1,"sites\/all\/modules\/views_slideshow\/contrib\/views_slideshow_cycle\/js\/views_slideshow_cycle.js":1,"sites\/all\/modules\/jcarousel\/js\/jquery.jcarousel.min.js":1,"sites\/all\/modules\/jcarousel\/js\/jcarousel.js":1,"sites\/all\/modules\/google_analytics\/googleanalytics.js":1,"0":1,"sites\/all\/themes\/underthebonnet\/js\/youtube-autoplay.js":1},"css":{"modules\/system\/system.base.css":1,"modules\/system\/system.menus.css":1,"modules\/system\/system.messages.css":1,"modules\/system\/system.theme.css":1,"sites\/all\/modules\/views_slideshow\/views_slideshow.css":1,"sites\/all\/modules\/date\/date_api\/date.css":1,"sites\/all\/modules\/date\/date_popup\/themes\/datepicker.1.7.css":1,"modules\/field\/theme\/field.css":1,"modules\/node\/node.css":1,"modules\/search\/search.css":1,"modules\/user\/user.css":1,"sites\/all\/modules\/youtube\/css\/youtube.css":1,"sites\/all\/modules\/views\/css\/views.css":1,"sites\/all\/modules\/ckeditor\/css\/ckeditor.css":1,"sites\/all\/modules\/colorbox\/styles\/default\/colorbox_style.css":1,"sites\/all\/modules\/ctools\/css\/ctools.css":1,"sites\/all\/modules\/nice_menus\/css\/nice_menus.css":1,"sites\/all\/modules\/nice_menus\/css\/nice_menus_default.css":1,"sites\/all\/libraries\/nivo-slider\/nivo-slider.css":1,"sites\/all\/libraries\/nivo-slider\/themes\/0\/0.css":1,"sites\/all\/modules\/views_nivo_slider\/views_nivo_slider.css":1,"sites\/all\/modules\/webform\/css\/webform.css":1,"sites\/all\/modules\/views_slideshow\/views_slideshow_controls_text.css":1,"sites\/all\/modules\/views_slideshow\/contrib\/views_slideshow_cycle\/views_slideshow_cycle.css":1,"sites\/all\/modules\/jcarousel\/skins\/default\/jcarousel-default.css":1,"sites\/all\/themes\/underthebonnet\/css\/layout.css":1}},"colorbox":{"opacity":"0.85","current":"{current} of {total}","previous":"\u00ab Prev","next":"Next \u00bb","close":"Close","maxWidth":"98%","maxHeight":"98%","fixed":true,"mobiledetect":true,"mobiledevicewidth":"480px"},"jcarousel":{"ajaxPath":"\/jcarousel\/ajax\/views","carousels":{"jcarousel-dom-1":{"view_options":{"view_args":"","view_path":"node\/1","view_base_path":null,"view_display_id":"block","view_name":"manufacturer_servicing_carousel","jcarousel_dom_id":1},"wrap":"last","scroll":1,"auto":6,"autoPause":1,"start":1,"skin":"default","selector":".jcarousel-dom-1"}}},"nice_menus_options":{"delay":800,"speed":"slow"},"views_nivo_slider":{"views-nivo-slider-carousel-block":{"startSlide":0,"effect":"random","slices":15,"animSpeed":500,"pauseTime":3000,"directionNav":true,"directionNavHide":true,"controlNav":true,"controlNavThumbs":false,"pauseOnHover":true,"manualAdvance":false,"captionOpacity":0.8000000000000000444089209850062616169452667236328125,"beforeChange":"function(){}","afterChange":"function(){}","slideshowEnd":"function(){}","lastSlide":"function(){}","afterLoad":"function(){}","version":"2.7.x","controlNavThumbsFromRel":false,"keyboardNav":true}},"urlIsAjaxTrusted":{"\/click-here-%C2%A315-your-car-service-mot-repairs-brakes-exhausts-etc":true,"\/":true},"viewsSlideshow":{"client_video_testimonials-block_1":{"methods":{"goToSlide":["viewsSlideshowPager","viewsSlideshowSlideCounter","viewsSlideshowCycle"],"nextSlide":["viewsSlideshowPager","viewsSlideshowSlideCounter","viewsSlideshowCycle"],"pause":["viewsSlideshowControls","viewsSlideshowCycle"],"play":["viewsSlideshowControls","viewsSlideshowCycle"],"previousSlide":["viewsSlideshowPager","viewsSlideshowSlideCounter","viewsSlideshowCycle"],"transitionBegin":["viewsSlideshowPager","viewsSlideshowSlideCounter"],"transitionEnd":[]},"paused":0}},"viewsSlideshowPager":{"client_video_testimonials-block_1":{"top":{"type":"viewsSlideshowPagerFields","master_pager":"0"}}},"viewsSlideshowPagerFields":{"client_video_testimonials-block_1":{"top":{"activatePauseOnHover":0}}},"viewsSlideshowControls":{"client_video_testimonials-block_1":{"top":{"type":"viewsSlideshowControlsText"}}},"viewsSlideshowCycle":{"#views_slideshow_cycle_main_client_video_testimonials-block_1":{"num_divs":8,"id_prefix":"#views_slideshow_cycle_main_","div_prefix":"#views_slideshow_cycle_div_","vss_id":"client_video_testimonials-block_1","effect":"fade","transition_advanced":1,"timeout":10000,"speed":800,"delay":0,"sync":1,"random":0,"pause":0,"pause_on_click":1,"play_on_hover":0,"action_advanced":1,"start_paused":1,"remember_slide":0,"remember_slide_days":1,"pause_in_middle":0,"pause_when_hidden":0,"pause_when_hidden_type":"full","amount_allowed_visible":"","nowrap":0,"pause_after_slideshow":0,"fixed_height":1,"items_per_slide":1,"wait_for_image_load":1,"wait_for_image_load_timeout":3000,"cleartype":0,"cleartypenobg":0,"advanced_options":"{}"}},"googleanalytics":{"trackOutbound":1,"trackMailto":1,"trackDownload":1,"trackDownloadExtensions":"7z|aac|arc|arj|asf|asx|avi|bin|csv|doc(x|m)?|dot(x|m)?|exe|flv|gif|gz|gzip|hqx|jar|jpe?g|js|mp(2|3|4|e?g)|mov(ie)?|msi|msp|pdf|phps|png|ppt(x|m)?|pot(x|m)?|pps(x|m)?|ppam|sld(x|m)?|thmx|qtm?|ra(m|r)?|sea|sit|tar|tgz|torrent|txt|wav|wma|wmv|wpd|xls(x|m|b)?|xlt(x|m)|xlam|xml|z|zip","trackColorbox":1}});
//--><!]]>
</script>
</head>
<body class="html front not-logged-in no-sidebars page-node page-node- page-node-1 node-type-page" >
<div id="skip-link"> <a href="#main-content" class="element-invisible element-focusable">Skip to main content</a> </div>
 <div id="wrap">
  <div id="innerwrap">
    <div id="mainholder">
              <div class="region region-menu">
    <div id="block-nice-menus-1" class="block block-nice-menus">

    
  <div class="content">
    <ul class="nice-menu nice-menu-down nice-menu-main-menu" id="nice-menu-1"><li class="menu-218 menu-path-front first odd "><a href="/" title="" class="active">Home</a></li>
<li class="menu-415 menuparent  menu-path-node-15  even "><a href="/northampton-car-servicing">Servicing</a><ul><li class="menu-473 menu-path-node-29 first odd "><a href="/audi-servicing-and-repair">Audi</a></li>
<li class="menu-474 menu-path-node-30  even "><a href="/bmw-servicing-northampton">BMW</a></li>
<li class="menu-475 menu-path-node-31  odd "><a href="/citroen-servicing-and-repair">Citroen</a></li>
<li class="menu-476 menu-path-node-32  even "><a href="/fiat-servicing-and-repair">Fiat</a></li>
<li class="menu-478 menu-path-node-34  odd "><a href="/ford-servicing-and-repair">Ford</a></li>
<li class="menu-479 menu-path-node-35  even "><a href="/honda-servicing-and-repair">Honda</a></li>
<li class="menu-606 menu-path-node-51  odd "><a href="/mazda-servicing-and-repair">Mazda</a></li>
<li class="menu-480 menu-path-node-36  even "><a href="/mercedes-servicing-and-repair">Mercedes</a></li>
<li class="menu-481 menu-path-node-37  odd "><a href="/nissan-servicing-and-repair">Nissan</a></li>
<li class="menu-482 menu-path-node-38  even "><a href="/peugeot-servicing-and-repair">Peugeot</a></li>
<li class="menu-602 menu-path-node-46  odd "><a href="/renault-servicing-and-repair">Renault</a></li>
<li class="menu-607 menu-path-node-52  even "><a href="/seat-servicing-and-repair">Seat</a></li>
<li class="menu-603 menu-path-node-48  odd "><a href="/toyota-servicing-and-repair">Toyota</a></li>
<li class="menu-604 menu-path-node-49  even "><a href="/vauxhall-servicing-and-repair">Vauxhall</a></li>
<li class="menu-597 menu-path-node-44  odd "><a href="/volkswagen-servicing-and-repair">Volkswagen</a></li>
<li class="menu-605 menu-path-node-50  even last"><a href="/volvo-servicing-and-repair">Volvo</a></li>
</ul></li>
<li class="menu-416 menu-path-node-16  odd "><a href="/car-repair">Repairs</a></li>
<li class="menu-417 menu-path-node-17  even "><a href="/car-tyres-northampton">Tyres</a></li>
<li class="menu-418 menu-path-node-18  odd "><a href="/mot-northampton">MOTs</a></li>
<li class="menu-419 menu-path-node-19  even "><a href="/car-air-conditioning">Air Con</a></li>
<li class="menu-595 menu-path-node-41  odd "><a href="/car-diagnostics">Diagnostics</a></li>
<li class="menu-596 menu-path-node-42  even "><a href="/fleet-cars">Fleets</a></li>
<li class="menu-430 menu-path-node-22  odd "><a href="/under-bonnet-news">News</a></li>
<li class="menu-429 menu-path-node-21  even last"><a href="/contact-under-bonnet">Contact</a></li>
</ul>
  </div>
</div>
  </div>
            <div id="header"> <a href="/" title="Home" rel="home" id="logo"><img src="https://www.underthebonnet.net/sites/all/themes/underthebonnet/logo.png" alt="Home" /></a>   <div class="region region-header">
    <div id="block-views-social-links-block" class="block block-views">

    
  <div class="content">
    <div class="view view-social-links view-id-social_links view-display-id-block view-dom-id-354a59ae9e00b6de1fccaca86043e9f6">
        
  
  
      <div class="view-content">
        <div class="views-row views-row-1 views-row-odd views-row-first views-row-last">
      
  <div class="views-field views-field-body">        <div class="field-content"><div>
	<a class="twitter" href="https://twitter.com" target="_blank">twitter</a><a class="facebook" href="http://www.facebook.com/pages/Under-The-Bonnet/302790659779664" target="_blank">facebook</a></div>
</div>  </div>  </div>
    </div>
  
  
  
  
  
  
</div>  </div>
</div>
<div id="block-search-form" class="block block-search">

    
  <div class="content">
    <form action="/" method="post" id="search-block-form" accept-charset="UTF-8"><div><div class="container-inline">
      <h2 class="element-invisible">Search form</h2>
    <div class="form-item form-type-textfield form-item-search-block-form">
  <label class="element-invisible" for="edit-search-block-form--2">Search </label>
 <input title="Enter the terms you wish to search for." onblur="if (this.value == &#039;&#039;) {this.value = &#039;Search&#039;;}" onfocus="if (this.value == &#039;Search&#039;) {this.value = &#039;&#039;;}" type="text" id="edit-search-block-form--2" name="search_block_form" value="Search" size="15" maxlength="128" class="form-text" />
</div>
<div class="form-actions form-wrapper" id="edit-actions"><input type="submit" id="edit-submit" name="op" value="" class="form-submit" /></div><input type="hidden" name="form_build_id" value="form-MLGJmjwDbrz-TYCWAIvYxNX5BrY4TIIOZehPn0nISvE" />
<input type="hidden" name="form_id" value="search_block_form" />
</div>
</div></form>  </div>
</div>
<div id="block-views-header-contact-details-block" class="block block-views">

    
  <div class="content">
    <div class="view view-header-contact-details view-id-header_contact_details view-display-id-block view-dom-id-bdeb56cebd173f1aea1ec592b0a6fe30">
        
  
  
      <div class="view-content">
        <div class="views-row views-row-1 views-row-odd views-row-first views-row-last">
      
  <div class="views-field views-field-body">        <div class="field-content"><strong>01604 499790</strong>
<a href="mailto:sales@underthebonnet.net?subject=Enquiry%20from%20the%20Under%20the%20Bonnet%20website">sales@underthebonnet.net</a>
Moulton Park, Northampton</div>  </div>  </div>
    </div>
  
  
  
  
  
  
</div>  </div>
</div>
<div id="block-views-opening-times-block" class="block block-views">

    
  <div class="content">
    <div class="view view-opening-times view-id-opening_times view-display-id-block view-dom-id-7eafae0f319a178ee2045195e61ccfcf">
        
  
  
      <div class="view-content">
        <div class="views-row views-row-1 views-row-odd views-row-first views-row-last">
      
  <div class="views-field views-field-body">        <div class="field-content"><p><strong>Opening Times</strong><br />
	Mon-Fri 8.30am to 5.30pm<br />
	Sat 8.30am to 3.00pm</p>
</div>  </div>  </div>
    </div>
  
  
  
  
  
  
</div>  </div>
</div>
  </div>
 </div>
              <div class="region region-slider">
    <div id="block-views-carousel-block" class="block block-views">

    
  <div class="content">
    <div class="view view-carousel view-id-carousel view-display-id-block view-dom-id-752a749be32c3511998eab3a8cd3813d">
        
  
  
      <div class="view-content">
      <div class="views-nivo-slider-view slider-wrapper theme-0">
      
  
    <div id="views-nivo-slider-carousel-block" class="views-nivo-slider clearfix">
              <img src="https://www.underthebonnet.net/sites/default/files/styles/carousel-slide/public/carousel-slides/mechanic.jpg?itok=Wd20J3Ne" width="720" height="330" alt="" title="#carousel-block-title-0" />              <img src="https://www.underthebonnet.net/sites/default/files/styles/carousel-slide/public/carousel-slides/Fleet%20Cars%20-%20RF.jpg?itok=-qYiZ-TK" width="720" height="330" alt="" title="#carousel-block-title-1" />              <img src="https://www.underthebonnet.net/sites/default/files/styles/carousel-slide/public/carousel-slides/Car%20In%20Field%20-%20RF.jpg?itok=aSn6rEuF" width="720" height="330" alt="" title="#carousel-block-title-2" />          </div>
                  <div id="carousel-block-title-0" class="nivo-html-caption">
          <a href="/carousel-slide/your-warranty-maintained-fraction-dealership-costs">Your warranty maintained at a fraction of dealership costs</a>        </div>
              <div id="carousel-block-title-1" class="nivo-html-caption">
          <a href="/carousel-slide/your-fleet-vehicles-taken-care">Your fleet vehicles taken care of</a>        </div>
              <div id="carousel-block-title-2" class="nivo-html-caption">
          <a href="/carousel-slide/female-friendly-garage">Female Friendly Garage</a>        </div>
          
  
</div>     </div>
  
  
  
  
  
  
</div>  </div>
</div>
<div id="block-webform-client-block-6" class="block block-webform">

    
  <div class="content">
    <div id="node-6" class="node node-webform clearfix">

  
        <h2><a href="/click-here-%C2%A315-your-car-service-mot-repairs-brakes-exhausts-etc">Click Here For £15 Off Your Car Service, MOT, Repairs, Brakes, Exhausts etc?</a></h2>
    
  
  <div class="content">
    <div class="field field-name-body field-type-text-with-summary field-label-hidden"><div class="field-items"><div class="field-item even">Fill out your name and email address and download your voucher</div></div></div><form class="webform-client-form" enctype="multipart/form-data" action="/click-here-%C2%A315-your-car-service-mot-repairs-brakes-exhausts-etc" method="post" id="webform-client-form-6" accept-charset="UTF-8"><div><div class="form-item webform-component webform-component-textfield" id="webform-component-name">
  <label for="edit-submitted-name">Name <span class="form-required" title="This field is required.">*</span></label>
 <input type="text" id="edit-submitted-name" name="submitted[name]" value="" size="60" maxlength="128" class="form-text required" />
</div>
<div class="form-item webform-component webform-component-email" id="webform-component-email-address">
  <label for="edit-submitted-email-address">Email Address <span class="form-required" title="This field is required.">*</span></label>
 <input class="email form-text form-email required" type="email" id="edit-submitted-email-address" name="submitted[email_address]" size="60" />
</div>
<div class="form-item webform-component webform-component-markup" id="webform-component-privacy-statement">
 <p>We won't send you more than 1 email per month, we will not pass on your details and you can remove yourself from the mailing list at any time.</p>

</div>
<input type="hidden" name="details[sid]" />
<input type="hidden" name="details[page_num]" value="1" />
<input type="hidden" name="details[page_count]" value="1" />
<input type="hidden" name="details[finished]" value="0" />
<input type="hidden" name="form_build_id" value="form-QFpL1wthJMObvZiEpSCJuYexuHN4O4ZDmah_W602-_E" />
<input type="hidden" name="form_id" value="webform_client_form_6" />
<fieldset class="captcha form-wrapper"><legend><span class="fieldset-legend">CAPTCHA</span></legend><div class="fieldset-wrapper"><div class="fieldset-description">This question is for testing whether or not you are a human visitor and to prevent automated spam submissions.</div><input type="hidden" name="captcha_sid" value="997044" />
<input type="hidden" name="captcha_token" value="0889aa2a4699a2b6dfd4fb4d7e5ac1e2" />
<div class="form-item form-type-textfield form-item-captcha-response">
  <label for="edit-captcha-response">Math question <span class="form-required" title="This field is required.">*</span></label>
 <span class="field-prefix">1 + 10 = </span> <input type="text" id="edit-captcha-response" name="captcha_response" value="" size="4" maxlength="2" class="form-text required" />
<div class="description">Solve this simple math problem and enter the result. E.g. for 1+3, enter 4.</div>
</div>
</div></fieldset>
<div class="form-actions form-wrapper" id="edit-actions--2"><input type="submit" id="edit-submit--2" name="op" value="Submit" class="form-submit" /></div></div></form>  </div>

  
  
</div>
  </div>
</div>
  </div>
                  <div id="main">
                        <h1>Car Repairs, Servicing &amp; MOT’s in Northampton</h1>
                                   <div class="region region-content">
    <div id="block-views-get-a-quote-now-block" class="block block-views">

    
  <div class="content">
    <div class="view view-get-a-quote-now view-id-get_a_quote_now view-display-id-block view-dom-id-c58f881309e07cce22e7bb68c171cea4">
        
  
  
      <div class="view-content">
        <div class="views-row views-row-1 views-row-odd views-row-first views-row-last">
      
  <div class="views-field views-field-body">        <div class="field-content"><p><a href="/vehicle-service-quote"><span><strong>Get a Quote Now!</strong> Fill out our simple form...</span></a></p>
</div>  </div>  </div>
    </div>
  
  
  
  
  
  
</div>  </div>
</div>
<div id="block-system-main" class="block block-system">

    
  <div class="content">
    <div id="node-1" class="node node-page clearfix">

  
      
  
  <div class="content">
    <div class="field field-name-body field-type-text-with-summary field-label-hidden"><div class="field-items"><div class="field-item even">Alfa Romeo, Audi, BMW, Citroen, Fiat, Ford, Honda, Hyundai, Jaguar, KIA, Land Rover, Mercedes, Mini, Nissan, Peugeot Porsche, Renault, Saab, Seat, Skoda, Toyota, Vauxhall, VW, Volvo and everyone else...</div></div></div>  </div>

  
  
</div>
  </div>
</div>
  </div>
 </div>
              <div class="region region-undercontent">
    <div id="block-views-client-video-testimonials-block" class="block block-views">

    <h2>Customer Testimonials</h2>
  
  <div class="content">
    <div class="view view-client-video-testimonials view-id-client_video_testimonials view-display-id-block client-testimonials view-dom-id-9d2f7a402a17e9e9d5aa093bb6d1af96">
        
  
  
      <div class="view-content">
      
  <div class="skin-default">
          <div class="views-slideshow-controls-top clearfix">
        <div id="widget_pager_top_client_video_testimonials-block_1" class="views-slideshow-pager-fields widget_pager widget_pager_top views_slideshow_pager_field">
  <div id="views_slideshow_pager_field_item_top_client_video_testimonials-block_1_0" class="views-slideshow-pager-field-item views_slideshow_pager_field_item views-row-odd views-row-first" aria-controls="views_slideshow_cycle_div_client_video_testimonials-block_1_0">
  </div>
<div id="views_slideshow_pager_field_item_top_client_video_testimonials-block_1_1" class="views-slideshow-pager-field-item views_slideshow_pager_field_item views-row-even" aria-controls="views_slideshow_cycle_div_client_video_testimonials-block_1_1">
  </div>
<div id="views_slideshow_pager_field_item_top_client_video_testimonials-block_1_2" class="views-slideshow-pager-field-item views_slideshow_pager_field_item views-row-odd" aria-controls="views_slideshow_cycle_div_client_video_testimonials-block_1_2">
  </div>
<div id="views_slideshow_pager_field_item_top_client_video_testimonials-block_1_3" class="views-slideshow-pager-field-item views_slideshow_pager_field_item views-row-even" aria-controls="views_slideshow_cycle_div_client_video_testimonials-block_1_3">
  </div>
<div id="views_slideshow_pager_field_item_top_client_video_testimonials-block_1_4" class="views-slideshow-pager-field-item views_slideshow_pager_field_item views-row-odd" aria-controls="views_slideshow_cycle_div_client_video_testimonials-block_1_4">
  </div>
<div id="views_slideshow_pager_field_item_top_client_video_testimonials-block_1_5" class="views-slideshow-pager-field-item views_slideshow_pager_field_item views-row-even" aria-controls="views_slideshow_cycle_div_client_video_testimonials-block_1_5">
  </div>
<div id="views_slideshow_pager_field_item_top_client_video_testimonials-block_1_6" class="views-slideshow-pager-field-item views_slideshow_pager_field_item views-row-odd" aria-controls="views_slideshow_cycle_div_client_video_testimonials-block_1_6">
  </div>
<div id="views_slideshow_pager_field_item_top_client_video_testimonials-block_1_7" class="views-slideshow-pager-field-item views_slideshow_pager_field_item views-row-even views-row-last" aria-controls="views_slideshow_cycle_div_client_video_testimonials-block_1_7">
  </div>
</div>
<div id="views_slideshow_controls_text_client_video_testimonials-block_1" class="views-slideshow-controls-text views_slideshow_controls_text">
  <span id="views_slideshow_controls_text_previous_client_video_testimonials-block_1" class="views-slideshow-controls-text-previous views_slideshow_controls_text_previous">
  <a href="#" rel="prev">Previous</a>
</span>
  <span id="views_slideshow_controls_text_pause_client_video_testimonials-block_1" class="views-slideshow-controls-text-pause views_slideshow_controls_text_pause  views-slideshow-controls-text-status-play"><a href="#">Pause</a></span>
  <span id="views_slideshow_controls_text_next_client_video_testimonials-block_1" class="views-slideshow-controls-text-next views_slideshow_controls_text_next">
  <a href="#" rel="next">Next</a>
</span>
</div>
      </div>
    
    <div id="views_slideshow_cycle_main_client_video_testimonials-block_1" class="views_slideshow_cycle_main views_slideshow_main"><div id="views_slideshow_cycle_teaser_section_client_video_testimonials-block_1" class="views-slideshow-cycle-main-frame views_slideshow_cycle_teaser_section">
  <div id="views_slideshow_cycle_div_client_video_testimonials-block_1_0" class="views-slideshow-cycle-main-frame-row views_slideshow_cycle_slide views_slideshow_slide views-row-1 views-row-first views-row-odd" aria-labelledby='views_slideshow_pager_field_item_top_client_video_testimonials-block_1_0'>
  <div class="views-slideshow-cycle-main-frame-row-item views-row views-row-0 views-row-odd views-row-first">
    
  <div class="views-field views-field-title">        <span class="field-content">1 UTB Video Testimonial FULL</span>  </div>  
  <div class="views-field views-field-field-youtube-url-1 youtube-video">        <div class="field-content"><iframe id="youtube-field-player" class="youtube-field-player"
    width="340" height="235"
    src="https://www.youtube.com/embed/kA24nKsX-f0?wmode=opaque" title="Embedded video for 1 UTB Video Testimonial FULL" frameborder="0"
    allowfullscreen><a href="https://www.youtube.com/embed/kA24nKsX-f0?wmode=opaque">Embedded video for 1 UTB Video Testimonial FULL</a></iframe></div>  </div>  
  <div class="views-field views-field-field-youtube-url youtube-image">        <div class="field-content"><img src="https://www.underthebonnet.net/sites/default/files/styles/customer_testimonials_image/public/youtube/kA24nKsX-f0.jpg?itok=v9d89hAu" width="340" height="235" alt="Embedded thumbnail for 1 UTB Video Testimonial FULL" /></div>  </div></div>
</div>
<div id="views_slideshow_cycle_div_client_video_testimonials-block_1_1" class="views-slideshow-cycle-main-frame-row views_slideshow_cycle_slide views_slideshow_slide views-row-2 views_slideshow_cycle_hidden views-row-even" aria-labelledby='views_slideshow_pager_field_item_top_client_video_testimonials-block_1_1'>
  <div class="views-slideshow-cycle-main-frame-row-item views-row views-row-0 views-row-odd">
    
  <div class="views-field views-field-title">        <span class="field-content">UTB Mark Testimonial FULL</span>  </div>  
  <div class="views-field views-field-field-youtube-url-1 youtube-video">        <div class="field-content"><iframe id="youtube-field-player--2" class="youtube-field-player"
    width="340" height="235"
    src="https://www.youtube.com/embed/-2Tkrtttf2A?wmode=opaque" title="Embedded video for UTB Mark Testimonial FULL" frameborder="0"
    allowfullscreen><a href="https://www.youtube.com/embed/-2Tkrtttf2A?wmode=opaque">Embedded video for UTB Mark Testimonial FULL</a></iframe></div>  </div>  
  <div class="views-field views-field-field-youtube-url youtube-image">        <div class="field-content"><img src="https://www.underthebonnet.net/sites/default/files/styles/customer_testimonials_image/public/youtube/-2Tkrtttf2A.jpg?itok=L2phNa15" width="340" height="235" alt="Embedded thumbnail for UTB Mark Testimonial FULL" /></div>  </div></div>
</div>
<div id="views_slideshow_cycle_div_client_video_testimonials-block_1_2" class="views-slideshow-cycle-main-frame-row views_slideshow_cycle_slide views_slideshow_slide views-row-3 views_slideshow_cycle_hidden views-row-odd" aria-labelledby='views_slideshow_pager_field_item_top_client_video_testimonials-block_1_2'>
  <div class="views-slideshow-cycle-main-frame-row-item views-row views-row-0 views-row-odd">
    
  <div class="views-field views-field-title">        <span class="field-content">UTB Dawn Exley Testimonial FULL </span>  </div>  
  <div class="views-field views-field-field-youtube-url-1 youtube-video">        <div class="field-content"><iframe id="youtube-field-player--3" class="youtube-field-player"
    width="340" height="235"
    src="https://www.youtube.com/embed/OCoRPTgew0M?wmode=opaque" title="Embedded video for UTB Dawn Exley Testimonial FULL " frameborder="0"
    allowfullscreen><a href="https://www.youtube.com/embed/OCoRPTgew0M?wmode=opaque">Embedded video for UTB Dawn Exley Testimonial FULL </a></iframe></div>  </div>  
  <div class="views-field views-field-field-youtube-url youtube-image">        <div class="field-content"><img src="https://www.underthebonnet.net/sites/default/files/styles/customer_testimonials_image/public/youtube/OCoRPTgew0M.jpg?itok=dsNpMk5o" width="340" height="235" alt="Embedded thumbnail for UTB Dawn Exley Testimonial FULL " /></div>  </div></div>
</div>
<div id="views_slideshow_cycle_div_client_video_testimonials-block_1_3" class="views-slideshow-cycle-main-frame-row views_slideshow_cycle_slide views_slideshow_slide views-row-4 views_slideshow_cycle_hidden views-row-even" aria-labelledby='views_slideshow_pager_field_item_top_client_video_testimonials-block_1_3'>
  <div class="views-slideshow-cycle-main-frame-row-item views-row views-row-0 views-row-odd">
    
  <div class="views-field views-field-title">        <span class="field-content">UTB Viv Allum Testimonial FULL</span>  </div>  
  <div class="views-field views-field-field-youtube-url-1 youtube-video">        <div class="field-content"><iframe id="youtube-field-player--4" class="youtube-field-player"
    width="340" height="235"
    src="https://www.youtube.com/embed/HpjfVTJ85Ww?wmode=opaque" title="Embedded video for UTB Viv Allum Testimonial FULL" frameborder="0"
    allowfullscreen><a href="https://www.youtube.com/embed/HpjfVTJ85Ww?wmode=opaque">Embedded video for UTB Viv Allum Testimonial FULL</a></iframe></div>  </div>  
  <div class="views-field views-field-field-youtube-url youtube-image">        <div class="field-content"><img src="https://www.underthebonnet.net/sites/default/files/styles/customer_testimonials_image/public/youtube/HpjfVTJ85Ww.jpg?itok=8uYUnHBF" width="340" height="235" alt="Embedded thumbnail for UTB Viv Allum Testimonial FULL" /></div>  </div></div>
</div>
<div id="views_slideshow_cycle_div_client_video_testimonials-block_1_4" class="views-slideshow-cycle-main-frame-row views_slideshow_cycle_slide views_slideshow_slide views-row-5 views_slideshow_cycle_hidden views-row-odd" aria-labelledby='views_slideshow_pager_field_item_top_client_video_testimonials-block_1_4'>
  <div class="views-slideshow-cycle-main-frame-row-item views-row views-row-0 views-row-odd">
    
  <div class="views-field views-field-title">        <span class="field-content">UTB Cassie Farren Testimonial FULL</span>  </div>  
  <div class="views-field views-field-field-youtube-url-1 youtube-video">        <div class="field-content"><iframe id="youtube-field-player--5" class="youtube-field-player"
    width="340" height="235"
    src="https://www.youtube.com/embed/ioyThQDde7w?wmode=opaque" title="Embedded video for UTB Cassie Farren Testimonial FULL" frameborder="0"
    allowfullscreen><a href="https://www.youtube.com/embed/ioyThQDde7w?wmode=opaque">Embedded video for UTB Cassie Farren Testimonial FULL</a></iframe></div>  </div>  
  <div class="views-field views-field-field-youtube-url youtube-image">        <div class="field-content"><img src="https://www.underthebonnet.net/sites/default/files/styles/customer_testimonials_image/public/youtube/ioyThQDde7w.jpg?itok=AmkJ3gIE" width="340" height="235" alt="Embedded thumbnail for UTB Cassie Farren Testimonial FULL" /></div>  </div></div>
</div>
<div id="views_slideshow_cycle_div_client_video_testimonials-block_1_5" class="views-slideshow-cycle-main-frame-row views_slideshow_cycle_slide views_slideshow_slide views-row-6 views_slideshow_cycle_hidden views-row-even" aria-labelledby='views_slideshow_pager_field_item_top_client_video_testimonials-block_1_5'>
  <div class="views-slideshow-cycle-main-frame-row-item views-row views-row-0 views-row-odd">
    
  <div class="views-field views-field-title">        <span class="field-content">4 UTB FEMALE ALL 1 Minute </span>  </div>  
  <div class="views-field views-field-field-youtube-url-1 youtube-video">        <div class="field-content"><iframe id="youtube-field-player--6" class="youtube-field-player"
    width="340" height="235"
    src="https://www.youtube.com/embed/XvyysYJGNe8?wmode=opaque" title="Embedded video for 4 UTB FEMALE ALL 1 Minute " frameborder="0"
    allowfullscreen><a href="https://www.youtube.com/embed/XvyysYJGNe8?wmode=opaque">Embedded video for 4 UTB FEMALE ALL 1 Minute </a></iframe></div>  </div>  
  <div class="views-field views-field-field-youtube-url youtube-image">        <div class="field-content"><img src="https://www.underthebonnet.net/sites/default/files/styles/customer_testimonials_image/public/youtube/XvyysYJGNe8.jpg?itok=QsrttbGg" width="340" height="235" alt="Embedded thumbnail for 4 UTB FEMALE ALL 1 Minute " /></div>  </div></div>
</div>
<div id="views_slideshow_cycle_div_client_video_testimonials-block_1_6" class="views-slideshow-cycle-main-frame-row views_slideshow_cycle_slide views_slideshow_slide views-row-7 views_slideshow_cycle_hidden views-row-odd" aria-labelledby='views_slideshow_pager_field_item_top_client_video_testimonials-block_1_6'>
  <div class="views-slideshow-cycle-main-frame-row-item views-row views-row-0 views-row-odd">
    
  <div class="views-field views-field-title">        <span class="field-content">3 UTB ALL 1 Minute </span>  </div>  
  <div class="views-field views-field-field-youtube-url-1 youtube-video">        <div class="field-content"><iframe id="youtube-field-player--7" class="youtube-field-player"
    width="340" height="235"
    src="https://www.youtube.com/embed/UiaHV-RuWPM?wmode=opaque" title="Embedded video for 3 UTB ALL 1 Minute " frameborder="0"
    allowfullscreen><a href="https://www.youtube.com/embed/UiaHV-RuWPM?wmode=opaque">Embedded video for 3 UTB ALL 1 Minute </a></iframe></div>  </div>  
  <div class="views-field views-field-field-youtube-url youtube-image">        <div class="field-content"><img src="https://www.underthebonnet.net/sites/default/files/styles/customer_testimonials_image/public/youtube/UiaHV-RuWPM.jpg?itok=wCmT-tJS" width="340" height="235" alt="Embedded thumbnail for 3 UTB ALL 1 Minute " /></div>  </div></div>
</div>
<div id="views_slideshow_cycle_div_client_video_testimonials-block_1_7" class="views-slideshow-cycle-main-frame-row views_slideshow_cycle_slide views_slideshow_slide views-row-8 views_slideshow_cycle_hidden views-row-last views-row-even" aria-labelledby='views_slideshow_pager_field_item_top_client_video_testimonials-block_1_7'>
  <div class="views-slideshow-cycle-main-frame-row-item views-row views-row-0 views-row-odd">
    
  <div class="views-field views-field-title">        <span class="field-content">2 UTB Female Testimonial FULL</span>  </div>  
  <div class="views-field views-field-field-youtube-url-1 youtube-video">        <div class="field-content"><iframe id="youtube-field-player--8" class="youtube-field-player"
    width="340" height="235"
    src="https://www.youtube.com/embed/cQJyooZ7924?wmode=opaque" title="Embedded video for 2 UTB Female Testimonial FULL" frameborder="0"
    allowfullscreen><a href="https://www.youtube.com/embed/cQJyooZ7924?wmode=opaque">Embedded video for 2 UTB Female Testimonial FULL</a></iframe></div>  </div>  
  <div class="views-field views-field-field-youtube-url youtube-image">        <div class="field-content"><img src="https://www.underthebonnet.net/sites/default/files/styles/customer_testimonials_image/public/youtube/cQJyooZ7924.jpg?itok=cDTtQqiT" width="340" height="235" alt="Embedded thumbnail for 2 UTB Female Testimonial FULL" /></div>  </div></div>
</div>
</div>
</div>
      </div>
    </div>
  
  
  
  
  
  
</div>  </div>
</div>
<div id="block-block-5" class="block block-block">

    
  <div class="content">
    <h2>
	Under The Bonnet assure a reliable and friendly service when it comes to car services in Northampton.</h2>
<p><span style="font-size:11px;">Under the Bonnet are an experienced, friendly garage in Northampton, providing an excellent service that you can rely on.</span></p>
<p><span style="font-size:11px;">We don’t do hidden costs, and all our prices are fixed and completely inclusive of VAT, parts and labour – so what you see is what you get. This holds true regardless of the type of service we are providing, be it an MOT in Northampton, a routine service, or a car repair. Whether you’re looking for a tune-up, bringing in a broken-down car or having an MOT test done, you’ll receive the same great service every time.</span></p>
<p><span style="font-size:11px;">When you bring your car into Under the Bonnet, you’ll receive a free, no-obligation assessment of your vehicle before any work begins, and everything will be preceded with a free, no-obligation quote for any necessary or recommended work. Our open, straightforward way of doing things was born out of frustration at the auto servicing and repair industry – an industry which we love, but which is sometimes too opaque with its pricing, its work and its customers. It was something we knew we could improve on, to provide car repairs Northampton could really rely on, which were genuine and high-quality, and which came without the shifting price point. </span></p>
<div>
	<p><span style="font-size:11px;">That’s why Under the Bonnet made it our mission statement to provide an honest, affordable and effective service to our customers. We never begin any work without the customer’s consent and understanding of the work we have recommended, as we believe consistent, clear communication with our customers is paramount to a successful relationship between us and the car owner. We strive to provide the quality of car service Northampton needs to keep its wheels turning!</span></p>
	<p><span style="font-size:11px;">At Under the Bonnet, we feel that that this makes us one of the most attractive <a href="http://www.underthebonnet.net/car-repair">car repair garages in Northampton</a>. Our prices are fixed, and they all include VAT, parts and labour as standard. We always provide free quotes and a no obligation assessment of your vehicle before work begins, and we always strive to beat the dealerships on price - it sets us apart from other garages in Northampton and from the dealerships themselves!</span></p>
	<p><span style="font-size:11px;">If you need car repairs Northampton and choose a repair or service from Under The Bonnet, you can rest assured that your car is in good hands – our expert technicians are equally skilled in working on any make and model of car or light van, and they each have years or decades of experience, setting them apart from the crowd and making sure that your car or van is getting the best possible service, no matter what it is!</span></p>
	<p><span style="font-size:11px;">We use dealer specification parts for all work, unless you specifically request that we use alternate parts. This helps to make sure that any work we carry out will not invalidate your warrantee – unless you opt for non-dealer specific parts.</span></p>
	<p><span style="font-size:11px;">We can provide any car diagnostics Northampton needs to keep its cars in the best possible condition too, discovering and treating issues in the complex computers that help to regulate all modern cars and vans. No matter the problem, Under the Bonnet can help.</span></p>
	<p><span style="font-size:11px;">In addition to car servicing and repairs, other services from Under The Bonnet include the MOTs in Northampton, as well as sourcing, supplying and fitting <a href="http://www.underthebonnet.net/car-tyres-northampton">car tyres Northampton</a>. Our tyres are fitted the day you come into our garage and if we do not have the correct tyres in stock we can usually source them for delivery within the hour. We can also provide an <a href="http://www.underthebonnet.net/car-air-conditioning">air-conditioning service</a>, which is important for maintaining the effectiveness of your air conditioning system, as it loses gas over time and becomes less effective and more fuel-intensive to use. We also provide fleet car servicing wherever necessary, so your organisation’s fleet can be kept at the great standard you need.</span></p>
	<p><span style="font-size:11px;">To get in contact with Under the Bonnet, you can call us on <a href="tel:%2001604499790">01604 499790</a> or send us an email on <a href="mailto:sales@underthebonnet.neta">sales@underthebonnet.net</a> and we’ll get back to you as soon as we can to arrange a booking for your car. We look forward to seeing you and your car at Under the Bonnet!</span></p>
</div>
<p> </p>
  </div>
</div>
<div id="block-block-3" class="block block-block">

    <h2>Car Repair / Service News</h2>
  
  <div class="content">
    <p style="font-family: arial,helvetica,sans-serif; font-size:12px; line-height:17px;margin-bottom:15px;"><a href="http://www.underthebonnet.net/under-bonnet-news"><img alt="Car Mechanic" src="/sites/default/files/Mechanic%202%20-%20RF.jpg" style="width: 70px; height: auto; float: left; margin:0 10px 5px 0" /></a><span>Under The Bonnet is proud to announce its support of students in Northampton. Through its close links with the Northampton Student Union, Under The Bonnet is maintaining their fleet of mini-buses that students use for off-site educational and sporting activities</span></p>
<p style="font-family: arial,helvetica,sans-serif; font-size:12px; line-height:17px;margin-bottom:0px;">Visit our <a href="http://www.underthebonnet.net/under-bonnet-news">news</a> page for more up to the minute news, tips and advice</p>
  </div>
</div>
<div id="block-views-front-info-boxes-block" class="block block-views">

    
  <div class="content">
    <div class="view view-front-info-boxes view-id-front_info_boxes view-display-id-block view-dom-id-9fd82c5c92cb04e924a9fdd29081c5f7">
        
  
  
      <div class="view-content">
        <div class="views-row views-row-1 views-row-odd views-row-first">
      
  <div class="views-field views-field-title">        <span class="field-content">Fixed Price Menu Servicing</span>  </div>  
  <div class="views-field views-field-field-description">        <div class="field-content"><p>Whether you drive an Audi, BMW, Citroen, Fiat, Ford, Honda, Mercedes, Nissan, Peugeot, Volvo, VW or any other car marque, we offer a fixed service price which is only dependent on the size of your engine. Click here to see just how little it will cost to have your car serviced by our <strong>mechanic Northampton</strong>.</p>
<p>And naturally we use dealer specification parts which protects your warranty and maintains your engine in the way it deserves</p>
</div>  </div>  </div>
  <div class="views-row views-row-2 views-row-even">
      
  <div class="views-field views-field-title">        <span class="field-content">Major and Minor Repairs</span>  </div>  
  <div class="views-field views-field-field-description">        <div class="field-content"><p>We can do all kind of car repairs but only after agreeing the work with you. We always aim to keep the cost to a minimum without compromising on the safety or warranty of your car. So whether your car needs an exhaust, clutch, brake pads, brake discs, cambelt change, tyres, batteries or any other repair, just call us now for a quote.</p>
<p>There are NEVER any hidden costs and we do NOT charge for running a computer diagnostic on your engine in our <strong>garages in Northampton!</strong> Bring your car in for a no obligation assessment!</p>
</div>  </div>  </div>
  <div class="views-row views-row-3 views-row-odd">
      
  <div class="views-field views-field-title">        <span class="field-content">Dealer Specification Parts </span>  </div>  
  <div class="views-field views-field-field-description">        <div class="field-content"><p>We ALWAYS use dealer specification parts unless you specifically request we use alternative parts. These dealer specification parts ensure that your warranty is maintained as covered under European law whilst offering you significant savings.</p>
<p>It is for this reason that we can offer Main Dealer quality at independent garages prices!</p>
</div>  </div>  </div>
  <div class="views-row views-row-4 views-row-even views-row-last">
      
  <div class="views-field views-field-title">        <span class="field-content">Your Warranty Maintained</span>  </div>  
  <div class="views-field views-field-field-description">        <div class="field-content"><p>The servicing or repair work we do will not invalidate your warranty. We use dealer specification parts and perform detailed and extensive multi-point checks.</p>
<p>Contact us to find out more.</p>
</div>  </div>  </div>
    </div>
  
  
  
  
  
  
</div>  </div>
</div>
<div id="block-views-8ea38b3af084cfe3d0d25fdcff79313e" class="block block-views">

    <h2>Repair &amp; Servicing of all Makes &amp; Models of Road Vehicles</h2>
  
  <div class="content">
    <div class="view view-manufacturer-servicing-carousel view-id-manufacturer_servicing_carousel view-display-id-block view-dom-id-8fba46c158f82586ad6f0d9a2a2b5933">
        
  
  
      <div class="view-content">
      <ul class="jcarousel jcarousel-view--manufacturer-servicing-carousel--block jcarousel-dom-1">
      <li class="jcarousel-item-1 odd" style="display: none;">  
  <div class="views-field views-field-title">        <span class="field-content"><a href="/audi-servicing-and-repair"><img src="https://www.underthebonnet.net/sites/default/files/styles/badge_img/public/manufacturer-service/Badge%20-%20Audi%20Repair.jpg?itok=7_I0kjjs" width="100" height="100" alt="Audi Repair" /><span>Audi<br />Servicing</span></a></span>  </div></li>
      <li class="jcarousel-item-2 even" style="display: none;">  
  <div class="views-field views-field-title">        <span class="field-content"><a href="/bmw-servicing-northampton"><img src="https://www.underthebonnet.net/sites/default/files/styles/badge_img/public/manufacturer-service/Badge%20-%20BMW%20Repair.jpg?itok=Tk6jc3qn" width="100" height="100" alt="BMW Repair" /><span>BMW<br />Servicing</span></a></span>  </div></li>
      <li class="jcarousel-item-3 odd" style="display: none;">  
  <div class="views-field views-field-title">        <span class="field-content"><a href="/citroen-servicing-and-repair"><img src="https://www.underthebonnet.net/sites/default/files/styles/badge_img/public/manufacturer-service/Badge%20-%20Citroen%20Repair.jpg?itok=GkYJY1dI" width="100" height="100" alt="Citroen Repair" /><span>Citroen<br />Servicing</span></a></span>  </div></li>
      <li class="jcarousel-item-4 even" style="display: none;">  
  <div class="views-field views-field-title">        <span class="field-content"><a href="/fiat-servicing-and-repair"><img src="https://www.underthebonnet.net/sites/default/files/styles/badge_img/public/manufacturer-service/Badge%20-%20Fiat%20Repair.jpg?itok=zGddkupm" width="100" height="100" alt="Fiat Repair" /><span>Fiat<br />Servicing</span></a></span>  </div></li>
      <li class="jcarousel-item-5 odd" style="display: none;">  
  <div class="views-field views-field-title">        <span class="field-content"><a href="/ford-servicing-and-repair"><img src="https://www.underthebonnet.net/sites/default/files/styles/badge_img/public/manufacturer-service/Badge%20-%20Ford%20Repair.jpg?itok=9KkR-m8E" width="100" height="100" alt="Ford Repair" /><span>Ford<br />Servicing</span></a></span>  </div></li>
      <li class="jcarousel-item-6 even" style="display: none;">  
  <div class="views-field views-field-title">        <span class="field-content"><a href="/honda-servicing-and-repair"><img src="https://www.underthebonnet.net/sites/default/files/styles/badge_img/public/manufacturer-service/Badge%20-%20Honda%20Repair.jpg?itok=cnvPX19K" width="100" height="100" alt="Honda Repair" /><span>Honda<br />Servicing</span></a></span>  </div></li>
      <li class="jcarousel-item-7 odd" style="display: none;">  
  <div class="views-field views-field-title">        <span class="field-content"><a href="/mazda-servicing-and-repair"><img src="https://www.underthebonnet.net/sites/default/files/styles/badge_img/public/manufacturer-service/Badge%20-%20Mazda%20Repair.jpg?itok=DJY5KPXF" width="100" height="100" alt="Mazda Repair" /><span>Mazda<br />Servicing</span></a></span>  </div></li>
      <li class="jcarousel-item-8 even" style="display: none;">  
  <div class="views-field views-field-title">        <span class="field-content"><a href="/mercedes-servicing-and-repair"><img src="https://www.underthebonnet.net/sites/default/files/styles/badge_img/public/manufacturer-service/Badge%20-%20Mercedes%20Repair.jpg?itok=g-_BWDSt" width="100" height="100" alt="Mercedes Repair" /><span>Mercedes<br />Servicing</span></a></span>  </div></li>
      <li class="jcarousel-item-9 odd" style="display: none;">  
  <div class="views-field views-field-title">        <span class="field-content"><a href="/nissan-servicing-and-repair"><img src="https://www.underthebonnet.net/sites/default/files/styles/badge_img/public/manufacturer-service/Badge%20-%20Nissan%20Repair.jpg?itok=UsdG5iIi" width="100" height="100" alt="Nissan Repair" /><span>Nissan<br />Servicing</span></a></span>  </div></li>
      <li class="jcarousel-item-10 even" style="display: none;">  
  <div class="views-field views-field-title">        <span class="field-content"><a href="/peugeot-servicing-and-repair"><img src="https://www.underthebonnet.net/sites/default/files/styles/badge_img/public/manufacturer-service/Badge%20-%20Peugeot%20Repair.jpg?itok=lHtbQgsJ" width="100" height="100" alt="Peugeot Repair" /><span>Peugeot<br />Servicing</span></a></span>  </div></li>
      <li class="jcarousel-item-11 odd" style="display: none;">  
  <div class="views-field views-field-title">        <span class="field-content"><a href="/renault-servicing-and-repair"><img src="https://www.underthebonnet.net/sites/default/files/styles/badge_img/public/manufacturer-service/Badge%20-%20Renault%20Repair.jpg?itok=9uQP8hVr" width="100" height="100" alt="Renault Repair" /><span>Renault<br />Servicing</span></a></span>  </div></li>
      <li class="jcarousel-item-12 even" style="display: none;">  
  <div class="views-field views-field-title">        <span class="field-content"><a href="/seat-servicing-and-repair"><img src="https://www.underthebonnet.net/sites/default/files/styles/badge_img/public/manufacturer-service/Badge%20-%20Seat%20Repair.jpg?itok=1Xdmq2IU" width="100" height="100" alt="Seat Repair" /><span>Seat<br />Servicing</span></a></span>  </div></li>
      <li class="jcarousel-item-13 odd" style="display: none;">  
  <div class="views-field views-field-title">        <span class="field-content"><a href="/toyota-servicing-and-repair"><img src="https://www.underthebonnet.net/sites/default/files/styles/badge_img/public/manufacturer-service/Badge%20-%20Toyota%20Repair.jpg?itok=aL9wjJHL" width="100" height="100" alt="Toyota Repair" /><span>Toyota<br />Servicing</span></a></span>  </div></li>
      <li class="jcarousel-item-14 even" style="display: none;">  
  <div class="views-field views-field-title">        <span class="field-content"><a href="/vauxhall-servicing-and-repair"><img src="https://www.underthebonnet.net/sites/default/files/styles/badge_img/public/manufacturer-service/Badge%20-%20Vauxhall%20Repair_0.jpg?itok=zn9RT1ug" width="100" height="100" alt="Vauxhall Repair" /><span>Vauxhall<br />Servicing</span></a></span>  </div></li>
      <li class="jcarousel-item-15 odd" style="display: none;">  
  <div class="views-field views-field-title">        <span class="field-content"><a href="/volkswagen-servicing-and-repair"><img src="https://www.underthebonnet.net/sites/default/files/styles/badge_img/public/manufacturer-service/Badge%20-%20VW%20Repair.jpg?itok=wuhLy_FJ" width="100" height="100" alt="Volkswagen Repair" /><span>Volkswagen<br />Servicing</span></a></span>  </div></li>
      <li class="jcarousel-item-16 even" style="display: none;">  
  <div class="views-field views-field-title">        <span class="field-content"><a href="/volvo-servicing-and-repair"><img src="https://www.underthebonnet.net/sites/default/files/styles/badge_img/public/manufacturer-service/Badge%20-%20Volvo%20Repair.jpg?itok=lm7DyqNA" width="100" height="100" alt="Volvo Repair" /><span>Volvo<br />Servicing</span></a></span>  </div></li>
  </ul>
    </div>
  
  
  
  
  
  
</div>  </div>
</div>
  </div>
            <div id="footer">   <div class="region region-footer">
    <div id="block-views-footer-info-block" class="block block-views">

    
  <div class="content">
    <div class="view view-footer-info view-id-footer_info view-display-id-block view-dom-id-96d7ba2ad5fd5214ad1a02d353054fb7">
        
  
  
      <div class="view-content">
        <div class="views-row views-row-1 views-row-odd views-row-first views-row-last">
      
  <div class="views-field views-field-body">        <div class="field-content"><div class="footer_title">
	Contact Under the Bonnet</div>
<p><span class="tel">01604 499790</span></p>
<div class="vcard" id="hcard-underthebonnet">
	<div class="adr">
		<span class="street-address">3 Encon Court, Owl Close</span><br /><span class="locality">Moulton Park Industrial Estate</span><br /><span class="region">Northampton </span> <span class="postal-code">  NN3 6HZ</span><br /><span class="email"><a href="mailto:sales@underthebonnet.net?subject=Enquiry%20from%20the%20Under%20the%20Bonnet%20website">sales@underthebonnet.net</a></span></div>
	<p><span class="email">Registered No. 07754067</span></p>
</div></div>  </div>  </div>
    </div>
  
  
  
  
  
  
</div>  </div>
</div>
<div id="block-views-footer-info-block-1" class="block block-views">

    
  <div class="content">
    <div class="view view-footer-info view-id-footer_info view-display-id-block_1 view-dom-id-a5555ba61f85f5f5f116fb94cb4d385d">
        
  
  
      <div class="view-content">
        <div class="views-row views-row-1 views-row-odd views-row-first views-row-last">
      
  <div class="views-field views-field-body">        <div class="field-content"><div class="footer_title">
	Under the Bonnet Info</div>
<p><a href="/partner-sites">Partners</a><br /><a href="http://www.underthebonnet.net/resources">Resources</a><br /><a href="http://www.underthebonnet.net/terms-conditions">Terms of use</a><br /><a href="/privacy-statement">Privacy policy</a><br /><a href="/promotional-terms">Promotion Terms</a><br /><a href="/sitemap">Sitemap</a></p>
</div>  </div>  </div>
    </div>
  
  
  
  
  
  
</div>  </div>
</div>
<div id="block-views-footer-info-block-2" class="block block-views">

    
  <div class="content">
    <div class="view view-footer-info view-id-footer_info view-display-id-block_2 view-dom-id-a7c0b1fa234e612002cdd766df28c06c">
        
  
  
      <div class="view-content">
        <div class="views-row views-row-1 views-row-odd views-row-first views-row-last">
      
  <div class="views-field views-field-body">        <div class="field-content"><p><img alt="Master Card / Visa Accepted" src="/sites/default/files/credit-cards.png" style="width: 195px; height: 34px;" /></p>
</div>  </div>  </div>
    </div>
  
  
  
  
  
  
</div>  </div>
</div>
<div id="block-views-footer-info-block-3" class="block block-views">

    
  <div class="content">
    <div class="view view-footer-info view-id-footer_info view-display-id-block_3 view-dom-id-405d00bc576d51ff6efcd3840e3aea3f">
        
  
  
      <div class="view-content">
        <div class="views-row views-row-1 views-row-odd views-row-first views-row-last">
      
  <div class="views-field views-field-body">        <div class="field-content"><p>© <a href="http://www.underthebonnet.net">Under the Bonnet Car Service Northampton</a> 2018</p>
<p> </p>
</div>  </div>  </div>
    </div>
  
  
  
  
  
  
</div>  </div>
</div>
<div id="block-block-7" class="block block-block">

    
  <div class="content">
    <style type="text/css">
<!--/*--><![CDATA[/* ><!--*/

.messages.status, .messages.error, .messages.warning{ display:none !important;}
/*--><!]]>*/
</style>  </div>
</div>
  </div>
        <div style="clear:both"></div>
        <div style="padding:0 0 20px 15px"><a href="/mots-northampton">MOT Northampton</a> | <a href="/tyres-northampton">Tyres Northampton</a> | <a href="/car-repairs-northampton">Car Repair Northampton</a> | <a href="/bmw-servicing-and-repair">BMW Service &amp;  Repair Northampton</a> | <a href="/car-servicing-northampton">Car Service Northampton</a></div>
        <div style="clear:both"></div>
      </div>
    </div>
  </div>
</div>
        <div class="region region-servicesbook">
    <div id="block-block-6" class="block block-block">

    
  <div class="content">
    <p><a href="/northampton-car-servicing#bonnet-service"><img alt="" src="/sites/default/files/service-booknow.png" style="width: 259px; height: 110px;" /></a></p>
  </div>
</div>
  </div>
       </body>
</html>